datetime,open,high,low,close,volume
2019-01-16 00:00:00+00:00,0.5355,0.5355,0.4668,0.4895,1343660.31
2019-01-17 00:00:00+00:00,0.4895,0.4953,0.4639,0.4756,1411725.35
2019-01-18 00:00:00+00:00,0.4762,0.5112,0.4601,0.4894,984417.59
2019-01-19 00:00:00+00:00,0.4908,0.5,0.4673,0.4831,735443.2
2019-01-20 00:00:00+00:00,0.4803,0.492,0.459,0.4834,677499.56
2019-01-21 00:00:00+00:00,0.4839,0.5198,0.465,0.4972,897787.84
2019-01-22 00:00:00+00:00,0.496,0.5656,0.4956,0.5344,1784953.5
2019-01-23 00:00:00+00:00,0.5342,0.5475,0.4901,0.5046,1827069.39
2019-01-24 00:00:00+00:00,0.5046,0.5065,0.4518,0.5017,1529219.53
2019-01-25 00:00:00+00:00,0.5031,0.5157,0.4712,0.4739,1112869.08
2019-01-26 00:00:00+00:00,0.4736,0.4884,0.4624,0.4661,865653.89
2019-01-27 00:00:00+00:00,0.4661,0.4666,0.4229,0.4303,2278919.65
2019-01-28 00:00:00+00:00,0.431,0.4313,0.3504,0.4116,4006211.85
2019-01-29 00:00:00+00:00,0.4104,0.4638,0.4061,0.4505,5190825.37
2019-01-30 00:00:00+00:00,0.4505,0.4514,0.413,0.4249,2092369.59
2019-01-31 00:00:00+00:00,0.425,0.441,0.3811,0.3832,2029033.61
2019-02-01 00:00:00+00:00,0.385,0.43,0.38,0.4147,1899232.56
2019-02-02 00:00:00+00:00,0.4163,0.433,0.3985,0.4136,821033.48
2019-02-03 00:00:00+00:00,0.417,0.417,0.386,0.3963,1065170.56
2019-02-04 00:00:00+00:00,0.3959,0.4125,0.3867,0.3943,1449384.96
2019-02-05 00:00:00+00:00,0.3926,0.4327,0.3902,0.4224,1299107.03
2019-02-06 00:00:00+00:00,0.4224,0.4236,0.3915,0.4,1368546.21
2019-02-07 00:00:00+00:00,0.4,0.4065,0.3913,0.4021,498842.36
2019-02-08 00:00:00+00:00,0.4021,0.45,0.3985,0.4383,2015969.58
2019-02-09 00:00:00+00:00,0.4371,0.4844,0.431,0.4612,1384815.95
2019-02-10 00:00:00+00:00,0.4648,0.48,0.4325,0.4499,2000850.55
2019-02-11 00:00:00+00:00,0.4495,0.4515,0.42,0.4289,1580197.39
2019-02-12 00:00:00+00:00,0.4277,0.4374,0.4176,0.4277,941303.58
2019-02-13 00:00:00+00:00,0.4277,0.4454,0.4183,0.4411,935377.38
2019-02-14 00:00:00+00:00,0.4422,0.4442,0.4203,0.4259,942053.44
2019-02-15 00:00:00+00:00,0.4235,0.45,0.4222,0.4342,612251.8
2019-02-16 00:00:00+00:00,0.4366,0.4464,0.4251,0.4398,465491.58
2019-02-17 00:00:00+00:00,0.4386,0.4797,0.4317,0.4604,1616509.72
2019-02-18 00:00:00+00:00,0.4615,0.4823,0.4534,0.471,1430254.78
2019-02-19 00:00:00+00:00,0.471,0.4789,0.452,0.4598,1548002.44
2019-02-20 00:00:00+00:00,0.4548,0.4748,0.4432,0.4618,1358786.28
2019-02-21 00:00:00+00:00,0.4617,0.475,0.438,0.4438,1443214.98
2019-02-22 00:00:00+00:00,0.4438,0.465,0.44,0.4479,700523.77
2019-02-23 00:00:00+00:00,0.448,0.464,0.4437,0.4585,925529.64
2019-02-24 00:00:00+00:00,0.4592,0.4644,0.3975,0.405,2154193.25
2019-02-25 00:00:00+00:00,0.4047,0.4749,0.4007,0.4723,1785356.21
2019-02-26 00:00:00+00:00,0.4722,0.474,0.43,0.4341,1775526.67
2019-02-27 00:00:00+00:00,0.4335,0.4412,0.4145,0.4274,854212.45
2019-02-28 00:00:00+00:00,0.4274,0.45,0.4166,0.4244,1059968.13
2019-03-01 00:00:00+00:00,0.4236,0.4386,0.4203,0.4285,560690.81
2019-03-02 00:00:00+00:00,0.4286,0.4372,0.4173,0.4221,331570.0
2019-03-03 00:00:00+00:00,0.4232,0.4292,0.4177,0.4205,225429.95
2019-03-04 00:00:00+00:00,0.4203,0.4255,0.3929,0.4036,946382.19
2019-03-05 00:00:00+00:00,0.4029,0.4343,0.4023,0.4291,1686179.9
2019-03-06 00:00:00+00:00,0.4291,0.4385,0.4186,0.4296,716328.15
2019-03-07 00:00:00+00:00,0.4296,0.4766,0.4256,0.4521,1498764.03
2019-03-08 00:00:00+00:00,0.4521,0.5107,0.4519,0.4611,3248280.83
2019-03-09 00:00:00+00:00,0.4611,0.4824,0.4524,0.4746,1381686.43
2019-03-10 00:00:00+00:00,0.4742,0.546,0.4681,0.4981,2887991.86
2019-03-11 00:00:00+00:00,0.4982,0.5181,0.4382,0.4629,2633054.21
2019-03-12 00:00:00+00:00,0.4641,0.5079,0.4503,0.4876,2105182.67
2019-03-13 00:00:00+00:00,0.4872,0.488,0.4671,0.4805,1263356.68
2019-03-14 00:00:00+00:00,0.4814,0.4994,0.4722,0.4871,1720792.4
2019-03-15 00:00:00+00:00,0.4858,0.496,0.4831,0.4858,577893.06
2019-03-16 00:00:00+00:00,0.4866,0.496,0.4681,0.4819,1768514.51
2019-03-17 00:00:00+00:00,0.4805,0.4887,0.4702,0.4785,1352126.73
2019-03-18 00:00:00+00:00,0.4789,0.4833,0.467,0.4757,891826.09
2019-03-19 00:00:00+00:00,0.476,0.48,0.4648,0.477,530734.59
2019-03-20 00:00:00+00:00,0.4796,0.4899,0.4737,0.4807,696146.28
2019-03-21 00:00:00+00:00,0.4818,0.4842,0.4342,0.4548,1043991.8
2019-03-22 00:00:00+00:00,0.4551,0.4655,0.447,0.4646,863577.33
2019-03-23 00:00:00+00:00,0.4627,0.4644,0.4545,0.4608,406749.66
2019-03-24 00:00:00+00:00,0.4606,0.4621,0.4485,0.4531,634173.75
2019-03-25 00:00:00+00:00,0.4539,0.4949,0.441,0.4734,2441517.99
2019-03-26 00:00:00+00:00,0.4729,0.485,0.448,0.4605,1129722.2
2019-03-27 00:00:00+00:00,0.4603,0.4997,0.4556,0.4946,1352736.34
2019-03-28 00:00:00+00:00,0.4967,0.5196,0.4846,0.4992,1443876.83
2019-03-29 00:00:00+00:00,0.4984,0.5042,0.4887,0.5008,877803.92
2019-03-30 00:00:00+00:00,0.5008,0.5034,0.4858,0.494,675007.13
2019-03-31 00:00:00+00:00,0.4938,0.541,0.4868,0.5084,2047013.33
2019-04-01 00:00:00+00:00,0.5084,0.563,0.5007,0.554,2288623.96
2019-04-02 00:00:00+00:00,0.5533,0.6,0.5326,0.5811,4081948.84
2019-04-03 00:00:00+00:00,0.5811,0.6073,0.517,0.562,4435492.21
2019-04-04 00:00:00+00:00,0.5588,0.5839,0.5195,0.5396,2088035.72
2019-04-05 00:00:00+00:00,0.5409,0.5799,0.539,0.5729,1039348.68
2019-04-06 00:00:00+00:00,0.5735,0.59,0.5557,0.5691,1176149.98
2019-04-07 00:00:00+00:00,0.5677,0.5918,0.5655,0.5773,956649.36
2019-04-08 00:00:00+00:00,0.5776,0.5912,0.537,0.5634,1559203.75
2019-04-09 00:00:00+00:00,0.5617,0.5637,0.517,0.53,1284451.25
2019-04-10 00:00:00+00:00,0.53,0.5452,0.51,0.5197,1259717.42
2019-04-11 00:00:00+00:00,0.5198,0.521,0.453,0.4821,1891750.27
2019-04-12 00:00:00+00:00,0.4821,0.5134,0.4531,0.492,1247794.83
2019-04-13 00:00:00+00:00,0.4932,0.5399,0.4913,0.5358,984745.93
2019-04-14 00:00:00+00:00,0.5366,0.5449,0.5073,0.5225,825009.09
2019-04-15 00:00:00+00:00,0.5259,0.5268,0.48,0.4883,1617780.69
2019-04-16 00:00:00+00:00,0.4884,0.5176,0.4883,0.4985,752244.29
2019-04-17 00:00:00+00:00,0.4998,0.5046,0.488,0.4998,625939.62
2019-04-18 00:00:00+00:00,0.4992,0.5226,0.4974,0.5193,747995.99
2019-04-19 00:00:00+00:00,0.5187,0.539,0.5083,0.5095,857084.8
2019-04-20 00:00:00+00:00,0.5105,0.5287,0.505,0.5118,547954.68
2019-04-21 00:00:00+00:00,0.5117,0.5139,0.4752,0.4963,755636.95
2019-04-22 00:00:00+00:00,0.4963,0.517,0.4837,0.4957,669329.7
2019-04-23 00:00:00+00:00,0.492,0.504,0.4756,0.4756,798688.99
2019-04-24 00:00:00+00:00,0.4756,0.48,0.44,0.475,1341167.65
2019-04-25 00:00:00+00:00,0.4745,0.4997,0.435,0.4503,1289948.57
2019-04-26 00:00:00+00:00,0.4499,0.4699,0.4264,0.4416,881943.93
2019-04-27 00:00:00+00:00,0.4437,0.4698,0.4357,0.443,330467.67
2019-04-28 00:00:00+00:00,0.4448,0.46,0.4403,0.451,429353.92
2019-04-29 00:00:00+00:00,0.451,0.4546,0.424,0.4338,394944.33
2019-04-30 00:00:00+00:00,0.4334,0.4771,0.432,0.4727,610148.8
2019-05-01 00:00:00+00:00,0.475,0.4876,0.4638,0.473,397476.93
2019-05-02 00:00:00+00:00,0.4745,0.4757,0.46,0.463,228270.4
2019-05-03 00:00:00+00:00,0.4643,0.5223,0.4607,0.511,1017233.78
2019-05-04 00:00:00+00:00,0.5118,0.5151,0.4783,0.4964,640984.06
2019-05-05 00:00:00+00:00,0.4964,0.5238,0.4902,0.5058,641774.32
2019-05-06 00:00:00+00:00,0.5058,0.5882,0.4901,0.5745,1593771.02
2019-05-07 00:00:00+00:00,0.5798,0.6186,0.5409,0.5435,2267674.3
2019-05-08 00:00:00+00:00,0.5433,0.6157,0.5212,0.594,1255624.91
2019-05-09 00:00:00+00:00,0.594,0.704,0.5873,0.6403,3548028.13
2019-05-10 00:00:00+00:00,0.6402,0.7233,0.6374,0.6703,2987660.69
2019-05-11 00:00:00+00:00,0.6731,0.7484,0.6517,0.6752,3014329.89
2019-05-12 00:00:00+00:00,0.679,0.6999,0.6285,0.6586,1760800.08
2019-05-13 00:00:00+00:00,0.6607,0.6872,0.6336,0.6474,1281864.7
2019-05-14 00:00:00+00:00,0.6474,0.9565,0.6332,0.828,7911014.07
2019-05-15 00:00:00+00:00,0.8251,0.889,0.7772,0.8427,3798325.64
2019-05-16 00:00:00+00:00,0.8427,0.9389,0.7551,0.928,4555532.19
2019-05-17 00:00:00+00:00,0.9264,0.9869,0.81,0.8911,5725645.69
2019-05-18 00:00:00+00:00,0.895,0.9592,0.8457,0.9359,2389369.04
2019-05-19 00:00:00+00:00,0.936,1.05,0.9279,0.9934,4785605.62
2019-05-20 00:00:00+00:00,0.9927,1.143,0.946,1.117,2936467.3
2019-05-21 00:00:00+00:00,1.1146,1.25,1.06,1.1798,5046994.2
2019-05-22 00:00:00+00:00,1.1855,1.474,1.1301,1.2205,14821357.09
2019-05-23 00:00:00+00:00,1.2205,1.3655,1.1418,1.3392,6874618.39
2019-05-24 00:00:00+00:00,1.3393,1.4347,1.2216,1.3314,5097940.05
2019-05-25 00:00:00+00:00,1.3314,1.3376,1.0961,1.113,6245467.5
2019-05-26 00:00:00+00:00,1.113,1.1824,1.034,1.0828,4854605.26
2019-05-27 00:00:00+00:00,1.0802,1.275,1.0802,1.2119,7339191.28
2019-05-28 00:00:00+00:00,1.2173,1.35,1.1441,1.2788,5580233.08
2019-05-29 00:00:00+00:00,1.2787,1.2844,1.1426,1.1725,4654393.37
2019-05-30 00:00:00+00:00,1.1722,1.2257,0.9009,1.0023,10326672.93
2019-05-31 00:00:00+00:00,1.0018,1.0444,0.933,1.0189,7748553.79
2019-06-01 00:00:00+00:00,1.0236,1.0598,0.9511,0.956,3797903.78
2019-06-02 00:00:00+00:00,0.9536,1.0554,0.9323,1.0155,3449110.82
2019-06-03 00:00:00+00:00,1.0155,1.02,0.8853,0.9,3308495.33
2019-06-04 00:00:00+00:00,0.8985,0.9299,0.8368,0.885,4577420.9
2019-06-05 00:00:00+00:00,0.885,1.0991,0.8838,1.096,10134603.36
2019-06-06 00:00:00+00:00,1.0959,1.27,1.0556,1.1098,11128235.33
2019-06-07 00:00:00+00:00,1.1099,1.2589,1.071,1.1753,6340116.8
2019-06-08 00:00:00+00:00,1.1747,1.1991,1.1165,1.1326,2537076.42
2019-06-09 00:00:00+00:00,1.1376,1.1486,1.0085,1.0595,3544981.93
2019-06-10 00:00:00+00:00,1.0595,1.2104,1.0301,1.206,3560999.95
2019-06-11 00:00:00+00:00,1.2043,1.207,1.0876,1.1243,3072196.39
2019-06-12 00:00:00+00:00,1.1241,1.1643,1.0875,1.1448,2552375.74
2019-06-13 00:00:00+00:00,1.1448,1.97,1.1126,1.868,34048038.46
2019-06-14 00:00:00+00:00,1.868,1.8936,1.49,1.6395,33219623.47
2019-06-15 00:00:00+00:00,1.6364,1.8065,1.6022,1.7179,10734639.21
2019-06-16 00:00:00+00:00,1.718,1.7924,1.6,1.6621,8287172.15
2019-06-17 00:00:00+00:00,1.6651,2.0776,1.6525,1.9631,17066477.53
2019-06-18 00:00:00+00:00,1.9615,2.0185,1.76,1.8194,13903673.74
2019-06-19 00:00:00+00:00,1.8158,1.9016,1.7869,1.8353,4857793.43
2019-06-20 00:00:00+00:00,1.8352,1.8865,1.6859,1.7656,5377028.0
2019-06-21 00:00:00+00:00,1.7671,1.79,1.61,1.6883,6940438.91
2019-06-22 00:00:00+00:00,1.6895,1.947,1.6827,1.8428,8447723.54
2019-06-23 00:00:00+00:00,1.8429,1.91,1.7702,1.8169,4603366.09
2019-06-24 00:00:00+00:00,1.8169,1.8884,1.79,1.8689,2384487.82
2019-06-25 00:00:00+00:00,1.8689,2.4273,1.8613,2.1928,22004618.38
2019-06-26 00:00:00+00:00,2.1931,2.5,2.0231,2.28,16314862.03
2019-06-27 00:00:00+00:00,2.2821,2.555,2.1123,2.2879,14032427.25
2019-06-28 00:00:00+00:00,2.2912,3.0981,2.215,3.0392,16193947.24
2019-06-29 00:00:00+00:00,3.0391,4.5826,2.9499,3.7125,55522584.24
2019-06-30 00:00:00+00:00,3.7051,4.22,3.23,3.3885,25198062.62
2019-07-01 00:00:00+00:00,3.3885,3.862,2.9266,3.6369,25318756.74
2019-07-02 00:00:00+00:00,3.6476,3.9914,3.201,3.7453,26694285.35
2019-07-03 00:00:00+00:00,3.7441,3.8857,3.4769,3.49,11110619.17
2019-07-04 00:00:00+00:00,3.4854,3.61,3.204,3.453,9880436.75
2019-07-05 00:00:00+00:00,3.4555,3.75,3.441,3.64,10535825.86
2019-07-06 00:00:00+00:00,3.64,3.6611,3.4384,3.4603,4979198.01
2019-07-07 00:00:00+00:00,3.465,3.5038,3.25,3.275,5553670.72
2019-07-08 00:00:00+00:00,3.275,3.5731,3.25,3.3362,5283821.17
2019-07-09 00:00:00+00:00,3.3334,3.3741,2.9401,3.067,9165611.15
2019-07-10 00:00:00+00:00,3.067,3.2568,2.8578,3.1166,9566090.98
2019-07-11 00:00:00+00:00,3.1166,3.1555,2.71,2.7853,7302194.48
2019-07-12 00:00:00+00:00,2.787,3.3282,2.6,3.166,11732670.96
2019-07-13 00:00:00+00:00,3.166,3.2953,3.04,3.1652,9069996.44
2019-07-14 00:00:00+00:00,3.1689,3.2413,2.7611,2.7856,8270840.72
2019-07-15 00:00:00+00:00,2.7792,2.8498,2.5801,2.6913,7328956.43
2019-07-16 00:00:00+00:00,2.6911,2.7749,2.1521,2.1948,8049014.93
2019-07-17 00:00:00+00:00,2.1947,2.6,2.0531,2.398,13229065.69
2019-07-18 00:00:00+00:00,2.3951,2.8094,2.3542,2.67,13388877.99
2019-07-19 00:00:00+00:00,2.67,2.749,2.491,2.6046,5548232.12
2019-07-20 00:00:00+00:00,2.602,2.7314,2.5751,2.637,4607848.26
2019-07-21 00:00:00+00:00,2.6369,2.665,2.46,2.5319,3349432.24
2019-07-22 00:00:00+00:00,2.5319,2.5857,2.3732,2.4078,3419071.85
2019-07-23 00:00:00+00:00,2.4073,2.52,2.2489,2.3535,5670564.0
2019-07-24 00:00:00+00:00,2.3559,2.5131,2.27,2.3999,5323022.48
2019-07-25 00:00:00+00:00,2.3971,2.5149,2.3595,2.3615,4029732.82
2019-07-26 00:00:00+00:00,2.3615,2.43,2.3201,2.3989,1979267.83
2019-07-27 00:00:00+00:00,2.3954,2.46,2.1525,2.2453,4296972.72
2019-07-28 00:00:00+00:00,2.2372,2.2733,2.1,2.2156,1921301.06
2019-07-29 00:00:00+00:00,2.2178,2.2482,2.11,2.1251,2228158.07
2019-07-30 00:00:00+00:00,2.125,2.1854,1.9694,2.0682,4818376.29
2019-07-31 00:00:00+00:00,2.0672,2.25,2.0589,2.2102,4592022.53
2019-08-01 00:00:00+00:00,2.2169,2.231,2.1054,2.161,2890541.35
2019-08-02 00:00:00+00:00,2.1612,2.49,2.1275,2.4271,6325797.01
2019-08-03 00:00:00+00:00,2.4269,2.7342,2.3569,2.4211,11329664.01
2019-08-04 00:00:00+00:00,2.4186,2.6044,2.3811,2.5099,6257643.44
2019-08-05 00:00:00+00:00,2.5097,2.6495,2.4562,2.4562,5401188.63
2019-08-06 00:00:00+00:00,2.4599,2.5181,2.31,2.4785,6060839.71
2019-08-07 00:00:00+00:00,2.4822,2.5,2.3502,2.3826,3394545.7
2019-08-08 00:00:00+00:00,2.3883,2.3998,2.2713,2.2755,2864214.0
2019-08-09 00:00:00+00:00,2.2784,2.2919,2.151,2.1669,2368990.8
2019-08-10 00:00:00+00:00,2.169,2.4091,2.1306,2.3336,5262480.44
2019-08-11 00:00:00+00:00,2.3336,2.49,2.2901,2.415,3709082.7
2019-08-12 00:00:00+00:00,2.4165,2.479,2.335,2.39,2574671.09
2019-08-13 00:00:00+00:00,2.3868,2.4679,2.306,2.4229,3152764.71
2019-08-14 00:00:00+00:00,2.419,2.6031,2.163,2.2842,6940625.71
2019-08-15 00:00:00+00:00,2.284,2.4506,2.2565,2.4232,2808342.69
2019-08-16 00:00:00+00:00,2.4225,2.459,2.227,2.3,3572488.27
2019-08-17 00:00:00+00:00,2.3046,2.419,2.282,2.4036,2035414.39
2019-08-18 00:00:00+00:00,2.405,2.5657,2.3729,2.5051,3610567.41
2019-08-19 00:00:00+00:00,2.5055,2.6,2.4508,2.4958,4288720.33
2019-08-20 00:00:00+00:00,2.4943,2.5401,2.3354,2.3624,3477390.83
2019-08-21 00:00:00+00:00,2.3622,2.371,2.15,2.2054,4952696.55
2019-08-22 00:00:00+00:00,2.2058,2.2896,2.135,2.2227,2981137.74
2019-08-23 00:00:00+00:00,2.2231,2.295,2.1723,2.2333,4173130.85
2019-08-24 00:00:00+00:00,2.234,2.2545,2.1537,2.1681,1634146.8
2019-08-25 00:00:00+00:00,2.1704,2.1804,2.0255,2.078,2772672.99
2019-08-26 00:00:00+00:00,2.0783,2.1546,2.045,2.0739,2291314.91
2019-08-27 00:00:00+00:00,2.0737,2.1788,2.005,2.1128,3009068.12
2019-08-28 00:00:00+00:00,2.1098,2.1134,1.875,1.8957,3217225.93
2019-08-29 00:00:00+00:00,1.8956,1.8956,1.7253,1.7744,4211077.18
2019-08-30 00:00:00+00:00,1.7763,1.8913,1.7365,1.796,2660522.1
2019-08-31 00:00:00+00:00,1.7958,1.8535,1.74,1.7791,1831969.16
2019-09-01 00:00:00+00:00,1.7788,1.8,1.717,1.7686,1332701.68
2019-09-02 00:00:00+00:00,1.7696,1.89,1.7272,1.8287,3044387.69
2019-09-03 00:00:00+00:00,1.8307,1.9424,1.8147,1.849,3208754.39
2019-09-04 00:00:00+00:00,1.8486,1.87,1.7167,1.7784,3579394.12
2019-09-05 00:00:00+00:00,1.7793,1.8624,1.768,1.7921,2744215.93
2019-09-06 00:00:00+00:00,1.7919,1.86,1.6767,1.7226,3184048.39
2019-09-07 00:00:00+00:00,1.7222,1.806,1.7085,1.7672,2404181.98
2019-09-08 00:00:00+00:00,1.7672,1.9054,1.761,1.8275,3504716.5
2019-09-09 00:00:00+00:00,1.829,1.8731,1.761,1.7872,3483191.16
2019-09-10 00:00:00+00:00,1.7883,1.8326,1.773,1.7998,2713368.74
2019-09-11 00:00:00+00:00,1.7988,1.8258,1.7136,1.7301,2229727.06
2019-09-12 00:00:00+00:00,1.7301,1.7458,1.6918,1.7073,2229068.92
2019-09-13 00:00:00+00:00,1.7073,1.7099,1.51,1.5759,6639098.35
2019-09-14 00:00:00+00:00,1.5761,1.6375,1.5239,1.5634,5719166.79
2019-09-15 00:00:00+00:00,1.5634,1.6458,1.56,1.6104,4049102.77
2019-09-16 00:00:00+00:00,1.611,1.6355,1.545,1.5806,3549602.58
2019-09-17 00:00:00+00:00,1.5806,1.6765,1.5532,1.624,5393985.89
2019-09-18 00:00:00+00:00,1.624,1.8462,1.624,1.801,8269809.73
2019-09-19 00:00:00+00:00,1.7994,1.9075,1.7079,1.8744,8590087.52
2019-09-20 00:00:00+00:00,1.8743,1.8772,1.751,1.8245,3503491.24
2019-09-21 00:00:00+00:00,1.8215,1.8888,1.7881,1.8855,2773787.16
2019-09-22 00:00:00+00:00,1.8848,1.8868,1.7711,1.8157,2311848.65
2019-09-23 00:00:00+00:00,1.8149,1.88,1.7799,1.8048,2670201.16
2019-09-24 00:00:00+00:00,1.8034,2.0657,1.4612,1.716,16495451.14
2019-09-25 00:00:00+00:00,1.7135,1.9286,1.6249,1.7443,8910418.88
2019-09-26 00:00:00+00:00,1.7476,1.7584,1.5276,1.6512,6950205.76
2019-09-27 00:00:00+00:00,1.6512,1.6786,1.5573,1.659,4337039.06
2019-09-28 00:00:00+00:00,1.6593,1.7017,1.6284,1.6742,2378769.19
2019-09-29 00:00:00+00:00,1.6748,1.7492,1.6441,1.7002,3307432.07
2019-09-30 00:00:00+00:00,1.7004,1.769,1.6404,1.7677,3573550.83
2019-10-01 00:00:00+00:00,1.7677,1.882,1.7522,1.8286,4084117.04
2019-10-02 00:00:00+00:00,1.8285,2.0233,1.8121,2.011,5790547.34
2019-10-03 00:00:00+00:00,2.0134,2.0338,1.88,1.9442,7013380.23
2019-10-04 00:00:00+00:00,1.9443,1.9949,1.888,1.9663,3422137.61
2019-10-05 00:00:00+00:00,1.9663,1.9775,1.9113,1.9624,2233660.2
2019-10-06 00:00:00+00:00,1.9624,2.2659,1.9531,2.1669,9778198.66
2019-10-07 00:00:00+00:00,2.1669,2.4899,2.0971,2.3963,12795782.67
2019-10-08 00:00:00+00:00,2.3963,2.65,2.268,2.5765,16096459.09
2019-10-09 00:00:00+00:00,2.577,2.95,2.501,2.8011,21792384.08
2019-10-10 00:00:00+00:00,2.7977,2.8058,2.465,2.6279,15341951.1
2019-10-11 00:00:00+00:00,2.6293,2.7936,2.5619,2.7481,11417701.51
2019-10-12 00:00:00+00:00,2.7443,2.7572,2.5519,2.5975,6182391.51
2019-10-13 00:00:00+00:00,2.5975,2.6443,2.4351,2.486,5534063.18
2019-10-14 00:00:00+00:00,2.485,2.6741,2.4527,2.5324,5833573.38
2019-10-15 00:00:00+00:00,2.5315,2.597,2.332,2.3974,6236112.72
2019-10-16 00:00:00+00:00,2.3949,2.4143,2.182,2.3717,11864805.05
2019-10-17 00:00:00+00:00,2.3736,2.49,2.274,2.4124,10565628.71
2019-10-18 00:00:00+00:00,2.419,2.4999,2.3164,2.3546,7264838.28
2019-10-19 00:00:00+00:00,2.3521,2.391,2.2914,2.3521,4513732.32
2019-10-20 00:00:00+00:00,2.3513,2.451,2.278,2.4444,4491335.27
2019-10-21 00:00:00+00:00,2.4443,2.69,2.4347,2.6223,11337672.86
2019-10-22 00:00:00+00:00,2.6216,2.8178,2.5619,2.6074,11209530.78
2019-10-23 00:00:00+00:00,2.6073,2.684,2.3717,2.6055,14101549.77
2019-10-24 00:00:00+00:00,2.6071,2.7748,2.602,2.72,9751557.57
2019-10-25 00:00:00+00:00,2.7201,3.0063,2.6165,2.8374,14004511.97
2019-10-26 00:00:00+00:00,2.8374,2.9977,2.664,2.7348,13344088.09
2019-10-27 00:00:00+00:00,2.7323,2.762,2.6511,2.6646,5974202.16
2019-10-28 00:00:00+00:00,2.6707,2.8859,2.66,2.6611,7839146.77
2019-10-29 00:00:00+00:00,2.6601,2.769,2.6321,2.662,3559236.65
2019-10-30 00:00:00+00:00,2.661,2.6768,2.5107,2.6093,3975481.96
2019-10-31 00:00:00+00:00,2.6044,2.7573,2.5365,2.7219,4136829.05
2019-11-01 00:00:00+00:00,2.7233,2.7952,2.6428,2.7091,3786813.42
2019-11-02 00:00:00+00:00,2.7092,2.7399,2.6828,2.6973,1945703.47
2019-11-03 00:00:00+00:00,2.7015,2.7104,2.6202,2.6605,1676754.85
2019-11-04 00:00:00+00:00,2.6594,2.73,2.6267,2.6746,2315985.74
2019-11-05 00:00:00+00:00,2.6746,2.6947,2.6322,2.6746,1985221.73
2019-11-06 00:00:00+00:00,2.6743,2.82,2.6479,2.7448,3174248.63
2019-11-07 00:00:00+00:00,2.7446,2.7549,2.6022,2.6757,3498869.77
2019-11-08 00:00:00+00:00,2.6758,2.7333,2.621,2.71,2932879.67
2019-11-09 00:00:00+00:00,2.7091,2.8497,2.7031,2.8009,4656993.44
2019-11-10 00:00:00+00:00,2.8008,2.837,2.7362,2.777,2619550.08
2019-11-11 00:00:00+00:00,2.7773,2.7777,2.6655,2.744,2141763.75
2019-11-12 00:00:00+00:00,2.7438,2.8733,2.7311,2.8152,3219733.0
2019-11-13 00:00:00+00:00,2.8177,3.0894,2.7851,3.02,6541016.76
2019-11-14 00:00:00+00:00,3.0189,3.16,2.9666,3.039,6594266.26
2019-11-15 00:00:00+00:00,3.037,3.07,2.797,3.0389,5650698.64
2019-11-16 00:00:00+00:00,3.0372,3.0435,2.9115,2.9894,1973143.82
2019-11-17 00:00:00+00:00,2.9893,2.9894,2.8644,2.91,1638489.88
2019-11-18 00:00:00+00:00,2.91,2.961,2.6977,2.7885,3495345.66
2019-11-19 00:00:00+00:00,2.7886,2.8069,2.58,2.7255,4538639.68
2019-11-20 00:00:00+00:00,2.7279,2.7957,2.63,2.6982,3588766.35
2019-11-21 00:00:00+00:00,2.6983,2.7153,2.471,2.5456,4566589.41
2019-11-22 00:00:00+00:00,2.5456,2.5952,2.1,2.3466,10793729.34
2019-11-23 00:00:00+00:00,2.3434,2.4621,2.2604,2.4266,4841617.12
2019-11-24 00:00:00+00:00,2.4272,2.4533,2.2,2.2216,4491218.33
2019-11-25 00:00:00+00:00,2.2218,2.3976,2.02,2.2523,8169446.39
2019-11-26 00:00:00+00:00,2.2554,2.3578,2.1459,2.2424,7541215.92
2019-11-27 00:00:00+00:00,2.2437,2.2882,2.1002,2.2242,7877612.52
2019-11-28 00:00:00+00:00,2.2216,2.3248,2.1711,2.2702,4774519.93
2019-11-29 00:00:00+00:00,2.2716,2.3763,2.2611,2.3403,4135940.21
2019-11-30 00:00:00+00:00,2.3403,2.3437,2.1943,2.2373,2921785.1
2019-12-01 00:00:00+00:00,2.236,2.2385,2.1274,2.1638,3517483.43
2019-12-02 00:00:00+00:00,2.1634,2.166,2.0524,2.0911,3655978.97
2019-12-03 00:00:00+00:00,2.0913,2.1891,2.058,2.1222,3779139.53
2019-12-04 00:00:00+00:00,2.1222,2.17,2.0,2.029,6597003.71
2019-12-05 00:00:00+00:00,2.0282,2.074,1.9583,2.0068,5364919.99
2019-12-06 00:00:00+00:00,2.0059,2.1042,1.9685,2.0943,3859727.3
2019-12-07 00:00:00+00:00,2.0918,2.1114,2.0346,2.044,2405401.82
2019-12-08 00:00:00+00:00,2.0402,2.085,2.0012,2.0528,2020725.98
2019-12-09 00:00:00+00:00,2.052,2.0985,2.0151,2.0984,2777749.05
2019-12-10 00:00:00+00:00,2.0983,2.2862,2.0611,2.2657,10814539.15
2019-12-11 00:00:00+00:00,2.2655,2.3042,2.147,2.1786,4814219.68
2019-12-12 00:00:00+00:00,2.1784,2.1951,2.0197,2.1056,4784990.28
2019-12-13 00:00:00+00:00,2.1037,2.121,2.0575,2.0709,1963976.04
2019-12-14 00:00:00+00:00,2.0713,2.0933,1.97,1.9946,1752984.19
2019-12-15 00:00:00+00:00,1.9947,2.1168,1.9606,2.0708,2576084.24
2019-12-16 00:00:00+00:00,2.0722,2.0873,1.967,1.9751,2569583.57
2019-12-17 00:00:00+00:00,1.9705,2.0025,1.7,1.7598,7385844.66
2019-12-18 00:00:00+00:00,1.7594,1.8995,1.5996,1.8703,8597518.31
2019-12-19 00:00:00+00:00,1.8703,1.8901,1.749,1.805,5045402.58
2019-12-20 00:00:00+00:00,1.805,1.9238,1.7849,1.9182,3285479.38
2019-12-21 00:00:00+00:00,1.9182,1.9204,1.8544,1.8575,2246207.92
2019-12-22 00:00:00+00:00,1.8563,1.94,1.853,1.9181,2959721.12
2019-12-23 00:00:00+00:00,1.9167,1.9532,1.846,1.8629,2832932.76
2019-12-24 00:00:00+00:00,1.8638,1.8854,1.8154,1.8435,2279849.44
2019-12-25 00:00:00+00:00,1.8434,1.8462,1.76,1.7826,1580097.4
2019-12-26 00:00:00+00:00,1.7836,1.9604,1.7702,1.8539,2674255.35
2019-12-27 00:00:00+00:00,1.8538,1.9299,1.8435,1.8751,2417432.93
2019-12-28 00:00:00+00:00,1.8777,1.8994,1.8555,1.8746,1269364.7
2019-12-29 00:00:00+00:00,1.8716,1.92,1.8444,1.8976,1411417.05
2019-12-30 00:00:00+00:00,1.898,1.898,1.8072,1.8243,1099037.99
2019-12-31 00:00:00+00:00,1.8215,1.8292,1.754,1.7673,1637649.28
2020-01-01 00:00:00+00:00,1.7678,1.8548,1.7606,1.8111,1158748.32
2020-01-02 00:00:00+00:00,1.8109,1.8164,1.7065,1.7366,1422992.29
2020-01-03 00:00:00+00:00,1.7366,1.8292,1.7013,1.804,1789613.99
2020-01-04 00:00:00+00:00,1.803,1.8446,1.784,1.8242,1241322.81
2020-01-05 00:00:00+00:00,1.8243,1.8413,1.785,1.7957,1524717.4
2020-01-06 00:00:00+00:00,1.7954,1.9386,1.7925,1.9374,3301261.66
2020-01-07 00:00:00+00:00,1.9373,2.1398,1.8993,2.1033,6873503.39
2020-01-08 00:00:00+00:00,2.1006,2.3495,2.1006,2.1892,12147661.7
2020-01-09 00:00:00+00:00,2.1877,2.2344,2.0977,2.1886,5099844.97
2020-01-10 00:00:00+00:00,2.1867,2.2489,2.1455,2.2257,4235526.03
2020-01-11 00:00:00+00:00,2.2255,2.345,2.218,2.2734,4347105.06
2020-01-12 00:00:00+00:00,2.273,2.3212,2.212,2.2383,2502624.23
2020-01-13 00:00:00+00:00,2.2382,2.2382,2.1561,2.1901,1977335.23
2020-01-14 00:00:00+00:00,2.1904,2.4701,2.1792,2.3751,7062307.44
2020-01-15 00:00:00+00:00,2.3751,2.5604,2.3332,2.3953,6414464.86
2020-01-16 00:00:00+00:00,2.3991,2.51,2.2932,2.4925,4944704.42
2020-01-17 00:00:00+00:00,2.4924,2.86,2.4589,2.7006,12221911.1
2020-01-18 00:00:00+00:00,2.7006,2.7946,2.58,2.7709,4502826.05
2020-01-19 00:00:00+00:00,2.7749,2.8475,2.5385,2.6212,6650884.78
2020-01-20 00:00:00+00:00,2.6207,2.7443,2.5425,2.688,4142689.53
2020-01-21 00:00:00+00:00,2.6881,2.744,2.57,2.6716,3244654.09
2020-01-22 00:00:00+00:00,2.6724,2.6978,2.6187,2.6426,1637205.02
2020-01-23 00:00:00+00:00,2.6425,2.647,2.4256,2.4698,4806803.21
2020-01-24 00:00:00+00:00,2.4695,2.533,2.3638,2.5024,4161651.97
2020-01-25 00:00:00+00:00,2.5024,2.51,2.421,2.4468,1881931.46
2020-01-26 00:00:00+00:00,2.4425,2.5764,2.4266,2.5764,1936836.47
2020-01-27 00:00:00+00:00,2.5764,2.6764,2.5656,2.6055,3426087.65
2020-01-28 00:00:00+00:00,2.6051,2.67,2.5868,2.6558,3113588.17
2020-01-29 00:00:00+00:00,2.6544,2.8348,2.6316,2.7773,5269667.72
2020-01-30 00:00:00+00:00,2.7785,2.9482,2.7167,2.9156,5780750.02
2020-01-31 00:00:00+00:00,2.912,2.9153,2.7628,2.8259,3910431.21
2020-02-01 00:00:00+00:00,2.8258,2.88,2.7438,2.8378,2737541.77
2020-02-02 00:00:00+00:00,2.8372,2.8869,2.7314,2.8267,3442889.59
2020-02-03 00:00:00+00:00,2.8225,2.879,2.7451,2.771,3106758.86
2020-02-04 00:00:00+00:00,2.7713,2.8038,2.6751,2.7395,4494415.89
2020-02-05 00:00:00+00:00,2.7397,2.8845,2.7261,2.839,4267689.22
2020-02-06 00:00:00+00:00,2.836,2.9436,2.79,2.89,4383200.46
2020-02-07 00:00:00+00:00,2.89,3.3682,2.8882,3.3072,14840163.74
2020-02-08 00:00:00+00:00,3.3071,3.4865,3.131,3.4171,10059760.55
2020-02-09 00:00:00+00:00,3.4179,3.4984,3.233,3.4945,6151025.56
2020-02-10 00:00:00+00:00,3.4927,3.4972,3.2806,3.3862,6758374.35
2020-02-11 00:00:00+00:00,3.3874,3.9964,3.35,3.9931,11780106.07
2020-02-12 00:00:00+00:00,3.9937,4.2,3.8472,3.9953,13673147.31
2020-02-13 00:00:00+00:00,3.993,4.1147,3.7123,3.8765,8232595.29
2020-02-14 00:00:00+00:00,3.8753,4.487,3.7873,4.426,10369344.95
2020-02-15 00:00:00+00:00,4.4262,4.621,4.065,4.3241,15608978.06
2020-02-16 00:00:00+00:00,4.3215,4.8671,4.0384,4.4566,22171359.69
2020-02-17 00:00:00+00:00,4.4563,4.5522,3.8449,4.3108,19343142.25
2020-02-18 00:00:00+00:00,4.3059,4.636,4.1416,4.5523,11931206.57
2020-02-19 00:00:00+00:00,4.5539,4.8355,4.193,4.3873,10109760.48
2020-02-20 00:00:00+00:00,4.384,4.4865,4.0673,4.2644,11478760.65
2020-02-21 00:00:00+00:00,4.2666,4.5127,4.184,4.2778,7730080.2
2020-02-22 00:00:00+00:00,4.2789,4.35,4.0332,4.1066,6716454.02
2020-02-23 00:00:00+00:00,4.1006,4.3768,4.0693,4.2365,5652318.24
2020-02-24 00:00:00+00:00,4.2366,4.2871,3.7916,3.9148,8591286.07
2020-02-25 00:00:00+00:00,3.9179,3.96,3.4864,3.4905,12394531.52
2020-02-26 00:00:00+00:00,3.4874,3.8587,3.3113,3.5648,22248039.55
2020-02-27 00:00:00+00:00,3.5648,4.132,3.4197,3.9579,19252934.55
2020-02-28 00:00:00+00:00,3.9568,4.2395,3.75,4.1609,18277736.2
2020-02-29 00:00:00+00:00,4.1614,4.3535,4.0572,4.0579,12512141.06
2020-03-01 00:00:00+00:00,4.06,4.2385,3.7607,3.859,14748523.07
2020-03-02 00:00:00+00:00,3.8622,4.3435,3.8173,4.2423,12656156.05
2020-03-03 00:00:00+00:00,4.2421,4.68,4.1249,4.5846,17189323.0
2020-03-04 00:00:00+00:00,4.5873,4.9762,4.5333,4.6406,18623299.51
2020-03-05 00:00:00+00:00,4.6388,4.899,4.6239,4.7151,11867449.08
2020-03-06 00:00:00+00:00,4.7144,4.78,4.5429,4.6814,7667605.13
2020-03-07 00:00:00+00:00,4.6813,4.6863,4.3143,4.3412,8209506.85
2020-03-08 00:00:00+00:00,4.3468,4.4646,3.85,4.0537,18324667.26
2020-03-09 00:00:00+00:00,4.0537,4.369,3.6012,4.1231,29055644.52
2020-03-10 00:00:00+00:00,4.1237,4.2119,3.9132,4.0839,18071323.59
2020-03-11 00:00:00+00:00,4.0842,4.11,3.5514,3.8169,19593491.56
2020-03-12 00:00:00+00:00,3.817,3.8519,0.0001,1.9931,72676626.17
2020-03-13 00:00:00+00:00,1.999,2.752,1.36,2.4333,73634341.0
2020-03-14 00:00:00+00:00,2.4328,2.5141,2.0607,2.1379,21644199.58
2020-03-15 00:00:00+00:00,2.1401,2.4,2.015,2.0884,24056586.5
2020-03-16 00:00:00+00:00,2.0868,2.0898,1.5571,1.7832,47175196.27
2020-03-17 00:00:00+00:00,1.7832,2.069,1.73,1.8641,32839078.68
2020-03-18 00:00:00+00:00,1.866,1.9543,1.762,1.9483,22313474.3
2020-03-19 00:00:00+00:00,1.9497,2.37,1.8841,2.2398,33408982.34
2020-03-20 00:00:00+00:00,2.2409,2.6249,2.0143,2.26,39390658.87
2020-03-21 00:00:00+00:00,2.2631,2.375,2.105,2.2787,19488573.19
2020-03-22 00:00:00+00:00,2.2754,2.33,1.9334,1.9898,21634031.69
2020-03-23 00:00:00+00:00,1.9889,2.3,1.9352,2.2468,23688851.36
2020-03-24 00:00:00+00:00,2.247,2.3709,2.195,2.3104,18400021.32
2020-03-25 00:00:00+00:00,2.3109,2.35,2.1804,2.257,11321064.3
2020-03-26 00:00:00+00:00,2.2569,2.3132,2.1884,2.3132,6818801.71
2020-03-27 00:00:00+00:00,2.3125,2.3599,2.1055,2.1373,8151561.2
2020-03-28 00:00:00+00:00,2.1372,2.1544,2.0372,2.1364,11038170.15
2020-03-29 00:00:00+00:00,2.1356,2.152,2.007,2.0083,6879303.84
2020-03-30 00:00:00+00:00,2.0083,2.2,2.0006,2.135,8453846.9
2020-03-31 00:00:00+00:00,2.1348,2.302,2.1102,2.2658,8612405.93
2020-04-01 00:00:00+00:00,2.2657,2.2999,2.14,2.2753,13433598.33
2020-04-02 00:00:00+00:00,2.2764,2.485,2.2566,2.2941,13266669.39
2020-04-03 00:00:00+00:00,2.294,2.3837,2.2652,2.3013,8452189.45
2020-04-04 00:00:00+00:00,2.2995,2.3423,2.2545,2.3155,6143193.28
2020-04-05 00:00:00+00:00,2.3155,2.3219,2.2437,2.2635,3228659.23
2020-04-06 00:00:00+00:00,2.2638,2.5677,2.2621,2.5555,12222925.81
2020-04-07 00:00:00+00:00,2.5556,2.908,2.555,2.7303,30449781.01
2020-04-08 00:00:00+00:00,2.7295,3.2748,2.7124,3.1693,27092993.24
2020-04-09 00:00:00+00:00,3.1695,3.4741,3.1224,3.3099,37011877.66
2020-04-10 00:00:00+00:00,3.3099,3.3199,2.945,3.22,43621490.6
2020-04-11 00:00:00+00:00,3.2207,3.4364,3.0629,3.29,30487430.82
2020-04-12 00:00:00+00:00,3.2912,3.6412,3.167,3.4189,32589266.79
2020-04-13 00:00:00+00:00,3.4117,3.4602,3.2,3.3702,29488744.48
2020-04-14 00:00:00+00:00,3.3719,3.4437,3.21,3.252,17078827.01
2020-04-15 00:00:00+00:00,3.2517,3.3061,3.1085,3.1212,15635873.11
2020-04-16 00:00:00+00:00,3.1212,3.5555,2.9761,3.4851,24817961.65
2020-04-17 00:00:00+00:00,3.4831,3.525,3.3778,3.4523,12689070.26
2020-04-18 00:00:00+00:00,3.4525,3.83,3.447,3.7805,16406819.22
2020-04-19 00:00:00+00:00,3.7814,3.8102,3.5131,3.5902,16350496.02
2020-04-20 00:00:00+00:00,3.5885,3.792,3.372,3.4322,20566086.81
2020-04-21 00:00:00+00:00,3.4317,3.5719,3.3903,3.4577,13887634.41
2020-04-22 00:00:00+00:00,3.4593,3.6904,3.4327,3.6786,11953381.82
2020-04-23 00:00:00+00:00,3.6787,3.9101,3.5968,3.7533,14233201.39
2020-04-24 00:00:00+00:00,3.7551,3.8874,3.7364,3.7735,7951365.77
2020-04-25 00:00:00+00:00,3.7735,3.9062,3.742,3.7865,6095069.38
2020-04-26 00:00:00+00:00,3.7865,3.816,3.6432,3.721,8246658.13
2020-04-27 00:00:00+00:00,3.7212,3.7385,3.4621,3.6383,11371929.86
2020-04-28 00:00:00+00:00,3.6373,3.7354,3.5554,3.6413,7379317.23
2020-04-29 00:00:00+00:00,3.6422,3.9918,3.63,3.8879,15125283.54
2020-04-30 00:00:00+00:00,3.8881,3.9741,3.62,3.7025,13545136.02
2020-05-01 00:00:00+00:00,3.7014,3.9162,3.7003,3.7571,8084328.36
2020-05-02 00:00:00+00:00,3.7571,3.86,3.73,3.8182,4467234.01
2020-05-03 00:00:00+00:00,3.8186,3.86,3.6379,3.7092,5570724.79
2020-05-04 00:00:00+00:00,3.7098,3.8272,3.5033,3.7499,10973722.27
2020-05-05 00:00:00+00:00,3.7496,3.814,3.654,3.6833,4730504.58
2020-05-06 00:00:00+00:00,3.682,3.7654,3.57,3.5872,5299802.59
2020-05-07 00:00:00+00:00,3.5874,3.85,3.5633,3.756,8481271.59
2020-05-08 00:00:00+00:00,3.758,3.859,3.6874,3.801,7383724.48
2020-05-09 00:00:00+00:00,3.8001,4.2129,3.7601,4.015,15240721.63
2020-05-10 00:00:00+00:00,4.0149,4.0197,3.4602,3.7582,19818388.73
2020-05-11 00:00:00+00:00,3.7574,3.832,3.2865,3.5837,13273873.62
2020-05-12 00:00:00+00:00,3.5838,3.7932,3.54,3.6943,7797486.43
2020-05-13 00:00:00+00:00,3.6938,3.815,3.6366,3.7655,5989489.14
2020-05-14 00:00:00+00:00,3.7654,3.8583,3.6947,3.8096,7333655.81
2020-05-15 00:00:00+00:00,3.8093,3.8337,3.6144,3.6615,5572562.89
2020-05-16 00:00:00+00:00,3.6626,3.79,3.6168,3.7614,4045380.2
2020-05-17 00:00:00+00:00,3.7621,3.8524,3.7526,3.7815,3636901.86
2020-05-18 00:00:00+00:00,3.7815,3.95,3.7786,3.8895,5744922.71
2020-05-19 00:00:00+00:00,3.8895,3.9488,3.7734,3.947,3771880.28
2020-05-20 00:00:00+00:00,3.9466,4.1388,3.8955,4.0866,9821300.61
2020-05-21 00:00:00+00:00,4.088,4.174,3.7292,3.8298,10446021.86
2020-05-22 00:00:00+00:00,3.8307,4.1447,3.7932,4.0611,7194944.89
2020-05-23 00:00:00+00:00,4.062,4.1072,3.91,3.925,5867357.07
2020-05-24 00:00:00+00:00,3.9242,4.0262,3.7844,3.7917,6236647.02
2020-05-25 00:00:00+00:00,3.7878,3.9073,3.77,3.8614,4443996.51
2020-05-26 00:00:00+00:00,3.8634,3.8816,3.7689,3.844,3774200.83
2020-05-27 00:00:00+00:00,3.8436,3.9143,3.8065,3.8526,3795380.76
2020-05-28 00:00:00+00:00,3.8542,4.0601,3.827,4.0461,4242354.59
2020-05-29 00:00:00+00:00,4.0462,4.13,3.9488,3.98,5243291.12
2020-05-30 00:00:00+00:00,3.982,4.18,3.943,4.1763,4734058.34
2020-05-31 00:00:00+00:00,4.178,4.2838,4.041,4.131,6223457.99
2020-06-01 00:00:00+00:00,4.1278,4.48,4.1175,4.3785,8703425.47
2020-06-02 00:00:00+00:00,4.3795,4.6185,4.1075,4.3976,8182461.05
2020-06-03 00:00:00+00:00,4.3987,4.53,4.2898,4.4892,4215824.76
2020-06-04 00:00:00+00:00,4.4881,4.5081,4.2864,4.4243,3231902.99
2020-06-05 00:00:00+00:00,4.4263,4.486,4.3405,4.358,2316069.89
2020-06-06 00:00:00+00:00,4.3569,4.3979,4.3034,4.3512,1377160.26
2020-06-07 00:00:00+00:00,4.3513,4.41,4.2068,4.3465,2146650.66
2020-06-08 00:00:00+00:00,4.3487,4.4759,4.325,4.473,2037163.21
2020-06-09 00:00:00+00:00,4.4753,4.5062,4.3605,4.435,2296314.26
2020-06-10 00:00:00+00:00,4.4374,4.4404,4.3426,4.4225,2236477.86
2020-06-11 00:00:00+00:00,4.4207,4.4503,3.91,3.9565,6610463.34
2020-06-12 00:00:00+00:00,3.953,4.1874,3.8573,4.0819,4837530.74
2020-06-13 00:00:00+00:00,4.0807,4.1346,4.0054,4.11,1604660.74
2020-06-14 00:00:00+00:00,4.11,4.1134,3.9143,3.9371,1710213.36
2020-06-15 00:00:00+00:00,3.9395,3.9889,3.6551,3.9274,6850306.11
2020-06-16 00:00:00+00:00,3.9254,4.0918,3.8935,4.0502,3623759.71
2020-06-17 00:00:00+00:00,4.0502,4.2,3.957,4.1659,4301280.98
2020-06-18 00:00:00+00:00,4.1663,4.2491,4.0957,4.1415,3348384.08
2020-06-19 00:00:00+00:00,4.1417,4.1839,4.0521,4.098,2424386.7
2020-06-20 00:00:00+00:00,4.0978,4.2072,4.0654,4.1765,2414698.62
2020-06-21 00:00:00+00:00,4.1762,4.2058,4.1395,4.1812,1336859.5
2020-06-22 00:00:00+00:00,4.1819,4.4859,4.176,4.4841,4659609.05
2020-06-23 00:00:00+00:00,4.484,4.9422,4.4254,4.8051,10884418.78
2020-06-24 00:00:00+00:00,4.8061,4.9411,4.4986,4.7075,10253258.21
2020-06-25 00:00:00+00:00,4.7075,4.8407,4.5033,4.8134,7030842.15
2020-06-26 00:00:00+00:00,4.8129,4.8587,4.6424,4.6813,5532469.51
2020-06-27 00:00:00+00:00,4.683,4.6957,4.3,4.4058,6165533.05
2020-06-28 00:00:00+00:00,4.4051,4.62,4.3647,4.5668,4751931.74
2020-06-29 00:00:00+00:00,4.5658,4.65,4.4232,4.6187,4789663.32
2020-06-30 00:00:00+00:00,4.6192,4.6622,4.5337,4.5626,3008041.61
2020-07-01 00:00:00+00:00,4.5625,4.73,4.5217,4.7067,4096719.3
2020-07-02 00:00:00+00:00,4.7068,4.9181,4.6025,4.7996,7638387.35
2020-07-03 00:00:00+00:00,4.7998,4.8964,4.7031,4.7309,4622377.34
2020-07-04 00:00:00+00:00,4.73,4.8539,4.7186,4.82,2884275.22
2020-07-05 00:00:00+00:00,4.8198,4.8325,4.6118,4.7439,3650974.38
2020-07-06 00:00:00+00:00,4.7426,5.5,4.7362,5.3617,12032948.97
2020-07-07 00:00:00+00:00,5.3613,5.889,5.33,5.7248,13786031.79
2020-07-08 00:00:00+00:00,5.7245,6.5782,5.592,6.4987,16816910.79
2020-07-09 00:00:00+00:00,6.5001,6.5006,5.7029,6.082,12955549.78
2020-07-10 00:00:00+00:00,6.082,6.2009,5.7096,6.1488,9946933.5
2020-07-11 00:00:00+00:00,6.15,6.27,5.961,6.0994,5442718.22
2020-07-12 00:00:00+00:00,6.1043,7.3898,6.0975,7.3345,18949318.62
2020-07-13 00:00:00+00:00,7.3447,8.48,6.8525,7.163,30737550.96
2020-07-14 00:00:00+00:00,7.1616,8.3446,6.965,8.1321,25153380.41
2020-07-15 00:00:00+00:00,8.1315,8.908,7.8309,8.6494,20518883.22
2020-07-16 00:00:00+00:00,8.6486,8.8822,7.9427,8.354,20705851.79
2020-07-17 00:00:00+00:00,8.3545,8.6444,8.2,8.2605,8727930.83
2020-07-18 00:00:00+00:00,8.2589,8.2648,7.657,7.9734,11416632.85
2020-07-19 00:00:00+00:00,7.9731,8.21,7.7782,8.0784,6896213.31
2020-07-20 00:00:00+00:00,8.0848,8.1388,7.121,7.2301,11043721.17
2020-07-21 00:00:00+00:00,7.2301,7.6788,6.9232,7.3101,10937153.27
2020-07-22 00:00:00+00:00,7.3086,7.6365,7.0832,7.4689,9599551.14
2020-07-23 00:00:00+00:00,7.469,8.099,7.4029,7.8983,10917062.94
2020-07-24 00:00:00+00:00,7.8982,7.9304,7.384,7.4284,7314721.87
2020-07-25 00:00:00+00:00,7.4284,7.8009,7.3744,7.672,7507174.9
2020-07-26 00:00:00+00:00,7.6737,7.945,7.1885,7.5022,10637660.32
2020-07-27 00:00:00+00:00,7.5009,7.5045,6.5101,7.1,16681214.34
2020-07-28 00:00:00+00:00,7.099,7.4243,6.9106,7.2333,8500726.83
2020-07-29 00:00:00+00:00,7.2332,7.4871,6.9867,7.0876,7058913.79
2020-07-30 00:00:00+00:00,7.0876,7.5757,7.0253,7.4093,7673434.47
2020-07-31 00:00:00+00:00,7.4093,7.8649,7.4085,7.8033,7419454.26
2020-08-01 00:00:00+00:00,7.8025,8.472,7.6373,8.3248,9345076.4
2020-08-02 00:00:00+00:00,8.3216,8.7972,6.87,8.2814,22647614.34
2020-08-03 00:00:00+00:00,8.2851,9.2707,8.1408,9.2502,12814524.98
2020-08-04 00:00:00+00:00,9.2502,9.9645,9.0807,9.8687,18485930.37
2020-08-05 00:00:00+00:00,9.8686,9.8686,9.3207,9.5253,9682088.77
2020-08-06 00:00:00+00:00,9.5265,10.2917,9.4515,10.2343,9041552.6
2020-08-07 00:00:00+00:00,10.2284,10.2615,9.05,10.1286,11737996.62
2020-08-08 00:00:00+00:00,10.1286,13.8799,9.9287,12.7093,28681387.91
2020-08-09 00:00:00+00:00,12.7095,14.4586,12.0,13.8104,28455039.72
2020-08-10 00:00:00+00:00,13.8105,14.0551,12.52,13.4722,17912553.32
2020-08-11 00:00:00+00:00,13.4722,13.5403,12.0905,12.9971,17514622.42
2020-08-12 00:00:00+00:00,12.9999,16.8,12.5936,16.4635,23116748.13
2020-08-13 00:00:00+00:00,16.4634,18.3488,15.9175,17.1883,30941693.96
2020-08-14 00:00:00+00:00,17.1728,17.5998,16.3,16.9574,11352121.05
2020-08-15 00:00:00+00:00,16.9447,19.8303,16.5554,19.2285,17941112.01
2020-08-16 00:00:00+00:00,19.2108,20.1111,18.5144,18.8061,10757844.39
2020-08-17 00:00:00+00:00,18.8096,19.7111,15.5,16.8196,13542369.79
2020-08-18 00:00:00+00:00,16.8064,17.6738,14.69,16.1927,27088057.76
2020-08-19 00:00:00+00:00,16.1846,17.2554,14.8653,16.1863,18401947.05
2020-08-20 00:00:00+00:00,16.1884,16.7862,15.7232,16.0483,11077161.69
2020-08-21 00:00:00+00:00,16.0476,16.1421,12.89,13.8325,26181371.6
2020-08-22 00:00:00+00:00,13.8342,16.33,13.66,15.8078,16713843.17
2020-08-23 00:00:00+00:00,15.8085,16.0042,14.6536,15.1428,10766009.01
2020-08-24 00:00:00+00:00,15.1572,15.8797,14.7,15.1419,8460822.0
2020-08-25 00:00:00+00:00,15.1363,15.3743,13.4578,14.1164,12813252.0
2020-08-26 00:00:00+00:00,14.1171,15.6664,14.0537,15.2,11417184.57
2020-08-27 00:00:00+00:00,15.2088,15.5215,13.9679,14.5234,11695421.1
2020-08-28 00:00:00+00:00,14.5234,15.4989,14.236,15.1207,7263858.01
2020-08-29 00:00:00+00:00,15.1136,17.0305,14.9565,16.3612,12476977.78
2020-08-30 00:00:00+00:00,16.3612,17.7777,16.3547,16.4788,12067693.46
2020-08-31 00:00:00+00:00,16.4782,16.9495,15.4451,15.5772,9615963.27
2020-09-01 00:00:00+00:00,15.5746,16.5053,15.0629,16.0333,9246701.59
2020-09-02 00:00:00+00:00,16.0284,16.3587,14.0,14.7982,10432171.58
2020-09-03 00:00:00+00:00,14.7922,14.9989,10.8261,11.8895,17461923.93
2020-09-04 00:00:00+00:00,11.8802,12.904,11.0,12.3708,18649479.71
2020-09-05 00:00:00+00:00,12.3804,12.7655,9.1,10.6017,25530147.88
2020-09-06 00:00:00+00:00,10.6087,13.24,9.7155,12.8044,21900428.59
2020-09-07 00:00:00+00:00,12.806,13.1747,11.17,12.47,21235045.25
2020-09-08 00:00:00+00:00,12.4744,12.7362,11.0284,11.746,14832129.81
2020-09-09 00:00:00+00:00,11.7359,12.6566,11.4356,12.3444,10649791.43
2020-09-10 00:00:00+00:00,12.3452,13.28,12.18,12.4957,15073295.03
2020-09-11 00:00:00+00:00,12.4948,12.696,12.019,12.4406,7498865.16
2020-09-12 00:00:00+00:00,12.4406,12.747,12.0934,12.7187,6270783.45
2020-09-13 00:00:00+00:00,12.7194,13.23,11.7658,12.067,11107099.48
2020-09-14 00:00:00+00:00,12.0757,12.3863,11.6349,12.1374,8830940.16
2020-09-15 00:00:00+00:00,12.13,12.24,10.75,10.9314,11413633.63
2020-09-16 00:00:00+00:00,10.9301,11.3002,10.4771,10.7367,10362445.08
2020-09-17 00:00:00+00:00,10.7367,11.6759,10.472,11.0139,10163046.46
2020-09-18 00:00:00+00:00,11.0139,11.1315,9.7863,10.094,8890206.07
2020-09-19 00:00:00+00:00,10.0938,10.4969,9.8756,10.1209,5596803.08
2020-09-20 00:00:00+00:00,10.1192,10.6199,9.5,9.7357,7500145.61
2020-09-21 00:00:00+00:00,9.7394,9.9235,8.5012,8.7114,15761415.85
2020-09-22 00:00:00+00:00,8.7162,9.08,8.54,8.7401,8384112.37
2020-09-23 00:00:00+00:00,8.744,8.8016,7.2869,7.6364,18221835.52
2020-09-24 00:00:00+00:00,7.6404,10.53,7.4761,9.87,26948146.31
2020-09-25 00:00:00+00:00,9.8701,11.199,9.3771,10.7279,20220142.07
2020-09-26 00:00:00+00:00,10.7218,11.1,9.9757,10.3169,12020281.92
2020-09-27 00:00:00+00:00,10.3079,10.991,9.9122,10.7939,10053108.71
2020-09-28 00:00:00+00:00,10.8,11.07,10.15,10.283,8731492.42
2020-09-29 00:00:00+00:00,10.2809,10.3882,9.4502,10.135,13378180.79
2020-09-30 00:00:00+00:00,10.1356,10.2314,9.5768,9.8694,6665669.78
2020-10-01 00:00:00+00:00,9.8727,10.4119,9.2457,9.6394,9704023.92
2020-10-02 00:00:00+00:00,9.6394,9.8449,8.7975,9.2167,11180624.68
2020-10-03 00:00:00+00:00,9.2132,9.5555,9.104,9.269,4805191.52
2020-10-04 00:00:00+00:00,9.2686,9.466,9.1141,9.3922,4665626.69
2020-10-05 00:00:00+00:00,9.3906,9.72,9.2629,9.6176,6217366.67
2020-10-06 00:00:00+00:00,9.6134,9.658,8.563,8.7689,7424722.62
2020-10-07 00:00:00+00:00,8.769,9.01,8.3817,8.9799,7543306.98
2020-10-08 00:00:00+00:00,8.9801,9.6909,8.4016,9.5594,10913109.33
2020-10-09 00:00:00+00:00,9.5519,10.5254,9.3701,10.3959,11276147.45
2020-10-10 00:00:00+00:00,10.3923,10.92,10.37,10.5198,9504046.97
2020-10-11 00:00:00+00:00,10.5168,11.0258,10.15,10.8515,8174876.86
2020-10-12 00:00:00+00:00,10.8515,11.8028,10.6807,11.4259,11882241.47
2020-10-13 00:00:00+00:00,11.4259,11.5833,10.5221,11.0016,9695225.65
2020-10-14 00:00:00+00:00,11.0016,11.3536,10.6201,10.8896,7758446.61
2020-10-15 00:00:00+00:00,10.8896,10.9317,10.455,10.7483,6983355.76
2020-10-16 00:00:00+00:00,10.7472,10.8935,10.2694,10.5877,6662666.86
2020-10-17 00:00:00+00:00,10.5867,10.7149,10.4082,10.6267,3322174.05
2020-10-18 00:00:00+00:00,10.6254,11.0,10.6,10.9409,3679623.94
2020-10-19 00:00:00+00:00,10.9435,11.2226,10.651,10.9147,4474849.31
2020-10-20 00:00:00+00:00,10.9116,10.9349,9.7665,9.8589,7095706.59
2020-10-21 00:00:00+00:00,9.8589,11.1372,9.7864,10.7863,8276637.42
2020-10-22 00:00:00+00:00,10.7805,12.4173,10.7142,11.9539,10308176.43
2020-10-23 00:00:00+00:00,11.9551,12.264,11.5784,12.1586,8789968.21
2020-10-24 00:00:00+00:00,12.1592,12.95,11.9839,12.7001,7538193.48
2020-10-25 00:00:00+00:00,12.7002,12.8574,11.908,12.1481,7000941.96
2020-10-26 00:00:00+00:00,12.148,12.4472,11.2594,11.7096,8858167.82
2020-10-27 00:00:00+00:00,11.7086,12.4774,11.49,11.9224,7621232.43
2020-10-28 00:00:00+00:00,11.921,12.16,11.15,11.4403,8020300.25
2020-10-29 00:00:00+00:00,11.4448,11.81,11.0816,11.2772,8541785.18
2020-10-30 00:00:00+00:00,11.2743,11.4811,10.72,11.09,7960249.95
2020-10-31 00:00:00+00:00,11.0947,11.3981,10.9053,11.2277,4971547.22
2020-11-01 00:00:00+00:00,11.2259,11.5885,11.0181,11.5722,3872679.99
2020-11-02 00:00:00+00:00,11.5681,11.685,10.7049,10.7814,6924910.69
2020-11-03 00:00:00+00:00,10.7814,10.7814,9.9454,10.3911,9964299.86
2020-11-04 00:00:00+00:00,10.3982,10.675,9.75,10.4713,8587173.03
2020-11-05 00:00:00+00:00,10.473,11.2749,10.0764,10.9794,10634722.28
2020-11-06 00:00:00+00:00,10.9822,12.2813,10.9286,12.1687,10971288.73
2020-11-07 00:00:00+00:00,12.1686,13.5956,11.3123,11.7638,24928180.96
2020-11-08 00:00:00+00:00,11.7668,13.1,11.477,12.71,12949524.47
2020-11-09 00:00:00+00:00,12.7083,13.0026,12.04,12.5107,12660359.23
2020-11-10 00:00:00+00:00,12.5182,13.278,12.3156,13.0017,12355950.65
2020-11-11 00:00:00+00:00,13.0017,13.4293,12.75,12.753,9416548.92
2020-11-12 00:00:00+00:00,12.753,13.0956,12.27,12.4038,8920340.53
2020-11-13 00:00:00+00:00,12.4038,13.0,12.3079,12.8687,7892649.62
2020-11-14 00:00:00+00:00,12.8679,12.9335,12.3,12.5574,5010394.11
2020-11-15 00:00:00+00:00,12.557,12.6484,11.8156,12.1192,5716347.24
2020-11-16 00:00:00+00:00,12.1199,12.8132,11.9971,12.6223,5982803.38
2020-11-17 00:00:00+00:00,12.6204,13.4228,12.5414,13.3944,11150763.55
2020-11-18 00:00:00+00:00,13.3943,14.2669,12.585,13.5598,18517527.67
2020-11-19 00:00:00+00:00,13.5602,14.0,13.0111,13.6187,9805683.27
2020-11-20 00:00:00+00:00,13.6117,14.477,13.4618,14.0933,11203096.77
2020-11-21 00:00:00+00:00,14.0913,15.5,13.6876,15.4511,14003272.57
2020-11-22 00:00:00+00:00,15.4408,15.7179,13.8402,14.5098,14244002.32
2020-11-23 00:00:00+00:00,14.5098,15.425,14.252,15.2746,12472333.45
2020-11-24 00:00:00+00:00,15.2648,16.39,14.943,15.6703,15636471.17
2020-11-25 00:00:00+00:00,15.6637,15.86,13.79,14.2016,9521564.1
2020-11-26 00:00:00+00:00,14.218,14.4743,11.2939,12.603,24596535.81
2020-11-27 00:00:00+00:00,12.6036,12.953,11.9454,12.4989,9129104.44
2020-11-28 00:00:00+00:00,12.5038,13.43,12.3489,13.0853,7286264.48
2020-11-29 00:00:00+00:00,13.0848,13.4765,12.8408,13.38,6551088.54
2020-11-30 00:00:00+00:00,13.3855,14.437,13.3855,14.2677,10302701.22
2020-12-01 00:00:00+00:00,14.2626,14.8328,13.0456,13.3461,11186350.89
2020-12-02 00:00:00+00:00,13.3544,14.1482,13.05,13.9799,6173228.08
2020-12-03 00:00:00+00:00,13.9785,14.22,13.6446,13.9749,4275317.88
2020-12-04 00:00:00+00:00,13.9749,14.0332,12.5101,12.68,5795163.01
2020-12-05 00:00:00+00:00,12.68,13.3478,12.5265,13.1748,3447469.25
2020-12-06 00:00:00+00:00,13.1743,13.5282,12.7671,13.5057,3871281.59
2020-12-07 00:00:00+00:00,13.509,13.5536,12.8671,13.0704,3224398.04
2020-12-08 00:00:00+00:00,13.0737,13.1929,12.0,12.1356,5176177.45
2020-12-09 00:00:00+00:00,12.128,12.829,11.5726,12.6212,6780799.24
2020-12-10 00:00:00+00:00,12.62,12.673,11.8549,11.9172,3569558.42
2020-12-11 00:00:00+00:00,11.9172,11.9899,11.43,11.6335,5013258.55
2020-12-12 00:00:00+00:00,11.6393,12.3529,11.601,12.2259,4394492.22
2020-12-13 00:00:00+00:00,12.228,13.2697,12.021,12.9392,6036848.97
2020-12-14 00:00:00+00:00,12.9389,12.98,12.3238,12.8502,4529267.12
2020-12-15 00:00:00+00:00,12.8513,13.022,12.4659,12.6818,3202210.62
2020-12-16 00:00:00+00:00,12.6786,13.5,12.3119,13.4852,6700261.8
2020-12-17 00:00:00+00:00,13.484,14.5038,13.0575,13.444,11585591.26
2020-12-18 00:00:00+00:00,13.444,14.0235,13.1725,13.5001,5520717.04
2020-12-19 00:00:00+00:00,13.5,13.9697,13.2981,13.4747,4606603.33
2020-12-20 00:00:00+00:00,13.4748,13.8,12.6752,13.0604,5227497.02
2020-12-21 00:00:00+00:00,13.0603,13.27,12.1354,12.3049,5719339.88
2020-12-22 00:00:00+00:00,12.3028,12.84,11.8117,12.7842,6175240.24
2020-12-23 00:00:00+00:00,12.7811,12.8634,8.05,10.9736,15255910.26
2020-12-24 00:00:00+00:00,10.973,11.6877,9.8564,11.5724,14771438.4
2020-12-25 00:00:00+00:00,11.5705,11.9234,11.0601,11.5543,7386434.11
2020-12-26 00:00:00+00:00,11.564,11.8151,10.6238,10.9809,9097514.52
2020-12-27 00:00:00+00:00,10.984,13.2448,10.4763,12.1541,18965140.77
2020-12-28 00:00:00+00:00,12.1542,12.9781,11.971,12.6081,11288955.85
2020-12-29 00:00:00+00:00,12.608,13.0351,10.8161,11.7786,12895731.37
2020-12-30 00:00:00+00:00,11.7786,11.99,11.0671,11.2435,7720859.08
2020-12-31 00:00:00+00:00,11.2437,11.753,10.9039,11.2364,6640134.19
2021-01-01 00:00:00+00:00,11.2364,12.46,11.0638,11.8477,8296826.17
2021-01-02 00:00:00+00:00,11.8453,12.4188,11.4303,12.2215,9618221.31
2021-01-03 00:00:00+00:00,12.2206,13.9999,11.8355,13.6814,15938080.42
2021-01-04 00:00:00+00:00,13.6815,15.644,12.3713,13.5935,23288863.81
2021-01-05 00:00:00+00:00,13.5962,14.89,13.0928,14.5162,14842337.83
2021-01-06 00:00:00+00:00,14.5141,17.2997,14.1427,17.2322,21381167.21
2021-01-07 00:00:00+00:00,17.2342,17.41,15.0657,15.9628,16881688.42
2021-01-08 00:00:00+00:00,15.9659,16.1917,14.12,15.2381,14986392.75
2021-01-09 00:00:00+00:00,15.2395,17.8888,15.0029,17.5501,12818964.22
2021-01-10 00:00:00+00:00,17.5501,18.4386,15.4418,16.206,16496553.31
2021-01-11 00:00:00+00:00,16.1998,16.2596,12.5,14.6393,21926235.45
2021-01-12 00:00:00+00:00,14.6312,15.476,13.6701,13.9655,11921544.49
2021-01-13 00:00:00+00:00,13.9609,16.2356,13.3701,15.9356,11467831.41
2021-01-14 00:00:00+00:00,15.9396,17.99,15.33,17.9804,13484717.13
2021-01-15 00:00:00+00:00,17.9888,21.4533,17.5355,20.7375,38649175.6
2021-01-16 00:00:00+00:00,20.7405,22.96,19.628,20.1054,27884173.39
2021-01-17 00:00:00+00:00,20.1003,23.767,19.3729,23.2819,21794612.18
2021-01-18 00:00:00+00:00,23.2676,23.6862,21.06,22.0336,13781943.03
2021-01-19 00:00:00+00:00,22.0325,22.8564,20.3774,20.5557,10968890.7
2021-01-20 00:00:00+00:00,20.5437,21.9788,19.0645,21.8482,12454231.89
2021-01-21 00:00:00+00:00,21.8421,22.0307,18.0611,18.4119,14637366.25
2021-01-22 00:00:00+00:00,18.4109,22.4997,17.1269,21.5519,17060778.1
2021-01-23 00:00:00+00:00,21.5467,25.5,21.14,24.8046,19024881.67
2021-01-24 00:00:00+00:00,24.8168,24.953,23.1612,24.7935,11910682.71
2021-01-25 00:00:00+00:00,24.7912,25.7824,22.6,23.3418,12581468.33
2021-01-26 00:00:00+00:00,23.3418,23.9761,21.65,23.0981,8984444.57
2021-01-27 00:00:00+00:00,23.0914,23.2295,20.2767,20.9586,10837677.2
2021-01-28 00:00:00+00:00,20.9586,24.4716,20.501,23.0145,11205369.43
2021-01-29 00:00:00+00:00,22.9869,24.24,22.045,22.748,11638550.99
2021-01-30 00:00:00+00:00,22.748,23.98,22.1534,23.6399,7393324.48
2021-01-31 00:00:00+00:00,23.6491,24.678,22.0603,22.5613,7645210.89
2021-02-01 00:00:00+00:00,22.5643,23.2,21.6526,22.8757,6446970.41
2021-02-02 00:00:00+00:00,22.8752,24.1693,22.7354,23.6582,6484871.27
2021-02-03 00:00:00+00:00,23.6578,25.5674,23.5318,25.087,8466371.72
2021-02-04 00:00:00+00:00,25.0814,26.15,22.6174,24.492,8646387.1
2021-02-05 00:00:00+00:00,24.4841,27.0,24.4081,26.3034,10000326.58
2021-02-06 00:00:00+00:00,26.3023,26.8,24.2081,25.0231,7063684.91
2021-02-07 00:00:00+00:00,25.0336,25.2836,22.81,24.7254,6514277.3
2021-02-08 00:00:00+00:00,24.7335,25.98,23.9587,25.4115,7026903.54
2021-02-09 00:00:00+00:00,25.407,28.0,25.0,27.6034,9472870.32
2021-02-10 00:00:00+00:00,27.615,28.6412,25.1227,26.8121,11721097.14
2021-02-11 00:00:00+00:00,26.8,28.5705,26.2172,27.8475,6660619.1
2021-02-12 00:00:00+00:00,27.8645,31.4485,26.6746,30.6265,9762295.77
2021-02-13 00:00:00+00:00,30.6404,34.7573,29.07,34.1941,11028490.78
2021-02-14 00:00:00+00:00,34.1969,35.6945,32.3088,33.1565,9440094.38
2021-02-15 00:00:00+00:00,33.1555,34.9252,27.5,32.5899,10844636.76
2021-02-16 00:00:00+00:00,32.5853,33.4269,30.784,31.9632,7062989.71
2021-02-17 00:00:00+00:00,31.963,32.6705,30.0,32.2324,5680522.18
2021-02-18 00:00:00+00:00,32.2256,33.5961,31.7785,32.4801,5452990.6
2021-02-19 00:00:00+00:00,32.4727,35.5072,31.3799,34.6846,8412150.64
2021-02-20 00:00:00+00:00,34.6846,36.9307,32.0,33.9387,10078348.9
2021-02-21 00:00:00+00:00,33.9293,35.2918,33.2712,34.0915,5179283.24
2021-02-22 00:00:00+00:00,34.0916,34.2185,25.2312,31.4542,13342706.36
2021-02-23 00:00:00+00:00,31.4482,31.6822,20.8088,25.9249,24333706.63
2021-02-24 00:00:00+00:00,25.9573,29.337,24.505,28.0851,11441037.71
2021-02-25 00:00:00+00:00,28.0737,28.6802,24.2509,24.7144,7925390.07
2021-02-26 00:00:00+00:00,24.7144,26.9906,23.6574,25.1862,9141896.37
2021-02-27 00:00:00+00:00,25.165,27.4472,24.8545,26.1896,7629090.66
2021-02-28 00:00:00+00:00,26.1941,26.7624,22.8578,24.7016,7913084.04
2021-03-01 00:00:00+00:00,24.6954,27.7326,24.5758,27.7116,12300905.73
2021-03-02 00:00:00+00:00,27.7187,30.5251,27.1757,28.4769,9716494.53
2021-03-03 00:00:00+00:00,28.464,31.43,28.1272,29.85,6863848.85
2021-03-04 00:00:00+00:00,29.8334,30.5731,27.1891,27.6943,6809212.29
2021-03-05 00:00:00+00:00,27.6856,28.2338,25.6483,27.8343,5835770.65
2021-03-06 00:00:00+00:00,27.8195,28.3985,26.2889,28.1479,3809103.37
2021-03-07 00:00:00+00:00,28.1608,29.1258,27.3859,28.5932,4599258.02
2021-03-08 00:00:00+00:00,28.5918,31.8469,28.2652,31.8469,7181496.7
2021-03-09 00:00:00+00:00,31.8227,32.0,30.3639,31.4914,5209845.28
2021-03-10 00:00:00+00:00,31.4914,31.7934,29.2545,29.9036,4916671.7
2021-03-11 00:00:00+00:00,29.8743,30.5285,28.5516,30.1166,5079711.85
2021-03-12 00:00:00+00:00,30.1227,30.411,27.3717,28.3553,4815001.06
2021-03-13 00:00:00+00:00,28.3523,30.57,26.9326,29.7384,5690169.1
2021-03-14 00:00:00+00:00,29.7506,30.2,28.5108,28.5469,3148221.83
2021-03-15 00:00:00+00:00,28.531,29.4217,26.8,27.5091,5267823.29
2021-03-16 00:00:00+00:00,27.5006,28.1883,26.3975,27.9099,3775086.95
2021-03-17 00:00:00+00:00,27.91,31.2,27.3027,31.0579,8170703.32
2021-03-18 00:00:00+00:00,31.0579,31.3588,29.0,29.3949,4993129.5
2021-03-19 00:00:00+00:00,29.3929,30.551,28.6802,29.777,3576087.99
2021-03-20 00:00:00+00:00,29.7866,31.4325,29.5701,29.6465,3370847.33
2021-03-21 00:00:00+00:00,29.6564,30.08,28.5817,29.2097,2589005.21
2021-03-22 00:00:00+00:00,29.2117,29.4444,27.1362,27.2431,3569707.65
2021-03-23 00:00:00+00:00,27.2551,27.9351,26.6283,26.7813,3697991.34
2021-03-24 00:00:00+00:00,26.7831,27.8814,23.61,24.8684,5130184.12
2021-03-25 00:00:00+00:00,24.8679,26.6401,24.3665,25.535,5165569.26
2021-03-26 00:00:00+00:00,25.53,27.4,25.3591,27.3927,4214750.51
2021-03-27 00:00:00+00:00,27.3988,27.4982,26.003,26.8766,2033830.6
2021-03-28 00:00:00+00:00,26.8765,27.6624,26.0889,26.6588,2209824.35
2021-03-29 00:00:00+00:00,26.6576,28.6203,26.3886,28.0357,3631401.63
2021-03-30 00:00:00+00:00,28.0356,28.5735,27.446,27.8301,2522498.95
2021-03-31 00:00:00+00:00,27.83,29.4401,26.18,29.4167,4354539.16
2021-04-01 00:00:00+00:00,29.4168,31.125,29.3143,30.0684,5441691.37
2021-04-02 00:00:00+00:00,30.0808,32.5555,29.361,32.4864,4541298.12
2021-04-03 00:00:00+00:00,32.4867,33.1707,29.1256,29.293,5352533.08
2021-04-04 00:00:00+00:00,29.293,31.4643,28.6801,30.7471,3036730.2
2021-04-05 00:00:00+00:00,30.7473,32.6399,29.6179,32.3791,5116263.33
2021-04-06 00:00:00+00:00,32.3791,34.9,31.3074,34.725,8893492.94
2021-04-07 00:00:00+00:00,34.7295,35.12,30.2286,31.109,7354475.72
2021-04-08 00:00:00+00:00,31.1008,32.8999,30.9466,32.7884,3548631.28
2021-04-09 00:00:00+00:00,32.787,33.2876,31.2348,31.5893,3146093.79
2021-04-10 00:00:00+00:00,31.5961,33.0,31.0,31.8944,3548018.58
2021-04-11 00:00:00+00:00,31.898,34.4397,31.7283,33.8811,4950189.88
2021-04-12 00:00:00+00:00,33.8811,34.1468,31.8601,33.108,4114028.73
2021-04-13 00:00:00+00:00,33.1023,35.8645,32.3842,35.5217,6101006.72
2021-04-14 00:00:00+00:00,35.5416,41.9901,35.0,41.3641,14042147.72
2021-04-15 00:00:00+00:00,41.3371,44.33,39.6638,42.5601,12590877.74
2021-04-16 00:00:00+00:00,42.5654,43.2902,38.5273,41.9861,9660045.35
2021-04-17 00:00:00+00:00,41.9797,44.1116,39.8304,39.9137,6767640.23
2021-04-18 00:00:00+00:00,39.9135,40.3436,28.8,39.0799,16201648.58
2021-04-19 00:00:00+00:00,39.0858,41.99,34.8144,35.7359,13081158.33
2021-04-20 00:00:00+00:00,35.7504,39.3901,33.1933,38.9954,12155649.58
2021-04-21 00:00:00+00:00,38.9983,39.4872,35.8933,36.2274,7984885.79
2021-04-22 00:00:00+00:00,36.2364,40.82,33.7859,35.1306,14019133.9
2021-04-23 00:00:00+00:00,35.1256,35.9643,30.02,35.2121,15422132.24
2021-04-24 00:00:00+00:00,35.2121,35.3033,31.0,31.2443,6655452.01
2021-04-25 00:00:00+00:00,31.237,33.432,29.801,31.692,4590476.743
2021-04-26 00:00:00+00:00,31.69,35.275,31.363,35.13,6660309.239
2021-04-27 00:00:00+00:00,35.112,37.665,34.483,36.788,5463142.477
2021-04-28 00:00:00+00:00,36.786,37.808,34.901,36.233,5219076.553
2021-04-29 00:00:00+00:00,36.253,37.45,35.0,36.467,5148499.846
2021-04-30 00:00:00+00:00,36.465,38.79,35.827,38.1,5295313.708
2021-05-01 00:00:00+00:00,38.101,41.27,37.428,41.257,5227786.221
2021-05-02 00:00:00+00:00,41.249,41.46,38.69,39.461,5208051.325
2021-05-03 00:00:00+00:00,39.461,42.728,39.166,42.052,6029697.571
2021-05-04 00:00:00+00:00,42.06,48.54,38.634,45.527,19637684.71
2021-05-05 00:00:00+00:00,45.508,51.2,44.865,49.575,16873790.901
2021-05-06 00:00:00+00:00,49.576,49.9,45.343,47.154,9895004.189
2021-05-07 00:00:00+00:00,47.148,51.969,45.666,49.129,10599319.111
2021-05-08 00:00:00+00:00,49.134,50.265,46.5,48.597,5902382.664
2021-05-09 00:00:00+00:00,48.607,52.426,45.83,52.269,8601375.485
2021-05-10 00:00:00+00:00,52.277,53.0,40.7,46.334,11459163.62
2021-05-11 00:00:00+00:00,46.326,49.0,44.576,48.826,7532480.798
2021-05-12 00:00:00+00:00,48.805,49.836,40.914,41.622,8304570.51
2021-05-13 00:00:00+00:00,41.541,44.958,39.227,43.287,10978718.589
2021-05-14 00:00:00+00:00,43.273,47.875,42.935,46.567,6310269.001
2021-05-15 00:00:00+00:00,46.558,47.8,40.975,41.492,9858340.364
2021-05-16 00:00:00+00:00,41.512,44.901,37.944,40.67,9820375.699
2021-05-17 00:00:00+00:00,40.662,40.674,35.068,37.177,10672040.785
2021-05-18 00:00:00+00:00,37.176,44.69,36.655,42.566,11237931.791
2021-05-19 00:00:00+00:00,42.555,43.5,21.0,26.227,30087569.964
2021-05-20 00:00:00+00:00,26.227,33.05,22.35,30.606,20474453.97
2021-05-21 00:00:00+00:00,30.633,31.945,22.019,25.546,16394437.613
2021-05-22 00:00:00+00:00,25.548,26.2,22.225,23.296,13176375.348
2021-05-23 00:00:00+00:00,23.293,24.368,15.0,19.844,28838486.247
2021-05-24 00:00:00+00:00,19.849,26.431,19.677,26.412,18781247.484
2021-05-25 00:00:00+00:00,26.4,27.644,23.673,27.503,13594283.818
2021-05-26 00:00:00+00:00,27.505,34.285,26.847,34.018,15626091.013
2021-05-27 00:00:00+00:00,34.03,35.334,30.033,31.732,14928881.511
2021-05-28 00:00:00+00:00,31.723,32.185,26.821,27.878,18329155.015
2021-05-29 00:00:00+00:00,27.872,29.734,24.12,25.365,11852877.566
2021-05-30 00:00:00+00:00,25.377,29.168,23.7,26.818,11581989.136
2021-05-31 00:00:00+00:00,26.813,32.159,25.555,32.098,11530173.536
2021-06-01 00:00:00+00:00,32.098,32.65,29.035,30.719,8541347.958
2021-06-02 00:00:00+00:00,30.729,32.218,29.669,30.67,6690371.855
2021-06-03 00:00:00+00:00,30.669,32.856,30.0,32.198,7153659.069
2021-06-04 00:00:00+00:00,32.199,32.267,27.172,28.826,11814359.672
2021-06-05 00:00:00+00:00,28.829,30.186,26.044,27.129,8061770.985
2021-06-06 00:00:00+00:00,27.127,28.19,26.818,27.532,4103120.692
2021-06-07 00:00:00+00:00,27.53,28.693,24.234,24.584,7596956.78
2021-06-08 00:00:00+00:00,24.574,25.098,21.334,24.076,12541377.995
2021-06-09 00:00:00+00:00,24.079,25.626,22.441,25.585,10774426.546
2021-06-10 00:00:00+00:00,25.589,25.78,22.721,23.114,8528580.189
2021-06-11 00:00:00+00:00,23.117,23.374,21.0,21.478,7708441.111
2021-06-12 00:00:00+00:00,21.475,22.287,20.0,21.67,8866594.23
2021-06-13 00:00:00+00:00,21.671,23.886,20.396,23.312,8518777.758
2021-06-14 00:00:00+00:00,23.314,25.28,22.837,24.973,8601439.911
2021-06-15 00:00:00+00:00,24.967,26.458,24.376,24.482,7591140.11
2021-06-16 00:00:00+00:00,24.48,24.64,22.918,23.044,7504910.032
2021-06-17 00:00:00+00:00,23.042,24.445,22.81,23.396,5252377.095
2021-06-18 00:00:00+00:00,23.401,23.425,20.526,21.233,6991986.015
2021-06-19 00:00:00+00:00,21.236,21.95,20.0,20.246,5051884.872
2021-06-20 00:00:00+00:00,20.263,22.071,19.077,21.646,6747456.736
2021-06-21 00:00:00+00:00,21.641,21.881,16.981,17.365,16334287.906
2021-06-22 00:00:00+00:00,17.357,18.797,15.0,16.85,19816152.567
2021-06-23 00:00:00+00:00,16.84,19.199,16.149,18.395,10955575.372
2021-06-24 00:00:00+00:00,18.393,19.525,17.352,19.06,6913929.289
2021-06-25 00:00:00+00:00,19.06,19.5,16.813,16.87,10064722.521
2021-06-26 00:00:00+00:00,16.872,17.495,15.92,16.952,8397555.9
2021-06-27 00:00:00+00:00,16.951,18.412,16.591,18.406,6672229.029
2021-06-28 00:00:00+00:00,18.407,19.434,17.902,18.83,7730969.378
2021-06-29 00:00:00+00:00,18.83,20.546,18.752,19.535,7920272.502
2021-06-30 00:00:00+00:00,19.531,19.776,18.149,19.516,7407061.566
2021-07-01 00:00:00+00:00,19.517,19.533,17.603,18.186,6081147.359
2021-07-02 00:00:00+00:00,18.184,18.523,17.256,18.274,5454370.72
2021-07-03 00:00:00+00:00,18.277,18.894,17.864,18.543,3457947.186
2021-07-04 00:00:00+00:00,18.543,19.925,18.002,19.242,4719545.203
2021-07-05 00:00:00+00:00,19.238,19.242,17.767,18.362,5293286.65
2021-07-06 00:00:00+00:00,18.364,20.271,18.317,20.073,8365971.342
2021-07-07 00:00:00+00:00,20.073,21.274,19.62,19.788,7382310.549
2021-07-08 00:00:00+00:00,19.786,19.873,18.138,18.353,7810651.198
2021-07-09 00:00:00+00:00,18.365,18.877,17.617,18.656,5274715.584
2021-07-10 00:00:00+00:00,18.656,18.988,17.734,18.204,4080693.184
2021-07-11 00:00:00+00:00,18.209,18.581,17.861,18.383,2750998.477
2021-07-12 00:00:00+00:00,18.382,18.609,17.0,17.518,3787713.432
2021-07-13 00:00:00+00:00,17.514,17.766,16.663,16.87,3654707.118
2021-07-14 00:00:00+00:00,16.873,17.419,16.014,16.936,5451319.438
2021-07-15 00:00:00+00:00,16.936,17.238,15.517,15.764,6244804.485
2021-07-16 00:00:00+00:00,15.764,16.33,15.125,15.234,5213696.453
2021-07-17 00:00:00+00:00,15.234,15.678,15.02,15.352,5177561.722
2021-07-18 00:00:00+00:00,15.352,16.078,15.155,15.47,3946695.121
2021-07-19 00:00:00+00:00,15.475,15.641,14.404,14.528,5829694.304
2021-07-20 00:00:00+00:00,14.529,14.783,13.384,13.742,7700512.325
2021-07-21 00:00:00+00:00,13.744,15.797,13.46,15.297,8493449.369
2021-07-22 00:00:00+00:00,15.3,16.176,14.961,16.071,5864766.171
2021-07-23 00:00:00+00:00,16.073,16.572,15.23,16.502,5208073.46
2021-07-24 00:00:00+00:00,16.507,17.132,16.307,16.683,5410931.847
2021-07-25 00:00:00+00:00,16.687,17.062,16.156,16.746,4708980.418
2021-07-26 00:00:00+00:00,16.745,19.958,16.662,18.028,14210837.673
2021-07-27 00:00:00+00:00,18.03,19.58,17.602,19.489,8327513.617
2021-07-28 00:00:00+00:00,19.483,19.987,18.611,19.109,7596790.315
2021-07-29 00:00:00+00:00,19.106,19.472,18.608,19.37,4161840.776
2021-07-30 00:00:00+00:00,19.372,22.666,18.823,22.269,12896563.782
2021-07-31 00:00:00+00:00,22.269,23.375,21.266,22.713,7637055.914
2021-08-01 00:00:00+00:00,22.722,23.94,21.789,22.062,8728644.337
2021-08-02 00:00:00+00:00,22.065,23.975,21.401,23.472,7225124.74
2021-08-03 00:00:00+00:00,23.474,24.431,22.039,23.942,9465472.392
2021-08-04 00:00:00+00:00,23.942,25.0,22.869,24.193,8225660.808
2021-08-05 00:00:00+00:00,24.188,24.335,22.468,24.057,7144781.467
2021-08-06 00:00:00+00:00,24.051,24.391,22.996,23.89,7433704.425
2021-08-07 00:00:00+00:00,23.889,25.157,23.626,24.694,6218217.158
2021-08-08 00:00:00+00:00,24.688,24.946,22.565,23.029,5179399.165
2021-08-09 00:00:00+00:00,23.026,24.691,22.072,24.197,5994876.946
2021-08-10 00:00:00+00:00,24.198,25.518,23.736,24.537,6592102.333
2021-08-11 00:00:00+00:00,24.536,27.313,24.459,25.906,7843592.877
2021-08-12 00:00:00+00:00,25.902,26.902,24.085,24.944,6385288.818
2021-08-13 00:00:00+00:00,24.941,27.771,24.715,27.748,4895829.581
2021-08-14 00:00:00+00:00,27.748,27.955,26.371,27.144,5869978.184
2021-08-15 00:00:00+00:00,27.139,27.983,25.901,27.901,4492523.836
2021-08-16 00:00:00+00:00,27.901,30.51,27.638,27.944,9364186.799
2021-08-17 00:00:00+00:00,27.95,30.299,25.881,26.146,9870163.634
2021-08-18 00:00:00+00:00,26.145,26.922,24.847,25.341,8437887.642
2021-08-19 00:00:00+00:00,25.341,27.132,24.479,27.096,7978787.57
2021-08-20 00:00:00+00:00,27.101,29.048,26.647,28.678,6765096.705
2021-08-21 00:00:00+00:00,28.681,29.156,27.648,27.844,5165729.464
2021-08-22 00:00:00+00:00,27.85,28.663,26.785,27.982,4266944.356
2021-08-23 00:00:00+00:00,27.981,29.3,27.78,28.552,6106352.511
2021-08-24 00:00:00+00:00,28.556,28.923,25.712,25.728,6394087.605
2021-08-25 00:00:00+00:00,25.728,26.879,25.279,26.612,5810278.155
2021-08-26 00:00:00+00:00,26.612,26.94,23.88,24.39,5809610.757
2021-08-27 00:00:00+00:00,24.38,26.14,24.0,26.04,5116792.068
2021-08-28 00:00:00+00:00,26.05,26.2,25.36,25.73,2939678.44
2021-08-29 00:00:00+00:00,25.74,26.57,25.14,25.76,3384982.599
2021-08-30 00:00:00+00:00,25.77,26.49,24.3,25.04,4514605.77
2021-08-31 00:00:00+00:00,25.03,27.537,24.69,26.7,7673601.309
2021-09-01 00:00:00+00:00,26.7,29.81,26.09,29.72,8266693.87
2021-09-02 00:00:00+00:00,29.72,30.88,28.75,29.95,7084187.065
2021-09-03 00:00:00+00:00,29.95,31.75,29.05,30.75,6866886.796
2021-09-04 00:00:00+00:00,30.75,31.17,29.39,29.88,4242332.29
2021-09-05 00:00:00+00:00,29.89,33.61,29.54,33.55,5891988.187
2021-09-06 00:00:00+00:00,33.54,36.33,32.44,34.81,10355273.267
2021-09-07 00:00:00+00:00,34.8,35.34,23.79,28.26,22716428.307
2021-09-08 00:00:00+00:00,28.25,29.19,25.18,27.16,13670715.16
2021-09-09 00:00:00+00:00,27.17,30.18,26.46,28.01,10379368.4
2021-09-10 00:00:00+00:00,28.01,29.56,25.62,26.39,9834554.01
2021-09-11 00:00:00+00:00,26.39,27.71,26.25,26.99,4993779.99
2021-09-12 00:00:00+00:00,27.0,29.77,26.36,29.42,6990717.38
2021-09-13 00:00:00+00:00,29.42,29.95,25.17,26.96,13538132.86
2021-09-14 00:00:00+00:00,26.96,30.85,26.73,30.8,10233565.39
2021-09-15 00:00:00+00:00,30.78,31.46,29.57,30.67,9772286.29
2021-09-16 00:00:00+00:00,30.68,32.11,29.04,29.8,9659752.1
2021-09-17 00:00:00+00:00,29.81,30.12,27.38,27.72,7110390.59
2021-09-18 00:00:00+00:00,27.73,29.46,27.39,28.39,4567816.67
2021-09-19 00:00:00+00:00,28.39,28.8,26.93,27.36,3892742.39
2021-09-20 00:00:00+00:00,27.37,27.43,23.0,23.57,12265514.894
2021-09-21 00:00:00+00:00,23.57,24.39,20.82,21.42,11263574.24
2021-09-22 00:00:00+00:00,21.42,24.5,21.03,24.45,7772096.46
2021-09-23 00:00:00+00:00,24.45,25.48,23.39,25.41,6813474.989
2021-09-24 00:00:00+00:00,25.42,25.5,21.35,23.26,10530560.3
2021-09-25 00:00:00+00:00,23.26,24.7,22.03,24.51,6978838.89
2021-09-26 00:00:00+00:00,24.5,25.38,22.36,24.6,11996414.44
2021-09-27 00:00:00+00:00,24.59,25.47,22.96,23.01,5674010.84
2021-09-28 00:00:00+00:00,23.02,23.75,22.0,22.1,6277178.15
2021-09-29 00:00:00+00:00,22.09,23.93,22.01,22.85,5352492.64
2021-09-30 00:00:00+00:00,22.85,24.4,22.72,24.0,5584599.18
2021-10-01 00:00:00+00:00,24.0,26.7,23.59,26.31,7425309.08
2021-10-02 00:00:00+00:00,26.32,27.81,25.82,26.89,5235579.85
2021-10-03 00:00:00+00:00,26.88,28.16,26.5,27.57,4506819.77
2021-10-04 00:00:00+00:00,27.56,27.67,25.59,26.6,5539695.96
2021-10-05 00:00:00+00:00,26.62,27.49,26.19,27.23,5119998.39
2021-10-06 00:00:00+00:00,27.23,28.19,25.2,26.8,6976264.13
2021-10-07 00:00:00+00:00,26.8,27.71,25.9,26.83,6025827.07
2021-10-08 00:00:00+00:00,26.84,27.46,26.12,26.39,4972738.23
2021-10-09 00:00:00+00:00,26.4,27.89,26.05,27.45,4731175.38
2021-10-10 00:00:00+00:00,27.45,27.49,25.44,25.56,3914402.57
2021-10-11 00:00:00+00:00,25.55,26.76,24.63,25.22,4293243.83
2021-10-12 00:00:00+00:00,25.22,25.27,23.53,24.65,5370932.72
2021-10-13 00:00:00+00:00,24.63,25.67,24.16,25.66,6207286.13
2021-10-14 00:00:00+00:00,25.67,27.88,25.38,26.72,7753968.37
2021-10-15 00:00:00+00:00,26.71,27.38,26.01,27.01,7635027.67
2021-10-16 00:00:00+00:00,27.01,28.7,26.92,27.23,6223161.96
2021-10-17 00:00:00+00:00,27.22,27.63,25.58,26.54,4590060.14
2021-10-18 00:00:00+00:00,26.54,26.74,25.26,25.71,4419668.63
2021-10-19 00:00:00+00:00,25.71,26.29,25.36,25.91,3568771.92
2021-10-20 00:00:00+00:00,25.9,27.66,25.85,27.49,4477050.21
2021-10-21 00:00:00+00:00,27.48,29.34,27.19,28.26,9719211.48
2021-10-22 00:00:00+00:00,28.27,30.04,28.02,28.67,7699280.53
2021-10-23 00:00:00+00:00,28.68,31.46,28.3,31.36,8142359.19
2021-10-24 00:00:00+00:00,31.37,31.53,28.72,29.7,5743439.15
2021-10-25 00:00:00+00:00,29.71,32.9,29.53,32.38,7440428.58
2021-10-26 00:00:00+00:00,32.38,33.82,31.31,32.52,6553789.22
2021-10-27 00:00:00+00:00,32.52,33.91,27.91,28.88,12021487.77
2021-10-28 00:00:00+00:00,28.89,30.85,28.61,30.19,7186569.57
2021-10-29 00:00:00+00:00,30.19,31.96,29.94,30.96,5402654.58
2021-10-30 00:00:00+00:00,30.96,31.12,29.16,29.79,3768896.65
2021-10-31 00:00:00+00:00,29.78,30.68,28.65,30.0,4380461.27
2021-11-01 00:00:00+00:00,30.0,31.87,29.14,31.66,4961708.55
2021-11-02 00:00:00+00:00,31.67,32.48,31.0,32.26,4634421.26
2021-11-03 00:00:00+00:00,32.27,32.78,30.54,31.96,4908993.56
2021-11-04 00:00:00+00:00,31.97,32.11,30.2,31.0,3782722.68
2021-11-05 00:00:00+00:00,30.99,33.71,30.66,32.86,6695588.25
2021-11-06 00:00:00+00:00,32.86,33.2,30.72,32.05,4479318.72
2021-11-07 00:00:00+00:00,32.05,32.59,31.71,32.34,2854681.46
2021-11-08 00:00:00+00:00,32.34,34.82,32.18,34.46,6265144.9
2021-11-09 00:00:00+00:00,34.46,35.62,33.38,33.82,5454354.68
2021-11-10 00:00:00+00:00,33.82,38.31,31.9,34.21,13584912.625
2021-11-11 00:00:00+00:00,34.21,36.95,33.34,34.69,7608988.9
2021-11-12 00:00:00+00:00,34.68,35.46,32.67,34.26,5997062.19
2021-11-13 00:00:00+00:00,34.26,34.58,33.19,34.0,3374260.7
2021-11-14 00:00:00+00:00,34.0,34.43,32.53,33.75,2898724.84
2021-11-15 00:00:00+00:00,33.75,34.5,31.98,32.04,4212705.79
2021-11-16 00:00:00+00:00,32.05,32.06,28.0,29.16,10287002.12
2021-11-17 00:00:00+00:00,29.16,29.74,28.03,29.18,5076689.07
2021-11-18 00:00:00+00:00,29.19,29.72,25.82,26.55,7061894.53
2021-11-19 00:00:00+00:00,26.55,28.85,26.08,28.27,5005660.19
2021-11-20 00:00:00+00:00,28.27,28.72,27.26,28.36,4535914.25
2021-11-21 00:00:00+00:00,28.37,29.26,27.69,28.98,3837676.91
2021-11-22 00:00:00+00:00,29.0,29.09,26.31,26.77,4773826.99
2021-11-23 00:00:00+00:00,26.77,27.57,26.17,26.94,4650554.32
2021-11-24 00:00:00+00:00,26.94,27.15,25.15,25.58,4968971.25
2021-11-25 00:00:00+00:00,25.58,27.61,25.37,26.41,5650379.16
2021-11-26 00:00:00+00:00,26.41,26.59,22.9,23.96,10693190.38
2021-11-27 00:00:00+00:00,23.96,24.99,23.78,24.1,3976318.59
2021-11-28 00:00:00+00:00,24.09,25.01,22.63,24.76,4563690.39
2021-11-29 00:00:00+00:00,24.76,25.61,24.54,24.99,4733398.72
2021-11-30 00:00:00+00:00,24.99,26.52,24.11,25.31,5806301.22
2021-12-01 00:00:00+00:00,25.31,26.9,24.96,25.32,4642138.01
2021-12-02 00:00:00+00:00,25.32,25.33,24.16,24.55,3910782.56
2021-12-03 00:00:00+00:00,24.54,25.85,22.44,23.31,5725480.6
2021-12-04 00:00:00+00:00,23.31,23.36,15.32,20.64,20782013.826
2021-12-05 00:00:00+00:00,20.65,20.93,18.46,19.48,7454749.61
2021-12-06 00:00:00+00:00,19.49,20.01,17.21,19.8,8513440.09
2021-12-07 00:00:00+00:00,19.79,21.18,19.7,21.09,7483015.81
2021-12-08 00:00:00+00:00,21.08,23.2,20.75,22.91,11114837.71
2021-12-09 00:00:00+00:00,22.91,23.05,20.25,20.25,8209134.24
2021-12-10 00:00:00+00:00,20.25,20.88,18.46,18.56,7767639.78
2021-12-11 00:00:00+00:00,18.55,20.22,18.16,19.97,5569559.09
2021-12-12 00:00:00+00:00,19.97,20.8,19.2,20.41,3211538.08
2021-12-13 00:00:00+00:00,20.41,20.56,17.3,17.78,7022411.65
2021-12-14 00:00:00+00:00,17.78,18.61,17.44,18.44,5679303.2
2021-12-15 00:00:00+00:00,18.43,20.0,17.26,19.69,7026159.04
2021-12-16 00:00:00+00:00,19.7,20.34,18.69,18.76,4943919.45
2021-12-17 00:00:00+00:00,18.77,19.23,17.74,18.25,5458704.38
2021-12-18 00:00:00+00:00,18.26,20.0,17.81,19.54,5362509.6
2021-12-19 00:00:00+00:00,19.53,20.38,18.8,18.86,4918775.96
2021-12-20 00:00:00+00:00,18.86,19.2,18.04,18.78,5052339.6
2021-12-21 00:00:00+00:00,18.79,19.67,18.37,19.42,3667347.22
2021-12-22 00:00:00+00:00,19.41,20.83,19.2,19.93,5032493.39
2021-12-23 00:00:00+00:00,19.92,22.22,19.57,22.17,7579889.52
2021-12-24 00:00:00+00:00,22.18,22.66,21.2,21.48,5593044.19
2021-12-25 00:00:00+00:00,21.48,22.39,21.29,22.1,3223439.24
2021-12-26 00:00:00+00:00,22.11,23.58,21.12,22.98,6566168.47
2021-12-27 00:00:00+00:00,22.99,24.49,22.75,23.02,6522100.46
2021-12-28 00:00:00+00:00,23.02,23.02,20.32,20.37,9022968.5
2021-12-29 00:00:00+00:00,20.38,20.97,19.53,19.74,6951841.9
2021-12-30 00:00:00+00:00,19.74,20.44,19.17,19.93,6009325.13
2021-12-31 00:00:00+00:00,19.94,20.63,19.04,19.51,5579016.19
2022-01-01 00:00:00+00:00,19.52,20.79,19.5,20.76,3459474.38
2022-01-02 00:00:00+00:00,20.75,22.2,20.57,21.87,5108786.84
2022-01-03 00:00:00+00:00,21.86,23.75,21.25,23.72,7982877.02
2022-01-04 00:00:00+00:00,23.72,24.49,22.71,23.42,10784755.22
2022-01-05 00:00:00+00:00,23.43,27.48,22.29,25.24,24289357.8
2022-01-06 00:00:00+00:00,25.24,25.98,23.34,25.38,17086946.69
2022-01-07 00:00:00+00:00,25.39,27.33,22.65,25.98,22033325.64
2022-01-08 00:00:00+00:00,25.98,27.33,23.51,25.32,15635153.07
2022-01-09 00:00:00+00:00,25.31,28.68,25.08,27.54,18630446.63
2022-01-10 00:00:00+00:00,27.54,28.51,25.07,27.98,18516507.58
2022-01-11 00:00:00+00:00,27.98,28.71,25.84,26.59,13498246.97
2022-01-12 00:00:00+00:00,26.6,27.25,25.61,26.75,10319762.43
2022-01-13 00:00:00+00:00,26.76,26.76,24.43,24.86,7890385.69
2022-01-14 00:00:00+00:00,24.86,25.89,23.91,25.72,6488595.95
2022-01-15 00:00:00+00:00,25.72,26.22,25.11,25.17,4141482.21
2022-01-16 00:00:00+00:00,25.17,26.34,24.65,25.5,4415951.38
2022-01-17 00:00:00+00:00,25.51,25.62,23.27,23.79,4471877.32
2022-01-18 00:00:00+00:00,23.79,24.34,22.04,22.96,4910863.58
2022-01-19 00:00:00+00:00,22.96,23.15,21.22,21.55,5688676.47
2022-01-20 00:00:00+00:00,21.54,22.98,20.04,20.17,5603272.17
2022-01-21 00:00:00+00:00,20.18,20.51,17.1,17.42,14621190.27
2022-01-22 00:00:00+00:00,17.41,17.82,14.24,15.85,18934134.953
2022-01-23 00:00:00+00:00,15.86,16.88,15.15,16.64,9533639.18
2022-01-24 00:00:00+00:00,16.63,16.65,13.48,15.58,14743580.999
2022-01-25 00:00:00+00:00,15.58,16.03,14.59,15.49,7694012.53
2022-01-26 00:00:00+00:00,15.5,16.8,14.68,15.23,9794747.0
2022-01-27 00:00:00+00:00,15.23,15.71,14.29,15.22,8536301.47
2022-01-28 00:00:00+00:00,15.22,16.28,14.74,16.15,6246161.02
2022-01-29 00:00:00+00:00,16.14,16.75,15.96,16.23,3920458.64
2022-01-30 00:00:00+00:00,16.23,18.1,16.01,17.77,7593446.41
2022-01-31 00:00:00+00:00,17.76,17.88,16.45,17.15,7695443.58
2022-02-01 00:00:00+00:00,17.15,17.91,16.8,16.98,5923564.6
2022-02-02 00:00:00+00:00,16.98,17.38,15.56,15.78,4741039.26
2022-02-03 00:00:00+00:00,15.78,16.33,15.26,16.3,5327213.34
2022-02-04 00:00:00+00:00,16.31,17.55,16.0,17.5,5829149.36
2022-02-05 00:00:00+00:00,17.5,18.32,17.42,17.76,5007027.59
2022-02-06 00:00:00+00:00,17.75,18.17,17.17,18.07,3114467.57
2022-02-07 00:00:00+00:00,18.06,19.4,17.65,18.88,6242937.28
2022-02-08 00:00:00+00:00,18.89,19.54,17.72,18.38,6603587.99
2022-02-09 00:00:00+00:00,18.38,18.75,17.75,18.67,3742482.7
2022-02-10 00:00:00+00:00,18.67,18.75,17.35,17.5,5796638.84
2022-02-11 00:00:00+00:00,17.51,17.81,15.89,16.21,4468507.35
2022-02-12 00:00:00+00:00,16.2,16.38,15.56,15.95,4161869.44
2022-02-13 00:00:00+00:00,15.96,16.33,15.52,15.6,2671296.28
2022-02-14 00:00:00+00:00,15.61,16.12,15.2,15.9,3638626.12
2022-02-15 00:00:00+00:00,15.91,17.45,15.81,17.34,4132749.5
2022-02-16 00:00:00+00:00,17.34,17.41,16.49,17.12,3608928.92
2022-02-17 00:00:00+00:00,17.13,17.45,15.45,15.59,4927491.83
2022-02-18 00:00:00+00:00,15.6,16.06,15.03,15.19,3855947.82
2022-02-19 00:00:00+00:00,15.18,15.68,14.84,15.51,3219793.29
2022-02-20 00:00:00+00:00,15.52,15.53,14.39,14.6,3837683.54
2022-02-21 00:00:00+00:00,14.61,15.31,13.38,13.51,7372976.51
2022-02-22 00:00:00+00:00,13.5,14.2,13.02,13.99,5856340.62
2022-02-23 00:00:00+00:00,13.98,14.66,13.3,13.35,5114288.86
2022-02-24 00:00:00+00:00,13.34,13.95,11.4,13.27,15759305.0
2022-02-25 00:00:00+00:00,13.27,14.49,13.08,14.36,6030934.14
2022-02-26 00:00:00+00:00,14.36,15.05,14.09,14.72,5169319.32
2022-02-27 00:00:00+00:00,14.71,14.86,13.47,13.64,6636801.7
2022-02-28 00:00:00+00:00,13.64,15.15,13.31,15.13,6565276.42
2022-03-01 00:00:00+00:00,15.12,15.73,14.72,15.35,6417303.01
2022-03-02 00:00:00+00:00,15.34,15.87,14.91,15.28,6289045.87
2022-03-03 00:00:00+00:00,15.29,15.38,14.46,14.89,4619929.39
2022-03-04 00:00:00+00:00,14.89,14.98,13.54,13.73,6010183.64
2022-03-05 00:00:00+00:00,13.74,14.27,13.41,14.03,2774984.85
2022-03-06 00:00:00+00:00,14.02,14.12,13.25,13.32,3535626.53
2022-03-07 00:00:00+00:00,13.31,13.67,12.42,12.68,7302965.91
2022-03-08 00:00:00+00:00,12.67,13.56,12.58,13.08,6877422.56
2022-03-09 00:00:00+00:00,13.08,14.46,13.05,14.01,6460526.1
2022-03-10 00:00:00+00:00,14.0,14.11,12.96,13.17,5469282.04
2022-03-11 00:00:00+00:00,13.18,13.65,12.8,13.05,4657580.01
2022-03-12 00:00:00+00:00,13.04,13.46,13.02,13.15,2499460.74
2022-03-13 00:00:00+00:00,13.15,13.43,12.59,12.7,2732503.8
2022-03-14 00:00:00+00:00,12.71,13.44,12.6,13.41,4643719.7
2022-03-15 00:00:00+00:00,13.41,13.8,12.87,13.69,3454099.55
2022-03-16 00:00:00+00:00,13.69,14.78,13.66,14.66,6546791.14
2022-03-17 00:00:00+00:00,14.66,14.93,14.23,14.4,4152174.08
2022-03-18 00:00:00+00:00,14.41,15.27,14.12,15.01,4421110.43
2022-03-19 00:00:00+00:00,15.0,15.4,14.83,15.01,3285256.26
2022-03-20 00:00:00+00:00,15.01,15.13,14.42,14.54,2883923.42
2022-03-21 00:00:00+00:00,14.54,15.28,14.3,15.0,3719572.96
2022-03-22 00:00:00+00:00,14.99,15.86,14.98,15.43,4500280.54
2022-03-23 00:00:00+00:00,15.43,15.98,15.13,15.83,3827078.04
2022-03-24 00:00:00+00:00,15.84,16.44,15.6,16.17,5204988.98
2022-03-25 00:00:00+00:00,16.16,16.46,15.47,15.59,4654254.07
2022-03-26 00:00:00+00:00,15.6,15.96,15.49,15.83,2425031.02
2022-03-27 00:00:00+00:00,15.83,16.91,15.63,16.87,3937478.83
2022-03-28 00:00:00+00:00,16.86,17.37,16.34,16.5,5918598.6
2022-03-29 00:00:00+00:00,16.5,17.52,16.47,16.98,4496577.65
2022-03-30 00:00:00+00:00,16.98,17.58,16.53,17.22,4866676.4
2022-03-31 00:00:00+00:00,17.21,18.05,16.64,16.91,5770687.14
2022-04-01 00:00:00+00:00,16.91,17.37,16.16,17.34,4521915.84
2022-04-02 00:00:00+00:00,17.34,17.87,17.1,17.4,3634084.25
2022-04-03 00:00:00+00:00,17.4,18.32,17.15,18.08,3430897.49
2022-04-04 00:00:00+00:00,18.07,18.08,16.82,17.5,3811139.33
2022-04-05 00:00:00+00:00,17.51,17.66,16.66,16.74,2337093.84
2022-04-06 00:00:00+00:00,16.75,16.79,15.27,15.41,4629748.58
2022-04-07 00:00:00+00:00,15.41,15.88,15.1,15.75,2867861.76
