datetime,open,high,low,close,volume
2019-07-05 00:00:00+00:00,0.00449,0.0046,0.00355,0.0038701,1928297660.0
2019-07-06 00:00:00+00:00,0.0038741,0.0039426,0.0033652,0.0035,1010744287.0
2019-07-07 00:00:00+00:00,0.003504,0.00365,0.0034,0.0035377,530613992.0
2019-07-08 00:00:00+00:00,0.0035378,0.0035618,0.0034,0.003458,308445688.0
2019-07-09 00:00:00+00:00,0.003462,0.003582,0.0033564,0.0034545,253375582.0
2019-07-10 00:00:00+00:00,0.0034576,0.0035294,0.003251,0.0033421,241274866.0
2019-07-11 00:00:00+00:00,0.0033358,0.0033395,0.0030909,0.003209,202811394.0
2019-07-12 00:00:00+00:00,0.0032105,0.0033598,0.0031562,0.0032622,228622573.0
2019-07-13 00:00:00+00:00,0.0032626,0.0032653,0.0031358,0.0032532,110731940.0
2019-07-14 00:00:00+00:00,0.0032474,0.0032788,0.0029008,0.0029175,216658454.0
2019-07-15 00:00:00+00:00,0.0029175,0.0031354,0.0028011,0.0030712,220027648.0
2019-07-16 00:00:00+00:00,0.0030624,0.0031009,0.0027323,0.0027994,159080438.0
2019-07-17 00:00:00+00:00,0.0027995,0.002986,0.0027063,0.0028822,320691294.0
2019-07-18 00:00:00+00:00,0.0028663,0.0031251,0.0027797,0.0030979,263423204.0
2019-07-19 00:00:00+00:00,0.0031008,0.0031068,0.0029202,0.0030232,101195703.0
2019-07-20 00:00:00+00:00,0.0030131,0.0031528,0.003,0.0030787,106012025.0
2019-07-21 00:00:00+00:00,0.0030701,0.0031272,0.0029872,0.0030468,59882988.0
2019-07-22 00:00:00+00:00,0.0030533,0.0030816,0.00292,0.0029567,92581872.0
2019-07-23 00:00:00+00:00,0.0029567,0.0029567,0.002816,0.0028192,161810410.0
2019-07-24 00:00:00+00:00,0.0028195,0.0028819,0.0027629,0.0028741,68490381.0
2019-07-25 00:00:00+00:00,0.0028555,0.0029487,0.0028476,0.0028656,149944114.0
2019-07-26 00:00:00+00:00,0.0028656,0.0029033,0.0028177,0.0028798,29517748.0
2019-07-27 00:00:00+00:00,0.00289,0.00296,0.0027551,0.0028047,86758314.0
2019-07-28 00:00:00+00:00,0.0027973,0.0028137,0.002726,0.0027932,49225120.0
2019-07-29 00:00:00+00:00,0.0027884,0.002884,0.0027637,0.0027663,65013586.0
2019-07-30 00:00:00+00:00,0.0027663,0.00288,0.0027457,0.0027885,60008976.0
2019-07-31 00:00:00+00:00,0.0027949,0.0028761,0.0027889,0.0028583,58120004.0
2019-08-01 00:00:00+00:00,0.0028571,0.0030617,0.0028248,0.0029004,85256838.0
2019-08-02 00:00:00+00:00,0.0029004,0.0029272,0.002861,0.0028996,64329108.0
2019-08-03 00:00:00+00:00,0.0028951,0.002949,0.0028768,0.0028994,54942112.0
2019-08-04 00:00:00+00:00,0.0028999,0.0029985,0.0028424,0.0029222,88247046.0
2019-08-05 00:00:00+00:00,0.0029196,0.0031998,0.0029196,0.0030428,213937390.0
2019-08-06 00:00:00+00:00,0.0030443,0.003084,0.0029124,0.0029557,128970146.0
2019-08-07 00:00:00+00:00,0.0029569,0.0030399,0.0028759,0.0029856,116634874.0
2019-08-08 00:00:00+00:00,0.0029972,0.0029972,0.0028544,0.0029635,72936578.0
2019-08-09 00:00:00+00:00,0.0029725,0.0029725,0.0028375,0.002913,53069425.0
2019-08-10 00:00:00+00:00,0.0029211,0.0029432,0.0028085,0.00285,40358430.0
2019-08-11 00:00:00+00:00,0.00285,0.0028995,0.0028281,0.0028874,48121732.0
2019-08-12 00:00:00+00:00,0.0028893,0.0028999,0.0028455,0.0028516,37974663.0
2019-08-13 00:00:00+00:00,0.0028527,0.0028643,0.0027802,0.0028339,47685418.0
2019-08-14 00:00:00+00:00,0.0028343,0.0028399,0.0027,0.0027161,89470204.0
2019-08-15 00:00:00+00:00,0.002723,0.0027695,0.0025578,0.0025916,83406275.0
2019-08-16 00:00:00+00:00,0.0025813,0.002718,0.0025112,0.002651,71483283.0
2019-08-17 00:00:00+00:00,0.002648,0.0026632,0.0025778,0.0026251,48842468.0
2019-08-18 00:00:00+00:00,0.0026254,0.0027214,0.002587,0.002695,101432503.0
2019-08-19 00:00:00+00:00,0.0026922,0.0028146,0.0026676,0.0027816,111202618.0
2019-08-20 00:00:00+00:00,0.0027787,0.002785,0.0026798,0.002712,29889824.0
2019-08-21 00:00:00+00:00,0.002712,0.0027153,0.0025633,0.0026398,67428707.0
2019-08-22 00:00:00+00:00,0.0026404,0.0027165,0.0025527,0.0026458,70942538.0
2019-08-23 00:00:00+00:00,0.0026486,0.002693,0.0026153,0.0026668,49673949.0
2019-08-24 00:00:00+00:00,0.0026644,0.0026785,0.0025647,0.0026222,61164375.0
2019-08-25 00:00:00+00:00,0.0026274,0.002666,0.002582,0.0026237,59937736.0
2019-08-26 00:00:00+00:00,0.0026192,0.0027048,0.0025931,0.0026409,75309430.0
2019-08-27 00:00:00+00:00,0.002637,0.00264,0.0025763,0.0025993,57813268.0
2019-08-28 00:00:00+00:00,0.0026014,0.0026014,0.0024772,0.0024965,73252773.0
2019-08-29 00:00:00+00:00,0.0024956,0.0024958,0.002339,0.0024244,101148551.0
2019-08-30 00:00:00+00:00,0.0024421,0.0024939,0.0023879,0.0024449,37512207.0
2019-08-31 00:00:00+00:00,0.0024517,0.0024878,0.0024118,0.0024528,36338319.0
2019-09-01 00:00:00+00:00,0.002452,0.0024851,0.0024109,0.0024603,35956148.0
2019-09-02 00:00:00+00:00,0.0024635,0.0026167,0.0024377,0.0025882,53572010.0
2019-09-03 00:00:00+00:00,0.002591,0.0026054,0.0025313,0.0025593,64679806.0
2019-09-04 00:00:00+00:00,0.0025647,0.0025711,0.0025,0.0025097,32789886.0
2019-09-05 00:00:00+00:00,0.0025221,0.0025221,0.0024589,0.0024909,44318276.0
2019-09-06 00:00:00+00:00,0.0024897,0.0025054,0.0024,0.00247,81836503.0
2019-09-07 00:00:00+00:00,0.0024504,0.002507,0.0024029,0.0024542,79415288.0
2019-09-08 00:00:00+00:00,0.002465,0.0025306,0.0024,0.0024585,89538969.0
2019-09-09 00:00:00+00:00,0.0024453,0.0024692,0.0024,0.0024351,61000344.0
2019-09-10 00:00:00+00:00,0.0024351,0.0024612,0.0023849,0.0024185,33219768.0
2019-09-11 00:00:00+00:00,0.0024193,0.0024386,0.0023601,0.0023892,52887165.0
2019-09-12 00:00:00+00:00,0.0023912,0.002431,0.0023265,0.0023928,48542765.0
2019-09-13 00:00:00+00:00,0.0023906,0.0024128,0.00236,0.002399,35317492.0
2019-09-14 00:00:00+00:00,0.0024089,0.002437,0.0023701,0.0024192,33725888.0
2019-09-15 00:00:00+00:00,0.0024233,0.0024851,0.00239,0.002426,68647235.0
2019-09-16 00:00:00+00:00,0.0024249,0.0024765,0.0023978,0.0024309,53894420.0
2019-09-17 00:00:00+00:00,0.0024316,0.00262,0.00241,0.002594,135069011.0
2019-09-18 00:00:00+00:00,0.0025972,0.0028103,0.0025527,0.0027015,344364326.0
2019-09-19 00:00:00+00:00,0.0027028,0.0027322,0.00254,0.0027083,161540615.0
2019-09-20 00:00:00+00:00,0.0027062,0.0027062,0.0026147,0.0026497,70347331.0
2019-09-21 00:00:00+00:00,0.0026497,0.0026619,0.002539,0.0025772,76693753.0
2019-09-22 00:00:00+00:00,0.00257,0.002599,0.0025173,0.002562,92043003.0
2019-09-23 00:00:00+00:00,0.0025697,0.0025719,0.0024474,0.0024474,76897524.0
2019-09-24 00:00:00+00:00,0.0024474,0.0024731,0.0019317,0.00219,155910476.0
2019-09-25 00:00:00+00:00,0.0021893,0.0022241,0.0020665,0.0021757,110825983.0
2019-09-26 00:00:00+00:00,0.0021693,0.0022375,0.0020185,0.0021396,204393624.0
2019-09-27 00:00:00+00:00,0.0021348,0.002199,0.0020985,0.0021723,88331166.0
2019-09-28 00:00:00+00:00,0.002176,0.002232,0.0021401,0.0021974,75661286.0
2019-09-29 00:00:00+00:00,0.0022033,0.0022399,0.0021235,0.0021854,79511131.0
2019-09-30 00:00:00+00:00,0.002203,0.0024733,0.0021264,0.0023747,263988602.0
2019-10-01 00:00:00+00:00,0.0023791,0.0025001,0.0023473,0.0023503,151860063.0
2019-10-02 00:00:00+00:00,0.0023561,0.0023692,0.0022809,0.002323,88034436.0
2019-10-03 00:00:00+00:00,0.002323,0.002325,0.0022353,0.0022977,81022529.0
2019-10-04 00:00:00+00:00,0.002298,0.002325,0.0022398,0.0022893,52314904.0
2019-10-05 00:00:00+00:00,0.0022882,0.0023051,0.0022614,0.0022922,53899895.0
2019-10-06 00:00:00+00:00,0.0022993,0.0023048,0.0022275,0.0022677,72718151.0
2019-10-07 00:00:00+00:00,0.0022659,0.0023654,0.0022368,0.002331,69936960.0
2019-10-08 00:00:00+00:00,0.0023298,0.0023649,0.0022783,0.0023096,89953557.0
2019-10-09 00:00:00+00:00,0.0023096,0.0023652,0.0022467,0.0023522,128533706.0
2019-10-10 00:00:00+00:00,0.002346,0.0023512,0.0022927,0.0023,74485978.0
2019-10-11 00:00:00+00:00,0.002297,0.0023411,0.002225,0.0022909,61631506.0
2019-10-12 00:00:00+00:00,0.002288,0.002331,0.0022751,0.0023196,70374904.0
2019-10-13 00:00:00+00:00,0.002319,0.0026349,0.0023096,0.0024317,506106744.0
2019-10-14 00:00:00+00:00,0.0024312,0.00275,0.0024067,0.0025415,1281613616.0
2019-10-15 00:00:00+00:00,0.0025482,0.00258,0.0024652,0.0024964,142270876.0
2019-10-16 00:00:00+00:00,0.0024957,0.0026228,0.0024851,0.0026162,271043906.0
2019-10-17 00:00:00+00:00,0.0026117,0.002974,0.0025778,0.0027405,673256287.0
2019-10-18 00:00:00+00:00,0.002735,0.0028665,0.0026311,0.0026952,262101555.0
2019-10-19 00:00:00+00:00,0.0026944,0.0027949,0.0026467,0.0027176,103435078.0
2019-10-20 00:00:00+00:00,0.0027179,0.0027575,0.0026407,0.0027151,113305480.0
2019-10-21 00:00:00+00:00,0.0027079,0.00295,0.0025758,0.0026879,287285773.0
2019-10-22 00:00:00+00:00,0.0026884,0.0027297,0.0025085,0.0025311,948366683.0
2019-10-23 00:00:00+00:00,0.0025386,0.002565,0.0021,0.0024746,399964920.0
2019-10-24 00:00:00+00:00,0.0024805,0.00255,0.0024,0.0025183,176236372.0
2019-10-25 00:00:00+00:00,0.0025183,0.0027799,0.0024652,0.0026694,330206126.0
2019-10-26 00:00:00+00:00,0.0026694,0.002898,0.0025577,0.0025925,327792551.0
2019-10-27 00:00:00+00:00,0.0026061,0.0029542,0.00256,0.00264,203666784.0
2019-10-28 00:00:00+00:00,0.00264,0.00275,0.0026234,0.0026265,179647401.0
2019-10-29 00:00:00+00:00,0.0026379,0.0026952,0.002615,0.002625,136659517.0
2019-10-30 00:00:00+00:00,0.002625,0.0026649,0.0025584,0.0025936,202095484.0
2019-10-31 00:00:00+00:00,0.0025891,0.0026357,0.0025473,0.0025844,93293235.0
2019-11-01 00:00:00+00:00,0.0025811,0.002675,0.0025522,0.0025932,48308176.0
2019-11-02 00:00:00+00:00,0.0025994,0.0026114,0.0025463,0.0025773,136199748.0
2019-11-03 00:00:00+00:00,0.0025966,0.0026369,0.0025427,0.0025861,94348909.0
2019-11-04 00:00:00+00:00,0.0025803,0.0026,0.002538,0.0025751,89131455.0
2019-11-05 00:00:00+00:00,0.0025751,0.0026045,0.0025501,0.0025927,89896615.0
2019-11-06 00:00:00+00:00,0.0025881,0.00261,0.00255,0.0025952,78525806.0
2019-11-07 00:00:00+00:00,0.0025942,0.0027449,0.0025694,0.0026982,389579342.0
2019-11-08 00:00:00+00:00,0.002704,0.0027096,0.002535,0.0026381,140343464.0
2019-11-09 00:00:00+00:00,0.0026442,0.0027351,0.0026079,0.0027126,355378242.0
2019-11-10 00:00:00+00:00,0.0027078,0.0027849,0.0026647,0.0027565,305203814.0
2019-11-11 00:00:00+00:00,0.0027653,0.0027687,0.002646,0.002705,145629942.0
2019-11-12 00:00:00+00:00,0.0027042,0.0027244,0.0026456,0.0027078,116799812.0
2019-11-13 00:00:00+00:00,0.0027078,0.0027078,0.0026316,0.0026821,140516822.0
2019-11-14 00:00:00+00:00,0.0026751,0.0026862,0.0025991,0.002662,99444648.0
2019-11-15 00:00:00+00:00,0.002665,0.00271,0.0025767,0.002658,196496664.0
2019-11-16 00:00:00+00:00,0.0026504,0.0027,0.0026164,0.0026606,184465713.0
2019-11-17 00:00:00+00:00,0.0026517,0.0026619,0.0025893,0.0026258,81768446.0
2019-11-18 00:00:00+00:00,0.0026159,0.0026299,0.0025002,0.0025395,72203979.0
2019-11-19 00:00:00+00:00,0.0025351,0.0025381,0.0024883,0.0025165,60867796.0
2019-11-20 00:00:00+00:00,0.0025206,0.00259,0.0025065,0.0025225,51326120.0
2019-11-21 00:00:00+00:00,0.0025209,0.0025302,0.0023,0.0024063,139844659.0
2019-11-22 00:00:00+00:00,0.0024059,0.0024426,0.0021733,0.0023524,165526781.0
2019-11-23 00:00:00+00:00,0.0023528,0.0024,0.0022612,0.0023994,172491867.0
2019-11-24 00:00:00+00:00,0.0023892,0.0023892,0.0022323,0.002233,116673800.0
2019-11-25 00:00:00+00:00,0.0022368,0.0023206,0.002081,0.0022539,150700812.0
2019-11-26 00:00:00+00:00,0.0022474,0.0023128,0.0022267,0.0022663,46658505.0
2019-11-27 00:00:00+00:00,0.0022663,0.00236,0.0021866,0.0023208,98287760.0
2019-11-28 00:00:00+00:00,0.0023153,0.00236,0.0022614,0.002272,98429449.0
2019-11-29 00:00:00+00:00,0.0022735,0.0023733,0.0022722,0.0023593,98438924.0
2019-11-30 00:00:00+00:00,0.0023593,0.0023607,0.0022711,0.0022918,59323424.0
2019-12-01 00:00:00+00:00,0.002292,0.0023041,0.0022323,0.0022648,71868565.0
2019-12-02 00:00:00+00:00,0.0022708,0.0022708,0.0021588,0.0022194,163746405.0
2019-12-03 00:00:00+00:00,0.0022209,0.0022366,0.0021504,0.0021782,189360213.0
2019-12-04 00:00:00+00:00,0.0021731,0.002245,0.0021123,0.0021682,259311714.0
2019-12-05 00:00:00+00:00,0.0021717,0.0022199,0.0021406,0.0021755,75250597.0
2019-12-06 00:00:00+00:00,0.0021705,0.0022416,0.0021001,0.0021944,132923213.0
2019-12-07 00:00:00+00:00,0.0021894,0.0022504,0.0021601,0.002184,61735171.0
2019-12-08 00:00:00+00:00,0.0021834,0.0022499,0.00215,0.0021971,56793315.0
2019-12-09 00:00:00+00:00,0.0021968,0.0022182,0.0021624,0.0021699,56493155.0
2019-12-10 00:00:00+00:00,0.0021635,0.002215,0.0020903,0.0021368,116186991.0
2019-12-11 00:00:00+00:00,0.0021402,0.002174,0.0021079,0.0021379,86454061.0
2019-12-12 00:00:00+00:00,0.0021515,0.0021688,0.0021166,0.0021344,55721062.0
2019-12-13 00:00:00+00:00,0.0021348,0.0022245,0.0021051,0.0021321,105233189.0
2019-12-14 00:00:00+00:00,0.0021274,0.0022933,0.002048,0.0021127,97345597.0
2019-12-15 00:00:00+00:00,0.0021127,0.0022,0.0020938,0.0021363,61190730.0
2019-12-16 00:00:00+00:00,0.0021363,0.002177,0.0020705,0.002087,99814375.0
2019-12-17 00:00:00+00:00,0.0020835,0.0021318,0.0019349,0.0019772,209772941.0
2019-12-18 00:00:00+00:00,0.0019772,0.0020868,0.0019,0.0020483,444442268.0
2019-12-19 00:00:00+00:00,0.0020541,0.00218,0.0019819,0.0020205,91905080.0
2019-12-20 00:00:00+00:00,0.0020241,0.002065,0.0019933,0.0020273,58972845.0
2019-12-21 00:00:00+00:00,0.0020275,0.0020676,0.0020091,0.00204,83070907.0
2019-12-22 00:00:00+00:00,0.00204,0.0020859,0.00202,0.0020808,97517875.0
2019-12-23 00:00:00+00:00,0.0020848,0.0021261,0.0020276,0.002051,187366372.0
2019-12-24 00:00:00+00:00,0.002047,0.0020546,0.002002,0.0020184,61042421.0
2019-12-25 00:00:00+00:00,0.002017,0.0020591,0.0019938,0.00204,108851438.0
2019-12-26 00:00:00+00:00,0.0020331,0.0020545,0.0020013,0.0020245,81831506.0
2019-12-27 00:00:00+00:00,0.0020172,0.0020426,0.0019901,0.0020277,145246366.0
2019-12-28 00:00:00+00:00,0.0020277,0.0020624,0.0020277,0.0020458,48401004.0
2019-12-29 00:00:00+00:00,0.0020458,0.0020609,0.0020259,0.0020329,50528679.0
2019-12-30 00:00:00+00:00,0.0020391,0.0020585,0.0020123,0.0020264,76749919.0
2019-12-31 00:00:00+00:00,0.002019,0.0020299,0.0019862,0.0020135,131083309.0
2020-01-01 00:00:00+00:00,0.0020136,0.002039,0.0020001,0.0020245,31462868.0
2020-01-02 00:00:00+00:00,0.0020245,0.00204,0.0019485,0.0019951,191887309.0
2020-01-03 00:00:00+00:00,0.0019986,0.0020359,0.0019675,0.0020236,109005714.0
2020-01-04 00:00:00+00:00,0.0020185,0.0021035,0.002015,0.0020579,123468609.0
2020-01-05 00:00:00+00:00,0.0020589,0.0020922,0.0020361,0.0020696,66437147.0
2020-01-06 00:00:00+00:00,0.0020722,0.0021345,0.0020692,0.0021344,108507039.0
2020-01-07 00:00:00+00:00,0.0021333,0.0021847,0.0020777,0.002175,121470207.0
2020-01-08 00:00:00+00:00,0.0021687,0.0022263,0.0020701,0.0020886,205791636.0
2020-01-09 00:00:00+00:00,0.0020934,0.0021633,0.0020642,0.0021282,80515080.0
2020-01-10 00:00:00+00:00,0.0021323,0.0022024,0.0020983,0.0021973,222205607.0
2020-01-11 00:00:00+00:00,0.0022007,0.002225,0.0021651,0.0021754,94223943.0
2020-01-12 00:00:00+00:00,0.0021671,0.0022133,0.002155,0.0021963,49775170.0
2020-01-13 00:00:00+00:00,0.0022026,0.0022049,0.0021652,0.0021704,66668055.0
2020-01-14 00:00:00+00:00,0.0021656,0.0023955,0.0021653,0.0023581,297610208.0
2020-01-15 00:00:00+00:00,0.0023493,0.0024913,0.0023204,0.0023669,262905054.0
2020-01-16 00:00:00+00:00,0.002376,0.0023768,0.0022871,0.0023276,98583989.0
2020-01-17 00:00:00+00:00,0.0023343,0.0025035,0.0023159,0.0024868,280388650.0
2020-01-18 00:00:00+00:00,0.0024855,0.0025225,0.0024441,0.0025115,191378707.0
2020-01-19 00:00:00+00:00,0.0025137,0.0025833,0.0023269,0.0023982,161012185.0
2020-01-20 00:00:00+00:00,0.0023999,0.002427,0.0023468,0.002376,95126694.0
2020-01-21 00:00:00+00:00,0.002376,0.0023952,0.0023206,0.0023673,130661575.0
2020-01-22 00:00:00+00:00,0.0023583,0.0023904,0.0023353,0.0023434,72204081.0
2020-01-23 00:00:00+00:00,0.002343,0.0023478,0.002225,0.0022514,120187526.0
2020-01-24 00:00:00+00:00,0.002255,0.0022885,0.0021968,0.0022698,72913429.0
2020-01-25 00:00:00+00:00,0.0022706,0.0022708,0.0022265,0.002251,74227952.0
2020-01-26 00:00:00+00:00,0.0022497,0.0023091,0.0022364,0.0022854,62787676.0
2020-01-27 00:00:00+00:00,0.002291,0.0024271,0.002256,0.0023594,189983953.0
2020-01-28 00:00:00+00:00,0.0023594,0.0024437,0.00235,0.0024412,132996335.0
2020-01-29 00:00:00+00:00,0.0024427,0.0024477,0.002371,0.0023865,113185519.0
2020-01-30 00:00:00+00:00,0.0023865,0.0024243,0.0023544,0.002414,78294104.0
2020-01-31 00:00:00+00:00,0.0024164,0.002445,0.002362,0.0023776,106455643.0
2020-02-01 00:00:00+00:00,0.0023776,0.002417,0.002373,0.002417,69780779.0
2020-02-02 00:00:00+00:00,0.0024118,0.0025018,0.0023985,0.0024406,140214787.0
2020-02-03 00:00:00+00:00,0.0024397,0.0024999,0.0024133,0.0024156,147181393.0
2020-02-04 00:00:00+00:00,0.0024167,0.0025178,0.002398,0.0025169,243323349.0
2020-02-05 00:00:00+00:00,0.0025169,0.0026334,0.0024723,0.0025826,456737744.0
2020-02-06 00:00:00+00:00,0.0025823,0.0026896,0.0025696,0.0026654,245310854.0
2020-02-07 00:00:00+00:00,0.0026642,0.0028,0.00265,0.0027888,266969073.0
2020-02-08 00:00:00+00:00,0.0027997,0.0032674,0.0027214,0.003171,1122954168.0
2020-02-09 00:00:00+00:00,0.0031745,0.00489,0.003078,0.0032235,1307461248.0
2020-02-10 00:00:00+00:00,0.0032155,0.0032819,0.0028417,0.0029663,810781064.0
2020-02-11 00:00:00+00:00,0.0029618,0.0030946,0.0028388,0.00303,584824864.0
2020-02-12 00:00:00+00:00,0.00303,0.0031568,0.003,0.0030589,621222834.0
2020-02-13 00:00:00+00:00,0.0030599,0.00321,0.0029443,0.0030132,570152846.0
2020-02-14 00:00:00+00:00,0.0030098,0.0031383,0.0029756,0.0031067,305515579.0
2020-02-15 00:00:00+00:00,0.0031099,0.0031769,0.00284,0.0029031,320372009.0
2020-02-16 00:00:00+00:00,0.0028981,0.0029621,0.0026023,0.0027522,417846263.0
2020-02-17 00:00:00+00:00,0.0027475,0.0027561,0.0025241,0.0026999,273787797.0
2020-02-18 00:00:00+00:00,0.0026819,0.0028656,0.0026538,0.0028286,344021674.0
2020-02-19 00:00:00+00:00,0.0028349,0.0028615,0.0025623,0.0026085,156007562.0
2020-02-20 00:00:00+00:00,0.002603,0.0029909,0.0025415,0.002653,268076623.0
2020-02-21 00:00:00+00:00,0.00265,0.002712,0.0025891,0.0026481,153113913.0
2020-02-22 00:00:00+00:00,0.0026469,0.0026533,0.0025719,0.0025887,107733066.0
2020-02-23 00:00:00+00:00,0.0025905,0.00268,0.0025905,0.0026772,85158189.0
2020-02-24 00:00:00+00:00,0.0026744,0.0026822,0.0025436,0.0025769,123771852.0
2020-02-25 00:00:00+00:00,0.0025831,0.0025831,0.0023977,0.0024734,256619298.0
2020-02-26 00:00:00+00:00,0.0024733,0.0024864,0.0021862,0.0023439,305716693.0
2020-02-27 00:00:00+00:00,0.0023406,0.0024164,0.0023,0.0023255,164177168.0
2020-02-28 00:00:00+00:00,0.0023255,0.00237,0.0022161,0.0022823,99076087.0
2020-02-29 00:00:00+00:00,0.0022823,0.0023197,0.0022112,0.0022153,84399218.0
2020-03-01 00:00:00+00:00,0.0022202,0.00231,0.0022004,0.0022794,116810334.0
2020-03-02 00:00:00+00:00,0.0022688,0.0023792,0.0022205,0.0023471,96449244.0
2020-03-03 00:00:00+00:00,0.002358,0.0025355,0.0023082,0.0024985,276081118.0
2020-03-04 00:00:00+00:00,0.0025031,0.0025033,0.00237,0.0024187,201587827.0
2020-03-05 00:00:00+00:00,0.0024251,0.00253,0.0024222,0.0024771,122219349.0
2020-03-06 00:00:00+00:00,0.0024773,0.0024999,0.0024374,0.0024862,63303104.0
2020-03-07 00:00:00+00:00,0.0024862,0.002494,0.0023922,0.0024066,112331024.0
2020-03-08 00:00:00+00:00,0.0024029,0.0024039,0.00215,0.0021671,181080658.0
2020-03-09 00:00:00+00:00,0.0021714,0.0022269,0.00208,0.0022203,229780847.0
2020-03-10 00:00:00+00:00,0.0022261,0.0022641,0.0021533,0.0022053,225779527.0
2020-03-11 00:00:00+00:00,0.0022021,0.0022181,0.0020911,0.0021716,128060172.0
2020-03-12 00:00:00+00:00,0.0021759,0.0021805,0.0014003,0.0015996,770809996.0
2020-03-13 00:00:00+00:00,0.0014971,0.0017957,0.0011345,0.001746,372647948.0
2020-03-14 00:00:00+00:00,0.0017226,0.0017771,0.001633,0.0016632,224230347.0
2020-03-15 00:00:00+00:00,0.0016603,0.0018329,0.0016295,0.0016932,183272920.0
2020-03-16 00:00:00+00:00,0.0016903,0.0017,0.0013478,0.0015817,232810549.0
2020-03-17 00:00:00+00:00,0.0015927,0.0016873,0.001546,0.0016219,120269653.0
2020-03-18 00:00:00+00:00,0.0016219,0.0016428,0.0015442,0.0016002,153194705.0
2020-03-19 00:00:00+00:00,0.0016002,0.0018395,0.001565,0.00177,315677300.0
2020-03-20 00:00:00+00:00,0.00176,0.0019361,0.0016412,0.0017802,301406598.0
2020-03-21 00:00:00+00:00,0.0017758,0.0018533,0.0016964,0.0017849,120948576.0
2020-03-22 00:00:00+00:00,0.0017897,0.0018447,0.0017155,0.0017264,156027627.0
2020-03-23 00:00:00+00:00,0.0017222,0.0018576,0.0016843,0.0018192,180308460.0
2020-03-24 00:00:00+00:00,0.001826,0.001916,0.0018047,0.0018641,283137113.0
2020-03-25 00:00:00+00:00,0.0018511,0.0018947,0.00179,0.0018296,170824524.0
2020-03-26 00:00:00+00:00,0.0018296,0.0018673,0.0018111,0.0018519,151160373.0
2020-03-27 00:00:00+00:00,0.001847,0.00187,0.0017408,0.0017766,195811269.0
2020-03-28 00:00:00+00:00,0.0017754,0.001809,0.0016981,0.001783,314932329.0
2020-03-29 00:00:00+00:00,0.001793,0.0018001,0.0017018,0.0017099,156054263.0
2020-03-30 00:00:00+00:00,0.0017202,0.0019,0.001709,0.0017957,116199882.0
2020-03-31 00:00:00+00:00,0.0017994,0.0018286,0.001792,0.0018041,67786701.0
2020-04-01 00:00:00+00:00,0.0018,0.0018743,0.0017659,0.0018631,152034474.0
2020-04-02 00:00:00+00:00,0.0018637,0.00195,0.0018405,0.0018777,146749302.0
2020-04-03 00:00:00+00:00,0.0018701,0.0019048,0.0018205,0.0018467,97617758.0
2020-04-04 00:00:00+00:00,0.0018467,0.0019085,0.001828,0.0018697,92364705.0
2020-04-05 00:00:00+00:00,0.0018745,0.0018817,0.0018381,0.00185,55344996.0
2020-04-06 00:00:00+00:00,0.0018469,0.0019901,0.0018443,0.0019896,210552139.0
2020-04-07 00:00:00+00:00,0.0019894,0.0020209,0.0019501,0.0019943,202961221.0
2020-04-08 00:00:00+00:00,0.0019966,0.0020426,0.001967,0.0020038,90384907.0
2020-04-09 00:00:00+00:00,0.0020037,0.0020454,0.0019852,0.0020151,89094012.0
2020-04-10 00:00:00+00:00,0.0020226,0.0020356,0.001873,0.001965,212989247.0
2020-04-11 00:00:00+00:00,0.0019654,0.00201,0.0019349,0.0019645,76732837.0
2020-04-12 00:00:00+00:00,0.001968,0.002012,0.0019392,0.0019673,114627907.0
2020-04-13 00:00:00+00:00,0.0019641,0.001976,0.0018598,0.0019533,185252284.0
2020-04-14 00:00:00+00:00,0.0019533,0.001977,0.0019315,0.0019656,67401911.0
2020-04-15 00:00:00+00:00,0.0019646,0.0019731,0.00189,0.0019061,143735234.0
2020-04-16 00:00:00+00:00,0.001903,0.00203,0.0018722,0.001995,151063706.0
2020-04-17 00:00:00+00:00,0.0020002,0.0020047,0.001974,0.001983,55401970.0
2020-04-18 00:00:00+00:00,0.0019886,0.0020962,0.00198,0.0020445,92775767.0
2020-04-19 00:00:00+00:00,0.0020463,0.0020722,0.0019977,0.0020313,70450538.0
2020-04-20 00:00:00+00:00,0.0020311,0.0020499,0.0019354,0.0019787,180876115.0
2020-04-21 00:00:00+00:00,0.0019688,0.002,0.00193,0.00195,85730979.0
2020-04-22 00:00:00+00:00,0.0019497,0.00205,0.0019425,0.0019957,72581197.0
2020-04-23 00:00:00+00:00,0.002,0.0021612,0.0019886,0.0020512,243115927.0
2020-04-24 00:00:00+00:00,0.0020449,0.0021075,0.0020431,0.0020832,75266362.0
2020-04-25 00:00:00+00:00,0.002083,0.0021533,0.0020682,0.0021245,173120551.0
2020-04-26 00:00:00+00:00,0.0021303,0.0024479,0.0021283,0.0024076,804586311.0
2020-04-27 00:00:00+00:00,0.0024032,0.0024137,0.0022821,0.0023456,475335023.0
2020-04-28 00:00:00+00:00,0.0023459,0.0023565,0.0023,0.002327,168260399.0
2020-04-29 00:00:00+00:00,0.0023178,0.002542,0.0023066,0.0024912,354821868.0
2020-04-30 00:00:00+00:00,0.0024912,0.0026904,0.0023585,0.002433,551825570.0
2020-05-01 00:00:00+00:00,0.0024225,0.0025466,0.0024176,0.0024749,220229951.0
2020-05-02 00:00:00+00:00,0.0024782,0.0025574,0.0024501,0.002542,148558121.0
2020-05-03 00:00:00+00:00,0.0025393,0.00258,0.00246,0.0025001,167590125.0
2020-05-04 00:00:00+00:00,0.0025011,0.0025094,0.0023375,0.0024605,151515338.0
2020-05-05 00:00:00+00:00,0.0024717,0.0025183,0.0024266,0.0024738,83336304.0
2020-05-06 00:00:00+00:00,0.0024776,0.0025623,0.0024572,0.0024801,180927494.0
2020-05-07 00:00:00+00:00,0.00248,0.0026975,0.002459,0.0026627,366483103.0
2020-05-08 00:00:00+00:00,0.0026632,0.0026894,0.00257,0.0026052,259386572.0
2020-05-09 00:00:00+00:00,0.0026157,0.0026453,0.00251,0.0026075,216543474.0
2020-05-10 00:00:00+00:00,0.0025986,0.0025986,0.0022425,0.0024602,321215093.0
2020-05-11 00:00:00+00:00,0.0024432,0.0025373,0.0022957,0.0024125,192928752.0
2020-05-12 00:00:00+00:00,0.0024045,0.0025132,0.0023993,0.0024606,107312600.0
2020-05-13 00:00:00+00:00,0.0024605,0.0025425,0.0024433,0.0025245,168041623.0
2020-05-14 00:00:00+00:00,0.0025191,0.00265,0.0025,0.0025813,315454837.0
2020-05-15 00:00:00+00:00,0.0025727,0.0025828,0.00246,0.0024888,126538135.0
2020-05-16 00:00:00+00:00,0.0025005,0.0025345,0.0024728,0.0025098,82487862.0
2020-05-17 00:00:00+00:00,0.0025084,0.00258,0.002502,0.0025331,103697263.0
2020-05-18 00:00:00+00:00,0.002525,0.0025899,0.0024987,0.0025379,93527053.0
2020-05-19 00:00:00+00:00,0.00254,0.0025775,0.0024903,0.0025487,90146889.0
2020-05-20 00:00:00+00:00,0.0025394,0.002566,0.0024588,0.0025002,152417725.0
2020-05-21 00:00:00+00:00,0.0025012,0.0025514,0.0024215,0.0024774,205051270.0
2020-05-22 00:00:00+00:00,0.002477,0.00255,0.0024627,0.0025175,107093984.0
2020-05-23 00:00:00+00:00,0.0025199,0.0025631,0.0024936,0.0025271,160030526.0
2020-05-24 00:00:00+00:00,0.0025356,0.002563,0.002435,0.0024461,160499199.0
2020-05-25 00:00:00+00:00,0.0024379,0.002548,0.00242,0.0025324,280489252.0
2020-05-26 00:00:00+00:00,0.0025251,0.0025329,0.0024571,0.0024781,186936703.0
2020-05-27 00:00:00+00:00,0.002478,0.0025186,0.0024499,0.0024998,176177359.0
2020-05-28 00:00:00+00:00,0.0024998,0.0025599,0.0024816,0.002523,256317241.0
2020-05-29 00:00:00+00:00,0.0025265,0.0025533,0.0024995,0.0025303,142622163.0
2020-05-30 00:00:00+00:00,0.0025302,0.0026299,0.002526,0.002618,217499962.0
2020-05-31 00:00:00+00:00,0.0026181,0.0026822,0.002543,0.0025599,164715811.0
2020-06-01 00:00:00+00:00,0.0025492,0.0027,0.0024997,0.0026452,291813951.0
2020-06-02 00:00:00+00:00,0.0026565,0.0026647,0.0024696,0.0025666,325981114.0
2020-06-03 00:00:00+00:00,0.002561,0.002596,0.0025177,0.0025867,130101538.0
2020-06-04 00:00:00+00:00,0.0025805,0.0026679,0.0025656,0.002623,326193437.0
2020-06-05 00:00:00+00:00,0.002623,0.0026288,0.00258,0.0025907,114071897.0
2020-06-06 00:00:00+00:00,0.0025834,0.0025999,0.0025507,0.0025926,101549796.0
2020-06-07 00:00:00+00:00,0.0025899,0.0026135,0.00255,0.0025987,132911616.0
2020-06-08 00:00:00+00:00,0.0025912,0.0026038,0.0025505,0.0025786,121989865.0
2020-06-09 00:00:00+00:00,0.0025848,0.0025888,0.00249,0.0025586,116938419.0
2020-06-10 00:00:00+00:00,0.0025586,0.0025953,0.0025409,0.0025761,113128228.0
2020-06-11 00:00:00+00:00,0.00258,0.0025938,0.0023801,0.0024463,169023974.0
2020-06-12 00:00:00+00:00,0.0024463,0.002525,0.0024351,0.0025,133287436.0
2020-06-13 00:00:00+00:00,0.002514,0.0025338,0.0024869,0.0025241,93631744.0
2020-06-14 00:00:00+00:00,0.0025135,0.0025319,0.002482,0.0024972,65658290.0
2020-06-15 00:00:00+00:00,0.0024886,0.0024941,0.0023963,0.0024743,147058752.0
2020-06-16 00:00:00+00:00,0.0024701,0.0024999,0.0024087,0.0024855,219496367.0
2020-06-17 00:00:00+00:00,0.0024856,0.0025024,0.0024445,0.0024806,136091681.0
2020-06-18 00:00:00+00:00,0.0024788,0.0024919,0.0024322,0.0024575,59137982.0
2020-06-19 00:00:00+00:00,0.002457,0.002468,0.0024256,0.0024399,84566591.0
2020-06-20 00:00:00+00:00,0.0024399,0.0024516,0.0023921,0.0024419,59266072.0
2020-06-21 00:00:00+00:00,0.0024466,0.0024658,0.0024277,0.0024295,84555177.0
2020-06-22 00:00:00+00:00,0.0024357,0.0025001,0.002432,0.0024731,118270150.0
2020-06-23 00:00:00+00:00,0.0024828,0.0024909,0.0024615,0.0024686,96686433.0
2020-06-24 00:00:00+00:00,0.0024775,0.0024867,0.0023772,0.0024193,124832546.0
2020-06-25 00:00:00+00:00,0.0024247,0.0024288,0.002378,0.0024081,73502899.0
2020-06-26 00:00:00+00:00,0.0024111,0.002417,0.0023465,0.0023593,69665977.0
2020-06-27 00:00:00+00:00,0.0023515,0.0023635,0.00227,0.0023045,94867690.0
2020-06-28 00:00:00+00:00,0.0023041,0.0023459,0.0022784,0.0023142,116394661.0
2020-06-29 00:00:00+00:00,0.0023194,0.00233,0.0022908,0.0023077,85385099.0
2020-06-30 00:00:00+00:00,0.002303,0.0023257,0.0022821,0.0023185,58330225.0
2020-07-01 00:00:00+00:00,0.0023101,0.0023709,0.0023,0.0023203,120676078.0
2020-07-02 00:00:00+00:00,0.0023251,0.0023498,0.0022839,0.002322,97986311.0
2020-07-03 00:00:00+00:00,0.0023172,0.0023345,0.0022882,0.0023139,76387879.0
2020-07-04 00:00:00+00:00,0.0023155,0.0023312,0.0022993,0.0023012,60368775.0
2020-07-05 00:00:00+00:00,0.0023033,0.002319,0.0022787,0.0023029,88706470.0
2020-07-06 00:00:00+00:00,0.0022988,0.002622,0.002293,0.0026193,461294907.0
2020-07-07 00:00:00+00:00,0.0026191,0.0032953,0.0025999,0.003136,3965388549.0
2020-07-08 00:00:00+00:00,0.003136,0.0055999,0.00291,0.0047657,23657008079.0
2020-07-09 00:00:00+00:00,0.0047626,0.0050594,0.00405,0.0043214,8645375967.0
2020-07-10 00:00:00+00:00,0.0043225,0.0043334,0.0034001,0.0035313,7536784753.0
2020-07-11 00:00:00+00:00,0.0035313,0.0039634,0.0034555,0.0038041,3661361202.0
2020-07-12 00:00:00+00:00,0.0038109,0.0038501,0.0035799,0.0036358,1546255634.0
2020-07-13 00:00:00+00:00,0.0036357,0.0036408,0.0029767,0.0031677,4007164536.0
2020-07-14 00:00:00+00:00,0.0031587,0.00339,0.0030302,0.0032888,2316802022.0
2020-07-15 00:00:00+00:00,0.0032911,0.0032911,0.003056,0.0030868,1386310052.0
2020-07-16 00:00:00+00:00,0.0030954,0.003096,0.0028525,0.0029808,2070197756.0
2020-07-17 00:00:00+00:00,0.0029808,0.00309,0.0029169,0.0030528,1885382230.0
2020-07-18 00:00:00+00:00,0.0030528,0.00368,0.003013,0.003449,8332776850.0
2020-07-19 00:00:00+00:00,0.0034488,0.0037789,0.0033104,0.0033811,3659586603.0
2020-07-20 00:00:00+00:00,0.0033811,0.0034315,0.00314,0.0032201,1636615889.0
2020-07-21 00:00:00+00:00,0.0032192,0.0033659,0.0031377,0.0032979,1188848956.0
2020-07-22 00:00:00+00:00,0.0032978,0.003305,0.0032089,0.0032868,591711751.0
2020-07-23 00:00:00+00:00,0.0032917,0.003337,0.0032598,0.0032997,792908063.0
2020-07-24 00:00:00+00:00,0.0033035,0.0033114,0.0031465,0.0032113,824558980.0
2020-07-25 00:00:00+00:00,0.0032173,0.0033433,0.0031761,0.0032475,867588133.0
2020-07-26 00:00:00+00:00,0.003249,0.0032898,0.0031728,0.0032323,888157925.0
2020-07-27 00:00:00+00:00,0.0032374,0.0032441,0.0030019,0.0031694,1339892681.0
2020-07-28 00:00:00+00:00,0.00317,0.003225,0.0031238,0.003188,649930752.0
2020-07-29 00:00:00+00:00,0.0031886,0.0033,0.0031542,0.0031663,675383829.0
2020-07-30 00:00:00+00:00,0.0031707,0.00325,0.0031334,0.0032281,523325865.0
2020-07-31 00:00:00+00:00,0.0032304,0.0032412,0.0031713,0.003224,632319202.0
2020-08-01 00:00:00+00:00,0.0032204,0.0039,0.0032001,0.0037144,4298724372.0
2020-08-02 00:00:00+00:00,0.0037096,0.0037754,0.0031,0.0033312,2337347018.0
2020-08-03 00:00:00+00:00,0.0033351,0.0034468,0.0032995,0.0033818,859800460.0
2020-08-04 00:00:00+00:00,0.0033828,0.0035746,0.0033608,0.0035458,1247440791.0
2020-08-05 00:00:00+00:00,0.0035459,0.0035871,0.003449,0.0035028,1099317757.0
2020-08-06 00:00:00+00:00,0.0035024,0.00365,0.00345,0.00356,908946142.0
2020-08-07 00:00:00+00:00,0.0035602,0.003617,0.003317,0.003496,886076044.0
2020-08-08 00:00:00+00:00,0.0034961,0.0035249,0.0033981,0.0035134,624969060.0
2020-08-09 00:00:00+00:00,0.0035179,0.00353,0.0034103,0.0034664,587442093.0
2020-08-10 00:00:00+00:00,0.0034677,0.0035559,0.0034089,0.0034952,826540351.0
2020-08-11 00:00:00+00:00,0.0034947,0.0035778,0.0033168,0.0033906,1215986149.0
2020-08-12 00:00:00+00:00,0.0033873,0.0034965,0.0033165,0.0034606,829060692.0
2020-08-13 00:00:00+00:00,0.0034599,0.0035208,0.003335,0.0034877,1141424689.0
2020-08-14 00:00:00+00:00,0.0034877,0.00359,0.0034334,0.0035731,852114289.0
2020-08-15 00:00:00+00:00,0.0035736,0.0036243,0.0034617,0.0035328,1065565878.0
2020-08-16 00:00:00+00:00,0.0035319,0.0035583,0.0034382,0.0035302,756283319.0
2020-08-17 00:00:00+00:00,0.003526,0.0037238,0.0034927,0.0035877,1596549440.0
2020-08-18 00:00:00+00:00,0.0035821,0.0037165,0.0034297,0.003476,1122350625.0
2020-08-19 00:00:00+00:00,0.0034795,0.0035374,0.0033341,0.0034196,865075768.0
2020-08-20 00:00:00+00:00,0.0034197,0.0035043,0.0033711,0.0034399,483184322.0
2020-08-21 00:00:00+00:00,0.0034386,0.0035651,0.0033622,0.0033776,1082335183.0
2020-08-22 00:00:00+00:00,0.0033808,0.0034605,0.0033201,0.0034331,663901289.0
2020-08-23 00:00:00+00:00,0.003431,0.0034562,0.0033607,0.0033955,449353268.0
2020-08-24 00:00:00+00:00,0.0033977,0.0034689,0.0033715,0.0034116,697239432.0
2020-08-25 00:00:00+00:00,0.003407,0.0034261,0.0032092,0.0032907,804352786.0
2020-08-26 00:00:00+00:00,0.0032896,0.0033461,0.0032323,0.0032939,573094887.0
2020-08-27 00:00:00+00:00,0.0032916,0.0033078,0.0031427,0.0031997,811879341.0
2020-08-28 00:00:00+00:00,0.0032017,0.0032687,0.0031678,0.0032637,414648220.0
2020-08-29 00:00:00+00:00,0.0032636,0.0032973,0.0032285,0.0032749,443081651.0
2020-08-30 00:00:00+00:00,0.0032751,0.003348,0.003261,0.0032981,456619299.0
2020-08-31 00:00:00+00:00,0.0032981,0.0033054,0.0031841,0.0032073,792397030.0
2020-09-01 00:00:00+00:00,0.0032061,0.0032784,0.0031519,0.0032411,728992095.0
2020-09-02 00:00:00+00:00,0.0032398,0.0032626,0.0030101,0.0031161,758139570.0
2020-09-03 00:00:00+00:00,0.0031185,0.0031265,0.0027,0.0027692,1202524192.0
2020-09-04 00:00:00+00:00,0.0027704,0.0029632,0.0027006,0.0028797,1128781264.0
2020-09-05 00:00:00+00:00,0.0028789,0.0029269,0.0026786,0.002764,1058743832.0
2020-09-06 00:00:00+00:00,0.0027505,0.0028068,0.0026875,0.0027859,1165434272.0
2020-09-07 00:00:00+00:00,0.0027814,0.0028373,0.002688,0.0028151,930536034.0
2020-09-08 00:00:00+00:00,0.0028188,0.0028386,0.0026742,0.002747,602845165.0
2020-09-09 00:00:00+00:00,0.0027455,0.002805,0.0026863,0.002779,603901405.0
2020-09-10 00:00:00+00:00,0.0027779,0.002848,0.0027522,0.0028077,589054621.0
2020-09-11 00:00:00+00:00,0.002806,0.00282,0.0027364,0.0027956,633511688.0
2020-09-12 00:00:00+00:00,0.0027952,0.0028321,0.00276,0.0028141,538072324.0
2020-09-13 00:00:00+00:00,0.002814,0.0028199,0.0027403,0.002783,736932793.0
2020-09-14 00:00:00+00:00,0.0027836,0.0028143,0.0027334,0.0027851,622069203.0
2020-09-15 00:00:00+00:00,0.0027876,0.0028699,0.0027751,0.0028278,837946931.0
2020-09-16 00:00:00+00:00,0.002827,0.00285,0.00278,0.0028053,718768350.0
2020-09-17 00:00:00+00:00,0.0028079,0.0028577,0.0027625,0.0028078,708422584.0
2020-09-18 00:00:00+00:00,0.0028047,0.002815,0.0027468,0.0027892,596841059.0
2020-09-19 00:00:00+00:00,0.0027876,0.0028099,0.0027635,0.0027901,896333697.0
2020-09-20 00:00:00+00:00,0.0027918,0.0028009,0.0027234,0.0027729,893231406.0
2020-09-21 00:00:00+00:00,0.0027732,0.0028035,0.0025688,0.0025972,1374012637.0
2020-09-22 00:00:00+00:00,0.0025946,0.0026588,0.0025802,0.0026432,695672800.0
2020-09-23 00:00:00+00:00,0.002641,0.0026493,0.0025364,0.0025444,499113155.0
2020-09-24 00:00:00+00:00,0.0025403,0.0026612,0.0025277,0.0026297,388768314.0
2020-09-25 00:00:00+00:00,0.0026297,0.0027192,0.0026146,0.0027015,513362397.0
2020-09-26 00:00:00+00:00,0.0027044,0.002761,0.0026724,0.0026972,311169397.0
2020-09-27 00:00:00+00:00,0.0026973,0.0027351,0.0026581,0.0026954,236020657.0
2020-09-28 00:00:00+00:00,0.0026989,0.002744,0.0026183,0.0026504,360127848.0
2020-09-29 00:00:00+00:00,0.0026474,0.0027049,0.0026307,0.0026727,412130695.0
2020-09-30 00:00:00+00:00,0.0026726,0.0026767,0.0026158,0.002635,347857639.0
2020-10-01 00:00:00+00:00,0.0026361,0.002682,0.0025575,0.0026246,647138169.0
2020-10-02 00:00:00+00:00,0.0026272,0.0026273,0.0025307,0.0025902,1051902545.0
2020-10-03 00:00:00+00:00,0.0025902,0.002637,0.0025737,0.0025955,344780813.0
2020-10-04 00:00:00+00:00,0.0025964,0.00268,0.0025893,0.002633,362664249.0
2020-10-05 00:00:00+00:00,0.0026328,0.0026577,0.0025983,0.0026182,293823603.0
2020-10-06 00:00:00+00:00,0.00262,0.0026285,0.0025687,0.002597,535191865.0
2020-10-07 00:00:00+00:00,0.0025969,0.0026111,0.002556,0.0025895,748742886.0
2020-10-08 00:00:00+00:00,0.0025881,0.00263,0.002541,0.0026098,612786395.0
2020-10-09 00:00:00+00:00,0.0026097,0.0026701,0.0025891,0.0026556,497901615.0
2020-10-10 00:00:00+00:00,0.002657,0.0027291,0.0026472,0.0026621,445615862.0
2020-10-11 00:00:00+00:00,0.0026583,0.0027065,0.0026499,0.0026701,251041495.0
2020-10-12 00:00:00+00:00,0.0026711,0.0027069,0.0026251,0.002667,421633283.0
2020-10-13 00:00:00+00:00,0.0026669,0.0026745,0.0026285,0.0026385,283366623.0
2020-10-14 00:00:00+00:00,0.0026353,0.0026609,0.0026173,0.002639,216681797.0
2020-10-15 00:00:00+00:00,0.002639,0.0026391,0.0025648,0.0025953,311443948.0
2020-10-16 00:00:00+00:00,0.0025953,0.0026243,0.0025511,0.002604,445955018.0
2020-10-17 00:00:00+00:00,0.0026029,0.0026091,0.0025733,0.0025834,142653202.0
2020-10-18 00:00:00+00:00,0.0025842,0.0026055,0.00258,0.0025874,159785875.0
2020-10-19 00:00:00+00:00,0.0025884,0.002622,0.002569,0.0025921,477390409.0
2020-10-20 00:00:00+00:00,0.002592,0.0026252,0.0025792,0.0025944,417212777.0
2020-10-21 00:00:00+00:00,0.0025956,0.00266,0.002593,0.002623,436248066.0
2020-10-22 00:00:00+00:00,0.002623,0.002693,0.0026159,0.002646,323059048.0
2020-10-23 00:00:00+00:00,0.0026453,0.0026889,0.0026225,0.0026423,242563993.0
2020-10-24 00:00:00+00:00,0.0026423,0.002647,0.00261,0.0026365,212440872.0
2020-10-25 00:00:00+00:00,0.0026354,0.0026749,0.002617,0.0026528,297054117.0
2020-10-26 00:00:00+00:00,0.0026529,0.0029115,0.002632,0.002665,1878752405.0
2020-10-27 00:00:00+00:00,0.0026658,0.0027076,0.002615,0.0026702,577965198.0
2020-10-28 00:00:00+00:00,0.0026719,0.0026907,0.0025628,0.0025801,437955580.0
2020-10-29 00:00:00+00:00,0.00258,0.0026117,0.0025061,0.0025733,289596529.0
2020-10-30 00:00:00+00:00,0.0025726,0.0026002,0.002501,0.0025833,440794399.0
2020-10-31 00:00:00+00:00,0.0025833,0.0026004,0.00255,0.0025666,260150933.0
2020-11-01 00:00:00+00:00,0.0025676,0.002586,0.0025521,0.0025745,132635410.0
2020-11-02 00:00:00+00:00,0.0025765,0.0025887,0.0025065,0.0025162,291742975.0
2020-11-03 00:00:00+00:00,0.0025164,0.002531,0.0024519,0.0025141,332644991.0
2020-11-04 00:00:00+00:00,0.0025189,0.002565,0.002486,0.002546,279402291.0
2020-11-05 00:00:00+00:00,0.0025467,0.0026769,0.0025467,0.0026347,341107854.0
2020-11-06 00:00:00+00:00,0.002635,0.0028201,0.0026298,0.002757,922020782.0
2020-11-07 00:00:00+00:00,0.0027578,0.0028424,0.002592,0.00267,748360033.0
2020-11-08 00:00:00+00:00,0.0026724,0.002739,0.0026513,0.002707,244213598.0
2020-11-09 00:00:00+00:00,0.002707,0.0028095,0.002657,0.002672,438097273.0
2020-11-10 00:00:00+00:00,0.0026671,0.0029198,0.0026536,0.002761,807091404.0
2020-11-11 00:00:00+00:00,0.0027601,0.00295,0.0027419,0.002758,560505263.0
2020-11-12 00:00:00+00:00,0.00276,0.002802,0.0027253,0.0027788,209777176.0
2020-11-13 00:00:00+00:00,0.0027791,0.0028483,0.0027666,0.0028114,373289403.0
2020-11-14 00:00:00+00:00,0.0028156,0.0028239,0.002708,0.0027689,308002702.0
2020-11-15 00:00:00+00:00,0.0027731,0.0028285,0.0027221,0.0027718,323892550.0
2020-11-16 00:00:00+00:00,0.0027715,0.0030452,0.0027522,0.00289,1345726687.0
2020-11-17 00:00:00+00:00,0.0028936,0.0030094,0.0028832,0.0029398,920887323.0
2020-11-18 00:00:00+00:00,0.0029385,0.003021,0.00281,0.0029085,1015668627.0
2020-11-19 00:00:00+00:00,0.002909,0.0029689,0.0028549,0.0029068,567308685.0
2020-11-20 00:00:00+00:00,0.0029096,0.0030245,0.0029005,0.002987,880383945.0
2020-11-21 00:00:00+00:00,0.0029872,0.0036062,0.0029796,0.0035132,3288496045.0
2020-11-22 00:00:00+00:00,0.0035091,0.00369,0.0031507,0.0033415,2121938713.0
2020-11-23 00:00:00+00:00,0.0033416,0.0037,0.0032201,0.0036845,1981374929.0
2020-11-24 00:00:00+00:00,0.0036894,0.0042925,0.0035,0.0042592,5893223305.0
2020-11-25 00:00:00+00:00,0.0042589,0.0042978,0.003581,0.0037081,2828578294.0
2020-11-26 00:00:00+00:00,0.0037139,0.0037979,0.0029395,0.0032492,3248357755.0
2020-11-27 00:00:00+00:00,0.003256,0.0033656,0.0030763,0.0032752,1019204144.0
2020-11-28 00:00:00+00:00,0.0032752,0.0034841,0.003236,0.0033945,715333106.0
2020-11-29 00:00:00+00:00,0.0033946,0.0035384,0.00335,0.0034365,577062454.0
2020-11-30 00:00:00+00:00,0.0034427,0.0035955,0.0034001,0.003561,847539304.0
2020-12-01 00:00:00+00:00,0.0035597,0.00358,0.0032276,0.0033211,1033683299.0
2020-12-02 00:00:00+00:00,0.003324,0.0034423,0.0032642,0.0033624,591501037.0
2020-12-03 00:00:00+00:00,0.003365,0.0035481,0.003345,0.003429,662685216.0
2020-12-04 00:00:00+00:00,0.003423,0.0034484,0.0032705,0.003283,572169239.0
2020-12-05 00:00:00+00:00,0.0032821,0.0034153,0.00325,0.0033917,369424898.0
2020-12-06 00:00:00+00:00,0.003392,0.0034424,0.0033461,0.0033857,285729554.0
2020-12-07 00:00:00+00:00,0.0033881,0.0033985,0.0033,0.003336,312605787.0
2020-12-08 00:00:00+00:00,0.003336,0.0033624,0.0031105,0.0031723,521543481.0
2020-12-09 00:00:00+00:00,0.0031725,0.0031851,0.0030037,0.0031562,441109948.0
2020-12-10 00:00:00+00:00,0.0031563,0.003171,0.003059,0.0031043,268351654.0
2020-12-11 00:00:00+00:00,0.0031091,0.0031171,0.0029969,0.0030732,328458778.0
2020-12-12 00:00:00+00:00,0.0030732,0.00319,0.0030732,0.0031609,334526072.0
2020-12-13 00:00:00+00:00,0.0031631,0.0032776,0.0031479,0.00326,374401350.0
2020-12-14 00:00:00+00:00,0.0032604,0.0032888,0.003191,0.003226,297347285.0
2020-12-15 00:00:00+00:00,0.003225,0.0032516,0.0031611,0.0032078,273863826.0
2020-12-16 00:00:00+00:00,0.0032073,0.0034448,0.00318,0.0034183,547786094.0
2020-12-17 00:00:00+00:00,0.0034179,0.0041458,0.003404,0.003722,3421588199.0
2020-12-18 00:00:00+00:00,0.0037182,0.0039976,0.0035975,0.0038675,1409796634.0
2020-12-19 00:00:00+00:00,0.0038646,0.0040379,0.0037952,0.0039291,1386297504.0
2020-12-20 00:00:00+00:00,0.0039264,0.0047496,0.0038,0.0046381,10007395897.0
2020-12-21 00:00:00+00:00,0.0046405,0.0055,0.004255,0.0047784,10363901378.0
2020-12-22 00:00:00+00:00,0.0047747,0.0048479,0.00433,0.0045159,2679851524.0
2020-12-23 00:00:00+00:00,0.0045168,0.0048,0.003623,0.0037449,2674249457.0
2020-12-24 00:00:00+00:00,0.0037561,0.0045999,0.0036599,0.0045731,1978566747.0
2020-12-25 00:00:00+00:00,0.0045753,0.004643,0.0043661,0.0045549,1664864616.0
2020-12-26 00:00:00+00:00,0.0045607,0.0046879,0.0043963,0.0045131,1701026447.0
2020-12-27 00:00:00+00:00,0.004513,0.0048231,0.0044,0.004547,1843249775.0
2020-12-28 00:00:00+00:00,0.0045472,0.0047355,0.0045,0.0046015,1074600031.0
2020-12-29 00:00:00+00:00,0.0046015,0.0046295,0.0042412,0.0045012,1071755865.0
2020-12-30 00:00:00+00:00,0.0044901,0.00474,0.0044165,0.0046251,1118987751.0
2020-12-31 00:00:00+00:00,0.0046251,0.0047593,0.00452,0.0046709,929996060.0
2021-01-01 00:00:00+00:00,0.0046716,0.005697,0.004601,0.00568,3019717963.0
2021-01-02 00:00:00+00:00,0.0056783,0.013988,0.005524,0.0105264,46333347255.0
2021-01-03 00:00:00+00:00,0.0105245,0.01405,0.0092693,0.0098209,29648808916.0
2021-01-04 00:00:00+00:00,0.0098188,0.0115198,0.0076,0.0097613,14328029441.0
2021-01-05 00:00:00+00:00,0.0097721,0.0102822,0.0088501,0.00997,5427135672.0
2021-01-06 00:00:00+00:00,0.0099771,0.011,0.0095521,0.01042,6108894506.0
2021-01-07 00:00:00+00:00,0.0104187,0.0105735,0.0087999,0.0097439,3523998014.0
2021-01-08 00:00:00+00:00,0.0097517,0.010318,0.0088047,0.00974,2971766597.0
2021-01-09 00:00:00+00:00,0.0097475,0.01079,0.0096486,0.0101789,3706408260.0
2021-01-10 00:00:00+00:00,0.010189,0.0109155,0.0089534,0.00982,3113405972.0
2021-01-11 00:00:00+00:00,0.0098162,0.0098455,0.0067094,0.0088326,5827520561.0
2021-01-12 00:00:00+00:00,0.0088104,0.0091394,0.0078217,0.0080807,2526092815.0
2021-01-13 00:00:00+00:00,0.0080806,0.0087,0.00777,0.0086738,1818357046.0
2021-01-14 00:00:00+00:00,0.008679,0.0101,0.0083105,0.0093907,4000190243.0
2021-01-15 00:00:00+00:00,0.0093931,0.0098443,0.0083123,0.0093525,3236586057.0
2021-01-16 00:00:00+00:00,0.0093568,0.0095675,0.0090727,0.0092374,1640096206.0
2021-01-17 00:00:00+00:00,0.0092374,0.0093957,0.008779,0.0090987,1438377582.0
2021-01-18 00:00:00+00:00,0.0090987,0.00932,0.008935,0.0091782,1156154741.0
2021-01-19 00:00:00+00:00,0.0091782,0.0096757,0.00896,0.0090428,1749440421.0
2021-01-20 00:00:00+00:00,0.0090428,0.009144,0.0085,0.0090487,1162054114.0
2021-01-21 00:00:00+00:00,0.0090589,0.0091,0.0080301,0.0081581,1237702943.0
2021-01-22 00:00:00+00:00,0.0081581,0.0087708,0.0075639,0.0085075,1152693965.0
2021-01-23 00:00:00+00:00,0.0085092,0.0088324,0.00835,0.0085779,718712164.0
2021-01-24 00:00:00+00:00,0.0085822,0.0089672,0.0085,0.0087135,901503263.0
2021-01-25 00:00:00+00:00,0.0087206,0.0089172,0.0081795,0.0083509,998144121.0
2021-01-26 00:00:00+00:00,0.0083341,0.0084615,0.0079523,0.0082472,719489035.0
2021-01-27 00:00:00+00:00,0.0082472,0.0082482,0.007257,0.0074124,1121405247.0
2021-01-28 00:00:00+00:00,0.0074104,0.0374849,0.007288,0.0364995,102989795103.0
2021-01-29 00:00:00+00:00,0.036442,0.0875,0.0313,0.0459059,109073693231.0
2021-01-30 00:00:00+00:00,0.0459059,0.0508804,0.0222001,0.02826,54559388569.0
2021-01-31 00:00:00+00:00,0.0282428,0.0494843,0.0267661,0.037,44577797729.0
2021-02-01 00:00:00+00:00,0.0369623,0.0438268,0.0328615,0.0348173,23868437622.0
2021-02-02 00:00:00+00:00,0.0348233,0.035294,0.02877,0.0313489,11550248752.0
2021-02-03 00:00:00+00:00,0.0313489,0.0397836,0.0307918,0.0372597,12960787222.0
2021-02-04 00:00:00+00:00,0.0372327,0.0598,0.0358367,0.0529081,48795642519.0
2021-02-05 00:00:00+00:00,0.0528149,0.05434,0.0431516,0.0467193,16560079172.0
2021-02-06 00:00:00+00:00,0.0467527,0.0588683,0.0444191,0.0576559,17252485844.0
2021-02-07 00:00:00+00:00,0.0576579,0.087297,0.0531446,0.0779247,38837846298.0
2021-02-08 00:00:00+00:00,0.0779851,0.0853555,0.0622214,0.0787,26387019347.0
2021-02-09 00:00:00+00:00,0.0787384,0.0838001,0.063,0.0700121,14602698981.0
2021-02-10 00:00:00+00:00,0.0700122,0.0816496,0.066,0.0725527,14156312430.0
2021-02-11 00:00:00+00:00,0.0725523,0.0755622,0.068,0.069583,6327153991.0
2021-02-12 00:00:00+00:00,0.0695853,0.07298,0.0608,0.0697675,7517732599.0
2021-02-13 00:00:00+00:00,0.069778,0.071709,0.0656,0.0662405,3844449349.0
2021-02-14 00:00:00+00:00,0.0662372,0.0664663,0.055558,0.0626783,8229158262.0
2021-02-15 00:00:00+00:00,0.0626878,0.0642,0.0474935,0.0565,11321001492.0
2021-02-16 00:00:00+00:00,0.0564643,0.0598452,0.0506003,0.053476,6643077510.0
2021-02-17 00:00:00+00:00,0.0535231,0.055109,0.0478,0.0495187,6168131231.0
2021-02-18 00:00:00+00:00,0.0494987,0.0645617,0.0489,0.0587991,13034098004.0
2021-02-19 00:00:00+00:00,0.0587991,0.059719,0.0536581,0.055033,6405564988.0
2021-02-20 00:00:00+00:00,0.055033,0.0607,0.051,0.0541708,7359009281.0
2021-02-21 00:00:00+00:00,0.0541567,0.06,0.05325,0.0560183,5548376495.0
2021-02-22 00:00:00+00:00,0.0559921,0.0608037,0.0461003,0.0535557,8420498923.0
2021-02-23 00:00:00+00:00,0.0536093,0.0538776,0.0413332,0.0476562,5958874372.0
2021-02-24 00:00:00+00:00,0.047692,0.060586,0.0459034,0.0567911,11172353520.0
2021-02-25 00:00:00+00:00,0.0567907,0.0581,0.0495002,0.0499138,4913047375.0
2021-02-26 00:00:00+00:00,0.0499157,0.0526032,0.0484,0.0504768,3147923785.0
2021-02-27 00:00:00+00:00,0.0504727,0.0521,0.0491,0.0500725,2268877377.0
2021-02-28 00:00:00+00:00,0.0500705,0.0502426,0.0446561,0.0481582,2384823456.0
2021-03-01 00:00:00+00:00,0.0481447,0.052505,0.0478589,0.0505933,2752580452.0
2021-03-02 00:00:00+00:00,0.0505754,0.05249,0.0491004,0.050364,2378364146.0
2021-03-03 00:00:00+00:00,0.0504021,0.0521972,0.0499556,0.0504146,1841086026.0
2021-03-04 00:00:00+00:00,0.0504337,0.0511539,0.04765,0.0499865,1943532071.0
2021-03-05 00:00:00+00:00,0.0499866,0.051079,0.0479661,0.0495285,1714962753.0
2021-03-06 00:00:00+00:00,0.0495247,0.0525801,0.049084,0.0509588,2749264710.0
2021-03-07 00:00:00+00:00,0.0509242,0.0524716,0.0504286,0.0519871,1494562661.0
2021-03-08 00:00:00+00:00,0.0519481,0.063075,0.0515505,0.0629738,7572972187.0
2021-03-09 00:00:00+00:00,0.0629582,0.0630025,0.056,0.0579117,4412560062.0
2021-03-10 00:00:00+00:00,0.0579432,0.0587592,0.0545,0.0558692,2390746818.0
2021-03-11 00:00:00+00:00,0.0558831,0.05698,0.0542647,0.0559286,1647182774.0
2021-03-12 00:00:00+00:00,0.0559117,0.057,0.054051,0.0552731,1821925239.0
2021-03-13 00:00:00+00:00,0.0552769,0.063,0.0546635,0.0627892,3660176589.0
2021-03-14 00:00:00+00:00,0.0627887,0.0636789,0.05817,0.058221,5115194076.0
2021-03-15 00:00:00+00:00,0.058221,0.0597745,0.055,0.0569691,2409422648.0
2021-03-16 00:00:00+00:00,0.0570152,0.0591427,0.0552668,0.0586507,2003574159.0
2021-03-17 00:00:00+00:00,0.0586389,0.0589584,0.0565314,0.057892,1162146770.0
2021-03-18 00:00:00+00:00,0.0578925,0.0592896,0.0568896,0.0573485,1338098958.0
2021-03-19 00:00:00+00:00,0.0573629,0.0599,0.0563741,0.0582472,1691688848.0
2021-03-20 00:00:00+00:00,0.0582624,0.060625,0.05797,0.0588186,1939829246.0
2021-03-21 00:00:00+00:00,0.0588396,0.0595555,0.0567,0.0574781,1204263965.0
2021-03-22 00:00:00+00:00,0.0574888,0.0579777,0.0544234,0.054888,1270766976.0
2021-03-23 00:00:00+00:00,0.0548901,0.0561052,0.0525963,0.0533532,1437944729.0
2021-03-24 00:00:00+00:00,0.0534234,0.0567995,0.05075,0.0514996,1666398121.0
2021-03-25 00:00:00+00:00,0.0514996,0.0524498,0.0495798,0.051266,1665397693.0
2021-03-26 00:00:00+00:00,0.051266,0.054038,0.051232,0.053931,873797527.0
2021-03-27 00:00:00+00:00,0.0539203,0.05545,0.053386,0.054436,1176365221.0
2021-03-28 00:00:00+00:00,0.054422,0.0549,0.0529496,0.0536656,675382127.0
2021-03-29 00:00:00+00:00,0.0536634,0.0547123,0.053202,0.054124,977387405.0
2021-03-30 00:00:00+00:00,0.054124,0.0556267,0.053328,0.0540003,1399307591.0
2021-03-31 00:00:00+00:00,0.0540014,0.0545,0.0513424,0.0537699,1085164149.0
2021-04-01 00:00:00+00:00,0.0537835,0.07135,0.0534999,0.062151,15242021778.0
2021-04-02 00:00:00+00:00,0.0621509,0.062905,0.0572,0.0575849,3415466916.0
2021-04-03 00:00:00+00:00,0.0575887,0.0595516,0.0555,0.0555113,2066362739.0
2021-04-04 00:00:00+00:00,0.0555,0.0582181,0.0550864,0.0573943,1563798693.0
2021-04-05 00:00:00+00:00,0.0573806,0.0607069,0.0562315,0.0599992,2638868932.0
2021-04-06 00:00:00+00:00,0.0599779,0.066,0.0579904,0.0644047,4762148739.0
2021-04-07 00:00:00+00:00,0.0644047,0.06744,0.0571267,0.0587769,4840051853.0
2021-04-08 00:00:00+00:00,0.058777,0.062324,0.0586319,0.0617838,1745571706.0
2021-04-09 00:00:00+00:00,0.0617837,0.0642733,0.0604712,0.0615878,2149603024.0
2021-04-10 00:00:00+00:00,0.0616103,0.0657518,0.0609445,0.0637167,2780510108.0
2021-04-11 00:00:00+00:00,0.0637167,0.08,0.0633959,0.07433,14967931146.0
2021-04-12 00:00:00+00:00,0.0743335,0.0754791,0.0685,0.0707343,4300356226.0
2021-04-13 00:00:00+00:00,0.0707001,0.0962255,0.0706409,0.094402,13605840277.0
2021-04-14 00:00:00+00:00,0.0944011,0.1453955,0.092118,0.1214329,36680989724.0
2021-04-15 00:00:00+00:00,0.1214319,0.1918922,0.1197878,0.1823599,24615971220.0
2021-04-16 00:00:00+00:00,0.1825003,0.45,0.1791,0.3654434,57510545356.0
2021-04-17 00:00:00+00:00,0.3653855,0.38125,0.231,0.2822532,24857057931.0
2021-04-18 00:00:00+00:00,0.2824945,0.351,0.2397,0.3223299,18379866877.0
2021-04-19 00:00:00+00:00,0.3225953,0.435546,0.308,0.408903,20873394140.0
2021-04-20 00:00:00+00:00,0.4088997,0.4246216,0.27,0.3173205,20969142688.0
2021-04-21 00:00:00+00:00,0.3173205,0.347661,0.2960052,0.3058251,9460395395.0
2021-04-22 00:00:00+00:00,0.3058074,0.3093988,0.253,0.2606615,11199121834.0
2021-04-23 00:00:00+00:00,0.2606616,0.2695,0.1597278,0.2498155,17170003022.0
2021-04-24 00:00:00+00:00,0.2499997,0.28999,0.2278,0.27,10626242110.0
2021-04-25 00:00:00+00:00,0.2700802,0.289296,0.224,0.25159,5726007353.4
2021-04-26 00:00:00+00:00,0.25159,0.28077,0.247,0.27161,4881379028.6
2021-04-27 00:00:00+00:00,0.27161,0.27994,0.2644,0.27232,3367212939.4
2021-04-28 00:00:00+00:00,0.27227,0.348,0.25511,0.32311,13418044375.1
2021-04-29 00:00:00+00:00,0.32321,0.32604,0.2955,0.30479,4149329330.8
2021-04-30 00:00:00+00:00,0.30479,0.34,0.30213,0.33746,4042637011.8
2021-05-01 00:00:00+00:00,0.33746,0.3975,0.32756,0.39087,7062340392.2
2021-05-02 00:00:00+00:00,0.39086,0.39999,0.362,0.37397,5092764030.1
2021-05-03 00:00:00+00:00,0.37459,0.4479,0.37386,0.44142,6428014853.9
2021-05-04 00:00:00+00:00,0.44142,0.61186,0.3979,0.53854,21282557921.9
2021-05-05 00:00:00+00:00,0.53854,0.69663,0.51668,0.654,19076895175.7
2021-05-06 00:00:00+00:00,0.654,0.665,0.54,0.58106,8546432048.7
2021-05-07 00:00:00+00:00,0.58099,0.733,0.51717,0.68982,12586268621.3
2021-05-08 00:00:00+00:00,0.68982,0.73995,0.6,0.63708,11387955620.8
2021-05-09 00:00:00+00:00,0.63708,0.70009,0.416,0.57063,26072068896.0
2021-05-10 00:00:00+00:00,0.57082,0.5726,0.41844,0.45074,9677354634.4
2021-05-11 00:00:00+00:00,0.4505,0.5485,0.4429,0.49326,7553577270.2
2021-05-12 00:00:00+00:00,0.49353,0.522,0.38203,0.3916,5372061299.6
2021-05-13 00:00:00+00:00,0.39142,0.52,0.3516,0.48945,10449387293.9
2021-05-14 00:00:00+00:00,0.48927,0.59,0.46412,0.55971,10623296337.0
2021-05-15 00:00:00+00:00,0.5599,0.56405,0.49009,0.50855,5232752313.5
2021-05-16 00:00:00+00:00,0.50838,0.5489,0.45,0.5137,5377121653.3
2021-05-17 00:00:00+00:00,0.51371,0.5162,0.45555,0.4875,4268994077.1
2021-05-18 00:00:00+00:00,0.48745,0.51536,0.46783,0.47574,3039758659.2
2021-05-19 00:00:00+00:00,0.47574,0.4794,0.21111,0.32945,11489907654.4
2021-05-20 00:00:00+00:00,0.32972,0.435,0.29402,0.39758,8529470589.6
2021-05-21 00:00:00+00:00,0.39747,0.41198,0.31357,0.35778,5243254333.5
2021-05-22 00:00:00+00:00,0.35778,0.364,0.31672,0.34199,3793145642.7
2021-05-23 00:00:00+00:00,0.34199,0.35094,0.24782,0.30633,5634274411.3
2021-05-24 00:00:00+00:00,0.30623,0.375,0.29511,0.36589,4854625486.1
2021-05-25 00:00:00+00:00,0.36589,0.38,0.32141,0.34598,3709319825.9
2021-05-26 00:00:00+00:00,0.34597,0.36671,0.33632,0.35284,2385684153.7
2021-05-27 00:00:00+00:00,0.35291,0.35309,0.327,0.33403,1794158136.6
2021-05-28 00:00:00+00:00,0.33404,0.34754,0.30052,0.31123,2620384686.8
2021-05-29 00:00:00+00:00,0.31122,0.31794,0.28,0.3028,2016681043.4
2021-05-30 00:00:00+00:00,0.30273,0.31079,0.28653,0.30179,1514854219.6
2021-05-31 00:00:00+00:00,0.30179,0.32991,0.29386,0.32557,1897905257.4
2021-06-01 00:00:00+00:00,0.32558,0.38476,0.31121,0.37006,4488851727.4
2021-06-02 00:00:00+00:00,0.37007,0.44834,0.3511,0.42338,8351828077.5
2021-06-03 00:00:00+00:00,0.42344,0.442,0.37722,0.40078,5070741840.7
2021-06-04 00:00:00+00:00,0.40078,0.40249,0.35,0.37628,4035854544.9
2021-06-05 00:00:00+00:00,0.37628,0.395,0.35974,0.3713,2396911157.1
2021-06-06 00:00:00+00:00,0.3713,0.37703,0.36634,0.37143,1194622756.0
2021-06-07 00:00:00+00:00,0.37143,0.37999,0.3275,0.33146,2064211543.4
2021-06-08 00:00:00+00:00,0.3315,0.34183,0.29526,0.32586,2908803652.9
2021-06-09 00:00:00+00:00,0.32592,0.3548,0.31227,0.34318,2068160059.0
2021-06-10 00:00:00+00:00,0.34323,0.34515,0.3225,0.32606,1348789846.5
2021-06-11 00:00:00+00:00,0.32613,0.3338,0.31069,0.3187,1204137023.4
2021-06-12 00:00:00+00:00,0.31874,0.31932,0.3,0.31216,1217468360.1
2021-06-13 00:00:00+00:00,0.31221,0.33,0.30744,0.32394,1042596039.8
2021-06-14 00:00:00+00:00,0.32392,0.33777,0.32,0.32767,1310349921.9
2021-06-15 00:00:00+00:00,0.32769,0.33069,0.31642,0.32028,1015598512.1
2021-06-16 00:00:00+00:00,0.32025,0.32146,0.30505,0.30775,888434880.9
2021-06-17 00:00:00+00:00,0.30774,0.31413,0.3026,0.30619,680701230.2
2021-06-18 00:00:00+00:00,0.30619,0.30766,0.28,0.29328,1314700190.7
2021-06-19 00:00:00+00:00,0.29321,0.29791,0.28558,0.28567,624846001.4
2021-06-20 00:00:00+00:00,0.28563,0.28988,0.2551,0.28054,1528605029.5
2021-06-21 00:00:00+00:00,0.28054,0.28138,0.1649,0.17873,7023706752.6
2021-06-22 00:00:00+00:00,0.17873,0.2174,0.16322,0.19072,7520083611.8
2021-06-23 00:00:00+00:00,0.19075,0.2485,0.18046,0.23468,5839514040.0
2021-06-24 00:00:00+00:00,0.23475,0.26953,0.222,0.26377,3579998951.2
2021-06-25 00:00:00+00:00,0.26374,0.28959,0.22886,0.23745,5942192455.5
2021-06-26 00:00:00+00:00,0.23748,0.2554,0.23057,0.24583,2653188955.6
2021-06-27 00:00:00+00:00,0.24583,0.26753,0.24002,0.2645,1968559379.6
2021-06-28 00:00:00+00:00,0.26462,0.26735,0.2505,0.25707,1734504424.8
2021-06-29 00:00:00+00:00,0.25709,0.27573,0.25248,0.26349,1927372368.1
2021-06-30 00:00:00+00:00,0.26349,0.26391,0.23778,0.25391,1610075649.0
2021-07-01 00:00:00+00:00,0.2539,0.2614,0.23817,0.24381,2253058516.9
2021-07-02 00:00:00+00:00,0.2438,0.24916,0.23839,0.24505,1081847381.6
2021-07-03 00:00:00+00:00,0.24498,0.25039,0.242,0.24636,759251070.1
2021-07-04 00:00:00+00:00,0.24634,0.253,0.24324,0.24643,823044174.7
2021-07-05 00:00:00+00:00,0.24636,0.249,0.22547,0.2311,1181584860.3
2021-07-06 00:00:00+00:00,0.23117,0.2423,0.22931,0.23417,981368400.5
2021-07-07 00:00:00+00:00,0.23418,0.23862,0.22084,0.22386,952129896.6
2021-07-08 00:00:00+00:00,0.22386,0.22481,0.20148,0.2069,1487061330.1
2021-07-09 00:00:00+00:00,0.20708,0.22986,0.19521,0.21963,2291127903.5
2021-07-10 00:00:00+00:00,0.21966,0.22812,0.2097,0.21375,919482894.5
2021-07-11 00:00:00+00:00,0.21376,0.21917,0.21061,0.21597,551263176.4
2021-07-12 00:00:00+00:00,0.21597,0.219,0.20394,0.20775,805441341.2
2021-07-13 00:00:00+00:00,0.20776,0.20893,0.19749,0.19997,916221269.9
2021-07-14 00:00:00+00:00,0.19995,0.20479,0.18725,0.19761,1247947078.4
2021-07-15 00:00:00+00:00,0.19759,0.20089,0.18051,0.18534,966797093.3
2021-07-16 00:00:00+00:00,0.18534,0.18833,0.17118,0.17202,1185633674.2
2021-07-17 00:00:00+00:00,0.17203,0.2053,0.16884,0.18734,2572720766.9
2021-07-18 00:00:00+00:00,0.18738,0.19605,0.18019,0.18157,1344894101.6
2021-07-19 00:00:00+00:00,0.18156,0.18429,0.17025,0.17362,1079953391.4
2021-07-20 00:00:00+00:00,0.17362,0.17997,0.15988,0.17047,1865041957.2
2021-07-21 00:00:00+00:00,0.17048,0.21442,0.16836,0.19046,4505979384.2
2021-07-22 00:00:00+00:00,0.19045,0.19646,0.18632,0.19123,1393922167.5
2021-07-23 00:00:00+00:00,0.19119,0.19977,0.18292,0.19489,1352326692.4
2021-07-24 00:00:00+00:00,0.1949,0.2045,0.19117,0.19688,1627615706.2
2021-07-25 00:00:00+00:00,0.19689,0.20076,0.19105,0.19793,1122436168.6
2021-07-26 00:00:00+00:00,0.19788,0.23314,0.19679,0.20362,4546455511.8
2021-07-27 00:00:00+00:00,0.20363,0.2095,0.19506,0.20585,2030159664.4
2021-07-28 00:00:00+00:00,0.20586,0.21386,0.20161,0.20574,1698684418.6
2021-07-29 00:00:00+00:00,0.20571,0.20664,0.2003,0.20502,875707720.8
2021-07-30 00:00:00+00:00,0.20503,0.21065,0.19587,0.20873,1260492016.3
2021-07-31 00:00:00+00:00,0.20872,0.2145,0.20476,0.20765,1177482439.7
2021-08-01 00:00:00+00:00,0.20764,0.21799,0.20082,0.20424,1550637730.2
2021-08-02 00:00:00+00:00,0.2042,0.20998,0.2018,0.20327,896401081.3
2021-08-03 00:00:00+00:00,0.20325,0.2051,0.1931,0.19626,977103235.1
2021-08-04 00:00:00+00:00,0.19626,0.20326,0.19416,0.20153,873261017.4
2021-08-05 00:00:00+00:00,0.20152,0.20258,0.1943,0.20095,946707300.6
2021-08-06 00:00:00+00:00,0.20094,0.212,0.19841,0.20482,1263420290.4
2021-08-07 00:00:00+00:00,0.20482,0.2628,0.20358,0.26189,5158338816.2
2021-08-08 00:00:00+00:00,0.26184,0.28377,0.235,0.23996,5791158603.5
2021-08-09 00:00:00+00:00,0.23996,0.26666,0.23048,0.25609,3702865258.6
2021-08-10 00:00:00+00:00,0.2561,0.26321,0.24513,0.25732,2588076619.6
2021-08-11 00:00:00+00:00,0.25734,0.28295,0.25626,0.26445,3712761104.7
2021-08-12 00:00:00+00:00,0.26448,0.2949,0.25165,0.26401,3923287429.8
2021-08-13 00:00:00+00:00,0.26405,0.28756,0.26121,0.28667,2142420241.3
2021-08-14 00:00:00+00:00,0.2867,0.29864,0.2757,0.29402,3131790645.4
2021-08-15 00:00:00+00:00,0.29399,0.3495,0.2862,0.33984,4964816125.0
2021-08-16 00:00:00+00:00,0.33996,0.3517,0.31001,0.31956,4130699106.8
2021-08-17 00:00:00+00:00,0.31946,0.34021,0.29452,0.29933,3520234606.5
2021-08-18 00:00:00+00:00,0.2993,0.325,0.2775,0.3032,4089557667.2
2021-08-19 00:00:00+00:00,0.30321,0.31943,0.29355,0.31778,2386616242.5
2021-08-20 00:00:00+00:00,0.31777,0.3364,0.31373,0.32733,2177517962.3
2021-08-21 00:00:00+00:00,0.32733,0.33,0.31313,0.31662,1751965697.2
2021-08-22 00:00:00+00:00,0.31666,0.32159,0.305,0.31467,1401118643.8
2021-08-23 00:00:00+00:00,0.31467,0.328,0.3128,0.31783,1842154214.4
2021-08-24 00:00:00+00:00,0.31775,0.31968,0.27433,0.28864,2336380653.8
2021-08-25 00:00:00+00:00,0.28862,0.29789,0.27948,0.29255,1658742148.8
2021-08-26 00:00:00+00:00,0.29254,0.29645,0.2641,0.2684,1401204832.1
2021-08-27 00:00:00+00:00,0.2684,0.2951,0.265,0.2944,1345067751.7
2021-08-28 00:00:00+00:00,0.2944,0.2995,0.283,0.286,813242385.1
2021-08-29 00:00:00+00:00,0.286,0.2918,0.2764,0.2809,758831427.0
2021-08-30 00:00:00+00:00,0.2809,0.2905,0.2698,0.272,994923907.0
2021-08-31 00:00:00+00:00,0.2719,0.286,0.2696,0.2781,994391602.0
2021-09-01 00:00:00+00:00,0.2782,0.295,0.2728,0.2943,1077645215.0
2021-09-02 00:00:00+00:00,0.2944,0.31,0.2917,0.2947,1859879704.7
2021-09-03 00:00:00+00:00,0.2946,0.3047,0.287,0.2961,1248795134.0
2021-09-04 00:00:00+00:00,0.2961,0.3087,0.2929,0.2992,1170386591.0
2021-09-05 00:00:00+00:00,0.2993,0.3155,0.296,0.3143,1273101183.7
2021-09-06 00:00:00+00:00,0.3144,0.3199,0.2997,0.309,1327741283.1
2021-09-07 00:00:00+00:00,0.3091,0.3114,0.2145,0.2552,4143609594.1
2021-09-08 00:00:00+00:00,0.2553,0.2635,0.2332,0.2567,2036725778.0
2021-09-09 00:00:00+00:00,0.2566,0.2597,0.2486,0.2525,972908690.0
2021-09-10 00:00:00+00:00,0.2525,0.262,0.2353,0.2397,1039971873.0
2021-09-11 00:00:00+00:00,0.2398,0.2479,0.2376,0.241,574961334.0
2021-09-12 00:00:00+00:00,0.241,0.2551,0.2387,0.2502,824439503.0
2021-09-13 00:00:00+00:00,0.2504,0.2523,0.2281,0.2358,1194502511.0
2021-09-14 00:00:00+00:00,0.2359,0.2417,0.2335,0.2406,600777341.0
2021-09-15 00:00:00+00:00,0.2406,0.2484,0.2388,0.2476,624731884.0
2021-09-16 00:00:00+00:00,0.2477,0.2479,0.2329,0.2418,767085717.0
2021-09-17 00:00:00+00:00,0.2419,0.2599,0.2373,0.2401,1532347235.0
2021-09-18 00:00:00+00:00,0.2401,0.2474,0.2379,0.2413,532008968.0
2021-09-19 00:00:00+00:00,0.2414,0.2415,0.2307,0.2331,486273037.0
2021-09-20 00:00:00+00:00,0.2331,0.2335,0.1988,0.2086,1842218251.9
2021-09-21 00:00:00+00:00,0.2086,0.2185,0.1976,0.2009,1475472637.8
2021-09-22 00:00:00+00:00,0.2008,0.2304,0.1999,0.2245,1505717159.7
2021-09-23 00:00:00+00:00,0.2244,0.2273,0.2175,0.2246,809134784.0
2021-09-24 00:00:00+00:00,0.2245,0.2291,0.1965,0.2091,1446332143.9
2021-09-25 00:00:00+00:00,0.2092,0.214,0.2043,0.2083,648108334.0
2021-09-26 00:00:00+00:00,0.2084,0.2089,0.194,0.205,778024870.7
2021-09-27 00:00:00+00:00,0.205,0.2093,0.1996,0.1997,447272392.0
2021-09-28 00:00:00+00:00,0.1998,0.2027,0.196,0.1965,478010126.0
2021-09-29 00:00:00+00:00,0.1966,0.2043,0.1946,0.1987,508197881.0
2021-09-30 00:00:00+00:00,0.1987,0.206,0.1976,0.2042,525345573.0
2021-10-01 00:00:00+00:00,0.2043,0.2253,0.2018,0.2226,1029403020.0
2021-10-02 00:00:00+00:00,0.2227,0.225,0.2151,0.2185,726979560.0
2021-10-03 00:00:00+00:00,0.2186,0.2266,0.2155,0.2218,697996641.0
2021-10-04 00:00:00+00:00,0.2218,0.249,0.2119,0.2414,3281218340.0
2021-10-05 00:00:00+00:00,0.2415,0.268,0.2325,0.2516,3796153741.0
2021-10-06 00:00:00+00:00,0.2517,0.2719,0.2422,0.2541,3681509190.0
2021-10-07 00:00:00+00:00,0.2542,0.257,0.2357,0.2428,2142393485.0
2021-10-08 00:00:00+00:00,0.2429,0.2549,0.2414,0.2441,1381822126.0
2021-10-09 00:00:00+00:00,0.2442,0.2527,0.2407,0.2467,1073585552.0
2021-10-10 00:00:00+00:00,0.2467,0.2487,0.226,0.2288,977648960.0
2021-10-11 00:00:00+00:00,0.2287,0.2394,0.2249,0.2312,1072711057.0
2021-10-12 00:00:00+00:00,0.2312,0.2318,0.216,0.2261,1030470079.0
2021-10-13 00:00:00+00:00,0.226,0.2342,0.2203,0.2326,1044380785.0
2021-10-14 00:00:00+00:00,0.2325,0.2403,0.2311,0.2325,1098049682.0
2021-10-15 00:00:00+00:00,0.2325,0.2436,0.2239,0.234,1457540715.0
2021-10-16 00:00:00+00:00,0.2341,0.2459,0.2337,0.2372,1224144433.0
2021-10-17 00:00:00+00:00,0.2373,0.2421,0.2252,0.2378,1210409235.0
2021-10-18 00:00:00+00:00,0.2377,0.273,0.237,0.2474,4909224967.0
2021-10-19 00:00:00+00:00,0.2474,0.255,0.2399,0.2454,1415459318.0
2021-10-20 00:00:00+00:00,0.2454,0.262,0.2421,0.2548,1638568849.0
2021-10-21 00:00:00+00:00,0.2548,0.2584,0.2382,0.2424,1573673715.0
2021-10-22 00:00:00+00:00,0.2425,0.2549,0.2352,0.2446,1553243637.0
2021-10-23 00:00:00+00:00,0.2446,0.254,0.24,0.2511,1258672648.0
2021-10-24 00:00:00+00:00,0.2511,0.2832,0.2457,0.2756,4887922846.0
2021-10-25 00:00:00+00:00,0.2757,0.2805,0.2585,0.2651,2939692178.0
2021-10-26 00:00:00+00:00,0.2651,0.2743,0.252,0.2559,2132162373.0
2021-10-27 00:00:00+00:00,0.2558,0.2636,0.2169,0.2379,5223432326.0
2021-10-28 00:00:00+00:00,0.2379,0.34,0.2324,0.2997,17320109431.0
2021-10-29 00:00:00+00:00,0.2997,0.307,0.2752,0.2882,4977184874.0
2021-10-30 00:00:00+00:00,0.2882,0.295,0.258,0.269,3441001301.0
2021-10-31 00:00:00+00:00,0.269,0.2852,0.252,0.28,3857354566.0
2021-11-01 00:00:00+00:00,0.28,0.2866,0.2631,0.2716,2497093967.0
2021-11-02 00:00:00+00:00,0.2716,0.281,0.2666,0.2739,1912493294.0
2021-11-03 00:00:00+00:00,0.2739,0.2776,0.262,0.2689,1607498166.0
2021-11-04 00:00:00+00:00,0.2689,0.2709,0.2539,0.263,1446957670.0
2021-11-05 00:00:00+00:00,0.263,0.2709,0.2547,0.2609,1282376452.0
2021-11-06 00:00:00+00:00,0.2608,0.2676,0.25,0.2618,1135857725.0
2021-11-07 00:00:00+00:00,0.2618,0.2698,0.2584,0.2664,912146975.0
2021-11-08 00:00:00+00:00,0.2664,0.2973,0.2644,0.2819,3420674489.0
2021-11-09 00:00:00+00:00,0.282,0.2905,0.2708,0.2736,1854893482.0
2021-11-10 00:00:00+00:00,0.2737,0.2775,0.235,0.2553,2600272877.0
2021-11-11 00:00:00+00:00,0.2553,0.2716,0.2529,0.2605,1356541795.0
2021-11-12 00:00:00+00:00,0.2604,0.2686,0.2484,0.2593,1227134455.0
2021-11-13 00:00:00+00:00,0.2594,0.2624,0.2542,0.2613,730909452.0
2021-11-14 00:00:00+00:00,0.2612,0.2719,0.2597,0.2628,1109308026.0
2021-11-15 00:00:00+00:00,0.2628,0.2654,0.2553,0.2566,784663988.0
2021-11-16 00:00:00+00:00,0.2567,0.2567,0.2225,0.2365,1931306150.0
2021-11-17 00:00:00+00:00,0.2364,0.2413,0.2293,0.2374,1016537117.0
2021-11-18 00:00:00+00:00,0.2373,0.2413,0.215,0.2208,1424059825.0
2021-11-19 00:00:00+00:00,0.2209,0.2369,0.2155,0.2329,1011256982.0
2021-11-20 00:00:00+00:00,0.2328,0.2357,0.2249,0.233,638393250.0
2021-11-21 00:00:00+00:00,0.233,0.2334,0.225,0.2255,584498069.0
2021-11-22 00:00:00+00:00,0.2256,0.2273,0.2163,0.2195,715429215.0
2021-11-23 00:00:00+00:00,0.2194,0.2369,0.2132,0.2266,1648276631.0
2021-11-24 00:00:00+00:00,0.2267,0.2304,0.2106,0.217,1150989995.0
2021-11-25 00:00:00+00:00,0.217,0.2289,0.2138,0.2209,1097415948.0
2021-11-26 00:00:00+00:00,0.221,0.2217,0.186,0.2016,2305030656.3
2021-11-27 00:00:00+00:00,0.2016,0.21,0.2005,0.2049,908852823.0
2021-11-28 00:00:00+00:00,0.2049,0.2074,0.1907,0.2073,858901257.0
2021-11-29 00:00:00+00:00,0.2072,0.227,0.2025,0.215,1857437869.0
2021-11-30 00:00:00+00:00,0.2149,0.2275,0.2125,0.2147,1617695220.0
2021-12-01 00:00:00+00:00,0.2147,0.2189,0.2058,0.2093,803902283.0
2021-12-02 00:00:00+00:00,0.2093,0.2233,0.2011,0.2095,1689895075.0
2021-12-03 00:00:00+00:00,0.2095,0.2122,0.1902,0.1999,1011968037.0
2021-12-04 00:00:00+00:00,0.1998,0.2004,0.131,0.1781,5303849448.2
2021-12-05 00:00:00+00:00,0.1781,0.1812,0.1617,0.1712,1381389600.0
2021-12-06 00:00:00+00:00,0.1712,0.1804,0.1591,0.1776,1661970370.0
2021-12-07 00:00:00+00:00,0.1775,0.1839,0.1746,0.1762,1069148248.0
2021-12-08 00:00:00+00:00,0.1762,0.1821,0.172,0.179,870067110.0
2021-12-09 00:00:00+00:00,0.1791,0.1833,0.1685,0.1691,974195305.0
2021-12-10 00:00:00+00:00,0.1691,0.1748,0.1632,0.1641,743981315.0
2021-12-11 00:00:00+00:00,0.1641,0.17,0.1612,0.1689,654792769.0
2021-12-12 00:00:00+00:00,0.1689,0.1738,0.1656,0.1697,499912432.0
2021-12-13 00:00:00+00:00,0.1696,0.1704,0.1514,0.1573,972416861.0
2021-12-14 00:00:00+00:00,0.1574,0.2204,0.1549,0.1909,7338444571.0
2021-12-15 00:00:00+00:00,0.1909,0.1912,0.1703,0.1808,2177343912.0
2021-12-16 00:00:00+00:00,0.1808,0.1853,0.1723,0.1732,1077785070.0
2021-12-17 00:00:00+00:00,0.1732,0.1766,0.1614,0.1685,1033871332.0
2021-12-18 00:00:00+00:00,0.1684,0.1757,0.1659,0.1723,594262965.0
2021-12-19 00:00:00+00:00,0.1723,0.1746,0.1691,0.1694,479149291.0
2021-12-20 00:00:00+00:00,0.1695,0.1708,0.161,0.1671,823398873.0
2021-12-21 00:00:00+00:00,0.1671,0.1724,0.1657,0.1707,514233887.0
2021-12-22 00:00:00+00:00,0.1708,0.1799,0.1697,0.173,885691231.0
2021-12-23 00:00:00+00:00,0.173,0.1851,0.1712,0.185,1027458506.0
2021-12-24 00:00:00+00:00,0.1851,0.1955,0.1791,0.1862,1245909390.0
2021-12-25 00:00:00+00:00,0.1862,0.1957,0.1847,0.1908,883688963.0
2021-12-26 00:00:00+00:00,0.1908,0.1925,0.1849,0.1898,537153520.0
2021-12-27 00:00:00+00:00,0.1898,0.1928,0.1863,0.1879,612427580.0
2021-12-28 00:00:00+00:00,0.1879,0.188,0.1716,0.1739,979781920.0
2021-12-29 00:00:00+00:00,0.1738,0.1773,0.1661,0.168,716005365.0
2021-12-30 00:00:00+00:00,0.168,0.1758,0.1651,0.1711,524275170.0
2021-12-31 00:00:00+00:00,0.171,0.1758,0.1661,0.1703,572705101.0
2022-01-01 00:00:00+00:00,0.1703,0.1737,0.1697,0.1732,297504077.0
2022-01-02 00:00:00+00:00,0.1731,0.1763,0.1705,0.1745,312955886.0
2022-01-03 00:00:00+00:00,0.1745,0.1745,0.1674,0.1703,460985351.0
2022-01-04 00:00:00+00:00,0.1703,0.1726,0.1665,0.1684,496439208.0
2022-01-05 00:00:00+00:00,0.1685,0.171,0.1472,0.159,1084632258.0
2022-01-06 00:00:00+00:00,0.1591,0.1621,0.1539,0.1599,705767171.0
2022-01-07 00:00:00+00:00,0.16,0.1604,0.1489,0.155,1079690606.0
2022-01-08 00:00:00+00:00,0.1551,0.1579,0.1451,0.1509,582238373.0
2022-01-09 00:00:00+00:00,0.1509,0.1539,0.1486,0.1505,381170543.0
2022-01-10 00:00:00+00:00,0.1505,0.1522,0.1368,0.1431,845047878.0
2022-01-11 00:00:00+00:00,0.143,0.167,0.1417,0.1538,1691718365.0
2022-01-12 00:00:00+00:00,0.1538,0.1636,0.1511,0.1628,911010585.0
2022-01-13 00:00:00+00:00,0.1627,0.1781,0.1613,0.1717,2116971492.0
2022-01-14 00:00:00+00:00,0.1716,0.2148,0.1703,0.1832,5406672589.0
2022-01-15 00:00:00+00:00,0.1832,0.1948,0.1815,0.1845,1633943311.0
2022-01-16 00:00:00+00:00,0.1845,0.1847,0.1734,0.1766,1069094552.0
2022-01-17 00:00:00+00:00,0.1766,0.1784,0.1656,0.1708,1091483397.0
2022-01-18 00:00:00+00:00,0.1708,0.1743,0.1616,0.1651,945110452.0
2022-01-19 00:00:00+00:00,0.1651,0.1696,0.1589,0.1615,867134554.0
2022-01-20 00:00:00+00:00,0.1616,0.1693,0.1536,0.1553,763530515.0
2022-01-21 00:00:00+00:00,0.1553,0.1576,0.1399,0.1419,1503858051.0
2022-01-22 00:00:00+00:00,0.142,0.1453,0.12,0.1332,2241546261.6
2022-01-23 00:00:00+00:00,0.1333,0.1447,0.132,0.1418,1196841624.0
2022-01-24 00:00:00+00:00,0.1417,0.1418,0.1256,0.1373,1607720454.0
2022-01-25 00:00:00+00:00,0.1373,0.1506,0.1325,0.1427,1316136672.0
2022-01-26 00:00:00+00:00,0.1427,0.1534,0.1409,0.1431,1324673854.0
2022-01-27 00:00:00+00:00,0.1431,0.1459,0.1362,0.1414,677890025.0
2022-01-28 00:00:00+00:00,0.1415,0.1426,0.1377,0.1414,464231063.0
2022-01-29 00:00:00+00:00,0.1415,0.1442,0.1403,0.143,339117872.0
2022-01-30 00:00:00+00:00,0.1429,0.1438,0.138,0.1391,341622629.0
2022-01-31 00:00:00+00:00,0.1392,0.1426,0.1363,0.1415,365107026.0
2022-02-01 00:00:00+00:00,0.1416,0.1444,0.1408,0.1423,374440012.0
2022-02-02 00:00:00+00:00,0.1423,0.1466,0.135,0.137,491750010.0
2022-02-03 00:00:00+00:00,0.1369,0.1389,0.1346,0.1379,384297073.0
2022-02-04 00:00:00+00:00,0.138,0.1481,0.1369,0.1478,562305646.0
2022-02-05 00:00:00+00:00,0.1479,0.1507,0.1447,0.1469,526695035.0
2022-02-06 00:00:00+00:00,0.1468,0.1559,0.1445,0.1539,705984242.0
2022-02-07 00:00:00+00:00,0.154,0.1731,0.1513,0.1653,1810847856.0
2022-02-08 00:00:00+00:00,0.1653,0.1711,0.1529,0.1581,1273034951.0
2022-02-09 00:00:00+00:00,0.1582,0.1624,0.1542,0.1594,691842118.0
2022-02-10 00:00:00+00:00,0.1594,0.1607,0.15,0.1514,921972005.0
2022-02-11 00:00:00+00:00,0.1515,0.1543,0.1419,0.1446,706523003.0
2022-02-12 00:00:00+00:00,0.1446,0.1475,0.1402,0.1444,573672346.0
2022-02-13 00:00:00+00:00,0.1443,0.158,0.1437,0.148,1586345314.0
2022-02-14 00:00:00+00:00,0.1481,0.1506,0.1427,0.1457,901483820.0
2022-02-15 00:00:00+00:00,0.1458,0.1524,0.1448,0.1517,600243216.0
2022-02-16 00:00:00+00:00,0.1517,0.1517,0.1462,0.1487,432478291.0
2022-02-17 00:00:00+00:00,0.1487,0.15,0.1368,0.1383,740203412.0
2022-02-18 00:00:00+00:00,0.1383,0.1422,0.136,0.1386,619882904.0
2022-02-19 00:00:00+00:00,0.1386,0.1465,0.1384,0.1409,677612304.0
2022-02-20 00:00:00+00:00,0.1409,0.1411,0.135,0.1366,508576015.0
2022-02-21 00:00:00+00:00,0.1367,0.1419,0.1271,0.1282,1003925366.0
2022-02-22 00:00:00+00:00,0.1283,0.1318,0.1238,0.1313,711049048.0
2022-02-23 00:00:00+00:00,0.1313,0.1356,0.1272,0.1273,608946632.0
2022-02-24 00:00:00+00:00,0.1273,0.1277,0.1065,0.1241,2457565179.9
2022-02-25 00:00:00+00:00,0.1241,0.1284,0.1205,0.1276,799509758.0
2022-02-26 00:00:00+00:00,0.1276,0.1306,0.1257,0.1276,531223949.0
2022-02-27 00:00:00+00:00,0.1276,0.1284,0.1209,0.1229,635411701.0
2022-02-28 00:00:00+00:00,0.123,0.1349,0.1213,0.1335,734786347.0
2022-03-01 00:00:00+00:00,0.1334,0.139,0.1297,0.134,925222290.0
2022-03-02 00:00:00+00:00,0.134,0.1373,0.1306,0.133,672511452.0
2022-03-03 00:00:00+00:00,0.133,0.1339,0.1271,0.1297,523496191.0
2022-03-04 00:00:00+00:00,0.1297,0.1302,0.12,0.1226,660309989.0
2022-03-05 00:00:00+00:00,0.1226,0.1256,0.1209,0.125,323924728.0
2022-03-06 00:00:00+00:00,0.1249,0.1256,0.1193,0.1207,386679370.0
2022-03-07 00:00:00+00:00,0.1207,0.1226,0.1132,0.1167,511547343.0
2022-03-08 00:00:00+00:00,0.1168,0.12,0.1152,0.117,545435466.0
2022-03-09 00:00:00+00:00,0.117,0.1245,0.1164,0.1215,538088819.0
2022-03-10 00:00:00+00:00,0.1215,0.1219,0.1145,0.1169,558495794.0
2022-03-11 00:00:00+00:00,0.1169,0.1186,0.1137,0.1155,407557724.0
2022-03-12 00:00:00+00:00,0.1154,0.1173,0.1146,0.1147,214689375.0
2022-03-13 00:00:00+00:00,0.1147,0.1164,0.1099,0.1114,401940015.0
2022-03-14 00:00:00+00:00,0.1114,0.122,0.1102,0.1139,948724536.0
2022-03-15 00:00:00+00:00,0.1139,0.1143,0.1101,0.1126,417039779.0
2022-03-16 00:00:00+00:00,0.1126,0.1171,0.1121,0.1171,548022368.0
2022-03-17 00:00:00+00:00,0.117,0.1194,0.1158,0.1163,444108919.0
2022-03-18 00:00:00+00:00,0.1164,0.1196,0.1142,0.1191,431655767.0
2022-03-19 00:00:00+00:00,0.1192,0.1251,0.1183,0.1236,678711412.0
2022-03-20 00:00:00+00:00,0.1235,0.1241,0.1174,0.1191,425713425.0
2022-03-21 00:00:00+00:00,0.1191,0.1217,0.1176,0.1192,403696503.0
2022-03-22 00:00:00+00:00,0.1193,0.1257,0.1186,0.1224,640695818.0
2022-03-23 00:00:00+00:00,0.1224,0.1314,0.121,0.1298,1136679760.0
2022-03-24 00:00:00+00:00,0.1299,0.1413,0.1277,0.1368,2168603367.0
2022-03-25 00:00:00+00:00,0.1368,0.1377,0.1274,0.1308,1191949148.0
2022-03-26 00:00:00+00:00,0.1308,0.1369,0.1289,0.136,780328909.0
2022-03-27 00:00:00+00:00,0.1361,0.1456,0.1354,0.1448,1864810242.0
2022-03-28 00:00:00+00:00,0.1447,0.1537,0.1406,0.1425,1905719594.0
2022-03-29 00:00:00+00:00,0.1424,0.1489,0.1404,0.1444,1173218699.0
2022-03-30 00:00:00+00:00,0.1444,0.1456,0.1379,0.1432,1131014248.0
2022-03-31 00:00:00+00:00,0.1431,0.148,0.1359,0.1381,1464999405.0
2022-04-01 00:00:00+00:00,0.1381,0.143,0.132,0.1413,1030256213.0
2022-04-02 00:00:00+00:00,0.1414,0.1445,0.1378,0.1387,804996467.0
2022-04-03 00:00:00+00:00,0.1387,0.1496,0.1362,0.1466,1229288569.0
2022-04-04 00:00:00+00:00,0.1465,0.1567,0.1412,0.1485,2703058960.0
2022-04-05 00:00:00+00:00,0.1485,0.1796,0.1471,0.1727,6454340799.0
2022-04-06 00:00:00+00:00,0.1727,0.1748,0.141,0.1433,5121714785.0
2022-04-07 00:00:00+00:00,0.1432,0.1483,0.14,0.1459,1901323940.0
