t,v
2011-08-17,0.0
2011-08-18,7.55902889
2011-08-19,0.0
2011-08-20,0.0
2011-08-21,0.0
2011-08-22,0.0
2011-08-23,0.01859174
2011-08-24,0.0
2011-08-25,0.0
2011-08-26,0.0
2011-08-27,0.0
2011-08-28,0.0
2011-08-29,0.0
2011-08-30,0.0
2011-08-31,0.0
2011-09-01,0.0
2011-09-02,0.0
2011-09-03,0.0
2011-09-04,0.05880871
2011-09-05,0.0
2011-09-06,0.0
2011-09-07,0.0
2011-09-08,0.0
2011-09-09,0.0
2011-09-10,0.0
2011-09-11,0.0
2011-09-12,0.03
2011-09-13,0.0
2011-09-14,0.0
2011-09-15,0.0
2011-09-16,0.0
2011-09-17,0.0
2011-09-18,0.0
2011-09-19,0.0
2011-09-20,0.0
2011-09-21,1.09710871
2011-09-22,0.0
2011-09-23,0.0
2011-09-24,0.0
2011-09-25,0.0
2011-09-26,0.0
2011-09-27,0.01157456
2011-09-28,0.0
2011-09-29,0.0
2011-09-30,0.0
2011-10-01,0.0
2011-10-02,0.0
2011-10-03,0.0
2011-10-04,0.0
2011-10-05,0.0
2011-10-06,1.67037434
2011-10-07,0.04927503
2011-10-08,0.0
2011-10-09,0.0
2011-10-10,0.0100516
2011-10-11,4.442418
2011-10-12,0.0
2011-10-13,0.0
2011-10-14,0.0
2011-10-15,0.0
2011-10-16,0.0
2011-10-17,3.3
2011-10-18,0.0
2011-10-19,0.0
2011-10-20,0.0
2011-10-21,0.0
2011-10-22,0.0
2011-10-23,0.0
2011-10-24,0.0
2011-10-25,0.0
2011-10-26,0.0
2011-10-27,1.102418
2011-10-28,0.0
2011-10-29,0.0
2011-10-30,0.0
2011-10-31,0.26
2011-11-01,0.0
2011-11-02,0.0
2011-11-03,0.0
2011-11-04,0.0104042
2011-11-05,0.030418
2011-11-06,1.464
2011-11-07,0.0203222
2011-11-08,0.12
2011-11-09,0.0
2011-11-10,8.9238222
2011-11-11,0.0
2011-11-12,0.0
2011-11-13,0.0
2011-11-14,0.0
2011-11-15,1.35281438
2011-11-16,4.44015405
2011-11-17,5.9995
2011-11-18,1.6595
2011-11-19,0.0
2011-11-20,0.2595
2011-11-21,0.0
2011-11-22,0.0
2011-11-23,0.0
2011-11-24,0.0
2011-11-25,0.06723865
2011-11-26,0.02272546
2011-11-27,0.0
2011-11-28,0.0
2011-11-29,6.99814585
2011-11-30,2.72999483
2011-12-01,1.0
2011-12-02,0.01
2011-12-03,0.0
2011-12-04,0.0
2011-12-05,2.25
2011-12-06,0.0
2011-12-07,1.7
2011-12-08,1.76052382
2011-12-09,0.05604182
2011-12-10,3.72
2011-12-11,7.68572506
2011-12-12,0.72081474
2011-12-13,0.26519676
2011-12-14,31.42528181
2011-12-15,0.0
2011-12-16,0.84200597
2011-12-17,0.0
2011-12-18,0.2671999
2011-12-19,21.14621171
2011-12-20,0.68030608
2011-12-21,13.22307822
2011-12-22,0.0
2011-12-23,63.6640085
2011-12-24,0.0
2011-12-25,0.0
2011-12-26,0.01
2011-12-27,2.91
2011-12-28,0.0287634
2011-12-29,2.69100598
2011-12-30,5.77
2011-12-31,1.06632331
2012-01-01,0.0
2012-01-02,0.42019309
2012-01-03,7.70615407
2012-01-04,0.54084075
2012-01-05,7.18334975
2012-01-06,0.03501854
2012-01-07,0.0
2012-01-08,0.0
2012-01-09,0.07057749
2012-01-10,0.88454494
2012-01-11,9.40888387
2012-01-12,3.61242301
2012-01-13,3.88716968
2012-01-14,0.0
2012-01-15,4.0
2012-01-16,1.16337117
2012-01-17,0.0
2012-01-18,2.57436857
2012-01-19,4.86555909
2012-01-20,0.08631604
2012-01-21,0.0
2012-01-22,0.02299963
2012-01-23,0.04043705
2012-01-24,0.0200908
2012-01-25,0.0200498
2012-01-26,0.05022278
2012-01-27,0.05046416
2012-01-28,0.0
2012-01-29,0.15775421
2012-01-30,0.02011081
2012-01-31,0.06135327
2012-02-01,0.0213599
2012-02-02,0.41973567
2012-02-03,0.27120433
2012-02-04,0.32068414
2012-02-05,0.03680089
2012-02-06,0.11015865
2012-02-07,0.05181737
2012-02-08,0.01020033
2012-02-09,10.45061565
2012-02-10,0.44491892
2012-02-11,0.03022026
2012-02-12,0.04163532
2012-02-13,0.0731843
2012-02-14,0.16573619
2012-02-15,0.36245816
2012-02-16,0.16328661
2012-02-17,0.03252822
2012-02-18,0.01430151
2012-02-19,0.0
2012-02-20,0.05332359
2012-02-21,0.11445844
2012-02-22,0.08439146
2012-02-23,0.05167332
2012-02-24,0.17575207
2012-02-25,0.05183144
2012-02-26,0.0328086
2012-02-27,0.05059355
2012-02-28,0.7595235
2012-02-29,0.16248124
2012-03-01,0.04514674
2012-03-02,0.06001155
2012-03-03,0.05073526
2012-03-04,0.0514803
2012-03-05,0.09254142
2012-03-06,0.063748
2012-03-07,0.16191161
2012-03-08,0.49094787
2012-03-09,103.04210371
2012-03-10,0.0267
2012-03-11,0.02014888
2012-03-12,0.09282613
2012-03-13,0.16682694
2012-03-14,0.08064129
2012-03-15,0.04215636
2012-03-16,0.05092256
2012-03-17,0.17709657
2012-03-18,0.07351633
2012-03-19,0.04167868
2012-03-20,0.87708519
2012-03-21,0.01006915
2012-03-22,0.09392236
2012-03-23,0.0305107
2012-03-24,0.0100943
2012-03-25,0.03309205
2012-03-26,0.07297749
2012-03-27,0.14545726
2012-03-28,0.09380077
2012-03-29,0.03034026
2012-03-30,0.09189097
2012-03-31,0.02222298
2012-04-01,0.0321959
2012-04-02,0.93866804
2012-04-03,0.16507877
2012-04-04,0.1218232
2012-04-05,0.10653526
2012-04-06,51.96929094
2012-04-07,0.08977659
2012-04-08,0.15155353
2012-04-09,0.03184697
2012-04-10,0.17429363
2012-04-11,0.27434267
2012-04-12,0.21168808
2012-04-13,0.12192174
2012-04-14,0.15548715
2012-04-15,0.0
2012-04-16,0.62613631
2012-04-17,0.43344235
2012-04-18,52.92439009
2012-04-19,40.9455433
2012-04-20,45.52709922
2012-04-21,0.0
2012-04-22,6.26374427
2012-04-23,0.50397302
2012-04-24,6.81890714
2012-04-25,5.00503741
2012-04-26,37.80069504
2012-04-27,208.09054652
2012-04-28,50.24849215
2012-04-29,0.02031371
2012-04-30,43.08806599
2012-05-01,0.0489678
2012-05-02,6.66483378
2012-05-03,0.71371673
2012-05-04,2.21624726
2012-05-05,3.82683317
2012-05-06,101.23272589
2012-05-07,16.06606976
2012-05-08,98.19337249
2012-05-09,1.35827823
2012-05-10,3.6134845
2012-05-11,31.26917173
2012-05-12,6.9959
2012-05-13,121.12617682
2012-05-14,39.97712845
2012-05-15,146.76521577
2012-05-16,28.15017614
2012-05-17,28.1335327
2012-05-18,71.67462998
2012-05-19,6.44059243
2012-05-20,1.60768123
2012-05-21,34.78767189
2012-05-22,31.84900918
2012-05-23,42.31819808
2012-05-24,208.05892112
2012-05-25,77.69248705
2012-05-26,42.2339243
2012-05-27,3.33582296
2012-05-28,0.59369529
2012-05-29,11.70809158
2012-05-30,829.77187887
2012-05-31,7.93687444
2012-06-01,3.6346871
2012-06-02,2.517822
2012-06-03,4.13155936
2012-06-04,1.36963745
2012-06-05,1040.54856291
2012-06-06,30.38299349
2012-06-07,32.51662016
2012-06-08,866.01268415
2012-06-09,19.11919243
2012-06-10,0.0
2012-06-11,1.75537206
2012-06-12,45.77389251
2012-06-13,726.37704307
2012-06-14,158.31221594
2012-06-15,2.23368272
2012-06-16,0.03622319
2012-06-17,142.28280245
2012-06-18,30.45142407
2012-06-19,200.44507662
2012-06-20,579.96801983
2012-06-21,15.58137624
2012-06-22,124.6882907
2012-06-23,3.65480328
2012-06-24,8.22501886
2012-06-25,35.25029227
2012-06-26,39.53141637
2012-06-27,1100.32113544
2012-06-28,2.54200093
2012-06-29,1220.49123196
2012-06-30,0.0
2012-07-01,4.56330738
2012-07-02,23.77117058
2012-07-03,25.56492734
2012-07-04,300.41070586
2012-07-05,167.19633841
2012-07-06,133.66233305
2012-07-07,93.09780246
2012-07-08,30.07218695
2012-07-09,36.16216999
2012-07-10,26.93667854
2012-07-11,5.7610513
2012-07-12,491.06983739
2012-07-13,240.03959343
2012-07-14,0.81782625
2012-07-15,4.12791558
2012-07-16,67.59126709
2012-07-17,309.38358899
2012-07-18,1166.54884029
2012-07-19,316.59869471
2012-07-20,18.64046229
2012-07-21,143.74553039
2012-07-22,19.72520149
2012-07-23,52.06023993
2012-07-24,191.79999491
2012-07-25,106.32560916
2012-07-26,35.8200846
2012-07-27,156.25299001
2012-07-28,126.14238812
2012-07-29,15.76065871
2012-07-30,159.9300277
2012-07-31,48.5522232
2012-08-01,84.44929811
2012-08-02,5.35263837
2012-08-03,53.29327233
2012-08-04,25.68287135
2012-08-05,17.56073459
2012-08-06,73.59592156
2012-08-07,17.43391305
2012-08-08,41.79200918
2012-08-09,811.94528643
2012-08-10,22.11728531
2012-08-11,62.66954694
2012-08-12,0.09607561
2012-08-13,11.0645153
2012-08-14,1871.39901343
2012-08-15,8.22492175
2012-08-16,7.39911095
2012-08-17,68.8092624
2012-08-18,7.88146173
2012-08-19,118.39328266
2012-08-20,96.7338402
2012-08-21,55.5980981
2012-08-22,45.09173428
2012-08-23,38.10030557
2012-08-24,377.38058305
2012-08-25,1.87841681
2012-08-26,4.23364324
2012-08-27,89.72797934
2012-08-28,329.6287717
2012-08-29,265.9019708
2012-08-30,697.30445861
2012-08-31,1.71297196
2012-09-01,26.55826686
2012-09-02,2.79023095
2012-09-03,70.20398056
2012-09-04,43.90292826
2012-09-05,146.9575994
2012-09-06,570.40590905
2012-09-07,132.59360561
2012-09-08,59.86413448
2012-09-09,25.74657596
2012-09-10,57.2385804
2012-09-11,19.25030866
2012-09-12,206.00932404
2012-09-13,14.39781475
2012-09-14,71.90974117
2012-09-15,24.48901309
2012-09-16,19.3205778
2012-09-17,59.57513025
2012-09-18,70.15637461
2012-09-19,99.1247066
2012-09-20,483.29944835
2012-09-21,18.49892481
2012-09-22,24.27109811
2012-09-23,62.23148958
2012-09-24,130.20474521
2012-09-25,19.70706668
2012-09-26,100.87427645
2012-09-27,564.15088175
2012-09-28,26.16913911
2012-09-29,121.46591549
2012-09-30,3.0891497
2012-10-01,24.78169987
2012-10-02,53.03976576
2012-10-03,393.09511717
2012-10-04,110.17771184
2012-10-05,234.11933414
2012-10-06,132.81191279
2012-10-07,60.75089925
2012-10-08,716.20815115
2012-10-09,31.0795597
2012-10-10,201.91050982
2012-10-11,23.36323852
2012-10-12,24.90159652
2012-10-13,32.82070971
2012-10-14,24.02183301
2012-10-15,59.46456913
2012-10-16,47.29036426
2012-10-17,16.95089622
2012-10-18,50.35047723
2012-10-19,116.75753089
2012-10-20,44.41483572
2012-10-21,110.65394326
2012-10-22,34.46702691
2012-10-23,555.67466396
2012-10-24,400.65278833
2012-10-25,366.41184885
2012-10-26,64.46853698
2012-10-27,251.68060051
2012-10-28,50.91570041
2012-10-29,98.52242009
2012-10-30,65.60880302
2012-10-31,49.60267689
2012-11-01,24.008298
2012-11-02,213.63145427
2012-11-03,86.5006299
2012-11-04,23.35601654
2012-11-05,704.52955447
2012-11-06,37.83394009
2012-11-07,441.13061032
2012-11-08,453.99858256
2012-11-09,154.19174395
2012-11-10,2.26102238
2012-11-11,20.46019991
2012-11-12,21.02200648
2012-11-13,33.11242935
2012-11-14,4.93106191
2012-11-15,220.22956046
2012-11-16,760.46410607
2012-11-17,12.47660629
2012-11-18,177.54657657
2012-11-19,229.21617206
2012-11-20,18.50576782
2012-11-21,41.09456313
2012-11-22,129.18386451
2012-11-23,191.16893347
2012-11-24,137.68655783
2012-11-25,8.86671925
2012-11-26,266.53755613
2012-11-27,169.94037777
2012-11-28,25.62437243
2012-11-29,118.11994828
2012-11-30,390.7773884
2012-12-01,10.39897231
2012-12-02,28.49004139
2012-12-03,37.32027109
2012-12-04,229.51991329
2012-12-05,1215.42711345
2012-12-06,129.63680535
2012-12-07,1437.74538325
2012-12-08,14.0036701
2012-12-09,48.17676098
2012-12-10,71.68681501
2012-12-11,189.19983867
2012-12-12,170.50571143
2012-12-13,102.2605161
2012-12-14,156.52556511
2012-12-15,19.89454079
2012-12-16,18.82884508
2012-12-17,482.85081933
2012-12-18,1195.61974744
2012-12-19,1426.65073372
2012-12-20,293.12601035
2012-12-21,341.31490612
2012-12-22,127.42645469
2012-12-23,84.82418565
2012-12-24,134.0593325
2012-12-25,32.37247924
2012-12-26,247.15987193
2012-12-27,97.84952304
2012-12-28,279.09730637
2012-12-29,34.9062139
2012-12-30,47.70991267
2012-12-31,387.16960141
2013-01-01,135.35824409
2013-01-02,98.41356376
2013-01-03,913.98219416
2013-01-04,722.48308561
2013-01-05,89.1249146
2013-01-06,3.34369501
2013-01-07,10.74718919
2013-01-08,7.91633849
2013-01-09,20.8179757
2013-01-10,12.78599684
2013-01-11,319.065744
2013-01-12,501.45647867
2013-01-13,97.02524705
2013-01-14,49.29282159
2013-01-15,810.23642837
2013-01-16,263.15176717
2013-01-17,381.17305902
2013-01-18,322.77309617
2013-01-19,43.4143565
2013-01-20,93.89989908
2013-01-21,100.55068477
2013-01-22,399.14061671
2013-01-23,872.79577825
2013-01-24,170.96743173
2013-01-25,92.36403061
2013-01-26,81.99584325
2013-01-27,1039.63898601
2013-01-28,37.79793064
2013-01-29,1222.94898046
2013-01-30,68.72527107
2013-01-31,136.04791917
2013-02-01,468.72543687
2013-02-02,293.00873033
2013-02-03,462.89979696
2013-02-04,13.58589045
2013-02-05,437.35015064
2013-02-06,74.13330678
2013-02-07,665.79839411465
2013-02-08,161.69928734
2013-02-09,628.74994863
2013-02-10,508.04711084
2013-02-11,512.692215724287
2013-02-12,442.28100522
2013-02-13,219.00672596
2013-02-14,2228.94683484
2013-02-15,147.9225588
2013-02-16,428.17365134
2013-02-17,48.55530729
2013-02-18,109.86926863
2013-02-19,665.6445988
2013-02-20,60.77903188
2013-02-21,715.22668971
2013-02-22,542.593617608051
2013-02-23,503.3458157
2013-02-24,297.39785674
2013-02-25,290.87369778
2013-02-26,575.494033920231
2013-02-27,711.2565063
2013-02-28,322.186013684841
2013-03-01,204.519333641447
2013-03-02,45.07689403
2013-03-03,507.846555186134
2013-03-04,231.67408896
2013-03-05,733.13456501
2013-03-06,438.41561531
2013-03-07,452.1155943
2013-03-08,1525.58541301
2013-03-09,295.661064
2013-03-10,695.83151367
2013-03-11,1313.69496783396
2013-03-12,669.93529615
2013-03-13,232.17691816
2013-03-14,220.34737022
2013-03-15,361.98692536342
2013-03-16,76.06709179
2013-03-17,165.483348501801
2013-03-18,150.51028526
2013-03-19,281.41233871
2013-03-20,1181.48432261
2013-03-21,285.76413753
2013-03-22,485.24129244
2013-03-23,1138.69548969519
2013-03-24,8233.04501297
2013-03-25,4068.34955317
2013-03-26,8077.01380834
2013-03-27,6017.56634353633
2013-03-28,1235.05931403279
2013-03-29,624.35277818
2013-03-30,169.964164877634
2013-03-31,130.09147505
2013-04-01,153.879684779749
2013-04-02,361.365416657536
2013-04-03,541.25492445
2013-04-04,189.562324761171
2013-04-05,1320.69808918058
2013-04-06,79.8512068293179
2013-04-07,509.203715035267
2013-04-08,22.57379962
2013-04-09,363.976812718116
2013-04-10,591.66622012349
2013-04-11,1241.49357052
2013-04-12,1333.00128292
2013-04-13,1930.16227063
2013-04-14,4446.6292708
2013-04-15,7062.43480700604
2013-04-16,5463.68194999134
2013-04-17,8308.77715001
2013-04-18,1586.278791767
2013-04-19,1284.19821778213
2013-04-20,705.177579123298
2013-04-21,1407.43712038411
2013-04-22,1995.05059725062
2013-04-23,815.25882052249
2013-04-24,446.513735629413
2013-04-25,1171.13659922591
2013-04-26,219.9041187652
2013-04-27,2597.17282050976
2013-04-28,150.267275167438
2013-04-29,364.135303962254
2013-04-30,81.97550151
2013-05-01,2700.07548358663
2013-05-02,2618.78049949008
2013-05-03,1507.50086808299
2013-05-04,974.71900186803
2013-05-05,1154.26818557724
2013-05-06,333.956185741521
2013-05-07,8306.41004619564
2013-05-08,1375.2881634618
2013-05-09,659.891499279514
2013-05-10,315.907340028321
2013-05-11,217.029705573623
2013-05-12,613.83610608956
2013-05-13,117.710002975371
2013-05-14,295.21073022228
2013-05-15,418.692296611509
2013-05-16,205.573288611368
2013-05-17,438.672534116237
2013-05-18,3761.65025428479
2013-05-19,1068.09825839714
2013-05-20,561.387701461448
2013-05-21,1482.25430845948
2013-05-22,1651.22896149684
2013-05-23,1825.66276000874
2013-05-24,1188.1356968191
2013-05-25,264.65800991539
2013-05-26,73.6026842812161
2013-05-27,196.369299864321
2013-05-28,509.096297950098
2013-05-29,504.74979838864
2013-05-30,293.008013298533
2013-05-31,272.640908829962
2013-06-01,762.910507008755
2013-06-02,913.776263091986
2013-06-03,462.192941088847
2013-06-04,357.442194257086
2013-06-05,342.001826327618
2013-06-06,440.278581592319
2013-06-07,680.053727872717
2013-06-08,429.865109294899
2013-06-09,2291.06183343766
2013-06-10,351.005576649285
2013-06-11,114.141626329913
2013-06-12,219.039802058923
2013-06-13,236.525213279204
2013-06-14,38.0209570193705
2013-06-15,88.7866326428472
2013-06-16,94.5631288824272
2013-06-17,96.3330452267812
2013-06-18,214.801325071503
2013-06-19,112.063819638639
2013-06-20,164.180954292094
2013-06-21,3565.36994348478
2013-06-22,2024.15711213693
2013-06-23,524.028470238506
2013-06-24,1778.1136476166
2013-06-25,687.276042851041
2013-06-26,51.9106530379499
2013-06-27,124.883000125786
2013-06-28,352.547566156098
2013-06-29,16.7260764634934
2013-06-30,87.1545702948376
2013-07-01,1218.567348462
2013-07-02,263.140171764798
2013-07-03,662.05157663192
2013-07-04,163.554610154384
2013-07-05,1284.89847671484
2013-07-06,276.50921249979
2013-07-07,102.379892441763
2013-07-08,943.202522187702
2013-07-09,1197.72022842047
2013-07-10,4952.48750421688
2013-07-11,1430.14083408953
2013-07-12,1507.19335092488
2013-07-13,953.783634058021
2013-07-14,956.403870387292
2013-07-15,127.75966344994
2013-07-16,181.114822115559
2013-07-17,775.924013617431
2013-07-18,440.578487812017
2013-07-19,237.958291489701
2013-07-20,949.563302775387
2013-07-21,1812.84471324917
2013-07-22,253.669310108258
2013-07-23,648.114323064104
2013-07-24,131.232239293743
2013-07-25,465.87252298455
2013-07-26,401.388147922163
2013-07-27,190.726723502552
2013-07-28,133.203132939495
2013-07-29,7852.24920353246
2013-07-30,215.335809408113
2013-07-31,508.709115694174
2013-08-01,3008.92434321113
2013-08-02,146.84195819667
2013-08-03,9417.84162818999
2013-08-04,204.370285899543
2013-08-05,4032.73872269461
2013-08-06,295.346584554207
2013-08-07,288.548929994384
2013-08-08,1614.73262130517
2013-08-09,188.883773834822
2013-08-10,4444.02308152161
2013-08-11,343.66518655443
2013-08-12,698.567360868689
2013-08-13,512.046614589297
2013-08-14,1001.74501356813
2013-08-15,376.924291200295
2013-08-16,1138.73130251093
2013-08-17,2688.13970525309
2013-08-18,99.8745263420979
2013-08-19,579.742336505925
2013-08-20,218.450275023285
2013-08-21,592.677623849246
2013-08-22,559.687481640104
2013-08-23,7349.66875261805
2013-08-24,60.4025052346399
2013-08-25,583.414884251304
2013-08-26,677.523789344442
2013-08-27,1045.23511046734
2013-08-28,137.643048483008
2013-08-29,2241.99326956907
2013-08-30,1676.08940012585
2013-08-31,3752.94499970055
2013-09-01,2511.53741755195
2013-09-02,6414.4233227771
2013-09-03,7038.63023271854
2013-09-04,1415.14135126137
2013-09-05,10763.4071398592
2013-09-06,1952.75981573385
2013-09-07,423.592457405636
2013-09-08,1948.07918599045
2013-09-09,1262.47991883421
2013-09-10,7251.69930305834
2013-09-11,1358.94904368754
2013-09-12,851.413792666943
2013-09-13,4263.18783508298
2013-09-14,1823.00923608462
2013-09-15,1335.50874265499
2013-09-16,3232.55966164981
2013-09-17,3494.28070459014
2013-09-18,10367.3525597674
2013-09-19,1045.07618149509
2013-09-20,7615.40091792485
2013-09-21,1587.38767688419
2013-09-22,276.71710005277
2013-09-23,3350.05683046303
2013-09-24,1371.81357984984
2013-09-25,3003.18191134392
2013-09-26,453.916728476737
2013-09-27,9219.21759099767
2013-09-28,5023.94413160008
2013-09-29,589.284182870324
2013-09-30,12311.3122857059
2013-10-01,5150.54735509678
2013-10-02,3323.07681367912
2013-10-03,670.255751943423
2013-10-04,257.171356835281
2013-10-05,1100.29484145392
2013-10-06,203.56370637303
2013-10-07,1140.07725450356
2013-10-08,252.407598107444
2013-10-09,4187.78889937777
2013-10-10,3297.6383358662
2013-10-11,4105.37412166307
2013-10-12,11456.3405554226
2013-10-13,1664.62289472342
2013-10-14,15063.028355626
2013-10-15,9904.43300254596
2013-10-16,4197.65251677457
2013-10-17,11544.2022853235
2013-10-18,13901.7481501596
2013-10-19,11777.7232542689
2013-10-20,6759.01266095974
2013-10-21,19509.5183518433
2013-10-22,17279.6400879787
2013-10-23,9726.58278886644
2013-10-24,6826.26698706543
2013-10-25,5365.79020463362
2013-10-26,2421.13957958066
2013-10-27,3187.68193422968
2013-10-28,338.482292876548
2013-10-29,261.45092123546
2013-10-30,4836.27972833563
2013-10-31,3654.67792985415
2013-11-01,2479.05275048248
2013-11-02,1110.03619902313
2013-11-03,2783.75125736357
2013-11-04,15589.9802312143
2013-11-05,6261.63063430757
2013-11-06,3745.17802009989
2013-11-07,7453.88761144097
2013-11-08,11648.510755376
2013-11-09,3072.67955022648
2013-11-10,6401.78538651557
2013-11-11,9447.6697491232
2013-11-12,12117.9715013296
2013-11-13,21496.0972661958
2013-11-14,6172.42603887932
2013-11-15,2204.8562111332
2013-11-16,9492.68840243709
2013-11-17,6227.74345042975
2013-11-18,9084.68734440555
2013-11-19,9283.58678402842
2013-11-20,17124.7788644897
2013-11-21,4078.39352928099
2013-11-22,630129.225510977
2013-11-23,102735.40855344
2013-11-24,96127.3864449825
2013-11-25,7986.20294045681
2013-11-26,10135.3089474423
2013-11-27,3109.39279139819
2013-11-28,92024.2059240423
2013-11-29,95161.6225558039
2013-11-30,7600.72066908676
2013-12-01,10229.0868374843
2013-12-02,1930.2385800471
2013-12-03,2726.66976331211
2013-12-04,106710.793411506
2013-12-05,19332.363490304
2013-12-06,9596.92162479338
2013-12-07,10672.2267964635
2013-12-08,3461.17764833072
2013-12-09,5352.05032841588
2013-12-10,1387.8883054442
2013-12-11,2259.32787590686
2013-12-12,1814.13243896462
2013-12-13,1088.85458804888
2013-12-14,69746.0010734322
2013-12-15,2116.26257385402
2013-12-16,5659.35410126789
2013-12-17,14401.3029390919
2013-12-18,21779.1902268931
2013-12-19,4335.32638628943
2013-12-20,8319.74581235302
2013-12-21,82697.6566558332
2013-12-22,174021.156496926
2013-12-23,10015.8044726403
2013-12-24,135646.848157112
2013-12-25,26633.3023841052
2013-12-26,257.630910056975
2013-12-27,472.414875097547
2013-12-28,471.476294558169
2013-12-29,637.867484574439
2013-12-30,146.780206316186
2013-12-31,234.937276733819
2014-01-01,543.463487509545
2014-01-02,1044.25878062631
2014-01-03,3761.90526119558
2014-01-04,1028.8272549992
2014-01-05,11513.5751682511
2014-01-06,4358.23353480608
2014-01-07,1630.74417629082
2014-01-08,5734.56349999489
2014-01-09,3808.19785993983
2014-01-10,452.979217392843
2014-01-11,673.657172865012
2014-01-12,194.088703484491
2014-01-13,2145.13587252646
2014-01-14,437.358251490658
2014-01-15,3306.11662351641
2014-01-16,713.653782915244
2014-01-17,481.930043268587
2014-01-18,1712.629544579
2014-01-19,6298.62589874928
2014-01-20,5969.19126904133
2014-01-21,4922.79843140649
2014-01-22,341.860973184876
2014-01-23,3261.26544762228
2014-01-24,4226.95194455843
2014-01-25,1245.32255614578
2014-01-26,928.029292612003
2014-01-27,8630.67874176625
2014-01-28,2561.55804481895
2014-01-29,8920.15677605282
2014-01-30,1515.7864599686
2014-01-31,1843.40119134155
2014-02-01,2533.68267543706
2014-02-02,3288.21349303482
2014-02-03,252.499121407258
2014-02-04,1335.87753440763
2014-02-05,15302.7823615274
2014-02-06,179.412871448548
2014-02-07,2314.62791773857
2014-02-08,1243.48977744489
2014-02-09,669.220738075353
2014-02-10,48712.1657062998
2014-02-11,6293.5979941591
2014-02-12,2110.98699253104
2014-02-13,3484.6205833112
2014-02-14,8063.69947203978
2014-02-15,11428.3591074748
2014-02-16,20774.6101751583
2014-02-17,6648.01272255837
2014-02-18,4493.78617151155
2014-02-19,6163.93919693727
2014-02-20,1006.87774662057
2014-02-21,406.153680046398
2014-02-22,5940.91455724993
2014-02-23,1263.20789099424
2014-02-24,17515.3748547218
2014-02-25,25607.4893396742
2014-02-26,2751.23645129833
2014-02-27,7784.41839140114
2014-02-28,1604.42065193221
2014-03-01,452.66169991755
2014-03-02,217.008153866525
2014-03-03,8761.52510317696
2014-03-04,8740.17884536626
2014-03-05,846.234668849796
2014-03-06,15513.2820250945
2014-03-07,471.492745861676
2014-03-08,488.0725350191
2014-03-09,4244.93609047242
2014-03-10,5181.63016880398
2014-03-11,538.357110551414
2014-03-12,13528.3123143138
2014-03-13,1994.98854963329
2014-03-14,6098.94697804874
2014-03-15,775.103628797299
2014-03-16,269.010451438674
2014-03-17,1682.60856394454
2014-03-18,7930.51531271606
2014-03-19,11179.5857342527
2014-03-20,504.508876578501
2014-03-21,570.028629390317
2014-03-22,654.881654208845
2014-03-23,351.74479921094
2014-03-24,1413.84448390372
2014-03-25,446.122983147208
2014-03-26,254.986832635018
2014-03-27,3523.7888535322
2014-03-28,9074.69891984534
2014-03-29,1270.88892936633
2014-03-30,5805.49909057051
2014-03-31,9125.58751952905
2014-04-01,7025.1792630474
2014-04-02,3178.8464010132
2014-04-03,6255.4153763653
2014-04-04,439.286639043175
2014-04-05,172484.458282408
2014-04-06,7606.42511553205
2014-04-07,2053.59417158506
2014-04-08,284.377041592607
2014-04-09,475.972990789451
2014-04-10,12815.0783538926
2014-04-11,4322.22219410567
2014-04-12,300.296781133337
2014-04-13,387.733893327593
2014-04-14,4501.58899777795
2014-04-15,976.997326641316
2014-04-16,2142.25100608326
2014-04-17,79187.7444486414
2014-04-18,4691.20939296963
2014-04-19,442.759396312478
2014-04-20,118.086538809554
2014-04-21,109.24052282693
2014-04-22,139728.882211674
2014-04-23,748.66007704088
2014-04-24,495.731979284805
2014-04-25,3036.56976428185
2014-04-26,754.287512462284
2014-04-27,19860.0134574935
2014-04-28,91288.4199720984
2014-04-29,14964.8823794044
2014-04-30,9880.65756905056
2014-05-01,7668.10998348198
2014-05-02,82413.416017792
2014-05-03,9233.99310224635
2014-05-04,8158.45276166571
2014-05-05,10471.2691504928
2014-05-06,13376.6152210486
2014-05-07,11618.9169287044
2014-05-08,7458.69905895675
2014-05-09,3669.500015993
2014-05-10,4305.5166780856
2014-05-11,3086.9371802397
2014-05-12,11693.2519265472
2014-05-13,22661.6720615311
2014-05-14,28364.3298827622
2014-05-15,12419.1024387424
2014-05-16,5344.44524599156
2014-05-17,2153.93363982699
2014-05-18,12995.0332871671
2014-05-19,3617.6005083303
2014-05-20,26662.0041559522
2014-05-21,12811.8991581576
2014-05-22,25218.1833743657
2014-05-23,30170.5180755669
2014-05-24,274885.494445577
2014-05-25,14109.8290718577
2014-05-26,6151.51464201983
2014-05-27,7259.76564273147
2014-05-28,2592.99382472041
2014-05-29,5805.00537823585
2014-05-30,191856.433424371
2014-05-31,17681.4604608088
2014-06-01,6233.10381968652
2014-06-02,197704.140430322
2014-06-03,4191.26633771684
2014-06-04,14855.8664119396
2014-06-05,7681.89236227366
2014-06-06,355299.259312692
2014-06-07,691.148595070054
2014-06-08,2530.24081390799
2014-06-09,2133.86311811882
2014-06-10,6151.00809015803
2014-06-11,2608.57199639674
2014-06-12,333094.65842926
2014-06-13,162253.344911413
2014-06-14,3395.60874118188
2014-06-15,3272.56373996
2014-06-16,9599.5406261262
2014-06-17,7373.17300367309
2014-06-18,8695.90609265499
2014-06-19,1593.12571703181
2014-06-20,4068.05761145457
2014-06-21,3677.32311376913
2014-06-22,591.740877888309
2014-06-23,12944.8497165242
2014-06-24,3502.10068862405
2014-06-25,4976.42280105689
2014-06-26,2583.50851006632
2014-06-27,2133.09914933363
2014-06-28,1854.49341528662
2014-06-29,1175.98690954947
2014-06-30,16216.7620160139
2014-07-01,18463.1167760202
2014-07-02,164196.438414954
2014-07-03,6869.30163309296
2014-07-04,3904.4596436756
2014-07-05,922.333697013402
2014-07-06,1554.42110217885
2014-07-07,7161.6566416983
2014-07-08,2603.1545125447
2014-07-09,11033.2703353389
2014-07-10,4271.7644614719
2014-07-11,4047.96178557356
2014-07-12,11577.4906789916
2014-07-13,6847.19240325729
2014-07-14,5996.87237966954
2014-07-15,3050.44727234762
2014-07-16,9425.51229375822
2014-07-17,6033.62206539934
2014-07-18,3319.697484866
2014-07-19,1369.7580265183
2014-07-20,1963.39762147145
2014-07-21,5082.52035707993
2014-07-22,5220.09551522725
2014-07-23,3447.92857445423
2014-07-24,5916.71488810615
2014-07-25,4030.93841286639
2014-07-26,2011.75667354537
2014-07-27,1822.1097492204
2014-07-28,2801.68635453889
2014-07-29,3010.60667588571
2014-07-30,2746.84878014879
2014-07-31,3569.16211165621
2014-08-01,7124.5263671247
2014-08-02,1579.14460801923
2014-08-03,1947.63772232739
2014-08-04,6800.41162157819
2014-08-05,7708.4359872499
2014-08-06,1290.12010047468
2014-08-07,4200.16970148874
2014-08-08,2230.12342029303
2014-08-09,1209.68493249052
2014-08-10,2206.96580047766
2014-08-11,3963.89963634293
2014-08-12,2650.12742504465
2014-08-13,3982.27089366997
2014-08-14,11918.6571667988
2014-08-15,46761.4291382111
2014-08-16,4420.27556594201
2014-08-17,10313.04452653
2014-08-18,38010.3699365816
2014-08-19,18876.0696285579
2014-08-20,27388.7838311848
2014-08-21,3339.08141216133
2014-08-22,9895.92420163195
2014-08-23,3026.35126890286
2014-08-24,3287.77672709393
2014-08-25,8910.85953083645
2014-08-26,9501.24518906807
2014-08-27,6671.33848155559
2014-08-28,156902.649378171
2014-08-29,2230.51009430277
2014-08-30,1982.71427753218
2014-08-31,11025.9952016021
2014-09-01,16134.4252126876
2014-09-02,5270.37377311145
2014-09-03,3051.03748045261
2014-09-04,4822.10796523292
2014-09-05,3103.17918325592
2014-09-06,8335.39412705124
2014-09-07,1288.2587176542
2014-09-08,8599.3655706283
2014-09-09,2570.7639382561
2014-09-10,4936.05160923173
2014-09-11,5644.89909920517
2014-09-12,10865.6931115021
2014-09-13,2208.95115524807
2014-09-14,4155.86093968387
2014-09-15,5916.4675073863
2014-09-16,4687.38881470667
2014-09-17,5284.31053796455
2014-09-18,16984.2244716596
2014-09-19,12557.7952332878
2014-09-20,13590.7956024695
2014-09-21,9350.0982180398
2014-09-22,4670.54505695526
2014-09-23,16204.7859838904
2014-09-24,17339.732820368
2014-09-25,7084.91638485236
2014-09-26,3589.77787048822
2014-09-27,5457.75923932024
2014-09-28,4662.25061515372
2014-09-29,8627.06496784848
2014-09-30,8749.89217275172
2014-10-01,5576.29472535191
2014-10-02,7058.02840602775
2014-10-03,53885.5706134344
2014-10-04,15455.6870402031
2014-10-05,41746.3027547366
2014-10-06,307149.948161965
2014-10-07,149930.205087375
2014-10-08,152193.86842507
2014-10-09,24745.5443909444
2014-10-10,12035.4243303799
2014-10-11,12821.9506987506
2014-10-12,6403.92316523164
2014-10-13,142062.104697568
2014-10-14,23328.2344908629
2014-10-15,11280.8692704486
2014-10-16,12305.8824548578
2014-10-17,10782.4821986879
2014-10-18,17433.7312342376
2014-10-19,3908.10631017125
2014-10-20,10480.4071680905
2014-10-21,3279.27002669313
2014-10-22,4223.11549424824
2014-10-23,12329.5539587569
2014-10-24,14088.8392084809
2014-10-25,4198.55604992027
2014-10-26,5220.42400657304
2014-10-27,9100.58552520449
2014-10-28,9255.35703412111
2014-10-29,12509.4892369335
2014-10-30,13700.4570793313
2014-10-31,125790.283363753
2014-11-01,7231.5206189215
2014-11-02,5139.97993999514
2014-11-03,6347.56817505089
2014-11-04,15410.5724060492
2014-11-05,22118.222994578
2014-11-06,6261.74720565988
2014-11-07,25419.118031831
2014-11-08,3041.75935145857
2014-11-09,5721.06394725132
2014-11-10,23571.1285247213
2014-11-11,13009.6169830619
2014-11-12,25283.4299909335
2014-11-13,165777.502219118
2014-11-14,17979.1928382869
2014-11-15,16492.2247176244
2014-11-16,10089.3177958894
2014-11-17,14633.0529641843
2014-11-18,38198.2423037344
2014-11-19,6491.48354010392
2014-11-20,10897.5011498816
2014-11-21,10686.1094390984
2014-11-22,6377.24509268292
2014-11-23,6132.26274346811
2014-11-24,9885.50834818902
2014-11-25,25563.0848003317
2014-11-26,15781.3110872489
2014-11-27,3207.71644656321
2014-11-28,53032.1177867912
2014-11-29,7013.92214362388
2014-11-30,4266.17630779003
2014-12-01,36394.2534829579
2014-12-02,223494.715668605
2014-12-03,17739.4619953475
2014-12-04,25767.9671735238
2014-12-05,18672.3707293135
2014-12-06,5661.98096797166
2014-12-07,3128.17006484226
2014-12-08,4458.03754543521
2014-12-09,7929.36667762848
2014-12-10,223200.750810859
2014-12-11,9753.20769096141
2014-12-12,215624.848187102
2014-12-13,2786.66742433857
2014-12-14,3291.47860645757
2014-12-15,5013.93609644028
2014-12-16,12375.479896381
2014-12-17,6556.03566006503
2014-12-18,15396.938004748
2014-12-19,4066.29888643945
2014-12-20,5711.2418750151
2014-12-21,380743.606460606
2014-12-22,5894.48857615475
2014-12-23,135472.5347161
2014-12-24,4949.2334327302
2014-12-25,3120.41713266206
2014-12-26,7080.55532359041
2014-12-27,10596.3580291134
2014-12-28,4835.90240074088
2014-12-29,12005.6500194933
2014-12-30,4188.58074169221
2014-12-31,2435.32541293862
2015-01-01,4250.86610692701
2015-01-02,3844.94119212514
2015-01-03,10775.8825581547
2015-01-04,11036.3536923349
2015-01-05,5916.96052038743
2015-01-06,9551.05149034752
2015-01-07,9544.86362072098
2015-01-08,8047.08504275669
2015-01-09,161101.584860074
2015-01-10,86179.1341090647
2015-01-11,102439.902142364
2015-01-12,40024.172718824
2015-01-13,34543.187546214
2015-01-14,91207.8136631632
2015-01-15,66429.183769026
2015-01-16,26930.5120463832
2015-01-17,23349.1866147121
2015-01-18,17046.5941332892
2015-01-19,16510.9951526617
2015-01-20,16032.9790260536
2015-01-21,199287.462433153
2015-01-22,24793.5344365428
2015-01-23,15471.0780463134
2015-01-24,19405.3923185761
2015-01-25,9385.75630657797
2015-01-26,24780.0222153861
2015-01-27,38455.0490625722
2015-01-28,188554.345216429
2015-01-29,31770.6130586584
2015-01-30,30051.3209729528
2015-01-31,24338.1539003013
2015-02-01,9649.03583318414
2015-02-02,11230.4293892718
2015-02-03,19530.4422871861
2015-02-04,15456.830616734
2015-02-05,18339.7365642099
2015-02-06,24868.4307202996
2015-02-07,13498.8993467694
2015-02-08,29843.7131408581
2015-02-09,21252.1131516232
2015-02-10,21196.1522337653
2015-02-11,24066.5885136866
2015-02-12,12119.5815631837
2015-02-13,13516.91125009
2015-02-14,6683.18406300576
2015-02-15,13636.904581554
2015-02-16,10453.4247639735
2015-02-17,13794.3370373881
2015-02-18,36664.2853074206
2015-02-19,9141.82164380515
2015-02-20,7531.73633157532
2015-02-21,3094.60388822617
2015-02-22,3036.6908720401
2015-02-23,16092.4965547206
2015-02-24,2724.83754220379
2015-02-25,5029.84807035383
2015-02-26,6556.20364593335
2015-02-27,5701.15166847212
2015-02-28,6749.43209961953
2015-03-01,11103.1133852089
2015-03-02,12076.432390591
2015-03-03,17355.5447417146
2015-03-04,13859.3906458757
2015-03-05,21535.7307404967
2015-03-06,19830.6156835324
2015-03-07,9497.78670855221
2015-03-08,7747.15076689331
2015-03-09,15633.6039275076
2015-03-10,25886.3795288159
2015-03-11,28887.0046061205
2015-03-12,223615.014836808
2015-03-13,44172.5669631368
2015-03-14,9513.90106406086
2015-03-15,9135.44588837491
2015-03-16,11490.9063561702
2015-03-17,34598.6942317258
2015-03-18,28092.7283421591
2015-03-19,18780.0089758234
2015-03-20,12940.4286584042
2015-03-21,12865.0369871987
2015-03-22,11752.5464942601
2015-03-23,16527.063672974
2015-03-24,20152.3230437029
2015-03-25,18470.5472968007
2015-03-26,19867.4415119615
2015-03-27,19305.5638404217
2015-03-28,6618.54382032491
2015-03-29,9788.21727841737
2015-03-30,17042.1593974907
2015-03-31,14920.4978193334
2015-04-01,11466.2466388178
2015-04-02,11290.5843731982
2015-04-03,6029.11553673045
2015-04-04,3304.61172903957
2015-04-05,6555.79287587481
2015-04-06,11097.1844438734
2015-04-07,13580.0550282588
2015-04-08,23649.2239815495
2015-04-09,21448.4985544454
2015-04-10,17924.6783020358
2015-04-11,9126.0474205228
2015-04-12,6267.43194369108
2015-04-13,22332.9316481295
2015-04-14,32413.9742571292
2015-04-15,41903.8199125201
2015-04-16,32891.0962053954
2015-04-17,30266.4792935451
2015-04-18,9963.67069733829
2015-04-19,6381.32028275541
2015-04-20,20393.9934018119
2015-04-21,14198.6546859441
2015-04-22,8134.4136926739
2015-04-23,7870.31482340119
2015-04-24,10210.8875444263
2015-04-25,9156.39910235222
2015-04-26,17551.2296311246
2015-04-27,23773.0331909334
2015-04-28,12784.3043205254
2015-04-29,12320.321737177
2015-04-30,10907.6286514832
2015-05-01,17570.7052078228
2015-05-02,3999.51776467845
2015-05-03,5342.47997526973
2015-05-04,13217.8186211724
2015-05-05,9403.25860424267
2015-05-06,16006.2836614701
2015-05-07,15622.6905769581
2015-05-08,7229.84745726258
2015-05-09,5439.72075263555
2015-05-10,5152.62163223564
2015-05-11,11870.5108884491
2015-05-12,14715.2606961944
2015-05-13,18715.6154662032
2015-05-14,11955.142699237
2015-05-15,7866.41620148187
2015-05-16,3994.71252512251
2015-05-17,5688.57502226041
2015-05-18,10604.3621827507
2015-05-19,19880.8457399436
2015-05-20,20985.794413142
2015-05-21,15758.6335795109
2015-05-22,31063.78186037
2015-05-23,18947.8040131048
2015-05-24,15605.0999252524
2015-05-25,17114.4232495255
2015-05-26,21763.6714960779
2015-05-27,23812.7398164749
2015-05-28,15274.3316548831
2015-05-29,22953.7643746254
2015-05-30,8399.67587775247
2015-05-31,7680.88989603661
2015-06-01,21386.9797876271
2015-06-02,18528.4503134022
2015-06-03,19457.0974034754
2015-06-04,14255.2395986211
2015-06-05,17231.8002136506
2015-06-06,9305.62751711798
2015-06-07,13443.0696214872
2015-06-08,24020.791490963
2015-06-09,22449.3335460594
2015-06-10,16519.2792821362
2015-06-11,17918.1903460507
2015-06-12,18753.4298887813
2015-06-13,11643.0816138312
2015-06-14,11728.277599502
2015-06-15,16690.4820047955
2015-06-16,36758.0598138664
2015-06-17,25083.7580112522
2015-06-18,21816.9181690639
2015-06-19,22112.4046042848
2015-06-20,9186.51007903815
2015-06-21,10678.7492965033
2015-06-22,19467.0044820427
2015-06-23,16191.9040280153
2015-06-24,20289.8526480558
2015-06-25,19698.4740067863
2015-06-26,21330.0577143785
2015-06-27,10350.4171823301
2015-06-28,9400.88101200311
2015-06-29,25461.9130877113
2015-06-30,29625.1951209493
2015-07-01,31180.6189696443
2015-07-02,25854.6745144777
2015-07-03,28993.4863067994
2015-07-04,13787.9878716499
2015-07-05,17333.0337356969
2015-07-06,43478.6716426897
2015-07-07,23558.9172267376
2015-07-08,19782.0993636511
2015-07-09,24949.5623506294
2015-07-10,46564.757642427
2015-07-11,25586.7611456511
2015-07-12,21827.3894663161
2015-07-13,22947.3548147735
2015-07-14,22742.5237131964
2015-07-15,22459.6478780669
2015-07-16,45377.4912659833
2015-07-17,28884.8651212591
2015-07-18,15669.4678728489
2015-07-19,14524.8369186169
2015-07-20,25165.4923728158
2015-07-21,36492.3782338586
2015-07-22,26961.8784935356
2015-07-23,19140.8222443739
2015-07-24,21439.3013182226
2015-07-25,16239.8359481571
2015-07-26,11732.5254979767
2015-07-27,29791.5978434986
2015-07-28,31023.623583866
2015-07-29,24939.392929435
2015-07-30,35495.919876085
2015-07-31,39475.781286752
2015-08-01,18984.2898312689
2015-08-02,13797.0983405855
2015-08-03,40502.4013288999
2015-08-04,26134.479542455
2015-08-05,89734.046006952
2015-08-06,121266.867248388
2015-08-07,136780.954017662
2015-08-08,89398.537155461
2015-08-09,271498.511976656
2015-08-10,64965.8114565686
2015-08-11,102444.608829462
2015-08-12,150952.508602312
2015-08-13,93958.8249188443
2015-08-14,116271.936598006
2015-08-15,117210.977248093
2015-08-16,216732.057363139
2015-08-17,167153.81782217
2015-08-18,459517.559836414
2015-08-19,257062.851648643
2015-08-20,119051.549058926
2015-08-21,236344.62703073
2015-08-22,265451.700285742
2015-08-23,222947.478394123
2015-08-24,436245.138797247
2015-08-25,215694.064975577
2015-08-26,64485.8713101939
2015-08-27,135698.564908097
2015-08-28,140422.617527024
2015-08-29,86581.5853933564
2015-08-30,52771.1841819437
2015-08-31,93484.0598818151
2015-09-01,120209.928748668
2015-09-02,53434.432169144
2015-09-03,58394.1257022091
2015-09-04,69887.947625429
2015-09-05,42475.1598140712
2015-09-06,66558.6121466643
2015-09-07,69740.7696357289
2015-09-08,97440.0907777073
2015-09-09,87940.8604955267
2015-09-10,113569.896912915
2015-09-11,56178.8497275613
2015-09-12,38912.9902947406
2015-09-13,69217.4977175088
2015-09-14,96906.3461947429
2015-09-15,46329.5762703941
2015-09-16,80820.0053613465
2015-09-17,52917.95863989
2015-09-18,83664.8765525658
2015-09-19,34230.8028594164
2015-09-20,39125.8938067968
2015-09-21,70579.1877541258
2015-09-22,73966.0799659645
2015-09-23,49678.4817524687
2015-09-24,81254.0930190456
2015-09-25,95687.7400247405
2015-09-26,62124.4900398735
2015-09-27,31712.1089163512
2015-09-28,57844.2500373176
2015-09-29,97824.3227480857
2015-09-30,40798.9894170742
2015-10-01,52919.7708063754
2015-10-02,79803.1645950307
2015-10-03,31668.0287600958
2015-10-04,27726.0777841439
2015-10-05,58891.7059401304
2015-10-06,36093.2675683267
2015-10-07,55875.9738848729
2015-10-08,200131.515073282
2015-10-09,117490.310406852
2015-10-10,123752.504555287
2015-10-11,94238.9880526918
2015-10-12,78304.0950218963
2015-10-13,97186.9036764608
2015-10-14,37143.0336758119
2015-10-15,52946.3267555662
2015-10-16,132107.596080516
2015-10-17,126262.463079883
2015-10-18,67959.8235660535
2015-10-19,88484.8924783616
2015-10-20,128192.933990247
2015-10-21,117912.494766031
2015-10-22,70423.9114123282
2015-10-23,93044.7008389488
2015-10-24,105661.953593367
2015-10-25,64528.9443391523
2015-10-26,83419.7317628457
2015-10-27,75409.7878294755
2015-10-28,228494.88249128
2015-10-29,219656.985859295
2015-10-30,157277.737409292
2015-10-31,137189.426016978
2015-11-01,64515.1398699935
2015-11-02,143396.551598142
2015-11-03,202979.461489399
2015-11-04,126517.726798403
2015-11-05,287049.942224535
2015-11-06,67790.027846643
2015-11-07,91189.6889962546
2015-11-08,90369.6563750608
2015-11-09,171366.84153676
2015-11-10,133153.74070504
2015-11-11,114709.98952234
2015-11-12,147936.502968504
2015-11-13,126532.777860319
2015-11-14,141770.156531493
2015-11-15,96482.4183547441
2015-11-16,82400.7556538432
2015-11-17,53218.7272868564
2015-11-18,59420.3003724972
2015-11-19,54790.0080958115
2015-11-20,53419.8452404816
2015-11-21,49087.2553882648
2015-11-22,35460.6147708109
2015-11-23,47221.3903892972
2015-11-24,45839.4723715959
2015-11-25,44734.8525636683
2015-11-26,53283.2195661831
2015-11-27,157786.686100694
2015-11-28,50994.1248227128
2015-11-29,113424.118884612
2015-11-30,286960.413741744
2015-12-01,201940.909833846
2015-12-02,96114.270319753
2015-12-03,57213.657948873
2015-12-04,82243.1925212376
2015-12-05,99883.1254338159
2015-12-06,167085.25853595
2015-12-07,89435.5365230567
2015-12-08,81435.0766751244
2015-12-09,88727.1056699992
2015-12-10,84142.2486740197
2015-12-11,153776.576379289
2015-12-12,169088.434350915
2015-12-13,130988.52563422
2015-12-14,94449.6043216995
2015-12-15,108205.455151201
2015-12-16,105400.543098079
2015-12-17,90543.0579832626
2015-12-18,85118.7140765279
2015-12-19,130947.670273772
2015-12-20,120732.287457592
2015-12-21,174611.157921512
2015-12-22,124775.116654597
2015-12-23,146567.262719025
2015-12-24,168407.575096332
2015-12-25,111571.956867035
2015-12-26,73695.8004295648
2015-12-27,37980.4993459769
2015-12-28,130577.317104493
2015-12-29,74018.0520998665
2015-12-30,48216.7054103354
2015-12-31,46957.9391969034
2016-01-01,35294.6712321043
2016-01-02,25868.2848692474
2016-01-03,26598.4148820717
2016-01-04,33707.1235898575
2016-01-05,41732.134352779
2016-01-06,51562.5918408242
2016-01-07,61196.7922875846
2016-01-08,42002.5289034855
2016-01-09,39546.6968971026
2016-01-10,31622.6809804004
2016-01-11,38943.0243994435
2016-01-12,35912.3132522206
2016-01-13,71172.4184240675
2016-01-14,54032.3126351647
2016-01-15,66964.2837274781
2016-01-16,39115.2103937107
2016-01-17,53704.7601818914
2016-01-18,40933.0472188795
2016-01-19,44453.0057628978
2016-01-20,137143.602810028
2016-01-21,91149.063303403
2016-01-22,59009.313543937
2016-01-23,59991.3963833719
2016-01-24,46943.1700082184
2016-01-25,42705.9766069558
2016-01-26,77678.5202585022
2016-01-27,39976.155741016
2016-01-28,64834.3043956308
2016-01-29,143400.501049343
2016-01-30,87132.0942700049
2016-01-31,151877.098322848
2016-02-01,303704.223160447
2016-02-02,239315.474821391
2016-02-03,87525.672865753
2016-02-04,111707.812015862
2016-02-05,117771.202747076
2016-02-06,225084.235843584
2016-02-07,192256.045006431
2016-02-08,92012.4838957279
2016-02-09,96836.7077210941
2016-02-10,192169.231010148
2016-02-11,210213.590541646
2016-02-12,210253.449622625
2016-02-13,228995.046906386
2016-02-14,182659.577616703
2016-02-15,311211.230625217
2016-02-16,303372.170388481
2016-02-17,173650.520238933
2016-02-18,207585.387859749
2016-02-19,343773.657603646
2016-02-20,190275.972123062
2016-02-21,389270.584263407
2016-02-22,419201.213529796
2016-02-23,514534.701596617
2016-02-24,497383.713772713
2016-02-25,144117.322689826
2016-02-26,150947.782227455
2016-02-27,157317.93852415
2016-02-28,414270.446820931
2016-02-29,157599.637207353
2016-03-01,172813.881442414
2016-03-02,163981.280568644
2016-03-03,111008.830888716
2016-03-04,85519.4329754858
2016-03-05,100479.861401489
2016-03-06,75061.8093320909
2016-03-07,101316.950492428
2016-03-08,95532.750764405
2016-03-09,93951.6961988398
2016-03-10,82740.5510711138
2016-03-11,75712.2968601636
2016-03-12,77765.5388620982
2016-03-13,64752.3432172945
2016-03-14,84946.3347040688
2016-03-15,96836.1985115499
2016-03-16,78970.8729454416
2016-03-17,109638.835778804
2016-03-18,110248.671042565
2016-03-19,75042.0376871291
2016-03-20,62300.4123381897
2016-03-21,115949.379562537
2016-03-22,102200.075999628
2016-03-23,85025.9729983461
2016-03-24,98783.9063526653
2016-03-25,62847.2027037046
2016-03-26,65278.7766988012
2016-03-27,73792.7406996541
2016-03-28,98331.0604060655
2016-03-29,91194.6027339563
2016-03-30,105765.1050398
2016-03-31,106448.485672525
2016-04-01,113886.216693622
2016-04-02,117296.66653703
2016-04-03,118772.55138906
2016-04-04,130302.915881538
2016-04-05,115248.933080097
2016-04-06,112238.631772874
2016-04-07,139283.00724602
2016-04-08,125117.052581741
2016-04-09,103255.042464326
2016-04-10,79266.3654138066
2016-04-11,89958.8626836011
2016-04-12,97354.3971786453
2016-04-13,112410.85112419
2016-04-14,127171.297156734
2016-04-15,146646.158334016
2016-04-16,104640.717384452
2016-04-17,141968.193302261
2016-04-18,112156.690908924
2016-04-19,117527.082633793
2016-04-20,95537.6557935813
2016-04-21,128901.083656436
2016-04-22,139118.098670912
2016-04-23,97768.6203038614
2016-04-24,158552.853973553
2016-04-25,191822.21546556
2016-04-26,121267.645487545
2016-04-27,128448.462712982
2016-04-28,260309.494626207
2016-04-29,146535.381490742
2016-04-30,81194.2018079685
2016-05-01,92746.3570396295
2016-05-02,137315.865566875
2016-05-03,115432.564506976
2016-05-04,142715.942407134
2016-05-05,155030.490201886
2016-05-06,214118.088926564
2016-05-07,100351.298327219
2016-05-08,107592.773484121
2016-05-09,141624.874384252
2016-05-10,113085.184992413
2016-05-11,128869.311762576
2016-05-12,130881.748565319
2016-05-13,138514.101292854
2016-05-14,116591.059091349
2016-05-15,108062.769111077
2016-05-16,121230.986607828
2016-05-17,147530.795296932
2016-05-18,130563.455030876
2016-05-19,155241.345106732
2016-05-20,203151.268282119
2016-05-21,126423.511046293
2016-05-22,78262.8826074734
2016-05-23,100031.957487874
2016-05-24,93396.8463752065
2016-05-25,209054.919392422
2016-05-26,238694.229644857
2016-05-27,285728.870165071
2016-05-28,292562.044813057
2016-05-29,310956.556118355
2016-05-30,237004.116495872
2016-05-31,164899.99215011
2016-06-01,181161.863613859
2016-06-02,132320.467689121
2016-06-03,74070.8195391126
2016-06-04,43241.8329140922
2016-06-05,303551.731936393
2016-06-06,158843.281234156
2016-06-07,149232.471060809
2016-06-08,123896.037599333
2016-06-09,136341.454844995
2016-06-10,252496.648941928
2016-06-11,206792.563871971
2016-06-12,278381.523879126
2016-06-13,145691.366509974
2016-06-14,120541.614243852
2016-06-15,148030.901857131
2016-06-16,226633.69530717
2016-06-17,130034.743689799
2016-06-18,84654.3244979467
2016-06-19,90579.4328265856
2016-06-20,69301.2881731192
2016-06-21,123692.01347042
2016-06-22,100891.452408974
2016-06-23,177887.835048623
2016-06-24,96934.7342540148
2016-06-25,138290.683497655
2016-06-26,104269.389718495
2016-06-27,129539.040533125
2016-06-28,78441.7579727591
2016-06-29,86855.7255219511
2016-06-30,119128.314031674
2016-07-01,88068.1189483639
2016-07-02,214657.706968957
2016-07-03,278664.0992174
2016-07-04,110335.675455425
2016-07-05,89179.7644707819
2016-07-06,74063.3793058754
2016-07-07,130995.127327262
2016-07-08,85075.33472986
2016-07-09,59983.0633313591
2016-07-10,82146.4590514533
2016-07-11,51255.4730699471
2016-07-12,65603.0481234049
2016-07-13,71469.0204711924
2016-07-14,95007.2657849581
2016-07-15,94394.7587383151
2016-07-16,169510.618355157
2016-07-17,192044.528887154
2016-07-18,39968.5995979965
2016-07-19,70322.7333740837
2016-07-20,75765.3101782927
2016-07-21,36810.0124016676
2016-07-22,57769.7921605523
2016-07-23,67185.4977626359
2016-07-24,61298.8305257641
2016-07-25,61919.969719188
2016-07-26,42103.94192155
2016-07-27,120338.279531589
2016-07-28,60470.0668119112
2016-07-29,71710.4113152956
2016-07-30,127187.296034314
2016-07-31,87206.0689975143
2016-08-01,72299.318218958
2016-08-02,101351.163565501
2016-08-03,84365.8996535403
2016-08-04,150575.841574962
2016-08-05,99773.3530125209
2016-08-06,187000.755513172
2016-08-07,90218.678849347
2016-08-08,56815.4876034815
2016-08-09,123420.973825401
2016-08-10,148501.983750798
2016-08-11,74774.8542477949
2016-08-12,73044.2036721
2016-08-13,86766.673384798
2016-08-14,82979.8603440193
2016-08-15,58093.0531610788
2016-08-16,98754.2037126956
2016-08-17,119335.413470462
2016-08-18,93369.7417011908
2016-08-19,107908.50243287
2016-08-20,59482.8367561397
2016-08-21,89974.1171568342
2016-08-22,60961.3172218921
2016-08-23,72168.2256570263
2016-08-24,44954.4919554819
2016-08-25,74146.3729897171
2016-08-26,56286.2408399408
2016-08-27,103863.823328587
2016-08-28,48386.5742760491
2016-08-29,62225.71077901
2016-08-30,194607.258924517
2016-08-31,129937.100388999
2016-09-01,109973.476366332
2016-09-02,72008.2733696202
2016-09-03,24629.0085607263
2016-09-04,49902.6487773155
2016-09-05,93523.0802280162
2016-09-06,55698.2539960273
2016-09-07,60127.7979842153
2016-09-08,46429.8600308038
2016-09-09,92469.6479705443
2016-09-10,102743.547720296
2016-09-11,67068.0738407639
2016-09-12,85798.2943752779
2016-09-13,102108.208927057
2016-09-14,67015.965592906
2016-09-15,181520.246655696
2016-09-16,142252.274503266
2016-09-17,115671.119575229
2016-09-18,72469.4412878866
2016-09-19,128357.724835257
2016-09-20,76533.0009482921
2016-09-21,68496.5555236658
2016-09-22,40653.7416949194
2016-09-23,121110.039622829
2016-09-24,96067.5215106118
2016-09-25,336108.436185552
2016-09-26,90474.036711666
2016-09-27,135597.138421436
2016-09-28,107033.579720122
2016-09-29,141257.679525461
2016-09-30,120922.619025385
2016-10-01,124879.576122524
2016-10-02,126962.30273553
2016-10-03,148967.408460112
2016-10-04,142496.96792837
2016-10-05,111861.868484346
2016-10-06,94394.9429970796
2016-10-07,163086.731144178
2016-10-08,280281.710618055
2016-10-09,318570.936376165
2016-10-10,133637.768406039
2016-10-11,111204.711123103
2016-10-12,105118.213110489
2016-10-13,186917.671783593
2016-10-14,80213.4060263557
2016-10-15,124261.87869202
2016-10-16,246746.567974784
2016-10-17,212927.172467873
2016-10-18,308333.582717495
2016-10-19,166592.117636709
2016-10-20,179585.941329736
2016-10-21,92028.3128587572
2016-10-22,223035.359736987
2016-10-23,134152.240111262
2016-10-24,136045.886475607
2016-10-25,110338.185707736
2016-10-26,108942.313632326
2016-10-27,94556.3121342991
2016-10-28,90268.2245573698
2016-10-29,87460.0661740325
2016-10-30,79677.144005369
2016-10-31,115896.120745665
2016-11-01,93449.4961617377
2016-11-02,171071.268754435
2016-11-03,218878.185887669
2016-11-04,159971.115498969
2016-11-05,64035.0270923985
2016-11-06,147104.922399282
2016-11-07,164125.715979618
2016-11-08,146229.524851727
2016-11-09,151751.814027347
2016-11-10,116572.740302652
2016-11-11,146445.72294011
2016-11-12,56034.7033086476
2016-11-13,147435.866131767
2016-11-14,173495.476758652
2016-11-15,164884.96990225
2016-11-16,182783.352788348
2016-11-17,140189.632394219
2016-11-18,110249.34346499
2016-11-19,68485.7622644464
2016-11-20,82802.4506083743
2016-11-21,103795.948661178
2016-11-22,196863.441763419
2016-11-23,118569.113745109
2016-11-24,149646.673670902
2016-11-25,105100.012818216
2016-11-26,255230.325539913
2016-11-27,126688.338477406
2016-11-28,239905.907691077
2016-11-29,124157.569864358
2016-11-30,98750.4246920883
2016-12-01,181885.295744665
2016-12-02,95482.6058966102
2016-12-03,232287.318502905
2016-12-04,40046.5085172612
2016-12-05,132013.166342965
2016-12-06,100993.265213143
2016-12-07,119961.771429217
2016-12-08,132821.833482377
2016-12-09,198719.465766304
2016-12-10,103789.503345343
2016-12-11,146290.118306618
2016-12-12,266540.346117517
2016-12-13,143947.495511356
2016-12-14,131246.344851618
2016-12-15,160755.133451941
2016-12-16,177652.227704362
2016-12-17,190078.078542343
2016-12-18,267624.151133253
2016-12-19,426612.431380664
2016-12-20,368802.449371378
2016-12-21,243943.287081974
2016-12-22,540984.047877725
2016-12-23,466532.742442812
2016-12-24,284888.997070361
2016-12-25,120990.193029277
2016-12-26,200652.790830927
2016-12-27,263102.216152915
2016-12-28,401062.591090186
2016-12-29,296784.099120431
2016-12-30,460112.111557001
2016-12-31,268265.675128424
2017-01-01,132361.951965521
2017-01-02,219501.467246638
2017-01-03,188551.737160908
2017-01-04,422243.099415488
2017-01-05,601386.8611951
2017-01-06,824162.29549617
2017-01-07,601469.05385795
2017-01-08,635556.83242205
2017-01-09,425919.510689815
2017-01-10,556413.403943014
2017-01-11,372472.760832321
2017-01-12,539034.062738464
2017-01-13,378747.081169005
2017-01-14,487644.664688094
2017-01-15,644181.724536512
2017-01-16,581033.210709131
2017-01-17,383949.694804303
2017-01-18,370127.079250832
2017-01-19,311461.629422962
2017-01-20,439807.703235233
2017-01-21,437692.639361753
2017-01-22,225667.706397423
2017-01-23,251701.000737659
2017-01-24,425548.379049342
2017-01-25,283595.325382879
2017-01-26,263910.059820577
2017-01-27,208105.468838846
2017-01-28,323678.336734909
2017-01-29,465942.405761895
2017-01-30,250479.41777615
2017-01-31,358113.89085203
2017-02-01,562565.193664327
2017-02-02,450021.120225079
2017-02-03,319933.456947639
2017-02-04,259295.802690217
2017-02-05,267171.462779819
2017-02-06,236060.108629349
2017-02-07,353422.175312356
2017-02-08,251667.249897493
2017-02-09,374702.138536589
2017-02-10,479107.060023526
2017-02-11,134853.402547241
2017-02-12,140787.19489231
2017-02-13,301825.22869056
2017-02-14,338503.517332488
2017-02-15,242350.236781775
2017-02-16,203249.030790941
2017-02-17,242277.919984228
2017-02-18,173747.305292582
2017-02-19,185560.657844189
2017-02-20,268052.81008969
2017-02-21,411060.873842413
2017-02-22,273258.449897956
2017-02-23,258908.392712837
2017-02-24,270922.729977174
2017-02-25,224475.113283986
2017-02-26,173241.566947381
2017-02-27,307733.759300533
2017-02-28,356294.320105083
2017-03-01,224108.637864886
2017-03-02,438100.924525089
2017-03-03,450181.410225753
2017-03-04,167468.416511116
2017-03-05,124352.505811188
2017-03-06,207812.388394402
2017-03-07,170330.539111281
2017-03-08,393403.440806218
2017-03-09,168147.233283946
2017-03-10,220270.00344177
2017-03-11,299254.249628758
2017-03-12,137731.457462276
2017-03-13,384511.683414348
2017-03-14,349572.412741304
2017-03-15,276106.102185691
2017-03-16,703090.144632782
2017-03-17,784776.35585591
2017-03-18,356200.975278823
2017-03-19,372905.407719044
2017-03-20,247418.473068447
2017-03-21,325334.384146817
2017-03-22,248613.048731916
2017-03-23,376254.14871442
2017-03-24,389144.367746942
2017-03-25,312582.538182998
2017-03-26,331703.150282489
2017-03-27,410242.322693736
2017-03-28,453802.762788684
2017-03-29,188048.933220966
2017-03-30,342316.947071006
2017-03-31,715160.000329746
2017-04-01,474025.547998229
2017-04-02,480054.973445852
2017-04-03,1357219.49224517
2017-04-04,463970.826446219
2017-04-05,387792.804466309
2017-04-06,377101.62148822
2017-04-07,401004.446113898
2017-04-08,406303.642664761
2017-04-09,187480.067098475
2017-04-10,504649.274489963
2017-04-11,268990.855432765
2017-04-12,223953.388229739
2017-04-13,535133.791781152
2017-04-14,285996.937533263
2017-04-15,189302.918766703
2017-04-16,640511.350858679
2017-04-17,692003.366028969
2017-04-18,260749.086338255
2017-04-19,356596.630390089
2017-04-20,382130.570064631
2017-04-21,633322.636137392
2017-04-22,327751.218667835
2017-04-23,332839.628478267
2017-04-24,252372.94479471
2017-04-25,249270.736333083
2017-04-26,277113.983070328
2017-04-27,356618.820995777
2017-04-28,481126.749225514
2017-04-29,509864.616855465
2017-04-30,358841.357821151
2017-05-01,679456.179937084
2017-05-02,385866.097144686
2017-05-03,645873.200096262
2017-05-04,397491.176988742
2017-05-05,539546.941417337
2017-05-06,652211.410532135
2017-05-07,331872.367718018
2017-05-08,1274244.3237781
2017-05-09,566842.02770225
2017-05-10,1225386.01465226
2017-05-11,688699.274121708
2017-05-12,671682.422203285
2017-05-13,1102821.15370915
2017-05-14,856050.210796441
2017-05-15,680627.569145868
2017-05-16,688106.015637745
2017-05-17,923183.50599176
2017-05-18,936347.737321218
2017-05-19,514863.403901158
2017-05-20,725364.95666132
2017-05-21,410183.471930965
2017-05-22,285791.433767705
2017-05-23,659552.237103448
2017-05-24,404388.380082211
2017-05-25,450776.285199599
2017-05-26,409456.166194434
2017-05-27,921456.504713661
2017-05-28,732921.59678345
2017-05-29,334867.907854884
2017-05-30,803160.654720871
2017-05-31,580334.028139319
2017-06-01,432755.45808126
2017-06-02,300252.483273711
2017-06-03,317864.421611724
2017-06-04,1189553.58379723
2017-06-05,284219.16865467
2017-06-06,219007.605797867
2017-06-07,171690.470933799
2017-06-08,221808.514365682
2017-06-09,224271.68743514
2017-06-10,181297.976130079
2017-06-11,284468.388908847
2017-06-12,363063.550591137
2017-06-13,393811.48536167
2017-06-14,337759.854734131
2017-06-15,346056.855819557
2017-06-16,230700.68828659
2017-06-17,202325.571706736
2017-06-18,254635.732647617
2017-06-19,208203.805676122
2017-06-20,290438.560610407
2017-06-21,262786.493380539
2017-06-22,337954.23323065
2017-06-23,278550.903059963
2017-06-24,160283.565691472
2017-06-25,139302.681123642
2017-06-26,309229.198772569
2017-06-27,317118.555686578
2017-06-28,383724.698401105
2017-06-29,284748.534561438
2017-06-30,349760.36246296
2017-07-01,230264.06973395
2017-07-02,228006.012472695
2017-07-03,399450.462133326
2017-07-04,300499.424324279
2017-07-05,294721.472068514
2017-07-06,312877.674133874
2017-07-07,293865.674851655
2017-07-08,335405.875860863
2017-07-09,262521.763835267
2017-07-10,341284.360920629
2017-07-11,442999.252155744
2017-07-12,457516.066132742
2017-07-13,333141.965814886
2017-07-14,187227.289436196
2017-07-15,230068.204708564
2017-07-16,219262.934263438
2017-07-17,245648.680017136
2017-07-18,495184.637491906
2017-07-19,334477.322188058
2017-07-20,373390.382682573
2017-07-21,269911.237505672
2017-07-22,186191.945918576
2017-07-23,200843.191255792
2017-07-24,271130.485527196
2017-07-25,240598.221507024
2017-07-26,395226.004533263
2017-07-27,606208.409711111
2017-07-28,826835.948248882
2017-07-29,467702.444648048
2017-07-30,754149.633059659
2017-07-31,668790.175210645
2017-08-01,494128.540565328
2017-08-02,829196.744042173
2017-08-03,657420.844128987
2017-08-04,571936.246392625
2017-08-05,339298.867424408
2017-08-06,498393.759921368
2017-08-07,612466.808647064
2017-08-08,473326.185574655
2017-08-09,440798.513709743
2017-08-10,604359.368463378
2017-08-11,454842.71516208
2017-08-12,407346.426781366
2017-08-13,304663.505861743
2017-08-14,456742.657929735
2017-08-15,452776.15869841
2017-08-16,676024.567933321
2017-08-17,482709.501657583
2017-08-18,457080.065983289
2017-08-19,350820.70814832
2017-08-20,220372.959706176
2017-08-21,350534.337122102
2017-08-22,349778.751174914
2017-08-23,295697.111757881
2017-08-24,312342.412334183
2017-08-25,317559.636269478
2017-08-26,202406.269338104
2017-08-27,195999.333873217
2017-08-28,246749.654690399
2017-08-29,307655.45624591
2017-08-30,234926.126790043
2017-08-31,246954.454510423
2017-09-01,235649.041439117
2017-09-02,165699.629118713
2017-09-03,194260.272405929
2017-09-04,269569.697162114
2017-09-05,243433.439951521
2017-09-06,221635.514437727
2017-09-07,245271.094928062
2017-09-08,216989.871780021
2017-09-09,173928.540464133
2017-09-10,274597.078161577
2017-09-11,963906.249492791
2017-09-12,698194.288720082
2017-09-13,1013082.16024914
2017-09-14,1029536.84026339
2017-09-15,779222.230870137
2017-09-16,186129.042875695
2017-09-17,153074.429143427
2017-09-18,275008.086301332
2017-09-19,270908.462793358
2017-09-20,191274.250738829
2017-09-21,154539.775639544
2017-09-22,193898.038031021
2017-09-23,131166.074443093
2017-09-24,100275.48316674
2017-09-25,158060.541139456
2017-09-26,186146.517095464
2017-09-27,324551.664742649
2017-09-28,334504.959403338
2017-09-29,213712.339949823
2017-09-30,121877.523349499
2017-10-01,122271.52482374
2017-10-02,197435.491012954
2017-10-03,249101.437734831
2017-10-04,275304.038615605
2017-10-05,175589.40414765
2017-10-06,133986.118180941
2017-10-07,128779.030665818
2017-10-08,123182.571194446
2017-10-09,223123.386519563
2017-10-10,167636.437852165
2017-10-11,152533.532984493
2017-10-12,196521.61444313
2017-10-13,315998.859053028
2017-10-14,122980.21675574
2017-10-15,108260.155598029
2017-10-16,155309.210583401
2017-10-17,168482.530434364
2017-10-18,241890.449870578
2017-10-19,218550.189308162
2017-10-20,184047.542746165
2017-10-21,162676.626947772
2017-10-22,145465.270432351
2017-10-23,436411.683192469
2017-10-24,463159.867435251
2017-10-25,439985.635379691
2017-10-26,312684.396557912
2017-10-27,284206.905658932
2017-10-28,192226.506743766
2017-10-29,169243.270942466
2017-10-30,245393.991495419
2017-10-31,245440.926777795
2017-11-01,264727.812164399
2017-11-02,296863.887092103
2017-11-03,224158.628601509
2017-11-04,191113.639591463
2017-11-05,118363.513531238
2017-11-06,194483.695664114
2017-11-07,256592.778451055
2017-11-08,226620.277128757
2017-11-09,300771.701733224
2017-11-10,249905.592962042
2017-11-11,227684.832318033
2017-11-12,379003.15404699
2017-11-13,1854387.61478173
2017-11-14,1448000.57512887
2017-11-15,1307102.21398935
2017-11-16,1398136.79079669
2017-11-17,839407.570948021
2017-11-18,208695.576879904
2017-11-19,152708.860683786
2017-11-20,205023.430781171
2017-11-21,250370.996426999
2017-11-22,298126.318424131
2017-11-23,439787.681872949
2017-11-24,304146.966973976
2017-11-25,297369.517607618
2017-11-26,250140.777310353
2017-11-27,503978.599295815
2017-11-28,476000.737209727
2017-11-29,455497.245967701
2017-11-30,436070.296017627
2017-12-01,294873.688574349
2017-12-02,181342.245233952
2017-12-03,134335.953506911
2017-12-04,315428.78914796
2017-12-05,549455.1559409
2017-12-06,559996.975667468
2017-12-07,538854.026315166
2017-12-08,500760.023733104
2017-12-09,485832.72970034
2017-12-10,243747.000043258
2017-12-11,273370.994969196
2017-12-12,542900.624953743
2017-12-13,441097.052139767
2017-12-14,593303.266965195
2017-12-15,554603.82734897
2017-12-16,417520.429076502
2017-12-17,489185.704009959
2017-12-18,550810.329122339
2017-12-19,497467.392316152
2017-12-20,534695.435276993
2017-12-21,525338.079117065
2017-12-22,528873.003031247
2017-12-23,432215.230429475
2017-12-24,266144.191616438
2017-12-25,396546.724226333
2017-12-26,421915.598004688
2017-12-27,461166.143894862
2017-12-28,434679.325424252
2017-12-29,570768.448198714
2017-12-30,518722.305858492
2017-12-31,449525.946307947
2018-01-01,453831.509184372
2018-01-02,727798.40682999
2018-01-03,1081971.29236479
2018-01-04,896182.317962861
2018-01-05,1290144.15646201
2018-01-06,1131193.96422863
2018-01-07,513796.932199426
2018-01-08,534097.063909312
2018-01-09,679608.745963194
2018-01-10,712334.217731729
2018-01-11,612605.553242733
2018-01-12,552514.77590909
2018-01-13,414431.933461097
2018-01-14,386959.673532789
2018-01-15,546555.187483266
2018-01-16,850322.287197623
2018-01-17,923401.232370267
2018-01-18,584969.963675803
2018-01-19,548953.488757447
2018-01-20,352496.494893124
2018-01-21,319034.632370239
2018-01-22,355611.47094427
2018-01-23,351095.318665698
2018-01-24,348215.006043339
2018-01-25,356587.968570553
2018-01-26,506421.131002229
2018-01-27,650614.929741633
2018-01-28,2049114.27557023
2018-01-29,1034307.28050276
2018-01-30,1506235.94827402
2018-01-31,1011502.84330212
2018-02-01,1213624.91132285
2018-02-02,380947.927843783
2018-02-03,201914.910274639
2018-02-04,269069.365886176
2018-02-05,831999.866399819
2018-02-06,756204.742266831
2018-02-07,205363.462347588
2018-02-08,261341.487454179
2018-02-09,369160.945538778
2018-02-10,882515.026881292
2018-02-11,862409.965881552
2018-02-12,905730.917344767
2018-02-13,563250.36087741
2018-02-14,759574.335817109
2018-02-15,628912.729070954
2018-02-16,460260.721265561
2018-02-17,915819.915477145
2018-02-18,1160315.29359929
2018-02-19,1129516.14718544
2018-02-20,542377.869673894
2018-02-21,668589.877126182
2018-02-22,801244.990651344
2018-02-23,391395.440072702
2018-02-24,195414.663845485
2018-02-25,147082.473511572
2018-02-26,168911.198955124
2018-02-27,213989.821400451
2018-02-28,598403.002850553
2018-03-01,351745.367057505
2018-03-02,238160.561037133
2018-03-03,109526.540402293
2018-03-04,125232.247987427
2018-03-05,161259.66366223
2018-03-06,192360.151695605
2018-03-07,180846.912271239
2018-03-08,234629.772034292
2018-03-09,328168.540893954
2018-03-10,152256.519992982
2018-03-11,231154.668478131
2018-03-12,213892.464507977
2018-03-13,378412.171789745
2018-03-14,272883.989774374
2018-03-15,1039595.49212839
2018-03-16,311645.796492328
2018-03-17,1857486.22383951
2018-03-18,941096.945245003
2018-03-19,539472.084344309
2018-03-20,471152.459715286
2018-03-21,192657.852114035
2018-03-22,454077.067210674
2018-03-23,374984.114183113
2018-03-24,315214.613727155
2018-03-25,370578.471684301
2018-03-26,1050928.76712263
2018-03-27,472736.804172705
2018-03-28,608047.660741917
2018-03-29,185577.276573919
2018-03-30,466501.688159257
2018-03-31,331809.733613116
2018-04-01,354561.281000406
2018-04-02,819737.019935988
2018-04-03,576189.169009494
2018-04-04,763398.002758074
2018-04-05,382612.869466736
2018-04-06,673961.654275013
2018-04-07,241054.316955385
2018-04-08,288125.684920488
2018-04-09,585979.911720281
2018-04-10,275115.009241671
2018-04-11,341916.29399704
2018-04-12,1319975.32131892
2018-04-13,422544.701710781
2018-04-14,186582.766524728
2018-04-15,230955.347082227
2018-04-16,707408.375590918
2018-04-17,443239.886137455
2018-04-18,410104.808230869
2018-04-19,476563.231396759
2018-04-20,719238.123246158
2018-04-21,324257.819621592
2018-04-22,290474.312283197
2018-04-23,403966.651251588
2018-04-24,973006.697534826
2018-04-25,1225251.19274719
2018-04-26,324421.785619159
2018-04-27,358951.720070775
2018-04-28,493880.510633896
2018-04-29,474247.107904048
2018-04-30,515803.641922274
2018-05-01,383856.832586674
2018-05-02,371944.915733129
2018-05-03,526416.620992198
2018-05-04,466100.112631459
2018-05-05,365849.443866983
2018-05-06,375827.96515027
2018-05-07,611366.68597926
2018-05-08,348513.053887826
2018-05-09,312726.210253529
2018-05-10,442344.238323102
2018-05-11,360941.68026811
2018-05-12,354254.757748846
2018-05-13,352860.716820225
2018-05-14,337998.735019071
2018-05-15,327733.148281327
2018-05-16,232146.492905183
2018-05-17,210611.509338104
2018-05-18,356871.47104278
2018-05-19,263425.466088267
2018-05-20,224767.147540278
2018-05-21,202476.755382214
2018-05-22,195426.520591942
2018-05-23,250688.439871767
2018-05-24,324754.736553034
2018-05-25,253444.784328712
2018-05-26,91904.4997648826
2018-05-27,154289.944732254
2018-05-28,265180.55767607
2018-05-29,229325.647468616
2018-05-30,319442.493057049
2018-05-31,286884.983325823
2018-06-01,305572.894592079
2018-06-02,293829.754570924
2018-06-03,273853.628092535
2018-06-04,355012.564778837
2018-06-05,326455.222038035
2018-06-06,334916.397733655
2018-06-07,304225.188388657
2018-06-08,236592.981634613
2018-06-09,163177.277221544
2018-06-10,328501.673764775
2018-06-11,467853.346373846
2018-06-12,231590.326233384
2018-06-13,822065.534231891
2018-06-14,767281.633336527
2018-06-15,851705.136853814
2018-06-16,348441.306648141
2018-06-17,231521.788765818
2018-06-18,456154.827096183
2018-06-19,865380.733769324
2018-06-20,553564.949800319
2018-06-21,250885.989176976
2018-06-22,1086701.08828651
2018-06-23,889500.223950115
2018-06-24,335820.714245882
2018-06-25,560231.229106285
2018-06-26,240354.045144
2018-06-27,265396.932914299
2018-06-28,274859.397556393
2018-06-29,454505.164081592
2018-06-30,236953.478936714
2018-07-01,239093.528917587
2018-07-02,269376.382077983
2018-07-03,358107.01899145
2018-07-04,273178.669566486
2018-07-05,374708.987913158
2018-07-06,315727.330276536
2018-07-07,168227.49914284
2018-07-08,222679.707853684
2018-07-09,390629.296140128
2018-07-10,279839.112904826
2018-07-11,173318.183897251
2018-07-12,145333.736978339
2018-07-13,224384.462690597
2018-07-14,202992.710063585
2018-07-15,169204.705180826
2018-07-16,398323.840342524
2018-07-17,230471.996589572
2018-07-18,251898.269705464
2018-07-19,206692.177780279
2018-07-20,220484.261496409
2018-07-21,91869.6626486354
2018-07-22,108491.443214192
2018-07-23,195367.032621716
2018-07-24,309474.622738421
2018-07-25,210915.695561217
2018-07-26,169455.169111815
2018-07-27,242728.785748878
2018-07-28,124833.880629958
2018-07-29,128654.411976854
2018-07-30,157043.440961897
2018-07-31,171163.879536716
2018-08-01,229321.49678559
2018-08-02,276774.750057615
2018-08-03,319137.283811712
2018-08-04,412316.144690178
2018-08-05,445046.451220273
2018-08-06,544420.256006404
2018-08-07,399259.537156673
2018-08-08,487829.830184802
2018-08-09,374630.116085023
2018-08-10,258616.99056128
2018-08-11,238275.951832743
2018-08-12,191019.120512901
2018-08-13,188262.744055767
2018-08-14,239366.57527855
2018-08-15,307804.684390088
2018-08-16,246579.486949482
2018-08-17,191177.181326947
2018-08-18,209737.481959306
2018-08-19,195515.146492893
2018-08-20,241212.414012562
2018-08-21,359266.472792865
2018-08-22,236614.273084527
2018-08-23,261747.256940754
2018-08-24,136966.422387144
2018-08-25,139620.978166895
2018-08-26,122209.694851312
2018-08-27,310880.368254708
2018-08-28,1151130.9612224
2018-08-29,196737.321092696
2018-08-30,208536.481047933
2018-08-31,192754.510906276
2018-09-01,242332.188651942
2018-09-02,236595.819727706
2018-09-03,180485.675578037
2018-09-04,170657.262254031
2018-09-05,204293.798260738
2018-09-06,329620.814006404
2018-09-07,325339.710715029
2018-09-08,198207.154750628
2018-09-09,243341.642878055
2018-09-10,234826.420700002
2018-09-11,234240.093365602
2018-09-12,200768.276566355
2018-09-13,299968.106366791
2018-09-14,108152.075682483
2018-09-15,194953.916113562
2018-09-16,217724.503783797
2018-09-17,240390.207763788
2018-09-18,200344.323971615
2018-09-19,160596.377995653
2018-09-20,130127.640067945
2018-09-21,282477.569790728
2018-09-22,206604.609349771
2018-09-23,118179.809246834
2018-09-24,134840.119993423
2018-09-25,621982.534840955
2018-09-26,377392.628058992
2018-09-27,194114.357461727
2018-09-28,276034.009107816
2018-09-29,180555.581418594
2018-09-30,142781.616341247
2018-10-01,159644.575165666
2018-10-02,551241.72574315
2018-10-03,148558.878869277
2018-10-04,192612.688803253
2018-10-05,139194.217513402
2018-10-06,146276.883407404
2018-10-07,111705.531714335
2018-10-08,228591.997924212
2018-10-09,124608.806857922
2018-10-10,365685.279347429
2018-10-11,230522.612843521
2018-10-12,345052.092405327
2018-10-13,195572.825213667
2018-10-14,194386.368831036
2018-10-15,373461.221551083
2018-10-16,86928.8739339003
2018-10-17,130205.00934645
2018-10-18,212447.406410299
2018-10-19,213545.621047977
2018-10-20,203096.290681444
2018-10-21,139495.456175497
2018-10-22,243740.739991971
2018-10-23,255060.519029876
2018-10-24,185825.305063353
2018-10-25,201076.007480524
2018-10-26,136271.567971865
2018-10-27,126774.784154057
2018-10-28,159556.144578249
2018-10-29,201554.899487743
2018-10-30,184494.352938367
2018-10-31,193448.900375254
2018-11-01,260275.126003744
2018-11-02,553788.841043866
2018-11-03,156826.831254555
2018-11-04,121355.923761777
2018-11-05,155476.145811742
2018-11-06,208804.351520217
2018-11-07,162543.279869088
2018-11-08,168854.11266129
2018-11-09,208092.589639743
2018-11-10,159635.629735769
2018-11-11,82630.7174040167
2018-11-12,201671.089220587
2018-11-13,220901.114389667
2018-11-14,242111.3128492
2018-11-15,895064.470795099
2018-11-16,269468.253744249
2018-11-17,174912.538764775
2018-11-18,154910.257106085
2018-11-19,243615.380763191
2018-11-20,986735.742135085
2018-11-21,470704.406939944
2018-11-22,231428.946066604
2018-11-23,339451.678126428
2018-11-24,262045.753153281
2018-11-25,268855.220574869
2018-11-26,305810.496493454
2018-11-27,263390.846840179
2018-11-28,309063.949267752
2018-11-29,303600.004969283
2018-11-30,824327.584323561
2018-12-01,367015.144213759
2018-12-02,193097.280810387
2018-12-03,588666.632815055
2018-12-04,1369636.98349764
2018-12-05,853799.142676987
2018-12-06,735765.202010444
2018-12-07,413152.891823635
2018-12-08,311037.402371557
2018-12-09,243844.593314019
2018-12-10,286645.049114721
2018-12-11,434943.875894924
2018-12-12,324970.812198823
2018-12-13,285457.917722987
2018-12-14,301808.879160843
2018-12-15,182491.91432058
2018-12-16,181989.005759759
2018-12-17,307017.022636569
2018-12-18,362015.07796561
2018-12-19,471470.122003562
2018-12-20,349065.050585256
2018-12-21,310234.805088585
2018-12-22,241006.33992201
2018-12-23,269198.383996085
2018-12-24,243005.759354118
2018-12-25,215894.58393885
2018-12-26,230491.675457563
2018-12-27,283806.688242853
2018-12-28,322533.385040355
2018-12-29,266465.820831108
2018-12-30,181359.347335493
2018-12-31,133396.281098319
2019-01-01,94535.4685244734
2019-01-02,199876.267940636
2019-01-03,201586.550480321
2019-01-04,161455.102688315
2019-01-05,164222.919040216
2019-01-06,76337.8586187727
2019-01-07,179552.563173632
2019-01-08,131911.572913162
2019-01-09,174015.933673537
2019-01-10,235005.462029047
2019-01-11,347910.096325269
2019-01-12,178680.790248408
2019-01-13,183701.98517522
2019-01-14,192501.320114892
2019-01-15,544165.371660481
2019-01-16,175109.833130327
2019-01-17,158051.662765132
2019-01-18,207049.171827557
2019-01-19,123611.070291009
2019-01-20,84196.1464754082
2019-01-21,266435.864881546
2019-01-22,220947.105843711
2019-01-23,404394.966237377
2019-01-24,181742.135765538
2019-01-25,175107.660964993
2019-01-26,152312.976485698
2019-01-27,161948.990025791
2019-01-28,334398.684452536
2019-01-29,245160.428006667
2019-01-30,265298.89042457
2019-01-31,214800.011175417
2019-02-01,309426.435770503
2019-02-02,155219.300151256
2019-02-03,90746.0531795034
2019-02-04,109222.357029762
2019-02-05,190568.148235723
2019-02-06,225042.820453032
2019-02-07,259165.565692447
2019-02-08,186798.834211651
2019-02-09,108266.787681553
2019-02-10,143504.90467947
2019-02-11,177715.528863986
2019-02-12,255861.508926503
2019-02-13,192972.816353363
2019-02-14,130103.33122624
2019-02-15,157294.131947663
2019-02-16,117372.543415419
2019-02-17,96430.0387509359
2019-02-18,218989.635017076
2019-02-19,240570.762706756
2019-02-20,195905.643142312
2019-02-21,135531.961237061
2019-02-22,274733.558792138
2019-02-23,353583.280462443
2019-02-24,323916.504331892
2019-02-25,487206.052085765
2019-02-26,388964.357639143
2019-02-27,375725.991113441
2019-02-28,389219.708793004
2019-03-01,335421.206580006
2019-03-02,793718.976529852
2019-03-03,251565.724423081
2019-03-04,345503.15903086
2019-03-05,417872.822020015
2019-03-06,275319.934328359
2019-03-07,183147.148200859
2019-03-08,257867.60403459
2019-03-09,194831.113935216
2019-03-10,133575.451884149
2019-03-11,191489.959373285
2019-03-12,259854.420536813
2019-03-13,249366.866809871
2019-03-14,265785.69759829
2019-03-15,191231.738997708
2019-03-16,171147.2806022
2019-03-17,112408.93868449
2019-03-18,114842.4456595
2019-03-19,157968.027336666
2019-03-20,254042.859784259
2019-03-21,404019.260333745
2019-03-22,293598.137172509
2019-03-23,144360.521135281
2019-03-24,115246.83941856
2019-03-25,120828.062578731
2019-03-26,284713.072279958
2019-03-27,490847.086123693
2019-03-28,591908.974157039
2019-03-29,380285.314938996
2019-03-30,213980.851556512
2019-03-31,264732.674765592
2019-04-01,516721.956528086
2019-04-02,1094751.39910898
2019-04-03,254215.523838572
2019-04-04,320551.243078104
2019-04-05,189569.351166059
2019-04-06,167748.389937608
2019-04-07,216825.637420958
2019-04-08,587114.46165269
2019-04-09,587767.101031782
2019-04-10,639286.855211646
2019-04-11,977530.135836743
2019-04-12,673674.876599116
2019-04-13,471939.330134957
2019-04-14,350630.233038628
2019-04-15,460789.94807233
2019-04-16,304212.907051028
2019-04-17,475624.619052932
2019-04-18,621151.771929791
2019-04-19,661861.051761733
2019-04-20,337587.766833955
2019-04-21,283348.64608158
2019-04-22,458983.338723349
2019-04-23,392701.746928357
2019-04-24,310903.639847823
2019-04-25,411679.879440746
2019-04-26,446134.404004476
2019-04-27,152342.127160139
2019-04-28,303084.618645976
2019-04-29,319792.893368698
2019-04-30,529402.175082422
2019-05-01,396574.689883852
2019-05-02,228447.805479855
2019-05-03,364543.614156738
2019-05-04,191713.520295717
2019-05-05,151035.411233554
2019-05-06,369385.989222015
2019-05-07,541661.725154139
2019-05-08,404395.686230339
2019-05-09,341097.025200098
2019-05-10,439196.365659122
2019-05-11,334296.084927735
2019-05-12,194841.027826469
2019-05-13,433706.367486137
2019-05-14,491250.926129271
2019-05-15,462260.772370025
2019-05-16,354657.240877469
2019-05-17,244395.202902174
2019-05-18,122515.588813313
2019-05-19,185367.4806115
2019-05-20,236445.217637858
2019-05-21,163853.939960226
2019-05-22,224700.584205725
2019-05-23,276405.913987177
2019-05-24,200954.778183144
2019-05-25,154323.745818272
2019-05-26,221528.808912841
2019-05-27,256914.939363834
2019-05-28,382082.504863953
2019-05-29,563436.649652745
2019-05-30,190612.835304762
2019-05-31,909490.699120256
2019-06-01,454257.72745782
2019-06-02,571456.190088494
2019-06-03,806310.57853155
2019-06-04,524258.085907063
2019-06-05,658949.117976063
2019-06-06,962106.630890851
2019-06-07,413196.917598083
2019-06-08,173933.593770205
2019-06-09,186583.822260702
2019-06-10,305900.436687734
2019-06-11,825166.33228577
2019-06-12,216862.277527057
2019-06-13,259302.670336702
2019-06-14,241658.259481774
2019-06-15,126227.153888921
2019-06-16,462330.293625996
2019-06-17,1381452.82651491
2019-06-18,1728198.00023679
2019-06-19,599349.66694933
2019-06-20,522327.443222456
2019-06-21,253712.040474123
2019-06-22,845000.275973449
2019-06-23,224743.573333327
2019-06-24,218884.933176034
2019-06-25,541586.159191022
2019-06-26,420421.686176558
2019-06-27,190170.573004012
2019-06-28,244367.168545131
2019-06-29,225321.637818574
2019-06-30,722109.827983103
2019-07-01,257274.37008256
2019-07-02,240371.745583846
2019-07-03,163559.169381844
2019-07-04,290873.343502483
2019-07-05,278167.826290821
2019-07-06,209239.682295249
2019-07-07,258696.474488693
2019-07-08,698787.35096492
2019-07-09,737574.945655166
2019-07-10,757380.516710143
2019-07-11,1271824.29515282
2019-07-12,1409009.76089655
2019-07-13,1054903.36914293
2019-07-14,1102514.95736022
2019-07-15,780755.999380746
2019-07-16,695843.247974036
2019-07-17,503690.654822331
2019-07-18,492570.638305853
2019-07-19,323391.439190481
2019-07-20,313550.482056809
2019-07-21,257443.885926689
2019-07-22,256287.82417689
2019-07-23,331802.084299836
2019-07-24,368902.938346086
2019-07-25,160250.019543244
2019-07-26,223360.899267489
2019-07-27,104669.64690832
2019-07-28,77614.0088019572
2019-07-29,459529.497281289
2019-07-30,298176.694303953
2019-07-31,107287.716373865
2019-08-01,83686.6029472983
2019-08-02,102716.605281117
2019-08-03,104208.081998131
2019-08-04,163255.09716608
2019-08-05,368655.081905879
2019-08-06,149565.026526956
2019-08-07,136587.399830528
2019-08-08,171261.91421663
2019-08-09,170111.494263177
2019-08-10,202514.997511961
2019-08-11,163893.16134559
2019-08-12,235875.531938726
2019-08-13,334788.599319725
2019-08-14,126257.679451334
2019-08-15,148450.258312131
2019-08-16,224470.894418414
2019-08-17,677352.581545098
2019-08-18,460728.687693325
2019-08-19,241740.089042871
2019-08-20,137723.478696599
2019-08-21,356258.320982224
2019-08-22,70774.4671784778
2019-08-23,63382.0636899344
2019-08-24,72412.3773657432
2019-08-25,261287.791869104
2019-08-26,393029.711874556
2019-08-27,115102.768879063
2019-08-28,87494.2343747743
2019-08-29,137807.096506381
2019-08-30,143613.62494454
2019-08-31,326321.157631876
2019-09-01,404842.733890727
2019-09-02,199047.708710628
2019-09-03,307468.197082353
2019-09-04,603894.58700068
2019-09-05,493918.317739848
2019-09-06,285962.213788161
2019-09-07,80440.6681533604
2019-09-08,86648.2172817304
2019-09-09,133616.97097868
2019-09-10,324798.100137191
2019-09-11,315844.609226567
2019-09-12,99640.347366686
2019-09-13,71051.2804438681
2019-09-14,86751.1701113688
2019-09-15,85377.237345514
2019-09-16,256836.223580056
2019-09-17,451772.12551586
2019-09-18,109176.487172222
2019-09-19,118884.472220643
2019-09-20,112017.969744376
2019-09-21,93698.8617247983
2019-09-22,91699.6683863713
2019-09-23,228913.484786007
2019-09-24,370648.43322804
2019-09-25,497003.453632474
2019-09-26,434444.617642042
2019-09-27,211400.778264016
2019-09-28,186531.131900059
2019-09-29,139912.554724567
2019-09-30,403751.66762642
2019-10-01,389549.800653034
2019-10-02,192821.130364675
2019-10-03,99415.1969232637
2019-10-04,86535.627366795
2019-10-05,61931.4107315293
2019-10-06,86763.7573828356
2019-10-07,117361.241790519
2019-10-08,130683.811329133
2019-10-09,145850.865155598
2019-10-10,132998.189023487
2019-10-11,124822.742040587
2019-10-12,69635.3872305258
2019-10-13,56005.6415489894
2019-10-14,308623.72665337
2019-10-15,142901.213150066
2019-10-16,177550.299708125
2019-10-17,211431.989927452
2019-10-18,268553.74209115
2019-10-19,344980.847007337
2019-10-20,255991.996674215
2019-10-21,248294.489180748
2019-10-22,357364.150735777
2019-10-23,561319.922734758
2019-10-24,203378.836879955
2019-10-25,480707.478299407
2019-10-26,286673.572448745
2019-10-27,187501.646504969
2019-10-28,1306444.48951115
2019-10-29,800667.48661087
2019-10-30,1392623.22430454
2019-10-31,686151.873393516
2019-11-01,426292.44988308
2019-11-02,281500.781516387
2019-11-03,266064.447734827
2019-11-04,215790.27564299
2019-11-05,298807.731084864
2019-11-06,728906.750609547
2019-11-07,621257.175752445
2019-11-08,508957.374067494
2019-11-09,371414.12345318
2019-11-10,237748.299918651
2019-11-11,244353.562349086
2019-11-12,355878.918191352
2019-11-13,603037.373796173
2019-11-14,491728.899752194
2019-11-15,358391.334997621
2019-11-16,166210.407661223
2019-11-17,198486.280491998
2019-11-18,605462.19414973
2019-11-19,258208.074656041
2019-11-20,219146.902186528
2019-11-21,337191.497247671
2019-11-22,318681.132198323
2019-11-23,225965.759363118
2019-11-24,217330.314749752
2019-11-25,427644.532174509
2019-11-26,356113.952734109
2019-11-27,246869.159655414
2019-11-28,158525.417528429
2019-11-29,339157.318161269
2019-11-30,275795.757748981
2019-12-01,219892.654809822
2019-12-02,286581.660889861
2019-12-03,277990.591799383
2019-12-04,1725774.95357315
2019-12-05,317853.258321737
2019-12-06,1695414.68031214
2019-12-07,586459.075055351
2019-12-08,393998.417152597
2019-12-09,541473.312787803
2019-12-10,476865.433830231
2019-12-11,598823.605577381
2019-12-12,255145.851082997
2019-12-13,176474.86918592
2019-12-14,157854.067914091
2019-12-15,183995.652411877
2019-12-16,212886.577811686
2019-12-17,1132504.55887528
2019-12-18,370212.50070289
2019-12-19,303543.797744416
2019-12-20,284147.639802946
2019-12-21,168301.402061659
2019-12-22,291965.370629938
2019-12-23,270602.434272866
2019-12-24,185535.318824142
2019-12-25,240336.215737025
2019-12-26,204687.31547449
2019-12-27,288786.712414487
2019-12-28,256426.783265809
2019-12-29,211684.376856989
2019-12-30,373333.131434884
2019-12-31,194520.144720543
2020-01-01,145900.437846466
2020-01-02,194498.066482255
2020-01-03,389695.437540401
2020-01-04,140265.715744514
2020-01-05,188649.261610987
2020-01-06,506511.758738175
2020-01-07,172820.732252761
2020-01-08,256821.428364288
2020-01-09,622886.405362538
2020-01-10,170115.693149102
2020-01-11,76322.1446904965
2020-01-12,89046.2466736361
2020-01-13,175996.822210092
2020-01-14,461802.94090875
2020-01-15,909769.211481879
2020-01-16,259142.804291227
2020-01-17,494179.493013141
2020-01-18,77092.4947146394
2020-01-19,199461.578366993
2020-01-20,475793.569739317
2020-01-21,126356.255766909
2020-01-22,347969.184943897
2020-01-23,323660.766420984
2020-01-24,88815.3769770714
2020-01-25,63950.2242813553
2020-01-26,173180.842944203
2020-01-27,962399.39388595
2020-01-28,411998.281302178
2020-01-29,218028.308785952
2020-01-30,771656.871941973
2020-01-31,425300.18423701
2020-02-01,284004.301647354
2020-02-02,148220.898850234
2020-02-03,978973.956716762
2020-02-04,324354.276831533
2020-02-05,222425.034343435
2020-02-06,723032.632831322
2020-02-07,631033.99769895
2020-02-08,138790.229987797
2020-02-09,92001.3190353755
2020-02-10,368830.70715468
2020-02-11,258379.764608988
2020-02-12,354514.5255285
2020-02-13,275101.946037139
2020-02-14,312146.099002509
2020-02-15,264814.038422565
2020-02-16,502804.711191222
2020-02-17,643846.70286093
2020-02-18,385239.480313142
2020-02-19,657940.513353247
2020-02-20,329369.794274563
2020-02-21,199947.445579848
2020-02-22,133290.759351718
2020-02-23,168669.247392565
2020-02-24,166032.983319255
2020-02-25,269033.382083565
2020-02-26,199416.151125045
2020-02-27,283704.991560536
2020-02-28,320322.530670171
2020-02-29,122100.609050938
2020-03-01,130103.376950463
2020-03-02,129939.874875393
2020-03-03,140969.135204388
2020-03-04,320588.057974714
2020-03-05,142242.506191301
2020-03-06,111031.65188879
2020-03-07,50877.0058566717
2020-03-08,103426.845087516
2020-03-09,336684.712166297
2020-03-10,235666.749861048
2020-03-11,1005904.70382729
2020-03-12,1036066.09435394
2020-03-13,811832.692706402
2020-03-14,433500.883246953
2020-03-15,334119.105415301
2020-03-16,466151.281349515
2020-03-17,469970.148722167
2020-03-18,359403.98976973
2020-03-19,424988.27111287
2020-03-20,428135.122524418
2020-03-21,217409.075519933
2020-03-22,385080.927235481
2020-03-23,318938.341852384
2020-03-24,621871.209720708
2020-03-25,203963.671872621
2020-03-26,188805.300142652
2020-03-27,345082.083683776
2020-03-28,205336.47976878
2020-03-29,164340.623885734
2020-03-30,328110.106356744
2020-03-31,406154.023464328
2020-04-01,330240.518846877
2020-04-02,242645.059257964
2020-04-03,332345.357716662
2020-04-04,419579.489679301
2020-04-05,167675.146855732
2020-04-06,364092.368916188
2020-04-07,489991.03726445
2020-04-08,144621.135647629
2020-04-09,496791.694122943
2020-04-10,467661.699781567
2020-04-11,161009.214464666
2020-04-12,101152.277418621
2020-04-13,308313.627320615
2020-04-14,161369.069335988
2020-04-15,158547.353104734
2020-04-16,336071.242610969
2020-04-17,272778.18094682
2020-04-18,189320.46935388
2020-04-19,175827.614108351
2020-04-20,198627.192502187
2020-04-21,161993.760152677
2020-04-22,172515.619672292
2020-04-23,127976.602503784
2020-04-24,376864.171529234
2020-04-25,101274.405135469
2020-04-26,95248.9664578612
2020-04-27,310684.945777122
2020-04-28,172399.142966451
2020-04-29,886039.734896163
2020-04-30,1044151.28135179
2020-05-01,284654.287626709
2020-05-02,91642.2815959565
2020-05-03,266112.106866179
2020-05-04,180738.592319781
2020-05-05,243903.748605538
2020-05-06,192931.763753199
2020-05-07,297636.680028325
2020-05-08,408210.833988852
2020-05-09,521779.786523007
2020-05-10,209362.36221101
2020-05-11,287645.752856249
2020-05-12,415091.490171468
2020-05-13,361002.386176241
2020-05-14,439352.656278281
2020-05-15,316002.376940053
2020-05-16,131804.9658822
2020-05-17,192453.653029488
2020-05-18,340546.56594191
2020-05-19,374844.682378899
2020-05-20,369634.711118003
2020-05-21,330679.135687242
2020-05-22,236600.383947509
2020-05-23,129898.303101564
2020-05-24,251053.058173197
2020-05-25,461044.579844338
2020-05-26,120323.115497453
2020-05-27,436355.082057059
2020-05-28,150588.004684112
2020-05-29,342514.238674206
2020-05-30,137967.096136244
2020-05-31,358654.153839884
2020-06-01,357731.595622576
2020-06-02,477825.932781724
2020-06-03,260429.632935046
2020-06-04,352874.588505775
2020-06-05,369111.590914164
2020-06-06,137598.76429032
2020-06-07,135885.668136605
2020-06-08,269002.12997405
2020-06-09,107112.923098823
2020-06-10,119179.674888514
2020-06-11,308122.173498935
2020-06-12,146470.90941597
2020-06-13,71784.3960045821
2020-06-14,82097.9693885108
2020-06-15,283517.055014324
2020-06-16,298321.19454454
2020-06-17,286989.134855611
2020-06-18,222303.350437058
2020-06-19,648977.280491065
2020-06-20,80911.9873598816
2020-06-21,72889.426814256
2020-06-22,155153.754732495
2020-06-23,198347.888854823
2020-06-24,215084.678688064
2020-06-25,160251.593913794
2020-06-26,232683.448614519
2020-06-27,98937.5471979639
2020-06-28,193178.204417758
2020-06-29,293970.235964683
2020-06-30,334048.281520142
2020-07-01,289686.924523133
2020-07-02,152305.039228222
2020-07-03,200607.892094197
2020-07-04,173691.383397857
2020-07-05,133169.971430716
2020-07-06,249259.857403437
2020-07-07,171542.416952994
2020-07-08,253536.816158819
2020-07-09,148101.204452764
2020-07-10,116084.781778539
2020-07-11,81294.3694532127
2020-07-12,56657.7775795884
2020-07-13,149264.628900908
2020-07-14,97721.7896702133
2020-07-15,115674.482045558
2020-07-16,125905.953698486
2020-07-17,163678.36125343
2020-07-18,113270.009150078
2020-07-19,114586.856846851
2020-07-20,156005.399254269
2020-07-21,193137.899625368
2020-07-22,186776.249045041
2020-07-23,224404.937679824
2020-07-24,207164.886396497
2020-07-25,156807.483290777
2020-07-26,178820.87582123
2020-07-27,227296.51168314
2020-07-28,291543.786048642
2020-07-29,279389.024567297
2020-07-30,193868.210356229
2020-07-31,183303.252382994
2020-08-01,181428.038648921
2020-08-02,173091.565908144
2020-08-03,323088.635411899
2020-08-04,246113.898059153
2020-08-05,329026.035160022
2020-08-06,303582.143988489
2020-08-07,150427.921841244
2020-08-08,231653.881609206
2020-08-09,129352.727415584
2020-08-10,126485.287715719
2020-08-11,145003.299270449
2020-08-12,110690.262433004
2020-08-13,99297.3805751156
2020-08-14,218308.399599392
2020-08-15,295870.709896349
2020-08-16,134445.376544501
2020-08-17,257443.084528798
2020-08-18,196545.183945493
2020-08-19,172919.561128981
2020-08-20,146443.961291822
2020-08-21,174839.0439182
2020-08-22,83505.8776077435
2020-08-23,66605.5931930046
2020-08-24,118017.437261676
2020-08-25,113669.032163656
2020-08-26,174798.633751308
2020-08-27,186595.774126661
2020-08-28,201436.061600306
2020-08-29,179284.186995952
2020-08-30,107135.6854968
2020-08-31,196368.230634972
2020-09-01,155760.098276795
2020-09-02,186686.515279826
2020-09-03,320590.271316945
2020-09-04,338421.550068296
2020-09-05,184097.825300076
2020-09-06,144329.829242613
2020-09-07,208704.742739813
2020-09-08,215949.645872648
2020-09-09,198892.548693171
2020-09-10,177896.149615758
2020-09-11,314925.195817501
2020-09-12,181886.211044698
2020-09-13,164667.816461378
2020-09-14,228933.524460464
2020-09-15,255100.005372731
2020-09-16,200212.074205105
2020-09-17,171569.866546794
2020-09-18,159455.770247085
2020-09-19,144505.942738038
2020-09-20,139033.004244374
2020-09-21,156265.511274879
2020-09-22,268139.473886469
2020-09-23,305330.258117047
2020-09-24,381244.182301148
2020-09-25,260143.64926598
2020-09-26,168293.884931958
2020-09-27,198183.290468703
2020-09-28,170206.173636115
2020-09-29,260066.215543015
2020-09-30,212572.857078288
2020-10-01,205771.016106979
2020-10-02,325013.422455661
2020-10-03,149477.16161458
2020-10-04,123385.452306877
2020-10-05,220178.510153412
2020-10-06,154148.970116528
2020-10-07,189969.69373904
2020-10-08,197351.714926617
2020-10-09,200260.295719451
2020-10-10,175898.143209609
2020-10-11,102223.354218522
2020-10-12,188557.289417864
2020-10-13,141527.435878385
2020-10-14,118497.901901333
2020-10-15,181855.097668355
2020-10-16,165431.255924026
2020-10-17,148573.598499504
2020-10-18,114792.046981696
2020-10-19,324930.048618121
2020-10-20,320260.1061876
2020-10-21,259336.60691418
2020-10-22,144076.05877923
2020-10-23,189763.47769868
2020-10-24,216629.09562289
2020-10-25,64204.5019614623
2020-10-26,196884.617410411
2020-10-27,182984.387826626
2020-10-28,260532.508513752
2020-10-29,221878.86345552
2020-10-30,136799.09553297
2020-10-31,134137.765588296
2020-11-01,131348.299943969
2020-11-02,244068.177654279
2020-11-03,518040.295726065
2020-11-04,290542.00450906
2020-11-05,292737.476916179
2020-11-06,250118.007529742
2020-11-07,157436.37000628
2020-11-08,194138.12558804
2020-11-09,177643.094326735
2020-11-10,209597.349875577
2020-11-11,163516.189052303
2020-11-12,176224.291057595
2020-11-13,173813.86988055
2020-11-14,112363.76879732
2020-11-15,89483.22660733
2020-11-16,142879.755112304
2020-11-17,233083.88511305
2020-11-18,276779.717617155
2020-11-19,122675.29586033
2020-11-20,231734.243544717
2020-11-21,172572.400988481
2020-11-22,188596.525069415
2020-11-23,223900.012077829
2020-11-24,243922.362543076
2020-11-25,189410.332454807
2020-11-26,319694.779048756
2020-11-27,328903.529975748
2020-11-28,235040.72071326
2020-11-29,173314.15327112
2020-11-30,370309.835673236
2020-12-01,350272.677515707
2020-12-02,233932.54152534
2020-12-03,224737.5921519
2020-12-04,314228.855820318
2020-12-05,135137.24619195
2020-12-06,129262.598144577
2020-12-07,127762.136044058
2020-12-08,190032.397461548
2020-12-09,146480.614943138
2020-12-10,309702.130611547
2020-12-11,221214.843824719
2020-12-12,251032.400529941
2020-12-13,198276.895713886
2020-12-14,230962.5920622
2020-12-15,256400.815116082
2020-12-16,495521.931397363
2020-12-17,457261.454342388
2020-12-18,461049.18536708
2020-12-19,183632.9644149
2020-12-20,121211.744587065
2020-12-21,148495.70690791
2020-12-22,211474.353173075
2020-12-23,220835.663130953
2020-12-24,245679.575167473
2020-12-25,209759.565134485
2020-12-26,182331.615772521
2020-12-27,312732.474886558
2020-12-28,145015.021194091
2020-12-29,153598.12731676
2020-12-30,246915.31267147
2020-12-31,316923.689808156
2021-01-01,262992.734402116
2021-01-02,305117.536167268
2021-01-03,201452.852581755
2021-01-04,288033.03362652
2021-01-05,235898.51268197
2021-01-06,245972.150582465
2021-01-07,304611.733254244
2021-01-08,215821.933049994
2021-01-09,160117.795109284
2021-01-10,129951.536318463
2021-01-11,308283.557728547
2021-01-12,244384.484339054
2021-01-13,212381.098477877
2021-01-14,281914.149990148
2021-01-15,242436.48290351
2021-01-16,165593.932249485
2021-01-17,170388.14872871
2021-01-18,223080.597207992
2021-01-19,382171.304600063
2021-01-20,364033.197669106
2021-01-21,252157.734742584
2021-01-22,204302.94875517
2021-01-23,160223.533193109
2021-01-24,145226.659235847
2021-01-25,222381.9758788
2021-01-26,199978.581967996
2021-01-27,216441.040276208
2021-01-28,322401.324824683
2021-01-29,292877.53944225
2021-01-30,220642.418738977
2021-01-31,250637.201581604
2021-02-01,227134.585451577
2021-02-02,232314.435690326
2021-02-03,210542.869354816
2021-02-04,268019.572554877
2021-02-05,270264.095076483
2021-02-06,189570.271113639
2021-02-07,168974.745372973
2021-02-08,222101.782909385
2021-02-09,736053.479005401
2021-02-10,200754.629120501
2021-02-11,164116.312182176
2021-02-12,221192.615908176
2021-02-13,147063.628637669
2021-02-14,139470.252842125
2021-02-15,310941.284188182
2021-02-16,265029.159203706
2021-02-17,210992.589463006
2021-02-18,178543.195405346
2021-02-19,379115.697599046
2021-02-20,220323.88107855
2021-02-21,257704.615028707
2021-02-22,232042.391435535
2021-02-23,283262.256592617
2021-02-24,208633.065976778
2021-02-25,199223.832710681
2021-02-26,216848.04271316
2021-02-27,225825.356061444
2021-02-28,148965.928805395
2021-03-01,170151.670988159
2021-03-02,176168.635465773
2021-03-03,177152.702892776
2021-03-04,166269.949780606
2021-03-05,218776.884209666
2021-03-06,104430.074343948
2021-03-07,132837.467903107
2021-03-08,223315.796621561
2021-03-09,196614.494516501
2021-03-10,133648.421391945
2021-03-11,136856.080451246
2021-03-12,142891.883716429
2021-03-13,168846.255437681
2021-03-14,155580.786738113
2021-03-15,180939.330725917
2021-03-16,200556.418852514
2021-03-17,161733.486014001
2021-03-18,164349.505778015
2021-03-19,164673.308743708
2021-03-20,143817.014510036
2021-03-21,134247.311573407
2021-03-22,191114.972058111
2021-03-23,496121.732120859
2021-03-24,304685.721046164
2021-03-25,430322.544270146
2021-03-26,277186.127185867
2021-03-27,162035.211863393
2021-03-28,159467.04970868
2021-03-29,187117.612202801
2021-03-30,155392.358401931
2021-03-31,204620.829691645
2021-04-01,237801.625096249
2021-04-02,199571.049157823
2021-04-03,165482.032548067
2021-04-04,137463.489002629
2021-04-05,225409.073444447
2021-04-06,457060.459584581
2021-04-07,286521.448630511
