t,v
2009-01-03,0.0
2009-01-04,0.0
2009-01-05,0.0
2009-01-06,0.0
2009-01-07,0.0
2009-01-08,0.0
2009-01-09,0.0
2009-01-10,0.0
2009-01-11,0.0
2009-01-12,1.0
2009-01-13,0.0
2009-01-14,61.0
2009-01-15,25.0
2009-01-16,100.0
2009-01-17,0.0
2009-01-18,150.0
2009-01-19,275.0
2009-01-20,400.0
2009-01-21,100.0
2009-01-22,500.0
2009-01-23,150.0
2009-01-24,500.0
2009-01-25,50.0
2009-01-26,1000.0
2009-01-27,150.0
2009-01-28,0.0
2009-01-29,600.0
2009-01-30,0.0
2009-01-31,1000.0
2009-02-01,100.0
2009-02-02,50.0
2009-02-03,0.01
2009-02-04,0.0
2009-02-05,0.0
2009-02-06,0.0
2009-02-07,150.0
2009-02-08,1000.0
2009-02-09,2200.0
2009-02-10,0.0
2009-02-11,200.0
2009-02-12,0.0
2009-02-13,0.0
2009-02-14,0.0
2009-02-15,250.0
2009-02-16,1500.0
2009-02-17,0.0
2009-02-18,0.0
2009-02-19,800.0
2009-02-20,0.0
2009-02-21,0.0
2009-02-22,200.0
2009-02-23,0.0
2009-02-24,0.0
2009-02-25,0.0
2009-02-26,0.0
2009-02-27,1800.0
2009-02-28,350.0
2009-03-01,0.0
2009-03-02,0.0
2009-03-03,150.0
2009-03-04,0.33
2009-03-05,400.0
2009-03-06,0.0
2009-03-07,0.0
2009-03-08,300.0
2009-03-09,0.0
2009-03-10,0.0
2009-03-11,0.0
2009-03-12,150.0
2009-03-13,750.0
2009-03-14,0.0
2009-03-15,0.0
2009-03-16,2400.0
2009-03-17,0.0
2009-03-18,150.0
2009-03-19,0.0
2009-03-20,600.0
2009-03-21,0.0
2009-03-22,250.0
2009-03-23,0.0
2009-03-24,0.0
2009-03-25,0.0
2009-03-26,1400.0
2009-03-27,0.0
2009-03-28,150.0
2009-03-29,0.0
2009-03-30,0.0
2009-03-31,1600.0
2009-04-01,0.0
2009-04-02,0.0
2009-04-03,0.0
2009-04-04,0.0
2009-04-05,100.0
2009-04-06,0.0
2009-04-07,0.0
2009-04-08,0.0
2009-04-09,0.0
2009-04-10,0.0
2009-04-11,350.0
2009-04-12,300.0
2009-04-13,10.0
2009-04-14,0.0
2009-04-15,0.0
2009-04-16,0.0
2009-04-17,0.0
2009-04-18,32.51
2009-04-19,400.0
2009-04-20,2250.0
2009-04-21,0.01
2009-04-22,0.0
2009-04-23,0.0
2009-04-24,0.0
2009-04-25,0.0
2009-04-26,100.0
2009-04-27,0.0
2009-04-28,0.0
2009-04-29,1000.0
2009-04-30,0.0
2009-05-01,0.0
2009-05-02,0.03
2009-05-03,15.0
2009-05-04,1500.0
2009-05-05,500.0
2009-05-06,0.0
2009-05-07,0.0
2009-05-08,0.0
2009-05-09,0.0
2009-05-10,0.0
2009-05-11,50.0
2009-05-12,0.0
2009-05-13,1.0
2009-05-14,49.99
2009-05-15,500.0
2009-05-16,0.0
2009-05-17,0.0
2009-05-18,0.0
2009-05-19,0.0
2009-05-20,0.0
2009-05-21,0.0
2009-05-22,0.0
2009-05-23,0.0
2009-05-24,0.0
2009-05-25,0.0
2009-05-26,0.0
2009-05-27,0.0
2009-05-28,0.0
2009-05-29,3000.0
2009-05-30,0.0
2009-05-31,0.0
2009-06-01,0.01
2009-06-02,0.0
2009-06-03,0.0
2009-06-04,0.0
2009-06-05,0.0
2009-06-06,0.0
2009-06-07,0.0
2009-06-08,0.0
2009-06-09,0.0
2009-06-10,0.0
2009-06-11,0.0
2009-06-12,0.0
2009-06-13,0.0
2009-06-14,0.0
2009-06-15,0.0
2009-06-16,0.0
2009-06-17,0.0
2009-06-18,0.0
2009-06-19,0.0
2009-06-20,0.0
2009-06-21,0.0
2009-06-22,3000.0
2009-06-23,0.0
2009-06-24,25.0
2009-06-25,1000.0
2009-06-26,0.0
2009-06-27,0.0
2009-06-28,25.0
2009-06-29,30.0
2009-06-30,95.0
2009-07-01,100.0
2009-07-02,10.0
2009-07-03,0.0
2009-07-04,0.0
2009-07-05,0.0
2009-07-06,0.0
2009-07-07,0.0
2009-07-08,0.0
2009-07-09,0.0
2009-07-10,0.0
2009-07-11,0.0
2009-07-12,0.0
2009-07-13,0.0
2009-07-14,0.0
2009-07-15,0.0
2009-07-16,0.0
2009-07-17,0.0
2009-07-18,0.0
2009-07-19,0.0
2009-07-20,6000.0
2009-07-21,0.0
2009-07-22,0.0
2009-07-23,0.0
2009-07-24,0.0
2009-07-25,0.0
2009-07-26,0.0
2009-07-27,0.0
2009-07-28,0.0
2009-07-29,100.0
2009-07-30,5.0
2009-07-31,0.0
2009-08-01,0.0
2009-08-02,0.0
2009-08-03,0.0
2009-08-04,0.0
2009-08-05,0.0
2009-08-06,0.0
2009-08-07,5500.0
2009-08-08,0.0
2009-08-09,0.0
2009-08-10,0.0
2009-08-11,0.0
2009-08-12,0.0
2009-08-13,0.0
2009-08-14,0.0
2009-08-15,0.0
2009-08-16,0.0
2009-08-17,0.0
2009-08-18,0.0
2009-08-19,0.0
2009-08-20,0.0
2009-08-21,0.0
2009-08-22,0.0
2009-08-23,0.0
2009-08-24,0.0
2009-08-25,0.0
2009-08-26,498.53
2009-08-27,0.0
2009-08-28,0.0
2009-08-29,0.0
2009-08-30,50.0
2009-08-31,300.0
2009-09-01,0.0
2009-09-02,0.0
2009-09-03,700.0
2009-09-04,0.0
2009-09-05,0.0
2009-09-06,0.0
2009-09-07,650.0
2009-09-08,0.0
2009-09-09,0.0
2009-09-10,0.0
2009-09-11,0.0
2009-09-12,0.0
2009-09-13,0.0
2009-09-14,0.0
2009-09-15,0.0
2009-09-16,1.0
2009-09-17,5000.0
2009-09-18,0.0
2009-09-19,0.0
2009-09-20,0.0
2009-09-21,400.0
2009-09-22,2000.0
2009-09-23,0.0
2009-09-24,0.0
2009-09-25,300.0
2009-09-26,0.0
2009-09-27,800.0
2009-09-28,0.0
2009-09-29,650.0
2009-09-30,0.0
2009-10-01,0.0
2009-10-02,500.0
2009-10-03,0.0
2009-10-04,0.0
2009-10-05,0.0
2009-10-06,200.0
2009-10-07,0.0
2009-10-08,0.0
2009-10-09,0.0
2009-10-10,0.0
2009-10-11,0.0
2009-10-12,5050.0
2009-10-13,0.0
2009-10-14,0.0
2009-10-15,0.0
2009-10-16,9700.0
2009-10-17,0.0
2009-10-18,350.0
2009-10-19,0.0
2009-10-20,5000.0
2009-10-21,899.76
2009-10-22,11950.0
2009-10-23,0.0
2009-10-24,12250.0
2009-10-25,0.0
2009-10-26,0.0
2009-10-27,13000.0
2009-10-28,0.0
2009-10-29,500.0
2009-10-30,0.0
2009-10-31,0.0
2009-11-01,0.0
2009-11-02,0.0
2009-11-03,0.0
2009-11-04,15500.0
2009-11-05,0.0
2009-11-06,0.0
2009-11-07,0.0
2009-11-08,0.0
2009-11-09,0.0
2009-11-10,0.0
2009-11-11,1000.0
2009-11-12,0.0
2009-11-13,20.0
2009-11-14,0.0
2009-11-15,0.0
2009-11-16,0.0
2009-11-17,0.0
2009-11-18,0.0
2009-11-19,21850.0
2009-11-20,0.0
2009-11-21,0.0
2009-11-22,0.0
2009-11-23,0.0
2009-11-24,0.0
2009-11-25,0.0
2009-11-26,0.0
2009-11-27,0.0
2009-11-28,0.0
2009-11-29,0.0
2009-11-30,0.0
2009-12-01,10049.78
2009-12-02,0.0
2009-12-03,0.0
2009-12-04,0.0
2009-12-05,900.0
2009-12-06,50.0
2009-12-07,0.0
2009-12-08,500.0
2009-12-09,1.0
2009-12-10,0.0
2009-12-11,0.0
2009-12-12,2200.0
2009-12-13,0.0
2009-12-14,399.0
2009-12-15,1.0
2009-12-16,850.0
2009-12-17,0.5
2009-12-18,0.0
2009-12-19,50.0
2009-12-20,0.0
2009-12-21,50.0
2009-12-22,0.0
2009-12-23,0.0
2009-12-24,0.0
2009-12-25,0.5
2009-12-26,0.0
2009-12-27,250.0
2009-12-28,0.0
2009-12-29,0.0
2009-12-30,0.0
2009-12-31,0.0
2010-01-01,50.0
2010-01-02,0.0
2010-01-03,0.0
2010-01-04,150.0
2010-01-05,0.0
2010-01-06,0.0
2010-01-07,0.0
2010-01-08,0.0
2010-01-09,0.0
2010-01-10,0.0
2010-01-11,0.0
2010-01-12,5000.0
2010-01-13,1.0
2010-01-14,5.0
2010-01-15,200.74
2010-01-16,251.0
2010-01-17,0.0
2010-01-18,50.0
2010-01-19,0.0
2010-01-20,0.0
2010-01-21,45.8
2010-01-22,100.0
2010-01-23,2.0
2010-01-24,50.0
2010-01-25,50.0
2010-01-26,25.0
2010-01-27,200.0
2010-01-28,100.0
2010-01-29,100.0
2010-01-30,250.0
2010-01-31,350.0
2010-02-01,250.0
2010-02-02,1050.0
2010-02-03,100.0
2010-02-04,100.0
2010-02-05,149.0
2010-02-06,50.0
2010-02-07,50.0
2010-02-08,50.0
2010-02-09,1700.0
2010-02-10,10000.0
2010-02-11,100.0
2010-02-12,1900.0
2010-02-13,450.0
2010-02-14,50.0
2010-02-15,100.0
2010-02-16,50.0
2010-02-17,5262.74
2010-02-18,250.0
2010-02-19,49.98
2010-02-20,50.0
2010-02-21,200.0
2010-02-22,1200.0
2010-02-23,50.0
2010-02-24,350.0
2010-02-25,500.0
2010-02-26,200.0
2010-02-27,200.0
2010-02-28,50.0
2010-03-01,200.0
2010-03-02,350.0
2010-03-03,100.0
2010-03-04,300.0
2010-03-05,50.0
2010-03-06,50.0
2010-03-07,1350.0
2010-03-08,300.0
2010-03-09,50.0
2010-03-10,100.0
2010-03-11,1000.0
2010-03-12,100.0
2010-03-13,1800.0
2010-03-14,350.0
2010-03-15,48.0
2010-03-16,101.0
2010-03-17,200.0
2010-03-18,50.0
2010-03-19,150.0
2010-03-20,200.0
2010-03-21,50.0
2010-03-22,150.0
2010-03-23,100.0
2010-03-24,50.0
2010-03-25,100.0
2010-03-26,50.0
2010-03-27,100.0
2010-03-28,100.0
2010-03-29,100.0
2010-03-30,50.0
2010-03-31,50.0
2010-04-01,50.0
2010-04-02,100.0
2010-04-03,400.0
2010-04-04,50.0
2010-04-05,100.0
2010-04-06,50.0
2010-04-07,150.0
2010-04-08,50.0
2010-04-09,150.0
2010-04-10,50.0
2010-04-11,50.0
2010-04-12,99.99
2010-04-13,50.0
2010-04-14,50.0
2010-04-15,350.0
2010-04-16,50.0
2010-04-17,50.0
2010-04-18,3.78
2010-04-19,50.0
2010-04-20,100.0
2010-04-21,100.0
2010-04-22,80.0
2010-04-23,50.0
2010-04-24,50.0
2010-04-25,50.0
2010-04-26,50.0
2010-04-27,50.0
2010-04-28,50.0
2010-04-29,50.0
2010-04-30,50.0
2010-05-01,50.0
2010-05-02,50.0
2010-05-03,50.0
2010-05-04,54.0
2010-05-05,50.0
2010-05-06,100.0
2010-05-07,100.0
2010-05-08,100.0
2010-05-09,102.0
2010-05-10,100.0
2010-05-11,50.0
2010-05-12,50.0
2010-05-13,100.0
2010-05-14,50.0
2010-05-15,50.0
2010-05-16,52.64
2010-05-17,50.0
2010-05-18,50.0
2010-05-19,100.0
2010-05-20,50.0
2010-05-21,50.0
2010-05-22,50.0
2010-05-23,50.0
2010-05-24,50.0
2010-05-25,50.0
2010-05-26,50.0
2010-05-27,50.0
2010-05-28,50.0
2010-05-29,50.0
2010-05-30,50.0
2010-05-31,50.0
2010-06-01,50.0
2010-06-02,50.0
2010-06-03,50.0
2010-06-04,50.0
2010-06-05,50.0
2010-06-06,50.0
2010-06-07,50.0
2010-06-08,50.0
2010-06-09,50.0
2010-06-10,50.0
2010-06-11,50.0
2010-06-12,50.0
2010-06-13,50.0
2010-06-14,50.0
2010-06-15,50.0
2010-06-16,50.0
2010-06-17,50.0
2010-06-18,50.0
2010-06-19,50.0
2010-06-20,50.0
2010-06-21,50.0
2010-06-22,50.0
2010-06-23,50.0
2010-06-24,50.0
2010-06-25,50.0
2010-06-26,50.0
2010-06-27,50.0
2010-06-28,50.0
2010-06-29,50.0
2010-06-30,50.0
2010-07-01,50.0
2010-07-02,50.0
2010-07-03,50.0
2010-07-04,50.0
2010-07-05,50.0
2010-07-06,50.0
2010-07-07,50.0
2010-07-08,50.0
2010-07-09,50.0
2010-07-10,100.0
2010-07-11,140.0
2010-07-12,730.0
2010-07-13,50.0
2010-07-14,28.8
2010-07-15,3.01
2010-07-16,5.0
2010-07-17,5.0
2010-07-18,5.0
2010-07-19,5.0
2010-07-20,65.22
2010-07-21,50.0
2010-07-22,16.25
2010-07-23,14.45
2010-07-24,7.67
2010-07-25,8.64
2010-07-26,50.0
2010-07-27,5.0
2010-07-28,25.0
2010-07-29,15.0
2010-07-30,13.35
2010-07-31,20.0
2010-08-01,50.0
2010-08-02,50.0
2010-08-03,14.65
2010-08-04,50.0
2010-08-05,50.0
2010-08-06,4.1
2010-08-07,25.0
2010-08-08,2.5
2010-08-09,52.0
2010-08-10,50.0
2010-08-11,50.0
2010-08-12,50.0
2010-08-13,50.0
2010-08-14,50.0
2010-08-15,50.0
2010-08-16,53.54
2010-08-17,50.0
2010-08-18,50.0
2010-08-19,50.0
2010-08-20,50.0
2010-08-21,50.0
2010-08-22,50.0
2010-08-23,50.0
2010-08-24,50.0
2010-08-25,50.0
2010-08-26,4.9
2010-08-27,50.0
2010-08-28,10.0
2010-08-29,5.4
2010-08-30,5.0
2010-08-31,50.0
2010-09-01,10.99
2010-09-02,50.15
2010-09-03,101.15
2010-09-04,99.75
2010-09-05,50.05
2010-09-06,50.0
2010-09-07,50.0
2010-09-08,1.75
2010-09-09,50.0
2010-09-10,5.0
2010-09-11,3.9
2010-09-12,1.25
2010-09-13,12.0
2010-09-14,50.0
2010-09-15,34.89
2010-09-16,50.0
2010-09-17,50.0
2010-09-18,50.0
2010-09-19,81.1
2010-09-20,12.0
2010-09-21,2.48
2010-09-22,0.58
2010-09-23,17.0
2010-09-24,19.3
2010-09-25,0.85
2010-09-26,3.84
2010-09-27,2.29
2010-09-28,39.41
2010-09-29,104.03
2010-09-30,19.96
2010-10-01,11.91776615
2010-10-02,2.0
2010-10-03,85.0
2010-10-04,284.07
2010-10-05,241.57
2010-10-06,49.99
2010-10-07,195.07
2010-10-08,163.57
2010-10-09,137.57
2010-10-10,101.07
2010-10-11,67.57
2010-10-12,43.57
2010-10-13,50.0
2010-10-14,800.0
2010-10-15,607.64
2010-10-16,1179.5
2010-10-17,250.0
2010-10-18,150.0
2010-10-19,40.0
2010-10-20,50.0
2010-10-21,50.0
2010-10-22,10.19
2010-10-23,20.6
2010-10-24,12.5
2010-10-25,758.0
2010-10-26,684.0
2010-10-27,600.0
2010-10-28,530.5
2010-10-29,50.0
2010-10-30,94.54
2010-10-31,50.0
2010-11-01,5.0
2010-11-02,299.12
2010-11-03,50.0
2010-11-04,150.0
2010-11-05,22.6
2010-11-06,50.0
2010-11-07,50.0
2010-11-08,105.78
2010-11-09,50.0
2010-11-10,100.0
2010-11-11,86.55
2010-11-12,111.75
2010-11-13,50.0
2010-11-14,25.0
2010-11-15,26.39
2010-11-16,9.93
2010-11-17,85.0
2010-11-18,292.0
2010-11-19,100.0
2010-11-20,147.9
2010-11-21,56.73
2010-11-22,53.19
2010-11-23,51.81
2010-11-24,0.01
2010-11-25,0.3
2010-11-26,5.0
2010-11-27,8.56
2010-11-28,15.04
2010-11-29,13.13
2010-11-30,10.0
2010-12-01,18.1
2010-12-02,15.45
2010-12-03,11.3
2010-12-04,8.75
2010-12-05,6.6
2010-12-06,3.25
2010-12-07,9.3
2010-12-08,4.75
2010-12-09,30.0
2010-12-10,25.84
2010-12-11,21.89
2010-12-12,11.74
2010-12-13,50.0
2010-12-14,150.0
2010-12-15,250.01
2010-12-16,192.99
2010-12-17,50.0
2010-12-18,100.0
2010-12-19,15.0
2010-12-20,20.83
2010-12-21,50.0
2010-12-22,43.46
2010-12-23,50.0
2010-12-24,47.0
2010-12-25,256.36
2010-12-26,154.86
2010-12-27,50.0
2010-12-28,31.28
2010-12-29,50.0
2010-12-30,50.0
2010-12-31,42.66
2011-01-01,47.31
2011-01-02,49.86
2011-01-03,0.3
2011-01-04,0.67
2011-01-05,0.39
2011-01-06,4.85
2011-01-07,14.21
2011-01-08,3.0
2011-01-09,4.8
2011-01-10,1.13
2011-01-11,5.71
2011-01-12,1.06
2011-01-13,7.4
2011-01-14,1.65
2011-01-15,42.28
2011-01-16,28.59
2011-01-17,43.71
2011-01-18,14.0
2011-01-19,27.02
2011-01-20,17.25
2011-01-21,8.0
2011-01-22,2.33
2011-01-23,31.93
2011-01-24,10.04
2011-01-25,35.7
2011-01-26,37.28
2011-01-27,36.05
2011-01-28,20.26
2011-01-29,16.36
2011-01-30,234.25
2011-01-31,49.67
2011-02-01,46.53
2011-02-02,42.27
2011-02-03,40.22
2011-02-04,43.59
2011-02-05,45.2
2011-02-06,45.14
2011-02-07,45.53
2011-02-08,44.41
2011-02-09,44.35
2011-02-10,48.67
2011-02-11,79.83
2011-02-12,49.49
2011-02-13,40.91
2011-02-14,25.68
2011-02-15,20.93
2011-02-16,16.16
2011-02-17,21.6
2011-02-18,16.65
2011-02-19,45.23
2011-02-20,46.19
2011-02-21,47.56
2011-02-22,47.13
2011-02-23,43.25
2011-02-24,41.5
2011-02-25,45.02
2011-02-26,50.0
2011-02-27,22.37
2011-02-28,20.0
2011-03-01,13.9845
2011-03-02,9.53
2011-03-03,14.7275
2011-03-04,13.14
2011-03-05,39.17
2011-03-06,41.3
2011-03-07,26.36
2011-03-08,22.22
2011-03-09,42.84
2011-03-10,16.65
2011-03-11,16.56
2011-03-12,0.61
2011-03-13,0.79
2011-03-14,0.01
2011-03-15,1.87
2011-03-16,0.01
2011-03-17,0.07
2011-03-18,7.48
2011-03-19,0.62
2011-03-20,9.63
2011-03-21,0.01
2011-03-22,39.91
2011-03-23,22.8
2011-03-24,21.05
2011-03-25,35.54
2011-03-26,16.76
2011-03-27,9.94
2011-03-28,17.7
2011-03-29,8.22
2011-03-30,17.41
2011-03-31,21.36
2011-04-01,20.97
2011-04-02,17.65
2011-04-03,20.2
2011-04-04,36.28
2011-04-05,25.92
2011-04-06,16.75
2011-04-07,17.14
2011-04-08,20.0
2011-04-09,20.0
2011-04-10,12.0
2011-04-11,15.99
2011-04-12,21.21
2011-04-13,15.47
2011-04-14,10.49
2011-04-15,22.24
2011-04-16,27.71
2011-04-17,12.71
2011-04-18,3.6
2011-04-19,25.97
2011-04-20,23.15
2011-04-21,18.33
2011-04-22,15.49
2011-04-23,18.09
2011-04-24,10.05
2011-04-25,17.0
2011-04-26,25.0
2011-04-27,19.61
2011-04-28,12.17
2011-04-29,20.43
2011-04-30,11.95
2011-05-01,10.26
2011-05-02,16.15
2011-05-03,20.99
2011-05-04,27.72
2011-05-05,19.91
2011-05-06,18.86
2011-05-07,15.03679395
2011-05-08,10.04
2011-05-09,13.98
2011-05-10,17.87
2011-05-11,18.33
2011-05-12,10.98
2011-05-13,10.78
2011-05-14,11.3
2011-05-15,15.25
2011-05-16,15.0
2011-05-17,15.56
2011-05-18,11.61
2011-05-19,11.0
2011-05-20,24.07
2011-05-21,31.31532854
2011-05-22,20.02747654
2011-05-23,14.87
2011-05-24,19.69
2011-05-25,17.64
2011-05-26,17.45
2011-05-27,17.03
2011-05-28,17.99
2011-05-29,18.75
2011-05-30,18.89540695
2011-05-31,16.57
2011-06-01,18.01
2011-06-02,15.50585281
2011-06-03,17.83
2011-06-04,18.288
2011-06-05,21.37804844
2011-06-06,18.0
2011-06-07,19.99
2011-06-08,16.7225
2011-06-09,18.29435453
2011-06-10,20.0
2011-06-11,30.55
2011-06-12,22.40026157
2011-06-13,23.54435
2011-06-14,27.16
2011-06-15,22.735
2011-06-16,27.99455257
2011-06-17,19.79229032
2011-06-18,12.49
2011-06-19,19.99
2011-06-20,20.946001
2011-06-21,15.80987807
2011-06-22,19.23842398
2011-06-23,16.01692082
2011-06-24,20.8545
2011-06-25,13.52237095
2011-06-26,13.863
2011-06-27,10.37
2011-06-28,12.722
2011-06-29,15.853
2011-06-30,16.00437791
2011-07-01,9.14
2011-07-02,18.4305
2011-07-03,12.9605
2011-07-04,15.05
2011-07-05,15.7767
2011-07-06,11.91
2011-07-07,12.60113591
2011-07-08,11.8
2011-07-09,14.0
2011-07-10,13.4965
2011-07-11,10.2065
2011-07-12,12.1285
2011-07-13,13.288
2011-07-14,13.2345
2011-07-15,15.89815824
2011-07-16,10.75
2011-07-17,12.67
2011-07-18,17.2959495
2011-07-19,14.87
2011-07-20,13.98556898
2011-07-21,13.85105
2011-07-22,15.072
2011-07-23,15.1655
2011-07-24,14.859
2011-07-25,14.5615
2011-07-26,15.14109679
2011-07-27,20.74407358
2011-07-28,24.47030441
2011-07-29,15.69761717
2011-07-30,19.9995
2011-07-31,15.56736446
2011-08-01,16.74654063
2011-08-02,13.71210614
2011-08-03,20.01316136
2011-08-04,10.78
2011-08-05,14.089
2011-08-06,14.471
2011-08-07,16.92645099
2011-08-08,17.81855775
2011-08-09,14.254
2011-08-10,13.92753837
2011-08-11,13.05349401
2011-08-12,13.4985
2011-08-13,10.01020239
2011-08-14,11.7605
2011-08-15,7.01646784
2011-08-16,6.58
2011-08-17,10.48078311
2011-08-18,12.75013984
2011-08-19,10.83460296
2011-08-20,12.349
2011-08-21,10.24
2011-08-22,14.69174463
2011-08-23,14.01
2011-08-24,13.01
2011-08-25,14.0
2011-08-26,16.54
2011-08-27,17.63588871
2011-08-28,15.43421473
2011-08-29,10.01
2011-08-30,13.00735453
2011-08-31,18.08675868
2011-09-01,17.63098464
2011-09-02,16.74263497
2011-09-03,18.71466589
2011-09-04,10.99
2011-09-05,18.62424405
2011-09-06,24.9595
2011-09-07,15.01033015
2011-09-08,15.54416706
2011-09-09,19.82243128
2011-09-10,17.22784416
2011-09-11,14.994
2011-09-12,15.98
2011-09-13,17.97
2011-09-14,21.23323398
2011-09-15,20.01
2011-09-16,20.01035214
2011-09-17,21.3583974
2011-09-18,19.946
2011-09-19,12.8492752
2011-09-20,6.7331141
2011-09-21,10.0
2011-09-22,15.0
2011-09-23,21.8925
2011-09-24,20.8425382
2011-09-25,14.72010845
2011-09-26,15.87776072
2011-09-27,20.0
2011-09-28,14.9995
2011-09-29,20.52030562
2011-09-30,19.52445127
2011-10-01,18.68665494
2011-10-02,20.32015152
2011-10-03,14.4987
2011-10-04,21.88046041
2011-10-05,22.42296025
2011-10-06,20.114
2011-10-07,24.20200803
2011-10-08,20.86180738
2011-10-09,20.69
2011-10-10,16.44209259
2011-10-11,14.01368596
2011-10-12,17.8385
2011-10-13,15.33645675
2011-10-14,20.17985359
2011-10-15,19.27
2011-10-16,20.3091
2011-10-17,19.63548868
2011-10-18,19.8162
2011-10-19,17.0142385
2011-10-20,19.0775
2011-10-21,20.04180588
2011-10-22,21.46851
2011-10-23,19.05519352
2011-10-24,21.63149108
2011-10-25,19.35272363
2011-10-26,16.88461193
2011-10-27,18.21974877
2011-10-28,19.84351798
2011-10-29,19.826
2011-10-30,14.91
2011-10-31,13.52051
2011-11-01,17.44111
2011-11-02,19.175
2011-11-03,16.74988061
2011-11-04,18.6511656
2011-11-05,18.46819863
2011-11-06,19.23
2011-11-07,19.29024046
2011-11-08,19.8
2011-11-09,16.92981682
2011-11-10,15.55589997
2011-11-11,19.99
2011-11-12,21.41358987
2011-11-13,14.41598509
2011-11-14,20.0115
2011-11-15,20.6320228
2011-11-16,20.5903567
2011-11-17,27.99
2011-11-18,20.01
2011-11-19,5.3995
2011-11-20,5.620405
2011-11-21,5.1995
2011-11-22,7.196
2011-11-23,9.0
2011-11-24,5.91
2011-11-25,6.834214
2011-11-26,6.94347906
2011-11-27,5.0
2011-11-28,6.0
2011-11-29,6.42090009
2011-11-30,5.495028
2011-12-01,6.49
2011-12-02,7.3
2011-12-03,5.1
2011-12-04,4.84
2011-12-05,3.79024161
2011-12-06,2.56
2011-12-07,5.57
2011-12-08,5.25
2011-12-09,6.20000671
2011-12-10,8.31
2011-12-11,5.54398571
2011-12-12,5.02
2011-12-13,5.01092313
2011-12-14,5.03
2011-12-15,6.3235
2011-12-16,9.0744
2011-12-17,4.74977611
2011-12-18,3.38604945
2011-12-19,7.03742146
2011-12-20,7.84264
2011-12-21,5.09
2011-12-22,5.39
2011-12-23,4.1
2011-12-24,3.072
2011-12-25,3.73363368
2011-12-26,3.42468
2011-12-27,3.6095
2011-12-28,4.57112724
2011-12-29,4.61441353
2011-12-30,4.0
2011-12-31,4.32
2012-01-01,4.0293861
2012-01-02,4.0
2012-01-03,4.0
2012-01-04,5.0104988
2012-01-05,5.05386718
2012-01-06,5.39541278
2012-01-07,4.26
2012-01-08,3.99132313
2012-01-09,3.55
2012-01-10,3.617
2012-01-11,3.1
2012-01-12,2.60759226
2012-01-13,3.254586
2012-01-14,2.79
2012-01-15,2.99
2012-01-16,2.07
2012-01-17,3.28605439
2012-01-18,5.001
2012-01-19,3.07
2012-01-20,3.0
2012-01-21,3.33
2012-01-22,2.56819263
2012-01-23,2.5
2012-01-24,3.12
2012-01-25,3.80221263
2012-01-26,3.04602196
2012-01-27,3.5195
2012-01-28,3.02941199
2012-01-29,2.704
2012-01-30,3.00287376
2012-01-31,4.44
2012-02-01,3.36061026
2012-02-02,3.9
2012-02-03,4.6
2012-02-04,3.30059017
2012-02-05,3.14
2012-02-06,3.82
2012-02-07,4.16010659
2012-02-08,3.5805
2012-02-09,2.94996437
2012-02-10,2.05329288
2012-02-11,2.07190173
2012-02-12,2.83
2012-02-13,3.30942999
2012-02-14,2.5505
2012-02-15,1.14
2012-02-16,1.27
2012-02-17,4.599
2012-02-18,4.02160092
2012-02-19,2.4995
2012-02-20,3.34
2012-02-21,4.48742867
2012-02-22,5.19
2012-02-23,3.65316488
2012-02-24,4.9495
2012-02-25,4.21397363
2012-02-26,3.16
2012-02-27,3.9995
2012-02-28,4.22832
2012-02-29,4.17510735
2012-03-01,6.20464
2012-03-02,5.12
2012-03-03,4.62014441
2012-03-04,5.0
2012-03-05,4.1924417
2012-03-06,4.42077
2012-03-07,4.349
2012-03-08,4.5495
2012-03-09,5.0
2012-03-10,3.981
2012-03-11,3.31418023
2012-03-12,4.44944655
2012-03-13,4.945919
2012-03-14,5.05
2012-03-15,4.01998309
2012-03-16,4.03
2012-03-17,3.17
2012-03-18,2.85
2012-03-19,4.92
2012-03-20,4.96
2012-03-21,5.5
2012-03-22,5.0
2012-03-23,4.1
2012-03-24,4.6
2012-03-25,2.99026399
2012-03-26,5.0
2012-03-27,4.96
2012-03-28,5.0585
2012-03-29,6.29906316
2012-03-30,6.969595
2012-03-31,5.01352735
2012-04-01,5.0
2012-04-02,5.0
2012-04-03,6.0
2012-04-04,5.0995
2012-04-05,5.10183512
2012-04-06,5.12004383
2012-04-07,4.29
2012-04-08,3.20303287
2012-04-09,4.79203033
2012-04-10,2.85301221
2012-04-11,4.9995
2012-04-12,5.20076306
2012-04-13,7.89107
2012-04-14,4.2895
2012-04-15,3.30026216
2012-04-16,6.74183462
2012-04-17,6.6766
2012-04-18,5.057
2012-04-19,6.40777784
2012-04-20,10.01
2012-04-21,5.04325836
2012-04-22,3.74614
2012-04-23,5.0
2012-04-24,6.75975334
2012-04-25,3.6
2012-04-26,3.50268854
2012-04-27,4.93202989
2012-04-28,3.2451314
2012-04-29,1.75135
2012-04-30,2.59345963
2012-05-01,2.0
2012-05-02,2.7495
2012-05-03,1.73435052
2012-05-04,1.18734573
2012-05-05,1.3595
2012-05-06,1.4772
2012-05-07,1.34712285
2012-05-08,1.35366666
2012-05-09,1.46884549
2012-05-10,1.48
2012-05-11,0.95445056
2012-05-12,1.0
2012-05-13,1.01243103
2012-05-14,1.06
2012-05-15,1.098
2012-05-16,1.0140476
2012-05-17,0.76899995
2012-05-18,0.4995
2012-05-19,0.4278528
2012-05-20,0.66147334
2012-05-21,0.4995
2012-05-22,0.91004
2012-05-23,0.83605097
2012-05-24,0.78
2012-05-25,0.68527795
2012-05-26,0.50250999
2012-05-27,0.60867905
2012-05-28,0.51142394
2012-05-29,0.8995
2012-05-30,0.75099998
2012-05-31,1.00522399
2012-06-01,0.64
2012-06-02,1.13
2012-06-03,0.51351999
2012-06-04,0.31942636
2012-06-05,0.4995
2012-06-06,1.91393686
2012-06-07,0.98316642
2012-06-08,0.73371318
2012-06-09,0.5685671
2012-06-10,0.31338124
2012-06-11,0.40849496
2012-06-12,0.9995
2012-06-13,0.39138749
2012-06-14,0.16666201
2012-06-15,0.31338124
2012-06-16,0.51399998
2012-06-17,0.35182499
2012-06-18,0.48318578
2012-06-19,0.6995
2012-06-20,0.56476561
2012-06-21,0.59631416
2012-06-22,0.6995
2012-06-23,0.6700658
2012-06-24,0.62237388
2012-06-25,0.59110515
2012-06-26,0.66336
2012-06-27,0.9321551
2012-06-28,0.92543334
2012-06-29,0.90275423
2012-06-30,0.78146055
2012-07-01,0.79049564
2012-07-02,0.97248
2012-07-03,1.63
2012-07-04,1.32549994
2012-07-05,0.96450413
2012-07-06,0.91731
2012-07-07,0.97939857
2012-07-08,0.87185327
2012-07-09,1.26015406
2012-07-10,0.9995
2012-07-11,0.9955
2012-07-12,1.17845334
2012-07-13,1.07
2012-07-14,1.79857277
2012-07-15,1.05251577
2012-07-16,1.28092108
2012-07-17,1.021
2012-07-18,0.866924
2012-07-19,0.93995175
2012-07-20,0.8
2012-07-21,0.9847475
2012-07-22,0.7342867
2012-07-23,1.20619211
2012-07-24,1.01000001
2012-07-25,1.2495
2012-07-26,1.0
2012-07-27,2.0
2012-07-28,1.1732
2012-07-29,1.06496272
2012-07-30,1.51599997
2012-07-31,2.0
2012-08-01,1.54016817
2012-08-02,1.789
2012-08-03,3.88026816
2012-08-04,2.0
2012-08-05,1.9995
2012-08-06,1.28040322
2012-08-07,2.519
2012-08-08,1.0795
2012-08-09,1.27116
2012-08-10,1.5995784
2012-08-11,1.0087
2012-08-12,0.90010453
2012-08-13,0.5895
2012-08-14,1.03872722
2012-08-15,0.78542304
2012-08-16,2.13659185
2012-08-17,2.86796985
2012-08-18,2.0
2012-08-19,1.66738362
2012-08-20,2.27259532
2012-08-21,2.4919
2012-08-22,2.9855
2012-08-23,4.65443404
2012-08-24,2.76663467
2012-08-25,1.2945
2012-08-26,1.41958565
2012-08-27,1.27
2012-08-28,1.0
2012-08-29,1.0345
2012-08-30,0.81243822
2012-08-31,1.0
2012-09-01,0.94490999
2012-09-02,1.15699
2012-09-03,0.62973136
2012-09-04,0.801
2012-09-05,0.79047816
2012-09-06,0.75
2012-09-07,1.07066
2012-09-08,1.5
2012-09-09,1.52069196
2012-09-10,0.66778266
2012-09-11,0.4995
2012-09-12,0.52689077
2012-09-13,0.5111
2012-09-14,0.5513286
2012-09-15,0.5
2012-09-16,0.4502977
2012-09-17,0.7
2012-09-18,0.86
2012-09-19,1.01000349
2012-09-20,1.0582
2012-09-21,0.7003468
2012-09-22,0.7995392
2012-09-23,0.5019632
2012-09-24,0.5
2012-09-25,1.0918
2012-09-26,0.67646854
2012-09-27,0.74649999
2012-09-28,0.5167228
2012-09-29,0.86755226
2012-09-30,0.70688562
2012-10-01,0.734302
2012-10-02,1.0276
2012-10-03,1.16749478
2012-10-04,0.9995
2012-10-05,0.6151
2012-10-06,0.42209942
2012-10-07,0.65652266
2012-10-08,0.5291412
2012-10-09,0.8955
2012-10-10,0.7995
2012-10-11,0.77424997
2012-10-12,0.9723718
2012-10-13,0.77449992
2012-10-14,0.804
2012-10-15,0.9995
2012-10-16,0.59568527
2012-10-17,0.9995
2012-10-18,1.0
2012-10-19,0.9995
2012-10-20,0.77906084
2012-10-21,0.491
2012-10-22,0.52665675
2012-10-23,0.67
2012-10-24,1.0
2012-10-25,1.03378146
2012-10-26,1.999
2012-10-27,2.01062412
2012-10-28,1.14525
2012-10-29,1.01009798
2012-10-30,0.89
2012-10-31,1.03872734
2012-11-01,1.14615518
2012-11-02,0.95925632
2012-11-03,1.0
2012-11-04,0.91056284
2012-11-05,0.799
2012-11-06,0.79455256
2012-11-07,0.97424376
2012-11-08,1.09799997
2012-11-09,1.45312997
2012-11-10,0.69674334
2012-11-11,0.999
2012-11-12,0.89527373
2012-11-13,0.81079413
2012-11-14,0.6938
2012-11-15,0.8103
2012-11-16,0.81853899
2012-11-17,0.921
2012-11-18,0.97305912
2012-11-19,0.68165981
2012-11-20,0.90875028
2012-11-21,0.64081539
2012-11-22,0.82676536
2012-11-23,0.59
2012-11-24,1.0
2012-11-25,0.62231853
2012-11-26,0.68624123
2012-11-27,1.22955767
2012-11-28,0.999
2012-11-29,0.57097939
2012-11-30,0.84899999
2012-12-01,0.78564773
2012-12-02,0.89447365
2012-12-03,1.31273314
2012-12-04,0.999
2012-12-05,1.001424
2012-12-06,2.06692356
2012-12-07,0.97785756
2012-12-08,0.93218968
2012-12-09,0.73897279
2012-12-10,1.0
2012-12-11,0.86330952
2012-12-12,0.8821149
2012-12-13,0.88022487
2012-12-14,0.678
2012-12-15,0.63913116
2012-12-16,0.5
2012-12-17,0.59250793
2012-12-18,0.60780056
2012-12-19,0.58812174
2012-12-20,0.72885692
2012-12-21,0.58467733
2012-12-22,0.62319998
2012-12-23,0.53552061
2012-12-24,0.89833337
2012-12-25,0.82194976
2012-12-26,0.64851143
2012-12-27,0.374044
2012-12-28,0.4
2012-12-29,0.33125225
2012-12-30,0.45178316
2012-12-31,0.7
2013-01-01,0.6055
2013-01-02,0.999
2013-01-03,0.874
2013-01-04,0.51772657
2013-01-05,0.7434183
2013-01-06,0.97714006
2013-01-07,0.8
2013-01-08,0.96990896
2013-01-09,0.96315034
2013-01-10,0.61191046
2013-01-11,0.61653015
2013-01-12,0.50728991
2013-01-13,0.4
2013-01-14,0.38131042
2013-01-15,0.76162118
2013-01-16,0.799
2013-01-17,0.72231906
2013-01-18,0.93529573
2013-01-19,0.25
2013-01-20,0.8000392
2013-01-21,0.77781964
2013-01-22,1.02955756
2013-01-23,1.0
2013-01-24,0.999
2013-01-25,0.78144181
2013-01-26,0.59500441
2013-01-27,0.6001544
2013-01-28,0.65134397
2013-01-29,0.999
2013-01-30,0.8593351
2013-01-31,0.55449998
2013-02-01,0.5
2013-02-02,0.77225584
2013-02-03,0.52051603
2013-02-04,0.65
2013-02-05,0.99259
2013-02-06,0.97627546
2013-02-07,0.500462
2013-02-08,0.57418828
2013-02-09,0.6
2013-02-10,0.50412898
2013-02-11,0.55559712
2013-02-12,0.5309088
2013-02-13,0.499962
2013-02-14,0.75348875
2013-02-15,0.5
2013-02-16,0.42581
2013-02-17,0.45
2013-02-18,0.53122252
2013-02-19,0.45
2013-02-20,0.399
2013-02-21,0.4
2013-02-22,0.39344996
2013-02-23,0.4
2013-02-24,0.318962
2013-02-25,0.25107777
2013-02-26,0.397348
2013-02-27,0.32
2013-02-28,0.36228711
2013-03-01,0.34294245
2013-03-02,0.23
2013-03-03,0.21406542
2013-03-04,0.30765997
2013-03-05,0.51924998
2013-03-06,0.41879992
2013-03-07,0.33249998
2013-03-08,0.4
2013-03-09,0.32
2013-03-10,0.25
2013-03-11,0.340775
2013-03-12,0.5356567
2013-03-13,0.5261401
2013-03-14,0.4395
2013-03-15,0.4101
2013-03-16,0.64525
2013-03-17,0.62
2013-03-18,0.999
2013-03-19,0.93345
2013-03-20,0.67608
2013-03-21,0.5
2013-03-22,0.4
2013-03-23,0.27
2013-03-24,0.399
2013-03-25,0.499
2013-03-26,0.61288208
2013-03-27,0.553
2013-03-28,0.42622809
2013-03-29,0.52449765
2013-03-30,0.32081568
2013-03-31,0.32081568
2013-04-01,0.51009287
2013-04-02,0.63479007
2013-04-03,0.639
2013-04-04,0.647195
2013-04-05,0.66575824
2013-04-06,0.5095
2013-04-07,0.242303
2013-04-08,0.55950965
2013-04-09,0.6288737
2013-04-10,1.01062777
2013-04-11,0.67862919
2013-04-12,0.8425924
2013-04-13,0.51589079
2013-04-14,0.23
2013-04-15,0.5866
2013-04-16,0.54021269
2013-04-17,0.56578224
2013-04-18,0.71363109
2013-04-19,0.63485
2013-04-20,0.3
2013-04-21,0.39057741
2013-04-22,0.51448109
2013-04-23,0.41338805
2013-04-24,0.38347
2013-04-25,0.499
2013-04-26,0.50048872
2013-04-27,0.5
2013-04-28,0.369402
2013-04-29,0.46434016
2013-04-30,0.18706306
2013-05-01,0.27821568
2013-05-02,0.3040243
2013-05-03,0.29004376
2013-05-04,0.16218136
2013-05-05,0.199
2013-05-06,0.21774
2013-05-07,0.28461848
2013-05-08,0.32068136
2013-05-09,0.21320386
2013-05-10,0.21322362
2013-05-11,0.1806384
2013-05-12,0.18890677
2013-05-13,0.26255478
2013-05-14,0.223
2013-05-15,0.299
2013-05-16,0.2522742
2013-05-17,0.25
2013-05-18,0.3495
2013-05-19,0.29351972
2013-05-20,0.4840392
2013-05-21,0.58594788
2013-05-22,0.474745
2013-05-23,0.5
2013-05-24,0.5460382
2013-05-25,0.3111871
2013-05-26,0.37707399
2013-05-27,0.3152457
2013-05-28,0.5
2013-05-29,0.50224797
2013-05-30,0.5
2013-05-31,0.5
2013-06-01,0.28843279
2013-06-02,0.32000413
2013-06-03,0.4
2013-06-04,0.51080839
2013-06-05,0.37940407
2013-06-06,0.37500234
2013-06-07,0.58209937
2013-06-08,0.33408104
2013-06-09,0.35567
2013-06-10,0.56500562
2013-06-11,0.5246598
2013-06-12,0.59496616
2013-06-13,0.70404485
2013-06-14,0.69486339
2013-06-15,0.6292
2013-06-16,0.3082564
2013-06-17,0.4995
2013-06-18,0.54274082
2013-06-19,0.51558852
2013-06-20,0.41649
2013-06-21,0.60539493
2013-06-22,0.499
2013-06-23,0.4
2013-06-24,0.6065
2013-06-25,0.6014044
2013-06-26,0.52325623
2013-06-27,0.5
2013-06-28,0.52484251
2013-06-29,0.6384941
2013-06-30,0.52375163
2013-07-01,0.980774
2013-07-02,0.79323949
2013-07-03,1.09346844
2013-07-04,0.91498199
2013-07-05,0.81330433
2013-07-06,0.57
2013-07-07,0.57574412
2013-07-08,0.78336
2013-07-09,1.011424
2013-07-10,1.01002019
2013-07-11,1.28722345
2013-07-12,1.0
2013-07-13,0.699
2013-07-14,0.3909
2013-07-15,0.65177188
2013-07-16,0.9965
2013-07-17,0.79222112
2013-07-18,0.78289516
2013-07-19,0.8
2013-07-20,0.3526566
2013-07-21,0.53194181
2013-07-22,0.68811762
2013-07-23,0.86024713
2013-07-24,0.58
2013-07-25,0.6197843
2013-07-26,0.86146188
2013-07-27,0.37827177
2013-07-28,0.38
2013-07-29,0.75631126
2013-07-30,0.8339871
2013-07-31,0.65887958
2013-08-01,0.6252
2013-08-02,0.62440853
2013-08-03,0.27033722
2013-08-04,0.29808824
2013-08-05,0.5
2013-08-06,0.24891437
2013-08-07,0.25345637
2013-08-08,0.189
2013-08-09,0.308889
2013-08-10,0.32118121
2013-08-11,0.3557042
2013-08-12,0.41047
2013-08-13,0.4899
2013-08-14,0.6
2013-08-15,0.3120196
2013-08-16,0.22036833
2013-08-17,0.099
2013-08-18,0.12027242
2013-08-19,0.14994499
2013-08-20,0.17
2013-08-21,0.266
2013-08-22,0.21232812
2013-08-23,0.254
2013-08-24,0.204985
2013-08-25,0.24043863
2013-08-26,0.31052379
2013-08-27,0.41047
2013-08-28,0.28353702
2013-08-29,0.2
2013-08-30,0.37840565
2013-08-31,0.41047
2013-09-01,0.199
2013-09-02,0.2222
2013-09-03,0.3
2013-09-04,0.36666625
2013-09-05,0.15
2013-09-06,0.1933626
2013-09-07,0.14064955
2013-09-08,0.11902035
2013-09-09,0.1195
2013-09-10,0.15693335
2013-09-11,0.389612
2013-09-12,0.36273044
2013-09-13,0.4995
2013-09-14,0.199
2013-09-15,0.11569234
2013-09-16,0.28078
2013-09-17,0.1616222
2013-09-18,0.20965152
2013-09-19,0.2864
2013-09-20,0.296
2013-09-21,0.231
2013-09-22,0.18487455
2013-09-23,0.2775
2013-09-24,0.299
2013-09-25,0.399
2013-09-26,0.41442369
2013-09-27,0.59345012
2013-09-28,0.4877791
2013-09-29,0.48493762
2013-09-30,0.7873
2013-10-01,0.501974
2013-10-02,0.5782086
2013-10-03,0.3695
2013-10-04,0.374
2013-10-05,0.2264612
2013-10-06,0.244
2013-10-07,0.42039615
2013-10-08,0.26
2013-10-09,0.3
2013-10-10,0.2295
2013-10-11,0.29375544
2013-10-12,0.1949
2013-10-13,0.2107
2013-10-14,0.25
2013-10-15,0.39750767
2013-10-16,0.53861404
2013-10-17,0.3508
2013-10-18,0.24136384
2013-10-19,0.3913
2013-10-20,0.24928714
2013-10-21,0.33165912
2013-10-22,0.4820016
2013-10-23,0.5
2013-10-24,0.34011506
2013-10-25,0.26439424
2013-10-26,0.19962797
2013-10-27,0.19647454
2013-10-28,0.23584652
2013-10-29,0.275445
2013-10-30,0.39852331
2013-10-31,0.1716177
2013-11-01,0.5
2013-11-02,0.2799
2013-11-03,0.34
2013-11-04,0.62213927
2013-11-05,0.6897
2013-11-06,0.56
2013-11-07,0.73462783
2013-11-08,0.79000064
2013-11-09,0.89775522
2013-11-10,0.2763904
2013-11-11,0.199904
2013-11-12,0.30959
2013-11-13,0.27405826
2013-11-14,0.2989546
2013-11-15,0.32427188
2013-11-16,0.49
2013-11-17,0.37464822
2013-11-18,0.72218316
2013-11-19,0.81657239
2013-11-20,0.57776688
2013-11-21,0.4202
2013-11-22,0.38276869
2013-11-23,0.33296
2013-11-24,0.19409801
2013-11-25,0.1999
2013-11-26,0.39876818
2013-11-27,0.52691047
2013-11-28,0.50193804
2013-11-29,0.499
2013-11-30,0.35263157
2013-12-01,0.442494
2013-12-02,0.3902439
2013-12-03,0.28999222
2013-12-04,0.2988
2013-12-05,0.4994
2013-12-06,0.3585527
2013-12-07,0.54150991
2013-12-08,0.26
2013-12-09,0.25
2013-12-10,0.23422223
2013-12-11,0.225
2013-12-12,0.2
2013-12-13,0.22024
2013-12-14,0.21586679
2013-12-15,0.1995724
2013-12-16,0.27703
2013-12-17,0.30094746
2013-12-18,0.4999
2013-12-19,0.30627
2013-12-20,0.23863002
2013-12-21,0.1703
2013-12-22,0.14698947
2013-12-23,0.1509
2013-12-24,0.1669
2013-12-25,0.23984458
2013-12-26,0.20876375
2013-12-27,0.18522828
2013-12-28,0.12459153
2013-12-29,0.1149473
2013-12-30,0.18067528
2013-12-31,0.17
2014-01-01,0.1364455
2014-01-02,0.21595733
2014-01-03,0.233225
2014-01-04,0.19387422
2014-01-05,0.223041
2014-01-06,0.22418372
2014-01-07,0.2
2014-01-08,0.1725
2014-01-09,0.1649
2014-01-10,0.16820515
2014-01-11,0.15219613
2014-01-12,0.13273321
2014-01-13,0.1687
2014-01-14,0.18186785
2014-01-15,0.158472
2014-01-16,0.15658468
2014-01-17,0.15
2014-01-18,0.13129431
2014-01-19,0.1436
2014-01-20,0.18113049
2014-01-21,0.16468512
2014-01-22,0.1657
2014-01-23,0.17746229
2014-01-24,0.2057
2014-01-25,0.16403882
2014-01-26,0.1901109
2014-01-27,0.1985
2014-01-28,0.20938443
2014-01-29,0.19023762
2014-01-30,0.1775
2014-01-31,0.202433
2014-02-01,0.14539378
2014-02-02,0.14814627
2014-02-03,0.135
2014-02-04,0.15873031
2014-02-05,0.16756056
2014-02-06,0.1785
2014-02-07,0.2652801
2014-02-08,0.16013572
2014-02-09,0.16216668
2014-02-10,0.23850149
2014-02-11,0.1999
2014-02-12,0.17495795
2014-02-13,0.2078
2014-02-14,0.22800231
2014-02-15,0.1625578
2014-02-16,0.16
2014-02-17,0.1658
2014-02-18,0.15
2014-02-19,0.17139689
2014-02-20,0.22356652
2014-02-21,0.3159
2014-02-22,0.2
2014-02-23,0.206
2014-02-24,0.25040098
2014-02-25,0.3998
2014-02-26,0.27669488
2014-02-27,0.19
2014-02-28,0.21638621
2014-03-01,0.2
2014-03-02,0.16695664
2014-03-03,0.25631148
2014-03-04,0.24337568
2014-03-05,0.1931694
2014-03-06,0.16291661
2014-03-07,0.15570107
2014-03-08,0.1999
2014-03-09,0.17999328
2014-03-10,0.15844
2014-03-11,0.1429
2014-03-12,0.158
2014-03-13,0.14894918
2014-03-14,0.11
2014-03-15,0.10040594
2014-03-16,0.08679707
2014-03-17,0.1064192
2014-03-18,0.15178182
2014-03-19,0.1
2014-03-20,0.12283314
2014-03-21,0.1198
2014-03-22,0.12657481
2014-03-23,0.09989
2014-03-24,0.1213825
2014-03-25,0.15685488
2014-03-26,0.13955338
2014-03-27,0.16613387
2014-03-28,0.1516159
2014-03-29,0.12274305
2014-03-30,0.12191902
2014-03-31,0.1674345
2014-04-01,0.2
2014-04-02,0.1993
2014-04-03,0.16824684
2014-04-04,0.1784
2014-04-05,0.1186619
2014-04-06,0.11934521
2014-04-07,0.14938
2014-04-08,0.17774239
2014-04-09,0.15855757
2014-04-10,0.2282429
2014-04-11,0.2001749
2014-04-12,0.13647986
2014-04-13,0.1097
2014-04-14,0.199
2014-04-15,0.1827833
2014-04-16,0.19035761
2014-04-17,0.14975278
2014-04-18,0.1699
2014-04-19,0.12216712
2014-04-20,0.12335543
2014-04-21,0.11585563
2014-04-22,0.11
2014-04-23,0.087
2014-04-24,0.1039
2014-04-25,0.10682701
2014-04-26,0.119
2014-04-27,0.1016493
2014-04-28,0.142
2014-04-29,0.11897467
2014-04-30,0.1454428
2014-05-01,0.11766455
2014-05-02,0.10924342
2014-05-03,0.1
2014-05-04,0.0976
2014-05-05,0.11190571
2014-05-06,0.1165
2014-05-07,0.127
2014-05-08,0.108
2014-05-09,0.11415452
2014-05-10,0.1
2014-05-11,0.09270527
2014-05-12,0.1027615
2014-05-13,0.11355222
2014-05-14,0.11240754
2014-05-15,0.10008479
2014-05-16,0.1178
2014-05-17,0.1099
2014-05-18,0.10814301
2014-05-19,0.144275
2014-05-20,0.17131348
2014-05-21,0.16824992
2014-05-22,0.15
2014-05-23,0.17297894
2014-05-24,0.12178922
2014-05-25,0.13399966
2014-05-26,0.1443
2014-05-27,0.15541508
2014-05-28,0.1327514
2014-05-29,0.1373
2014-05-30,0.16804313
2014-05-31,0.14079063
2014-06-01,0.16361181
2014-06-02,0.16214
2014-06-03,0.17515719
2014-06-04,0.16798065
2014-06-05,0.14616628
2014-06-06,0.14175036
2014-06-07,0.1299
2014-06-08,0.11
2014-06-09,0.1464
2014-06-10,0.1392
2014-06-11,0.14
2014-06-12,0.1672801
2014-06-13,0.11590044
2014-06-14,0.11
2014-06-15,0.08936071
2014-06-16,0.11117456
2014-06-17,0.10981093
2014-06-18,0.12317293
2014-06-19,0.1131487
2014-06-20,0.1294
2014-06-21,0.11078
2014-06-22,0.1
2014-06-23,0.13991238
2014-06-24,0.1233
2014-06-25,0.11959
2014-06-26,0.1119
2014-06-27,0.12478927
2014-06-28,0.09718
2014-06-29,0.0860217
2014-06-30,0.12649421
2014-07-01,0.15089379
2014-07-02,0.14134122
2014-07-03,0.1246
2014-07-04,0.1
2014-07-05,0.06673039
2014-07-06,0.06672862
2014-07-07,0.10077492
2014-07-08,0.099
2014-07-09,0.09923
2014-07-10,0.1119892
2014-07-11,0.14186258
2014-07-12,0.09778759
2014-07-13,0.08077451
2014-07-14,0.10633788
2014-07-15,0.0999
2014-07-16,0.10752688
2014-07-17,0.1007
2014-07-18,0.10278206
2014-07-19,0.05022807
2014-07-20,0.06888792
2014-07-21,0.1076
2014-07-22,0.11019
2014-07-23,0.12300647
2014-07-24,0.13618609
2014-07-25,0.1349
2014-07-26,0.08382791
2014-07-27,0.08090139
2014-07-28,0.13515582
2014-07-29,0.11989
2014-07-30,0.14033528
2014-07-31,0.11206897
2014-08-01,0.1199
2014-08-02,0.10089612
2014-08-03,0.0814125
2014-08-04,0.11421102
2014-08-05,0.13617743
2014-08-06,0.10074497
2014-08-07,0.10433967
2014-08-08,0.10133594
2014-08-09,0.0868
2014-08-10,0.08457374
2014-08-11,0.10016376
2014-08-12,0.11347517
2014-08-13,0.135
2014-08-14,0.15680775
2014-08-15,0.10056241
2014-08-16,0.07275416
2014-08-17,0.09363463
2014-08-18,0.1596
2014-08-19,0.15435267
2014-08-20,0.1756884
2014-08-21,0.16045838
2014-08-22,0.14692878
2014-08-23,0.11900535
2014-08-24,0.1199
2014-08-25,0.14271397
2014-08-26,0.15751442
2014-08-27,0.13397304
2014-08-28,0.1296
2014-08-29,0.1299
2014-08-30,0.09979243
2014-08-31,0.11044619
2014-09-01,0.11000001
2014-09-02,0.1263163
2014-09-03,0.1336
2014-09-04,0.14256619
2014-09-05,0.12943698
2014-09-06,0.1
2014-09-07,0.08332196
2014-09-08,0.11308408
2014-09-09,0.11742
2014-09-10,0.132
2014-09-11,0.13716422
2014-09-12,0.14178897
2014-09-13,0.11608017
2014-09-14,0.08873645
2014-09-15,0.11535044
2014-09-16,0.10107488
2014-09-17,0.14014136
2014-09-18,0.2055
2014-09-19,0.21498668
2014-09-20,0.12827426
2014-09-21,0.12
2014-09-22,0.19235536
2014-09-23,0.189
2014-09-24,0.16326831
2014-09-25,0.1448672
2014-09-26,0.15167456
2014-09-27,0.10608532
2014-09-28,0.10511105
2014-09-29,0.2
2014-09-30,0.20558535
2014-10-01,0.17775362
2014-10-02,0.18538135
2014-10-03,0.1602
2014-10-04,0.1499
2014-10-05,0.17666576
2014-10-06,0.19877251
2014-10-07,0.20000023
2014-10-08,0.19582392
2014-10-09,0.1887134
2014-10-10,0.17792344
2014-10-11,0.15912123
2014-10-12,0.12820227
2014-10-13,0.1674416
2014-10-14,0.18488905
2014-10-15,0.18458
2014-10-16,0.1599
2014-10-17,0.17084748
2014-10-18,0.12967708
2014-10-19,0.11386043
2014-10-20,0.16000251
2014-10-21,0.18635962
2014-10-22,0.1525
2014-10-23,0.16137863
2014-10-24,0.13490031
2014-10-25,0.13120026
2014-10-26,0.0779
2014-10-27,0.13367449
2014-10-28,0.12539184
2014-10-29,0.12195698
2014-10-30,0.10489
2014-10-31,0.11425146
2014-11-01,0.11017485
2014-11-02,0.0697961
2014-11-03,0.1069
2014-11-04,0.14481768
2014-11-05,0.1499
2014-11-06,0.11367834
2014-11-07,0.12181521
2014-11-08,0.09
2014-11-09,0.07354396
2014-11-10,0.12587119
2014-11-11,0.11015142
2014-11-12,0.13746016
2014-11-13,0.1504637
2014-11-14,0.1238
2014-11-15,0.10309522
2014-11-16,0.08671094
2014-11-17,0.12987489
2014-11-18,0.12238412
2014-11-19,0.14350566
2014-11-20,0.14168532
2014-11-21,0.13861935
2014-11-22,0.1229808
2014-11-23,0.0644
2014-11-24,0.1076
2014-11-25,0.13115
2014-11-26,0.1427
2014-11-27,0.14983458
2014-11-28,0.18893337
2014-11-29,0.1581208
2014-11-30,0.11248742
2014-12-01,0.1624186
2014-12-02,0.20488367
2014-12-03,0.15298497
2014-12-04,0.145
2014-12-05,0.15481684
2014-12-06,0.11635242
2014-12-07,0.123
2014-12-08,0.18886057
2014-12-09,0.2
2014-12-10,0.21975174
2014-12-11,0.19583158
2014-12-12,0.15778988
2014-12-13,0.166445
2014-12-14,0.118
2014-12-15,0.15806659
2014-12-16,0.20603384
2014-12-17,0.1889
2014-12-18,0.26722166
2014-12-19,0.25319126
2014-12-20,0.22457708
2014-12-21,0.1236357
2014-12-22,0.22507162
2014-12-23,0.20121951
2014-12-24,0.15651364
2014-12-25,0.13849039
2014-12-26,0.1699
2014-12-27,0.25
2014-12-28,0.17871181
2014-12-29,0.213012
2014-12-30,0.30343815
2014-12-31,0.25872602
2015-01-01,0.15847266
2015-01-02,0.24656939
2015-01-03,0.19999
2015-01-04,0.19476
2015-01-05,0.2
2015-01-06,0.21632536
2015-01-07,0.23550819
2015-01-08,0.14165725
2015-01-09,0.15
2015-01-10,0.11051726
2015-01-11,0.10066736
2015-01-12,0.1399
2015-01-13,0.33254657
2015-01-14,0.33
2015-01-15,0.45208725
2015-01-16,0.34359598
2015-01-17,0.252
2015-01-18,0.23167876
2015-01-19,0.2488239
2015-01-20,0.24
2015-01-21,0.236978
2015-01-22,0.24485586
2015-01-23,0.2195486
2015-01-24,0.16653491
2015-01-25,0.1267
2015-01-26,0.23848542
2015-01-27,0.2
2015-01-28,0.2057
2015-01-29,0.23825886
2015-01-30,0.27272727
2015-01-31,0.17470522
2015-02-01,0.19982366
2015-02-02,0.2407
2015-02-03,0.24501977
2015-02-04,0.21987941
2015-02-05,0.20302776
2015-02-06,0.21995812
2015-02-07,0.129
2015-02-08,0.11038279
2015-02-09,0.11188208
2015-02-10,0.14155869
2015-02-11,0.1434409
2015-02-12,0.19378
2015-02-13,0.12824572
2015-02-14,0.09449578
2015-02-15,0.10190822
2015-02-16,0.1062905
2015-02-17,0.13867
2015-02-18,0.124489
2015-02-19,0.11589883
2015-02-20,0.12
2015-02-21,0.1169
2015-02-22,0.10090819
2015-02-23,0.12380305
2015-02-24,0.13802642
2015-02-25,0.13011542
2015-02-26,0.12505958
2015-02-27,0.1523
2015-02-28,0.10653058
2015-03-01,0.1012078
2015-03-02,0.16350859
2015-03-03,0.17432472
2015-03-04,0.14657681
2015-03-05,0.14057976
2015-03-06,0.14506422
2015-03-07,0.07268116
2015-03-08,0.08245547
2015-03-09,0.11888408
2015-03-10,0.14040615
2015-03-11,0.1148531
2015-03-12,0.14793723
2015-03-13,0.125
2015-03-14,0.09550822
2015-03-15,0.07393839
2015-03-16,0.11371614
2015-03-17,0.12112403
2015-03-18,0.134
2015-03-19,0.107469
2015-03-20,0.10442726
2015-03-21,0.096754
2015-03-22,0.08680389
2015-03-23,0.1138
2015-03-24,0.15
2015-03-25,0.1393095
2015-03-26,0.11355317
2015-03-27,0.14884289
2015-03-28,0.0999
2015-03-29,0.0882
2015-03-30,0.13218365
2015-03-31,0.1499
2015-04-01,0.15830137
2015-04-02,0.12720819
2015-04-03,0.1
2015-04-04,0.07552198
2015-04-05,0.0638
2015-04-06,0.09653755
2015-04-07,0.12926721
2015-04-08,0.12561827
2015-04-09,0.10627241
2015-04-10,0.11615832
2015-04-11,0.1
2015-04-12,0.1
2015-04-13,0.114706
2015-04-14,0.1254
2015-04-15,0.1
2015-04-16,0.10842145
2015-04-17,0.12746371
2015-04-18,0.07174975
2015-04-19,0.09348043
2015-04-20,0.11166696
2015-04-21,0.1811354
2015-04-22,0.16407204
2015-04-23,0.18
2015-04-24,0.16714234
2015-04-25,0.10730771
2015-04-26,0.11242071
2015-04-27,0.17410714
2015-04-28,0.18190704
2015-04-29,0.16113656
2015-04-30,0.143466
2015-05-01,0.1176
2015-05-02,0.06568583
2015-05-03,0.10046992
2015-05-04,0.115
2015-05-05,0.1384
2015-05-06,0.13097794
2015-05-07,0.1306305
2015-05-08,0.10958597
2015-05-09,0.08233879
2015-05-10,0.1248
2015-05-11,0.20217841
2015-05-12,0.27106145
2015-05-13,0.19359092
2015-05-14,0.19472815
2015-05-15,0.14988209
2015-05-16,0.1
2015-05-17,0.0912
2015-05-18,0.13971
2015-05-19,0.26294572
2015-05-20,0.21737201
2015-05-21,0.21940068
2015-05-22,0.18
2015-05-23,0.1498
2015-05-24,0.092412
2015-05-25,0.12533408
2015-05-26,0.1899
2015-05-27,0.20770036
2015-05-28,0.1786
2015-05-29,0.11
2015-05-30,0.05127488
2015-05-31,0.14718505
2015-06-01,0.28288931
2015-06-02,0.26595
2015-06-03,0.178
2015-06-04,0.14210496
2015-06-05,0.20674936
2015-06-06,0.2131
2015-06-07,0.12644711
2015-06-08,0.13561146
2015-06-09,0.2199996
2015-06-10,0.26512086
2015-06-11,0.30584405
2015-06-12,0.26121
2015-06-13,0.2032
2015-06-14,0.15178608
2015-06-15,0.192
2015-06-16,0.20495867
2015-06-17,0.27014067
2015-06-18,0.21873627
2015-06-19,0.16373934
2015-06-20,0.14989
2015-06-21,0.11227489
2015-06-22,0.2461434
2015-06-23,0.20050819
2015-06-24,0.1818647
2015-06-25,0.1567
2015-06-26,0.17946971
2015-06-27,0.13286946
2015-06-28,0.14371
2015-06-29,0.25043419
2015-06-30,0.5698
2015-07-01,0.21749
2015-07-02,0.32196275
2015-07-03,0.201672
2015-07-04,0.1173156
2015-07-05,0.37365054
2015-07-06,0.3999
2015-07-07,0.4382
2015-07-08,0.51474
2015-07-09,0.50258585
2015-07-10,0.47999755
2015-07-11,0.62367751
2015-07-12,0.42914018
2015-07-13,0.22650922
2015-07-14,0.20413759
2015-07-15,0.1718154
2015-07-16,0.188
2015-07-17,0.12017194
2015-07-18,0.032505
2015-07-19,0.02721321
2015-07-20,0.12789236
2015-07-21,0.09775244
2015-07-22,0.10979
2015-07-23,0.1850354
2015-07-24,0.1926
2015-07-25,0.10223408
2015-07-26,0.13685619
2015-07-27,0.18227567
2015-07-28,0.1769
2015-07-29,0.2291214
2015-07-30,0.2516154
2015-07-31,0.21114121
2015-08-01,0.24163282
2015-08-02,0.0909
2015-08-03,0.1625
2015-08-04,0.24441744
2015-08-05,0.28343825
2015-08-06,0.1906857
2015-08-07,0.1817
2015-08-08,0.12184782
2015-08-09,0.1328865
2015-08-10,0.18077
2015-08-11,0.1999
2015-08-12,0.1987
2015-08-13,0.1799
2015-08-14,0.17473
2015-08-15,0.11558554
2015-08-16,0.14139084
2015-08-17,0.20446671
2015-08-18,0.22719361
2015-08-19,0.23649538
2015-08-20,0.21
2015-08-21,0.20949925
2015-08-22,0.12118931
2015-08-23,0.10968929
2015-08-24,0.20390365
2015-08-25,0.22736391
2015-08-26,0.19671094
2015-08-27,0.19059406
2015-08-28,0.21316536
2015-08-29,0.11820585
2015-08-30,0.13193192
2015-08-31,0.1887336
2015-09-01,0.2083
2015-09-02,0.48620321
2015-09-03,0.20144156
2015-09-04,0.19823087
2015-09-05,0.08524785
2015-09-06,0.1109
2015-09-07,0.14279957
2015-09-08,0.1921456
2015-09-09,0.17998962
2015-09-10,0.13408
2015-09-11,0.0599
2015-09-12,0.0387485
2015-09-13,0.07791016
2015-09-14,0.11811123
2015-09-15,0.1603182
2015-09-16,0.15542656
2015-09-17,0.11927709
2015-09-18,0.10297431
2015-09-19,0.11756635
2015-09-20,0.1277709
2015-09-21,0.15604396
2015-09-22,0.19654502
2015-09-23,0.18184863
2015-09-24,0.21179061
2015-09-25,0.2
2015-09-26,0.11873353
2015-09-27,0.12365528
2015-09-28,0.20884674
2015-09-29,0.21153
2015-09-30,0.1989301
2015-10-01,0.2385703
2015-10-02,0.20686505
2015-10-03,0.12540233
2015-10-04,0.13005539
2015-10-05,0.20544183
2015-10-06,0.2799
2015-10-07,0.21818431
2015-10-08,0.20963975
2015-10-09,0.21042377
2015-10-10,0.1171605
2015-10-11,0.18216391
2015-10-12,0.24399462
2015-10-13,0.2
2015-10-14,0.23854863
2015-10-15,0.2499
2015-10-16,0.2613643
2015-10-17,0.16466261
2015-10-18,0.15851855
2015-10-19,0.25011049
2015-10-20,0.21243445
2015-10-21,0.218487
2015-10-22,0.25
2015-10-23,0.18756514
2015-10-24,0.13095929
2015-10-25,0.2
2015-10-26,0.28561923
2015-10-27,0.258984
2015-10-28,0.24
2015-10-29,0.22099202
2015-10-30,0.2508544
2015-10-31,0.1514681
2015-11-01,0.2676
2015-11-02,0.23595339
2015-11-03,0.26826517
2015-11-04,0.3
2015-11-05,0.24006728
2015-11-06,0.21324803
2015-11-07,0.13475606
2015-11-08,0.14
2015-11-09,0.19993821
2015-11-10,0.20514993
2015-11-11,0.2365273
2015-11-12,0.23368986
2015-11-13,0.20006019
2015-11-14,0.15060298
2015-11-15,0.19138004
2015-11-16,0.23996241
2015-11-17,0.18199458
2015-11-18,0.19925034
2015-11-19,0.19879912
2015-11-20,0.16753494
2015-11-21,0.12918432
2015-11-22,0.15199588
2015-11-23,0.20179304
2015-11-24,0.19024789
2015-11-25,0.20640884
2015-11-26,0.23986219
2015-11-27,0.24631408
2015-11-28,0.14026425
2015-11-29,0.16806687
2015-11-30,0.24605263
2015-12-01,0.26602518
2015-12-02,0.26465211
2015-12-03,0.19133524
2015-12-04,0.13434402
2015-12-05,0.20276829
2015-12-06,0.2787068
2015-12-07,0.2899
2015-12-08,0.25326073
2015-12-09,0.33836858
2015-12-10,0.26257
2015-12-11,0.35707472
2015-12-12,0.23154762
2015-12-13,0.35308927
2015-12-14,0.291903
2015-12-15,0.26590829
2015-12-16,0.27
2015-12-17,0.29369192
2015-12-18,0.28496334
2015-12-19,0.19309938
2015-12-20,0.26146682
2015-12-21,0.29985665
2015-12-22,0.3
2015-12-23,0.3092
2015-12-24,0.40250784
2015-12-25,0.42689369
2015-12-26,0.13
2015-12-27,0.09456565
2015-12-28,0.13144923
2015-12-29,0.12951207
2015-12-30,0.11273349
2015-12-31,0.12945633
2016-01-01,0.11634325
2016-01-02,0.08314
2016-01-03,0.10631544
2016-01-04,0.10048958
2016-01-05,0.11836262
2016-01-06,0.11644155
2016-01-07,0.11501387
2016-01-08,0.10454766
2016-01-09,0.05605005
2016-01-10,0.072797
2016-01-11,0.11053929
2016-01-12,0.0998
2016-01-13,0.1
2016-01-14,0.11584263
2016-01-15,0.12184917
2016-01-16,0.0902
2016-01-17,0.09570822
2016-01-18,0.1038988
2016-01-19,0.12822769
2016-01-20,0.11840819
2016-01-21,0.13480392
2016-01-22,0.12728719
2016-01-23,0.12958839
2016-01-24,0.19294093
2016-01-25,0.1121593
2016-01-26,0.1719
2016-01-27,0.178
2016-01-28,0.130501
2016-01-29,0.17805714
2016-01-30,0.2
2016-01-31,0.16910161
2016-02-01,0.2319056
2016-02-02,0.18812606
2016-02-03,0.13515705
2016-02-04,0.21534292
2016-02-05,0.22657714
2016-02-06,0.24218727
2016-02-07,0.21171302
2016-02-08,0.29439112
2016-02-09,0.38729723
2016-02-10,0.36044314
2016-02-11,0.23634454
2016-02-12,0.21259256
2016-02-13,0.21648986
2016-02-14,0.22584783
2016-02-15,0.27593049
2016-02-16,0.27026709
2016-02-17,0.2491
2016-02-18,0.24
2016-02-19,0.25
2016-02-20,0.260087
2016-02-21,0.27325785
2016-02-22,0.2678
2016-02-23,0.26100756
2016-02-24,0.25355465
2016-02-25,0.23658639
2016-02-26,0.23216267
2016-02-27,0.147945
2016-02-28,0.362718
2016-02-29,0.48720525
2016-03-01,0.42487655
2016-03-02,0.399674
2016-03-03,0.257
2016-03-04,0.23920011
2016-03-05,0.62007302
2016-03-06,0.17012893
2016-03-07,0.19193716
2016-03-08,0.19484777
2016-03-09,0.19290927
2016-03-10,0.14604971
2016-03-11,0.164717
2016-03-12,0.159006
2016-03-13,0.13144366
2016-03-14,0.16753
2016-03-15,0.16821462
2016-03-16,0.258011
2016-03-17,0.2079713
2016-03-18,0.17156862
2016-03-19,0.14236937
2016-03-20,0.15
2016-03-21,0.1498418
2016-03-22,0.13245
2016-03-23,0.12957538
2016-03-24,0.1502
2016-03-25,0.1317
2016-03-26,0.11947271
2016-03-27,0.12465
2016-03-28,0.1327839
2016-03-29,0.12928752
2016-03-30,0.12642554
2016-03-31,0.13816
2016-04-01,0.13621134
2016-04-02,0.103381
2016-04-03,0.102536
2016-04-04,0.12070346
2016-04-05,0.12
2016-04-06,0.12725533
2016-04-07,0.1255026
2016-04-08,0.11782534
2016-04-09,0.0999
2016-04-10,0.08654303
2016-04-11,0.102321
2016-04-12,0.10659975
2016-04-13,0.12052958
2016-04-14,0.11530452
2016-04-15,0.11796347
2016-04-16,0.125
2016-04-17,0.12935441
2016-04-18,0.11602777
2016-04-19,0.1164199
2016-04-20,0.1191014
2016-04-21,0.11337097
2016-04-22,0.11341
2016-04-23,0.10679715
2016-04-24,0.09649536
2016-04-25,0.13101295
2016-04-26,0.14762233
2016-04-27,0.13032753
2016-04-28,0.11210762
2016-04-29,0.109
2016-04-30,0.10094996
2016-05-01,0.0924
2016-05-02,0.11216419
2016-05-03,0.15092708
2016-05-04,0.12899025
2016-05-05,0.13431833
2016-05-06,0.13011651
2016-05-07,0.09940914
2016-05-08,0.10239898
2016-05-09,0.1228
2016-05-10,0.1198
2016-05-11,0.115441
2016-05-12,0.1033896
2016-05-13,0.11055831
2016-05-14,0.0856076
2016-05-15,0.09293802
2016-05-16,0.1
2016-05-17,0.11089
2016-05-18,0.1070302
2016-05-19,0.10869565
2016-05-20,0.09988419
2016-05-21,0.08380056
2016-05-22,0.08187041
2016-05-23,0.0998
2016-05-24,0.094608
2016-05-25,0.11155485
2016-05-26,0.12164766
2016-05-27,0.12550742
2016-05-28,0.1320268
2016-05-29,0.10240964
2016-05-30,0.1
2016-05-31,0.12432233
2016-06-01,0.0998
2016-06-02,0.08934249
2016-06-03,0.0919616
2016-06-04,0.07229564
2016-06-05,0.085441
2016-06-06,0.10099089
2016-06-07,0.10252985
2016-06-08,0.1115842
2016-06-09,0.10827084
2016-06-10,0.1199552
2016-06-11,0.089094
2016-06-12,0.0883152
2016-06-13,0.1
2016-06-14,0.09836066
2016-06-15,0.101
2016-06-16,0.0998757
2016-06-17,0.09341334
2016-06-18,0.07277979
2016-06-19,0.0700644
2016-06-20,0.09241562
2016-06-21,0.11940299
2016-06-22,0.11
2016-06-23,0.12762746
2016-06-24,0.1198757
2016-06-25,0.08422725
2016-06-26,0.0840537
2016-06-27,0.10427043
2016-06-28,0.11706888
2016-06-29,0.10988887
2016-06-30,0.12834286
2016-07-01,0.1344
2016-07-02,0.09067202
2016-07-03,0.0898533
2016-07-04,0.1044771
2016-07-05,0.11277053
2016-07-06,0.10223767
2016-07-07,0.11153622
2016-07-08,0.1
2016-07-09,0.07718011
2016-07-10,0.08
2016-07-11,0.09583827
2016-07-12,0.0999
2016-07-13,0.095253
2016-07-14,0.08814969
2016-07-15,0.09851948
2016-07-16,0.07803446
2016-07-17,0.07560542
2016-07-18,0.08239888
2016-07-19,0.09
2016-07-20,0.08908824
2016-07-21,0.08984639
2016-07-22,0.08780883
2016-07-23,0.07390018
2016-07-24,0.07548134
2016-07-25,0.0891395
2016-07-26,0.1
2016-07-27,0.097
2016-07-28,0.09356708
2016-07-29,0.08532498
2016-07-30,0.06720301
2016-07-31,0.08194664
2016-08-01,0.10466823
2016-08-02,0.13282556
2016-08-03,0.12824957
2016-08-04,0.11983278
2016-08-05,0.11000094
2016-08-06,0.09604654
2016-08-07,0.0838656
2016-08-08,0.0849722
2016-08-09,0.11020498
2016-08-10,0.099684
2016-08-11,0.094617
2016-08-12,0.10106133
2016-08-13,0.07694272
2016-08-14,0.07877606
2016-08-15,0.12444
2016-08-16,0.10608
2016-08-17,0.11212502
2016-08-18,0.12124312
2016-08-19,0.1124
2016-08-20,0.10181324
2016-08-21,0.0984271
2016-08-22,0.1399
2016-08-23,0.13329054
2016-08-24,0.1124
2016-08-25,0.10880896
2016-08-26,0.1226362
2016-08-27,0.0899
2016-08-28,0.08666721
2016-08-29,0.13496451
2016-08-30,0.14483425
2016-08-31,0.14070234
2016-09-01,0.15347814
2016-09-02,0.15
2016-09-03,0.1113603
2016-09-04,0.08744208
2016-09-05,0.12113588
2016-09-06,0.11000074
2016-09-07,0.11427957
2016-09-08,0.10485185
2016-09-09,0.11712941
2016-09-10,0.0990564
2016-09-11,0.08998842
2016-09-12,0.10989316
2016-09-13,0.13857737
2016-09-14,0.1098757
2016-09-15,0.1196335
2016-09-16,0.11103433
2016-09-17,0.0890549
2016-09-18,0.08211147
2016-09-19,0.1098214
2016-09-20,0.11295697
2016-09-21,0.10775945
2016-09-22,0.1044219
2016-09-23,0.13172141
2016-09-24,0.0904998
2016-09-25,0.096173
2016-09-26,0.13956708
2016-09-27,0.1387
2016-09-28,0.1483091
2016-09-29,0.14400059
2016-09-30,0.14708758
2016-10-01,0.09939726
2016-10-02,0.09130818
2016-10-03,0.11174832
2016-10-04,0.11977
2016-10-05,0.10564427
2016-10-06,0.0998757
2016-10-07,0.10857593
2016-10-08,0.09117976
2016-10-09,0.08932
2016-10-10,0.107288
2016-10-11,0.10921023
2016-10-12,0.1415718
2016-10-13,0.14364197
2016-10-14,0.12208552
2016-10-15,0.1098757
2016-10-16,0.10027248
2016-10-17,0.11546414
2016-10-18,0.1256
2016-10-19,0.12645776
2016-10-20,0.1098757
2016-10-21,0.12575823
2016-10-22,0.1095057
2016-10-23,0.09983696
2016-10-24,0.13702586
2016-10-25,0.14656392
2016-10-26,0.13152914
2016-10-27,0.11424697
2016-10-28,0.11685977
2016-10-29,0.1042512
2016-10-30,0.09199836
2016-10-31,0.12423564
2016-11-01,0.1280514
2016-11-02,0.11376617
2016-11-03,0.11323723
2016-11-04,0.11701417
2016-11-05,0.09539
2016-11-06,0.097886
2016-11-07,0.1064
2016-11-08,0.09936907
2016-11-09,0.119058
2016-11-10,0.1030857
2016-11-11,0.1
2016-11-12,0.09486668
2016-11-13,0.0855918
2016-11-14,0.1049265
2016-11-15,0.10770269
2016-11-16,0.09904316
2016-11-17,0.09987818
2016-11-18,0.0998757
2016-11-19,0.08715684
2016-11-20,0.07670289
2016-11-21,0.0908932
2016-11-22,0.0946046
2016-11-23,0.09483
2016-11-24,0.0911344
2016-11-25,0.09309885
2016-11-26,0.0811614
2016-11-27,0.0715289
2016-11-28,0.10198672
2016-11-29,0.1119062
2016-11-30,0.10715538
2016-12-01,0.1072592
2016-12-02,0.11368774
2016-12-03,0.0997569
2016-12-04,0.0951531
2016-12-05,0.1184
2016-12-06,0.11488832
2016-12-07,0.1185
2016-12-08,0.11803315
2016-12-09,0.1171
2016-12-10,0.10027797
2016-12-11,0.09345186
2016-12-12,0.11490312
2016-12-13,0.1124124
2016-12-14,0.107602
2016-12-15,0.11658205
2016-12-16,0.1060871
2016-12-17,0.0928087
2016-12-18,0.10877184
2016-12-19,0.11961
2016-12-20,0.1161319
2016-12-21,0.11940805
2016-12-22,0.112
2016-12-23,0.1070593
2016-12-24,0.08788546
2016-12-25,0.08608057
2016-12-26,0.1006
2016-12-27,0.1027887
2016-12-28,0.10205531
2016-12-29,0.0998531
2016-12-30,0.09469221
2016-12-31,0.09241666
2017-01-01,0.0698418
2017-01-02,0.08111047
2017-01-03,0.0862531
2017-01-04,0.08823025
2017-01-05,0.099774
2017-01-06,0.08279571
2017-01-07,0.078
2017-01-08,0.066806
2017-01-09,0.08615471
2017-01-10,0.07655135
2017-01-11,0.09557036
2017-01-12,0.09697532
2017-01-13,0.0995
2017-01-14,0.0807677
2017-01-15,0.0698531
2017-01-16,0.093774
2017-01-17,0.0900062
2017-01-18,0.0871116
2017-01-19,0.09003396
2017-01-20,0.08618651
2017-01-21,0.069595
2017-01-22,0.0659531
2017-01-23,0.08245741
2017-01-24,0.09231727
2017-01-25,0.08214309
2017-01-26,0.0755453
2017-01-27,0.080651
2017-01-28,0.0692655
2017-01-29,0.06
2017-01-30,0.08977955
2017-01-31,0.09192155
2017-02-01,0.07729438
2017-02-02,0.09021355
2017-02-03,0.086
2017-02-04,0.07444298
2017-02-05,0.0668746
2017-02-06,0.0960518
2017-02-07,0.07928068
2017-02-08,0.07762472
2017-02-09,0.0749558
2017-02-10,0.07609746
2017-02-11,0.06024041
2017-02-12,0.05692302
2017-02-13,0.07168494
2017-02-14,0.0782104
2017-02-15,0.07996008
2017-02-16,0.08270978
2017-02-17,0.07141907
2017-02-18,0.0597569
2017-02-19,0.0611688
2017-02-20,0.0723636
2017-02-21,0.08324834
2017-02-22,0.07877183
2017-02-23,0.07518401
2017-02-24,0.07103485
2017-02-25,0.05967517
2017-02-26,0.05743605
2017-02-27,0.06925615
2017-02-28,0.07886101
2017-03-01,0.0808924
2017-03-02,0.081566
2017-03-03,0.07560207
2017-03-04,0.06940564
2017-03-05,0.0595512
2017-03-06,0.0789065
2017-03-07,0.08207707
2017-03-08,0.0801719
2017-03-09,0.07545261
2017-03-10,0.08955891
2017-03-11,0.07175001
2017-03-12,0.06691972
2017-03-13,0.08018244
2017-03-14,0.0813312
2017-03-15,0.08566115
2017-03-16,0.0883344
2017-03-17,0.09432133
2017-03-18,0.08533996
2017-03-19,0.06848217
2017-03-20,0.08821054
2017-03-21,0.09652
2017-03-22,0.09267574
2017-03-23,0.0986404
2017-03-24,0.1036224
2017-03-25,0.105531
2017-03-26,0.0995
2017-03-27,0.12177341
2017-03-28,0.10439364
2017-03-29,0.09966572
2017-03-30,0.1006
2017-03-31,0.12255317
2017-04-01,0.0933548
2017-04-02,0.0905986
2017-04-03,0.10448124
2017-04-04,0.11339691
2017-04-05,0.09219423
2017-04-06,0.09954
2017-04-07,0.09899853
2017-04-08,0.08434169
2017-04-09,0.0698797
2017-04-10,0.0995
2017-04-11,0.09958803
2017-04-12,0.1007288
2017-04-13,0.108685
2017-04-14,0.0882018
2017-04-15,0.07764612
2017-04-16,0.07852635
2017-04-17,0.0995
2017-04-18,0.09984746
2017-04-19,0.0897542
2017-04-20,0.108559
2017-04-21,0.08689779
2017-04-22,0.08452902
2017-04-23,0.08861768
2017-04-24,0.12446562
2017-04-25,0.11176698
2017-04-26,0.1
2017-04-27,0.12069168
2017-04-28,0.1190056
2017-04-29,0.09922222
2017-04-30,0.09832699
2017-05-01,0.11321794
2017-05-02,0.11646708
2017-05-03,0.1232288
2017-05-04,0.11939203
2017-05-05,0.15155229
2017-05-06,0.09876039
2017-05-07,0.0952542
2017-05-08,0.114706
2017-05-09,0.13735135
2017-05-10,0.13893691
2017-05-11,0.131
2017-05-12,0.12
2017-05-13,0.1314
2017-05-14,0.0920515
2017-05-15,0.11034844
2017-05-16,0.16153726
2017-05-17,0.14349
2017-05-18,0.15523279
2017-05-19,0.15643975
2017-05-20,0.10302194
2017-05-21,0.1068375
2017-05-22,0.12837239
2017-05-23,0.124918
2017-05-24,0.12574022
2017-05-25,0.1353375
2017-05-26,0.13146475
2017-05-27,0.1114576
2017-05-28,0.09698727
2017-05-29,0.117395
2017-05-30,0.12319
2017-05-31,0.107305
2017-06-01,0.09897946
2017-06-02,0.1
2017-06-03,0.07920926
2017-06-04,0.0781694
2017-06-05,0.11093172
2017-06-06,0.10360934
2017-06-07,0.107991
2017-06-08,0.0820056
2017-06-09,0.10055026
2017-06-10,0.09439601
2017-06-11,0.09194749
2017-06-12,0.1191305
2017-06-13,0.107284
2017-06-14,0.11000008
2017-06-15,0.10732702
2017-06-16,0.09955
2017-06-17,0.09416536
2017-06-18,0.08003022
2017-06-19,0.10369035
2017-06-20,0.1105375
2017-06-21,0.109548
2017-06-22,0.0992034
2017-06-23,0.08383482
2017-06-24,0.08420391
2017-06-25,0.09983898
2017-06-26,0.10762201
2017-06-27,0.09471205
2017-06-28,0.11
2017-06-29,0.13032276
2017-06-30,0.09710847
2017-07-01,0.1028135
2017-07-02,0.08263969
2017-07-03,0.0998
2017-07-04,0.08
2017-07-05,0.09591172
2017-07-06,0.10115986
2017-07-07,0.09100259
2017-07-08,0.08389048
2017-07-09,0.07084124
2017-07-10,0.098133
2017-07-11,0.09971052
2017-07-12,0.09933556
2017-07-13,0.09428877
2017-07-14,0.108656
2017-07-15,0.09981633
2017-07-16,0.10254559
2017-07-17,0.10658258
2017-07-18,0.1
2017-07-19,0.09865994
2017-07-20,0.12982544
2017-07-21,0.09555271
2017-07-22,0.09046515
2017-07-23,0.07802525
2017-07-24,0.08689183
2017-07-25,0.09339306
2017-07-26,0.09620469
2017-07-27,0.09943803
2017-07-28,0.13753721
2017-07-29,0.09858302
2017-07-30,0.1556017
2017-07-31,0.15569597
2017-08-01,0.064842
2017-08-02,0.08170126
2017-08-03,0.08734799
2017-08-04,0.09277925
2017-08-05,0.0951657
2017-08-06,0.07305106
2017-08-07,0.09051239
2017-08-08,0.09
2017-08-09,0.08348336
2017-08-10,0.09970598
2017-08-11,0.10315327
2017-08-12,0.07910774
2017-08-13,0.07545337
2017-08-14,0.10256032
2017-08-15,0.08587622
2017-08-16,0.09111173
2017-08-17,0.06873717
2017-08-18,0.0875117
2017-08-19,0.06692757
2017-08-20,0.0784046
2017-08-21,0.11128202
2017-08-22,0.13737292
2017-08-23,0.08594732
2017-08-24,0.13713652
2017-08-25,0.09573285
2017-08-26,0.08515399
2017-08-27,0.059
2017-08-28,0.1
2017-08-29,0.0987376
2017-08-30,0.085493
2017-08-31,0.09812586
2017-09-01,0.10183741
2017-09-02,0.07216827
2017-09-03,0.07481839
2017-09-04,0.11080296
2017-09-05,0.10005597
2017-09-06,0.0954348
2017-09-07,0.0982
2017-09-08,0.08447174
2017-09-09,0.07615168
2017-09-10,0.08982751
2017-09-11,0.07866509
2017-09-12,0.082327
2017-09-13,0.09044632
2017-09-14,0.11775695
2017-09-15,0.12978751
2017-09-16,0.0844887
2017-09-17,0.07608145
2017-09-18,0.119951
2017-09-19,0.083528
2017-09-20,0.09482511
2017-09-21,0.087744
2017-09-22,0.08660378
2017-09-23,0.06388095
2017-09-24,0.062008
2017-09-25,0.08860921
2017-09-26,0.07766
2017-09-27,0.08607209
2017-09-28,0.07898117
2017-09-29,0.07251411
2017-09-30,0.07684274
2017-10-01,0.06145803
2017-10-02,0.06369702
2017-10-03,0.06
2017-10-04,0.0789305
2017-10-05,0.0635003
2017-10-06,0.05373242
2017-10-07,0.04781222
2017-10-08,0.04383497
2017-10-09,0.06099524
2017-10-10,0.05761927
2017-10-11,0.05165093
2017-10-12,0.07534894
2017-10-13,0.07194768
2017-10-14,0.04259197
2017-10-15,0.0343936
2017-10-16,0.04365265
2017-10-17,0.04492306
2017-10-18,0.04366368
2017-10-19,0.03579115
2017-10-20,0.03982706
2017-10-21,0.03499932
2017-10-22,0.03360479
2017-10-23,0.0678112
2017-10-24,0.067174
2017-10-25,0.04518
2017-10-26,0.0515513
2017-10-27,0.06180408
2017-10-28,0.06676741
2017-10-29,0.0426
2017-10-30,0.05153755
2017-10-31,0.07194318
2017-11-01,0.06160802
2017-11-02,0.071519
2017-11-03,0.07224086
2017-11-04,0.04854446
2017-11-05,0.0488852
2017-11-06,0.06286626
2017-11-07,0.05022585
2017-11-08,0.06968032
2017-11-09,0.06407123
2017-11-10,0.08923866
2017-11-11,0.12
2017-11-12,0.17419616
2017-11-13,0.09361204
2017-11-14,0.07922727
2017-11-15,0.06657289
2017-11-16,0.06845321
2017-11-17,0.05022031
2017-11-18,0.04042551
2017-11-19,0.04459352
2017-11-20,0.0510324
2017-11-21,0.04621062
2017-11-22,0.0575
2017-11-23,0.05397755
2017-11-24,0.04960952
2017-11-25,0.0434309
2017-11-26,0.043653
2017-11-27,0.05174785
2017-11-28,0.0683096
2017-11-29,0.08531572
2017-11-30,0.06091872
2017-12-01,0.04843604
2017-12-02,0.04749541
2017-12-03,0.04581349
2017-12-04,0.05128825
2017-12-05,0.05841304
2017-12-06,0.088637
2017-12-07,0.121
2017-12-08,0.09297486
2017-12-09,0.05880602
2017-12-10,0.04729035
2017-12-11,0.04528074
2017-12-12,0.07284257
2017-12-13,0.07429
2017-12-14,0.19392125
2017-12-15,0.10089432
2017-12-16,0.07346754
2017-12-17,0.07034947
2017-12-18,0.103466
2017-12-19,0.19752787
2017-12-20,0.18949071
2017-12-21,0.20745326
2017-12-22,0.19138556
2017-12-23,0.1239299
2017-12-24,0.07339836
2017-12-25,0.08175575
2017-12-26,0.10628033
2017-12-27,0.15625188
2017-12-28,0.16027529
2017-12-29,0.18576957
2017-12-30,0.2338097
2017-12-31,0.0984324
2018-01-01,0.09626353
2018-01-02,0.17295272
2018-01-03,0.21442911
2018-01-04,0.21822978
2018-01-05,0.18958079
2018-01-06,0.11290465
2018-01-07,0.24229061
2018-01-08,0.1584981
2018-01-09,0.1821325
2018-01-10,0.19214793
2018-01-11,0.15240116
2018-01-12,0.14820716
2018-01-13,0.16810329
2018-01-14,0.12096437
2018-01-15,0.12571671
2018-01-16,0.14738935
2018-01-17,0.16486302
2018-01-18,0.13925184
2018-01-19,0.10594681
2018-01-20,0.07948578
2018-01-21,0.05417098
2018-01-22,0.08695253
2018-01-23,0.0799339
2018-01-24,0.0940508
2018-01-25,0.07595821
2018-01-26,0.08097307
2018-01-27,0.065878
2018-01-28,0.05174161
2018-01-29,0.05616773
2018-01-30,0.08890734
2018-01-31,0.11773742
2018-02-01,0.10655233
2018-02-02,0.14915
2018-02-03,0.08014
2018-02-04,0.0762581
2018-02-05,0.09378969
2018-02-06,0.09968026
2018-02-07,0.08353141
2018-02-08,0.05929316
2018-02-09,0.070421
2018-02-10,0.06386168
2018-02-11,0.04462672
2018-02-12,0.05820297
2018-02-13,0.06268876
2018-02-14,0.05998899
2018-02-15,0.064226
2018-02-16,0.05553541
2018-02-17,0.05049211
2018-02-18,0.04897694
2018-02-19,0.05124025
2018-02-20,0.05709727
2018-02-21,0.06938032
2018-02-22,0.05463384
2018-02-23,0.05813413
2018-02-24,0.0600882
2018-02-25,0.06199364
2018-02-26,0.05261708
2018-02-27,0.05819153
2018-02-28,0.05302867
2018-03-01,0.0607387
2018-03-02,0.05391109
2018-03-03,0.03787909
2018-03-04,0.03633633
2018-03-05,0.04794
2018-03-06,0.04181917
2018-03-07,0.04156311
2018-03-08,0.0500923
2018-03-09,0.05108838
2018-03-10,0.0448713
2018-03-11,0.04325396
2018-03-12,0.04288681
2018-03-13,0.04499525
2018-03-14,0.05820731
2018-03-15,0.0598644
2018-03-16,0.05147307
2018-03-17,0.04647259
2018-03-18,0.06291718
2018-03-19,0.05131628
2018-03-20,0.05356282
2018-03-21,0.05031755
2018-03-22,0.0488
2018-03-23,0.04998207
2018-03-24,0.0437177
2018-03-25,0.04217375
2018-03-26,0.05037275
2018-03-27,0.0471813
2018-03-28,0.04877972
2018-03-29,0.051
2018-03-30,0.05393364
2018-03-31,0.048357
2018-04-01,0.04262218
2018-04-02,0.04634725
2018-04-03,0.04865581
2018-04-04,0.04999552
2018-04-05,0.05229259
2018-04-06,0.05132846
2018-04-07,0.0425567
2018-04-08,0.04068433
2018-04-09,0.04893156
2018-04-10,0.05142647
2018-04-11,0.0514865
2018-04-12,0.0521034
2018-04-13,0.04697201
2018-04-14,0.03799426
2018-04-15,0.03859722
2018-04-16,0.0444324
2018-04-17,0.04563
2018-04-18,0.04437939
2018-04-19,0.04750714
2018-04-20,0.0451505
2018-04-21,0.03753002
2018-04-22,0.03324479
2018-04-23,0.034124
2018-04-24,0.04322617
2018-04-25,0.05422055
2018-04-26,0.03971301
2018-04-27,0.03966356
2018-04-28,0.02473791
2018-04-29,0.03225542
2018-04-30,0.04323981
2018-05-01,0.04021876
2018-05-02,0.0429797
2018-05-03,0.04257945
2018-05-04,0.04158139
2018-05-05,0.03121832
2018-05-06,0.03106552
2018-05-07,0.036328
2018-05-08,0.03511785
2018-05-09,0.037891
2018-05-10,0.0387618
2018-05-11,0.04815284
2018-05-12,0.03079272
2018-05-13,0.03645685
2018-05-14,0.04473318
2018-05-15,0.04575586
2018-05-16,0.03912515
2018-05-17,0.04466
2018-05-18,0.04098564
2018-05-19,0.03409804
2018-05-20,0.04
2018-05-21,0.040473
2018-05-22,0.04032298
2018-05-23,0.04644403
2018-05-24,0.04681382
2018-05-25,0.04040314
2018-05-26,0.03372258
2018-05-27,0.033963
2018-05-28,0.0435721
2018-05-29,0.04697955
2018-05-30,0.0438224
2018-05-31,0.0408626
2018-06-01,0.03940851
2018-06-02,0.03298684
2018-06-03,0.03296
2018-06-04,0.0409887
2018-06-05,0.04182868
2018-06-06,0.03815366
2018-06-07,0.03759784
2018-06-08,0.0346068
2018-06-09,0.03156373
2018-06-10,0.03487571
2018-06-11,0.0418558
2018-06-12,0.04203053
2018-06-13,0.04652828
2018-06-14,0.04972488
2018-06-15,0.04067849
2018-06-16,0.0355064
2018-06-17,0.03192332
2018-06-18,0.03869058
2018-06-19,0.0399552
2018-06-20,0.044439
2018-06-21,0.03917945
2018-06-22,0.0449509
2018-06-23,0.03597473
2018-06-24,0.037993
2018-06-25,0.04095726
2018-06-26,0.04057358
2018-06-27,0.04418604
2018-06-28,0.04120365
2018-06-29,0.047755
2018-06-30,0.040248
2018-07-01,0.03157395
2018-07-02,0.04045197
2018-07-03,0.048333
2018-07-04,0.035
2018-07-05,0.03388634
2018-07-06,0.03334124
2018-07-07,0.02765926
2018-07-08,0.02912475
2018-07-09,0.0355016
2018-07-10,0.03837297
2018-07-11,0.03739544
2018-07-12,0.0327
2018-07-13,0.03410263
2018-07-14,0.02816736
2018-07-15,0.03297601
2018-07-16,0.03913162
2018-07-17,0.03689287
2018-07-18,0.03349684
2018-07-19,0.02843614
2018-07-20,0.02983273
2018-07-21,0.02392956
2018-07-22,0.02501098
2018-07-23,0.03189805
2018-07-24,0.02853
2018-07-25,0.02379349
2018-07-26,0.02531068
2018-07-27,0.02530448
2018-07-28,0.02227566
2018-07-29,0.02295
2018-07-30,0.02898392
2018-07-31,0.029
2018-08-01,0.031021
2018-08-02,0.02836549
2018-08-03,0.02673799
2018-08-04,0.0239126
2018-08-05,0.0229002
2018-08-06,0.0290291
2018-08-07,0.03013144
2018-08-08,0.03408804
2018-08-09,0.03099548
2018-08-10,0.03106091
2018-08-11,0.02976254
2018-08-12,0.0266392
2018-08-13,0.03396864
2018-08-14,0.0377109
2018-08-15,0.033455
2018-08-16,0.031776
2018-08-17,0.03178346
2018-08-18,0.02619153
2018-08-19,0.02630128
2018-08-20,0.03125505
2018-08-21,0.03333968
2018-08-22,0.030654
2018-08-23,0.03008
2018-08-24,0.03190216
2018-08-25,0.02796911
2018-08-26,0.02422642
2018-08-27,0.031105
2018-08-28,0.03351729
2018-08-29,0.03004417
2018-08-30,0.0334971
2018-08-31,0.03122711
2018-09-01,0.02746852
2018-09-02,0.02536882
2018-09-03,0.029975
2018-09-04,0.03245181
2018-09-05,0.03523951
2018-09-06,0.03853721
2018-09-07,0.03174457
2018-09-08,0.0278
2018-09-09,0.02660333
2018-09-10,0.03313539
2018-09-11,0.03332396
2018-09-12,0.03318378
2018-09-13,0.03394728
2018-09-14,0.0314152
2018-09-15,0.02520291
2018-09-16,0.02361633
2018-09-17,0.03035143
2018-09-18,0.03037125
2018-09-19,0.02442081
2018-09-20,0.02756957
2018-09-21,0.02970161
2018-09-22,0.022619
2018-09-23,0.01999267
2018-09-24,0.02414724
2018-09-25,0.02474142
2018-09-26,0.02678293
2018-09-27,0.02786275
2018-09-28,0.0287731
2018-09-29,0.02291076
2018-09-30,0.02239252
2018-10-01,0.03
2018-10-02,0.03054477
2018-10-03,0.02709801
2018-10-04,0.02661664
2018-10-05,0.02932326
2018-10-06,0.02198815
2018-10-07,0.01247358
2018-10-08,0.02599212
2018-10-09,0.02776139
2018-10-10,0.026418
2018-10-11,0.03041975
2018-10-12,0.02754892
2018-10-13,0.022658
2018-10-14,0.0219919
2018-10-15,0.026807
2018-10-16,0.02669604
2018-10-17,0.02896
2018-10-18,0.02588613
2018-10-19,0.02357021
2018-10-20,0.0199797
2018-10-21,0.01862513
2018-10-22,0.02539645
2018-10-23,0.02667628
2018-10-24,0.02510026
2018-10-25,0.02371265
2018-10-26,0.02543
2018-10-27,0.0202346
2018-10-28,0.01982945
2018-10-29,0.02341156
2018-10-30,0.02148467
2018-10-31,0.01995017
2018-11-01,0.01935069
2018-11-02,0.02127848
2018-11-03,0.01789717
2018-11-04,0.01979765
2018-11-05,0.02206735
2018-11-06,0.0257
2018-11-07,0.02360215
2018-11-08,0.02596294
2018-11-09,0.02433332
2018-11-10,0.02369053
2018-11-11,0.02126462
2018-11-12,0.02648096
2018-11-13,0.029982
2018-11-14,0.03537
2018-11-15,0.0326651
2018-11-16,0.03277109
2018-11-17,0.0262059
2018-11-18,0.02285332
2018-11-19,0.04059662
2018-11-20,0.05804693
2018-11-21,0.04132215
2018-11-22,0.03010256
2018-11-23,0.02898744
2018-11-24,0.03435266
2018-11-25,0.04666027
2018-11-26,0.04820033
2018-11-27,0.04813721
2018-11-28,0.0504066
2018-11-29,0.04729902
2018-11-30,0.04991928
2018-12-01,0.04248813
2018-12-02,0.04445589
2018-12-03,0.05711558
2018-12-04,0.052947
2018-12-05,0.05352971
2018-12-06,0.0657658
2018-12-07,0.07054317
2018-12-08,0.05522319
2018-12-09,0.04791542
2018-12-10,0.05636324
2018-12-11,0.0585
2018-12-12,0.05545422
2018-12-13,0.05858142
2018-12-14,0.06152155
2018-12-15,0.05764388
2018-12-16,0.05232951
2018-12-17,0.06079285
2018-12-18,0.05892678
2018-12-19,0.05927468
2018-12-20,0.06135107
2018-12-21,0.05157086
2018-12-22,0.04627018
2018-12-23,0.04242593
2018-12-24,0.0411463
2018-12-25,0.03835
2018-12-26,0.04333
2018-12-27,0.04750052
2018-12-28,0.04975773
2018-12-29,0.04900521
2018-12-30,0.04231925
2018-12-31,0.0465162
2019-01-01,0.03720733
2019-01-02,0.0484198
2019-01-03,0.04991786
2019-01-04,0.04297
2019-01-05,0.04315
2019-01-06,0.04214
2019-01-07,0.04511097
2019-01-08,0.04314698
2019-01-09,0.04231602
2019-01-10,0.04604566
2019-01-11,0.04335695
2019-01-12,0.04473784
2019-01-13,0.04485761
2019-01-14,0.04667276
2019-01-15,0.04786669
2019-01-16,0.05162683
2019-01-17,0.0497345
2019-01-18,0.048193
2019-01-19,0.04358421
2019-01-20,0.04239479
2019-01-21,0.04379105
2019-01-22,0.04897657
2019-01-23,0.05002608
2019-01-24,0.0467553
2019-01-25,0.04561
2019-01-26,0.04250837
2019-01-27,0.0409718
2019-01-28,0.05163557
2019-01-29,0.05191967
2019-01-30,0.05165001
2019-01-31,0.04737523
2019-02-01,0.05444738
2019-02-02,0.05004763
2019-02-03,0.05153431
2019-02-04,0.0529512
2019-02-05,0.05228647
2019-02-06,0.05398398
2019-02-07,0.05933546
2019-02-08,0.053041
2019-02-09,0.04795697
2019-02-10,0.04470444
2019-02-11,0.05241644
2019-02-12,0.05572642
2019-02-13,0.045
2019-02-14,0.0486
2019-02-15,0.05735
2019-02-16,0.04246287
2019-02-17,0.04169386
2019-02-18,0.05050299
2019-02-19,0.0494224
2019-02-20,0.04953403
2019-02-21,0.04992479
2019-02-22,0.04113948
2019-02-23,0.0428848
2019-02-24,0.03882978
2019-02-25,0.04969883
2019-02-26,0.04581634
2019-02-27,0.04668333
2019-02-28,0.04758519
2019-03-01,0.04621805
2019-03-02,0.04758111
2019-03-03,0.04
2019-03-04,0.04958658
2019-03-05,0.0469442
2019-03-06,0.0497
2019-03-07,0.04645309
2019-03-08,0.04487818
2019-03-09,0.04153728
2019-03-10,0.03841841
2019-03-11,0.04644796
2019-03-12,0.04460721
2019-03-13,0.04385108
2019-03-14,0.04273025
2019-03-15,0.0424898
2019-03-16,0.03744081
2019-03-17,0.03109706
2019-03-18,0.03540955
2019-03-19,0.03539572
2019-03-20,0.03728528
2019-03-21,0.03774267
2019-03-22,0.03644978
2019-03-23,0.0336046
2019-03-24,0.03134886
2019-03-25,0.03746269
2019-03-26,0.03702598
2019-03-27,0.03084408
2019-03-28,0.03284088
2019-03-29,0.035722
2019-03-30,0.02719555
2019-03-31,0.02724047
2019-04-01,0.03915394
2019-04-02,0.04223749
2019-04-03,0.03981323
2019-04-04,0.03217842
2019-04-05,0.026036
2019-04-06,0.02927493
2019-04-07,0.0224
2019-04-08,0.0278
2019-04-09,0.02869468
2019-04-10,0.0283909
2019-04-11,0.02978069
2019-04-12,0.0290797
2019-04-13,0.02723729
2019-04-14,0.02560195
2019-04-15,0.027928
2019-04-16,0.03163822
2019-04-17,0.03007998
2019-04-18,0.02699694
2019-04-19,0.02692265
2019-04-20,0.02462296
2019-04-21,0.01985668
2019-04-22,0.02427004
2019-04-23,0.03558034
2019-04-24,0.02562901
2019-04-25,0.02777322
2019-04-26,0.02875294
2019-04-27,0.02311858
2019-04-28,0.02227438
2019-04-29,0.02791585
2019-04-30,0.03455037
2019-05-01,0.0298438
2019-05-02,0.03219863
2019-05-03,0.03365386
2019-05-04,0.02657696
2019-05-05,0.02166293
2019-05-06,0.02524405
2019-05-07,0.028875
2019-05-08,0.02230885
2019-05-09,0.02266954
2019-05-10,0.03120348
2019-05-11,0.02752565
2019-05-12,0.02649739
2019-05-13,0.02887352
2019-05-14,0.02734261
2019-05-15,0.02571815
2019-05-16,0.02273682
2019-05-17,0.02584082
2019-05-18,0.0153107
2019-05-19,0.01616264
2019-05-20,0.01886006
2019-05-21,0.01747736
2019-05-22,0.01462058
2019-05-23,0.0164049
2019-05-24,0.01582078
2019-05-25,0.01434267
2019-05-26,0.01574753
2019-05-27,0.015678
2019-05-28,0.01747843
2019-05-29,0.01654695
2019-05-30,0.01909828
2019-05-31,0.02652991
2019-06-01,0.01765816
2019-06-02,0.01682979
2019-06-03,0.02448421
2019-06-04,0.02198944
2019-06-05,0.02372478
2019-06-06,0.02352529
2019-06-07,0.02524683
2019-06-08,0.02121543
2019-06-09,0.01693148
2019-06-10,0.02049846
2019-06-11,0.02368935
2019-06-12,0.02275857
2019-06-13,0.02145993
2019-06-14,0.02121587
2019-06-15,0.01835924
2019-06-16,0.01980624
2019-06-17,0.02156685
2019-06-18,0.01805867
2019-06-19,0.0184
2019-06-20,0.02160364
2019-06-21,0.02075313
2019-06-22,0.02010207
2019-06-23,0.01477419
2019-06-24,0.018
2019-06-25,0.02120584
2019-06-26,0.02418134
2019-06-27,0.02411633
2019-06-28,0.01636382
2019-06-29,0.01381932
2019-06-30,0.01466181
2019-07-01,0.02049776
2019-07-02,0.01881701
2019-07-03,0.017555
2019-07-04,0.018
2019-07-05,0.01666409
2019-07-06,0.0157577
2019-07-07,0.01386658
2019-07-08,0.01798087
2019-07-09,0.01913628
2019-07-10,0.02096292
2019-07-11,0.01734504
2019-07-12,0.01612203
2019-07-13,0.01548255
2019-07-14,0.01497753
2019-07-15,0.02002863
2019-07-16,0.02045932
2019-07-17,0.02325875
2019-07-18,0.02048753
2019-07-19,0.02142179
2019-07-20,0.01465697
2019-07-21,0.01616246
2019-07-22,0.01987874
2019-07-23,0.01978605
2019-07-24,0.02086489
2019-07-25,0.02003932
2019-07-26,0.02021033
2019-07-27,0.0191287
2019-07-28,0.01654457
2019-07-29,0.021
2019-07-30,0.0210804
2019-07-31,0.02060413
2019-08-01,0.02128726
2019-08-02,0.019908
2019-08-03,0.01844581
2019-08-04,0.01590456
2019-08-05,0.021
2019-08-06,0.01990908
2019-08-07,0.02078093
2019-08-08,0.01868561
2019-08-09,0.01890409
2019-08-10,0.01689135
2019-08-11,0.01500581
2019-08-12,0.01606328
2019-08-13,0.0181978
2019-08-14,0.01752645
2019-08-15,0.02084132
2019-08-16,0.01941055
2019-08-17,0.01746018
2019-08-18,0.01781074
2019-08-19,0.01856098
2019-08-20,0.01850313
2019-08-21,0.01709491
2019-08-22,0.01816769
2019-08-23,0.01928
2019-08-24,0.0166893
2019-08-25,0.01707734
2019-08-26,0.01999579
2019-08-27,0.0199661
2019-08-28,0.01942972
2019-08-29,0.02191638
2019-08-30,0.02084897
2019-08-31,0.01803884
2019-09-01,0.01687835
2019-09-02,0.02054165
2019-09-03,0.01986003
2019-09-04,0.02061886
2019-09-05,0.02154998
2019-09-06,0.02208052
2019-09-07,0.01940906
2019-09-08,0.01870252
2019-09-09,0.02003685
2019-09-10,0.02147617
2019-09-11,0.02119696
2019-09-12,0.02222116
2019-09-13,0.02186752
2019-09-14,0.01997572
2019-09-15,0.019
2019-09-16,0.01997012
2019-09-17,0.0225614
2019-09-18,0.02447877
2019-09-19,0.02232659
2019-09-20,0.02152787
2019-09-21,0.0209
2019-09-22,0.01933871
2019-09-23,0.02133474
2019-09-24,0.02155479
2019-09-25,0.02215778
2019-09-26,0.02623712
2019-09-27,0.02769534
2019-09-28,0.02096013
2019-09-29,0.02238305
2019-09-30,0.02477939
2019-10-01,0.02303584
2019-10-02,0.02479795
2019-10-03,0.02573539
2019-10-04,0.02584166
2019-10-05,0.02417195
2019-10-06,0.02371527
2019-10-07,0.02662591
2019-10-08,0.02391416
2019-10-09,0.0236703
2019-10-10,0.02500331
2019-10-11,0.02512839
2019-10-12,0.02101439
2019-10-13,0.02073714
2019-10-14,0.02469766
2019-10-15,0.02355576
2019-10-16,0.02293231
2019-10-17,0.02527
2019-10-18,0.02685182
2019-10-19,0.02364225
2019-10-20,0.02388061
2019-10-21,0.02492382
2019-10-22,0.02437832
2019-10-23,0.02902445
2019-10-24,0.02793
2019-10-25,0.03075342
2019-10-26,0.02869666
2019-10-27,0.02465262
2019-10-28,0.02482329
2019-10-29,0.02493672
2019-10-30,0.02409486
2019-10-31,0.0245438
2019-11-01,0.02610207
2019-11-02,0.0247
2019-11-03,0.02177686
2019-11-04,0.03011887
2019-11-05,0.03044569
2019-11-06,0.0276125
2019-11-07,0.02723693
2019-11-08,0.03013474
2019-11-09,0.02724079
2019-11-10,0.0209765
2019-11-11,0.02289743
2019-11-12,0.02415683
2019-11-13,0.02294001
2019-11-14,0.02495977
2019-11-15,0.02691714
2019-11-16,0.0224544
2019-11-17,0.02216168
2019-11-18,0.02699811
2019-11-19,0.02581138
2019-11-20,0.02484884
2019-11-21,0.02846545
2019-11-22,0.03246843
2019-11-23,0.03532937
2019-11-24,0.02710191
2019-11-25,0.03724796
2019-11-26,0.03115763
2019-11-27,0.03408846
2019-11-28,0.02882862
2019-11-29,0.0299926
2019-11-30,0.02505289
2019-12-01,0.02764898
2019-12-02,0.03017122
2019-12-03,0.02961923
2019-12-04,0.03018619
2019-12-05,0.03054902
2019-12-06,0.02942621
2019-12-07,0.02646772
2019-12-08,0.02444726
2019-12-09,0.02786234
2019-12-10,0.03044846
2019-12-11,0.02997552
2019-12-12,0.03185207
2019-12-13,0.02997344
2019-12-14,0.02531017
2019-12-15,0.02784761
2019-12-16,0.02898196
2019-12-17,0.03492499
2019-12-18,0.03498627
2019-12-19,0.03307395
2019-12-20,0.03171935
2019-12-21,0.02587761
2019-12-22,0.02592772
2019-12-23,0.03294284
2019-12-24,0.02957956
2019-12-25,0.02570066
2019-12-26,0.02661154
2019-12-27,0.02776537
2019-12-28,0.02434593
2019-12-29,0.0221229
2019-12-30,0.02788051
2019-12-31,0.0258654
2020-01-01,0.02149415
2020-01-02,0.0238
2020-01-03,0.03021622
2020-01-04,0.0274748
2020-01-05,0.02220617
2020-01-06,0.02810452
2020-01-07,0.02705763
2020-01-08,0.02993928
2020-01-09,0.02721522
2020-01-10,0.03122566
2020-01-11,0.02507057
2020-01-12,0.02241886
2020-01-13,0.02772233
2020-01-14,0.03069454
2020-01-15,0.02862723
2020-01-16,0.02573641
2020-01-17,0.02916476
2020-01-18,0.02198205
2020-01-19,0.02356398
2020-01-20,0.02673287
2020-01-21,0.02709376
2020-01-22,0.02557989
2020-01-23,0.02683545
2020-01-24,0.02787112
2020-01-25,0.0228043
2020-01-26,0.02248921
2020-01-27,0.03138419
2020-01-28,0.0282157
2020-01-29,0.02753046
2020-01-30,0.02592424
2020-01-31,0.0292496
2020-02-01,0.02397696
2020-02-02,0.02477238
2020-02-03,0.02786758
2020-02-04,0.02942284
2020-02-05,0.0266258
2020-02-06,0.02906671
2020-02-07,0.02740362
2020-02-08,0.02047272
2020-02-09,0.0211428
2020-02-10,0.0270972
2020-02-11,0.02384084
2020-02-12,0.02721763
2020-02-13,0.02689269
2020-02-14,0.02724313
2020-02-15,0.0215713
2020-02-16,0.02017595
2020-02-17,0.0256547
2020-02-18,0.02473278
2020-02-19,0.02461247
2020-02-20,0.02709529
2020-02-21,0.02369392
2020-02-22,0.02092319
2020-02-23,0.02018327
2020-02-24,0.02288943
2020-02-25,0.02473628
2020-02-26,0.03016057
2020-02-27,0.02839664
2020-02-28,0.02782902
2020-02-29,0.02393727
2020-03-01,0.02085723
2020-03-02,0.02841006
2020-03-03,0.02602543
2020-03-04,0.02477919
2020-03-05,0.02573857
2020-03-06,0.02838948
2020-03-07,0.02277
2020-03-08,0.02202
2020-03-09,0.03216906
2020-03-10,0.03138174
2020-03-11,0.03132631
2020-03-12,0.04498841
2020-03-13,0.07126464
2020-03-14,0.03386561
2020-03-15,0.03699182
2020-03-16,0.05868993
2020-03-17,0.047559
2020-03-18,0.05
2020-03-19,0.04989099
2020-03-20,0.0460831
2020-03-21,0.02791122
2020-03-22,0.02946357
2020-03-23,0.03963133
2020-03-24,0.03503452
2020-03-25,0.04309236
2020-03-26,0.03020653
2020-03-27,0.03050271
2020-03-28,0.02960291
2020-03-29,0.02543721
2020-03-30,0.03421037
2020-03-31,0.03331014
2020-04-01,0.03613594
2020-04-02,0.03386566
2020-04-03,0.03412893
2020-04-04,0.02628568
2020-04-05,0.02531921
2020-04-06,0.03496776
2020-04-07,0.03186695
2020-04-08,0.03053198
2020-04-09,0.02868117
2020-04-10,0.02962593
2020-04-11,0.02550179
2020-04-12,0.02495933
2020-04-13,0.02939138
2020-04-14,0.03393004
2020-04-15,0.03202276
2020-04-16,0.03436
2020-04-17,0.03525468
2020-04-18,0.0267052
2020-04-19,0.02436598
2020-04-20,0.03196075
2020-04-21,0.03296827
2020-04-22,0.03844762
2020-04-23,0.03835253
2020-04-24,0.03422021
2020-04-25,0.02612434
2020-04-26,0.02507113
2020-04-27,0.03253843
2020-04-28,0.03074052
2020-04-29,0.03743566
2020-04-30,0.04243783
2020-05-01,0.03080005
2020-05-02,0.0236021
2020-05-03,0.02224897
2020-05-04,0.02962696
2020-05-05,0.03096515
2020-05-06,0.03364397
2020-05-07,0.03393193
2020-05-08,0.03568648
2020-05-09,0.0247377
2020-05-10,0.0265031
2020-05-11,0.03421001
2020-05-12,0.03175137
2020-05-13,0.036183
2020-05-14,0.04570623
2020-05-15,0.03988025
2020-05-16,0.02256181
2020-05-17,0.02603047
2020-05-18,0.03253116
2020-05-19,0.03700507
2020-05-20,0.03878088
2020-05-21,0.03422631
2020-05-22,0.03787561
2020-05-23,0.02630287
2020-05-24,0.02760688
2020-05-25,0.03419023
2020-05-26,0.03516019
2020-05-27,0.03584334
2020-05-28,0.03506946
2020-05-29,0.03679579
2020-05-30,0.02656084
2020-05-31,0.02484788
2020-06-01,0.0346395
2020-06-02,0.04444806
2020-06-03,0.03496323
2020-06-04,0.03475685
2020-06-05,0.03487599
2020-06-06,0.02667332
2020-06-07,0.02408697
2020-06-08,0.03086811
2020-06-09,0.03451989
2020-06-10,0.03413185
2020-06-11,0.03429735
2020-06-12,0.03600919
2020-06-13,0.02858358
2020-06-14,0.02527296
2020-06-15,0.03930358
2020-06-16,0.03514159
2020-06-17,0.03479392
2020-06-18,0.04040198
2020-06-19,0.03533906
2020-06-20,0.0296363
2020-06-21,0.02733983
2020-06-22,0.04015449
2020-06-23,0.0400922
2020-06-24,0.03833872
2020-06-25,0.04140187
2020-06-26,0.03997514
2020-06-27,0.03451952
2020-06-28,0.02915057
2020-06-29,0.04110082
2020-06-30,0.04544593
2020-07-01,0.03926282
2020-07-02,0.04097754
2020-07-03,0.0428069
2020-07-04,0.03400161
2020-07-05,0.0310918
2020-07-06,0.04228115
2020-07-07,0.04363796
2020-07-08,0.04392524
2020-07-09,0.04010054
2020-07-10,0.0412
2020-07-11,0.03255381
2020-07-12,0.03027785
2020-07-13,0.04606865
2020-07-14,0.04422927
2020-07-15,0.04674616
2020-07-16,0.04603915
2020-07-17,0.04866724
2020-07-18,0.0373864
2020-07-19,0.029
2020-07-20,0.0450952
2020-07-21,0.04977327
2020-07-22,0.0479229
2020-07-23,0.04586886
2020-07-24,0.0367485
2020-07-25,0.03435984
2020-07-26,0.030879
2020-07-27,0.04873529
2020-07-28,0.0466623
2020-07-29,0.03570594
2020-07-30,0.03708015
2020-07-31,0.03218312
2020-08-01,0.03274919
2020-08-02,0.02727812
2020-08-03,0.033847
2020-08-04,0.0360313
2020-08-05,0.04199223
2020-08-06,0.03577448
2020-08-07,0.03191311
2020-08-08,0.02915453
2020-08-09,0.0283411
2020-08-10,0.04178235
2020-08-11,0.0349539
2020-08-12,0.03612824
2020-08-13,0.03565904
2020-08-14,0.0324952
2020-08-15,0.02765256
2020-08-16,0.02695999
2020-08-17,0.03887108
2020-08-18,0.04054816
2020-08-19,0.03554128
2020-08-20,0.03355725
2020-08-21,0.03706948
2020-08-22,0.03325596
2020-08-23,0.02672804
2020-08-24,0.03433314
2020-08-25,0.04014907
2020-08-26,0.03511297
2020-08-27,0.04058508
2020-08-28,0.03414341
2020-08-29,0.03317936
2020-08-30,0.0319041
2020-08-31,0.04271334
2020-09-01,0.03852142
2020-09-02,0.03995056
2020-09-03,0.04462995
2020-09-04,0.049222
2020-09-05,0.03
2020-09-06,0.02792386
2020-09-07,0.03497121
2020-09-08,0.03967542
2020-09-09,0.04287069
2020-09-10,0.0376099
2020-09-11,0.04098387
2020-09-12,0.03218373
2020-09-13,0.03037719
2020-09-14,0.03613479
2020-09-15,0.03977364
2020-09-16,0.03731111
2020-09-17,0.03490014
2020-09-18,0.03692684
2020-09-19,0.029478
2020-09-20,0.02592707
2020-09-21,0.03756019
2020-09-22,0.03974048
2020-09-23,0.03699663
2020-09-24,0.04222063
2020-09-25,0.03417321
2020-09-26,0.03160133
2020-09-27,0.02943239
2020-09-28,0.04029957
2020-09-29,0.03905156
2020-09-30,0.0350952
2020-10-01,0.04269598
2020-10-02,0.04284169
2020-10-03,0.02715609
2020-10-04,0.02804529
2020-10-05,0.04055938
2020-10-06,0.040484
2020-10-07,0.03263989
2020-10-08,0.03736872
2020-10-09,0.03286149
2020-10-10,0.02973019
2020-10-11,0.02675824
2020-10-12,0.03491393
2020-10-13,0.03443382
2020-10-14,0.03643153
2020-10-15,0.0344955
2020-10-16,0.03396611
2020-10-17,0.02772177
2020-10-18,0.02683411
2020-10-19,0.03768471
2020-10-20,0.03825969
2020-10-21,0.04030222
2020-10-22,0.03915276
2020-10-23,0.03454844
2020-10-24,0.02241476
2020-10-25,0.02502502
2020-10-26,0.03911674
2020-10-27,0.04906068
2020-10-28,0.04834826
2020-10-29,0.04080693
2020-10-30,0.0378595
2020-10-31,0.03249661
2020-11-01,0.02488797
2020-11-02,0.03949275
2020-11-03,0.03473188
2020-11-04,0.02907153
2020-11-05,0.04083821
2020-11-06,0.03345527
2020-11-07,0.02593899
2020-11-08,0.02264938
2020-11-09,0.02777174
2020-11-10,0.03194876
2020-11-11,0.02981805
2020-11-12,0.0307633
2020-11-13,0.03080064
2020-11-14,0.02428946
2020-11-15,0.0215404
2020-11-16,0.03056199
2020-11-17,0.03018921
2020-11-18,0.02832105
2020-11-19,0.02796823
2020-11-20,0.02627345
2020-11-21,0.020844
2020-11-22,0.01990849
2020-11-23,0.02547733
2020-11-24,0.02791922
2020-11-25,0.02543456
2020-11-26,0.0297853
2020-11-27,0.02528922
2020-11-28,0.02078355
2020-11-29,0.02074237
2020-11-30,0.03104348
2020-12-01,0.03073084
2020-12-02,0.0260894
2020-12-03,0.02326005
2020-12-04,0.02377198
2020-12-05,0.01959012
2020-12-06,0.01892441
2020-12-07,0.02564834
2020-12-08,0.02360679
2020-12-09,0.02502045
2020-12-10,0.02418675
2020-12-11,0.02502627
2020-12-12,0.02016874
2020-12-13,0.02044954
2020-12-14,0.02395549
2020-12-15,0.02502615
2020-12-16,0.02570439
2020-12-17,0.03404545
2020-12-18,0.02553969
2020-12-19,0.01879818
2020-12-20,0.01628194
2020-12-21,0.026383
2020-12-22,0.02338695
2020-12-23,0.02312623
2020-12-24,0.022
2020-12-25,0.01951149
2020-12-26,0.020964
2020-12-27,0.01981485
2020-12-28,0.02014342
2020-12-29,0.02039638
2020-12-30,0.02113982
2020-12-31,0.0190338
2021-01-01,0.0155266
2021-01-02,0.02063953
2021-01-03,0.01635703
2021-01-04,0.0193966
2021-01-05,0.01842019
2021-01-06,0.01665871
2021-01-07,0.01977073
2021-01-08,0.02050769
2021-01-09,0.01403868
2021-01-10,0.01317135
2021-01-11,0.02384892
2021-01-12,0.01945187
2021-01-13,0.01724661
2021-01-14,0.01767254
2021-01-15,0.0153605
2021-01-16,0.01260991
2021-01-17,0.01278584
2021-01-18,0.01565901
2021-01-19,0.01610967
2021-01-20,0.01533579
2021-01-21,0.02007118
2021-01-22,0.01657836
2021-01-23,0.01268507
2021-01-24,0.0124372
2021-01-25,0.01765177
2021-01-26,0.01503175
2021-01-27,0.01657955
2021-01-28,0.01629005
2021-01-29,0.01989541
2021-01-30,0.01417793
2021-01-31,0.01158894
2021-02-01,0.01865626
2021-02-02,0.01622706
2021-02-03,0.01645397
2021-02-04,0.01546934
2021-02-05,0.01385253
2021-02-06,0.01335658
2021-02-07,0.01175937
2021-02-08,0.01703044
2021-02-09,0.01844265
2021-02-10,0.01556229
2021-02-11,0.01666367
2021-02-12,0.01484114
2021-02-13,0.01052194
2021-02-14,0.01032187
2021-02-15,0.01290369
2021-02-16,0.01532504
2021-02-17,0.0166
2021-02-18,0.0156145
2021-02-19,0.01533564
2021-02-20,0.01387609
2021-02-21,0.01224174
2021-02-22,0.01702015
2021-02-23,0.02103819
2021-02-24,0.01430517
2021-02-25,0.01414832
2021-02-26,0.01481666
2021-02-27,0.01038286
2021-02-28,0.0111111
2021-03-01,0.01531967
2021-03-02,0.01321729
2021-03-03,0.0141185
2021-03-04,0.01378431
2021-03-05,0.01202605
2021-03-06,0.01021828
2021-03-07,0.01104272
2021-03-08,0.0119747
2021-03-09,0.01453567
2021-03-10,0.01311707
2021-03-11,0.0135716
2021-03-12,0.0114684
2021-03-13,0.01218387
2021-03-14,0.0085757
2021-03-15,0.01251276
2021-03-16,0.01137874
2021-03-17,0.01201274
2021-03-18,0.01151561
2021-03-19,0.01046581
2021-03-20,0.0089529
2021-03-21,0.00896823
2021-03-22,0.01095378
2021-03-23,0.01168842
2021-03-24,0.01214318
2021-03-25,0.01189837
2021-03-26,0.013
2021-03-27,0.00976
2021-03-28,0.0090408
2021-03-29,0.01274899
2021-03-30,0.01189413
2021-03-31,0.01154462
2021-04-01,0.01200507
2021-04-02,0.0119622
2021-04-03,0.01006297
2021-04-04,0.00856826
2021-04-05,0.01183985
2021-04-06,0.01240969
2021-04-07,0.01158332
