t,v
2012-12-13,1
2012-12-14,0
2012-12-15,0
2012-12-16,0
2012-12-17,0
2012-12-18,0
2012-12-19,0
2012-12-20,0
2012-12-21,0
2012-12-22,0
2012-12-23,0
2012-12-24,0
2012-12-25,0
2012-12-26,0
2012-12-27,0
2012-12-28,0
2012-12-29,0
2012-12-30,0
2012-12-31,0
2013-01-01,0
2013-01-02,0
2013-01-03,0
2013-01-04,0
2013-01-05,0
2013-01-06,0
2013-01-07,0
2013-01-08,0
2013-01-09,0
2013-01-10,0
2013-01-11,0
2013-01-12,0
2013-01-13,0
2013-01-14,0
2013-01-15,0
2013-01-16,0
2013-01-17,0
2013-01-18,0
2013-01-19,0
2013-01-20,0
2013-01-21,0
2013-01-22,0
2013-01-23,0
2013-01-24,0
2013-01-25,0
2013-01-26,0
2013-01-27,1
2013-01-28,0
2013-01-29,0
2013-01-30,0
2013-01-31,0
2013-02-01,0
2013-02-02,0
2013-02-03,0
2013-02-04,0
2013-02-05,0
2013-02-06,0
2013-02-07,0
2013-02-08,0
2013-02-09,0
2013-02-10,0
2013-02-11,0
2013-02-12,0
2013-02-13,0
2013-02-14,0
2013-02-15,0
2013-02-16,0
2013-02-17,1
2013-02-18,0
2013-02-19,0
2013-02-20,0
2013-02-21,0
2013-02-22,0
2013-02-23,2
2013-02-24,0
2013-02-25,0
2013-02-26,0
2013-02-27,0
2013-02-28,0
2013-03-01,0
2013-03-02,0
2013-03-03,1
2013-03-04,0
2013-03-05,0
2013-03-06,0
2013-03-07,0
2013-03-08,0
2013-03-09,0
2013-03-10,0
2013-03-11,1
2013-03-12,0
2013-03-13,0
2013-03-14,0
2013-03-15,0
2013-03-16,0
2013-03-17,0
2013-03-18,0
2013-03-19,0
2013-03-20,0
2013-03-21,0
2013-03-22,1
2013-03-23,1
2013-03-24,0
2013-03-25,0
2013-03-26,0
2013-03-27,1
2013-03-28,0
2013-03-29,2
2013-03-30,0
2013-03-31,2
2013-04-01,0
2013-04-02,0
2013-04-03,2
2013-04-04,1
2013-04-05,2
2013-04-06,0
2013-04-07,0
2013-04-08,2
2013-04-09,7
2013-04-10,6
2013-04-11,9
2013-04-12,4
2013-04-13,3
2013-04-14,0
2013-04-15,6
2013-04-16,5
2013-04-17,2
2013-04-18,1
2013-04-19,6
2013-04-20,0
2013-04-21,2
2013-04-22,2
2013-04-23,4
2013-04-24,3
2013-04-25,1
2013-04-26,1
2013-04-27,3
2013-04-28,0
2013-04-29,2
2013-04-30,3
2013-05-01,2
2013-05-02,2
2013-05-03,3
2013-05-04,5
2013-05-05,0
2013-05-06,2
2013-05-07,1
2013-05-08,0
2013-05-09,1
2013-05-10,4
2013-05-11,0
2013-05-12,1
2013-05-13,6
2013-05-14,0
2013-05-15,4
2013-05-16,2
2013-05-17,2
2013-05-18,4
2013-05-19,2
2013-05-20,0
2013-05-21,2
2013-05-22,5
2013-05-23,9
2013-05-24,2
2013-05-25,1
2013-05-26,0
2013-05-27,3
2013-05-28,0
2013-05-29,1
2013-05-30,2
2013-05-31,4
2013-06-01,2
2013-06-02,2
2013-06-03,1
2013-06-04,1
2013-06-05,0
2013-06-06,0
2013-06-07,5
2013-06-08,2
2013-06-09,0
2013-06-10,2
2013-06-11,1
2013-06-12,1
2013-06-13,2
2013-06-14,0
2013-06-15,1
2013-06-16,1
2013-06-17,1
2013-06-18,0
2013-06-19,0
2013-06-20,2
2013-06-21,2
2013-06-22,1
2013-06-23,0
2013-06-24,0
2013-06-25,1
2013-06-26,0
2013-06-27,1
2013-06-28,2
2013-06-29,1
2013-06-30,2
2013-07-01,5
2013-07-02,0
2013-07-03,2
2013-07-04,3
2013-07-05,1
2013-07-06,0
2013-07-07,0
2013-07-08,2
2013-07-09,3
2013-07-10,2
2013-07-11,2
2013-07-12,1
2013-07-13,1
2013-07-14,1
2013-07-15,2
2013-07-16,2
2013-07-17,0
2013-07-18,1
2013-07-19,0
2013-07-20,0
2013-07-21,1
2013-07-22,0
2013-07-23,2
2013-07-24,0
2013-07-25,0
2013-07-26,4
2013-07-27,1
2013-07-28,0
2013-07-29,3
2013-07-30,0
2013-07-31,6
2013-08-01,1
2013-08-02,2
2013-08-03,0
2013-08-04,1
2013-08-05,2
2013-08-06,0
2013-08-07,2
2013-08-08,2
2013-08-09,0
2013-08-10,1
2013-08-11,0
2013-08-12,0
2013-08-13,2
2013-08-14,1
2013-08-15,1
2013-08-16,0
2013-08-17,2
2013-08-18,0
2013-08-19,1
2013-08-20,2
2013-08-21,0
2013-08-22,2
2013-08-23,0
2013-08-24,0
2013-08-25,2
2013-08-26,2
2013-08-27,2
2013-08-28,0
2013-08-29,0
2013-08-30,1
2013-08-31,0
2013-09-01,2
2013-09-02,3
2013-09-03,1
2013-09-04,1
2013-09-05,1
2013-09-06,1
2013-09-07,0
2013-09-08,0
2013-09-09,3
2013-09-10,2
2013-09-11,1
2013-09-12,3
2013-09-13,0
2013-09-14,0
2013-09-15,8
2013-09-16,0
2013-09-17,1
2013-09-18,1
2013-09-19,1
2013-09-20,1
2013-09-21,0
2013-09-22,1
2013-09-23,2
2013-09-24,0
2013-09-25,0
2013-09-26,0
2013-09-27,2
2013-09-28,2
2013-09-29,3
2013-09-30,3
2013-10-01,0
2013-10-02,6
2013-10-03,2
2013-10-04,1
2013-10-05,1
2013-10-06,3
2013-10-07,2
2013-10-08,1
2013-10-09,1
2013-10-10,3
2013-10-11,9
2013-10-12,2
2013-10-13,2
2013-10-14,7
2013-10-15,5
2013-10-16,7
2013-10-17,4
2013-10-18,17
2013-10-19,12
2013-10-20,5
2013-10-21,10
2013-10-22,12
2013-10-23,13
2013-10-24,22
2013-10-25,13
2013-10-26,3
2013-10-27,17
2013-10-28,14
2013-10-29,6
2013-10-30,3
2013-10-31,13
2013-11-01,2
2013-11-02,6
2013-11-03,13
2013-11-04,15
2013-11-05,13
2013-11-06,11
2013-11-07,20
2013-11-08,17
2013-11-09,13
2013-11-10,13
2013-11-11,17
2013-11-12,23
2013-11-13,18
2013-11-14,13
2013-11-15,14
2013-11-16,11
2013-11-17,17
2013-11-18,25
2013-11-19,16
2013-11-20,25
2013-11-21,39
2013-11-22,29
2013-11-23,28
2013-11-24,25
2013-11-25,52
2013-11-26,30
2013-11-27,45
2013-11-28,38
2013-11-29,28
2013-11-30,17
2013-12-01,44
2013-12-02,22
2013-12-03,32
2013-12-04,21
2013-12-05,35
2013-12-06,29
2013-12-07,27
2013-12-08,6
2013-12-09,21
2013-12-10,14
2013-12-11,22
2013-12-12,16
2013-12-13,17
2013-12-14,11
2013-12-15,11
2013-12-16,44
2013-12-17,21
2013-12-18,38
2013-12-19,38
2013-12-20,29
2013-12-21,14
2013-12-22,18
2013-12-23,27
2013-12-24,22
2013-12-25,11
2013-12-26,39
2013-12-27,24
2013-12-28,17
2013-12-29,13
2013-12-30,15
2013-12-31,25
2014-01-01,19
2014-01-02,27
2014-01-03,22
2014-01-04,19
2014-01-05,50
2014-01-06,55
2014-01-07,36
2014-01-08,53
2014-01-09,55
2014-01-10,41
2014-01-11,46
2014-01-12,40
2014-01-13,29
2014-01-14,24
2014-01-15,36
2014-01-16,30
2014-01-17,36
2014-01-18,17
2014-01-19,34
2014-01-20,44
2014-01-21,38
2014-01-22,34
2014-01-23,26
2014-01-24,41
2014-01-25,31
2014-01-26,32
2014-01-27,78
2014-01-28,57
2014-01-29,31
2014-01-30,29
2014-01-31,21
2014-02-01,18
2014-02-02,17
2014-02-03,20
2014-02-04,38
2014-02-05,35
2014-02-06,54
2014-02-07,82
2014-02-08,36
2014-02-09,34
2014-02-10,72
2014-02-11,19
2014-02-12,9
2014-02-13,16
2014-02-14,48
2014-02-15,35
2014-02-16,48
2014-02-17,35
2014-02-18,60
2014-02-19,37
2014-02-20,45
2014-02-21,33
2014-02-22,25
2014-02-23,48
2014-02-24,79
2014-02-25,123
2014-02-26,78
2014-02-27,51
2014-02-28,44
2014-03-01,50
2014-03-02,32
2014-03-03,74
2014-03-04,69
2014-03-05,44
2014-03-06,32
2014-03-07,52
2014-03-08,61
2014-03-09,46
2014-03-10,40
2014-03-11,36
2014-03-12,55
2014-03-13,56
2014-03-14,57
2014-03-15,43
2014-03-16,77
2014-03-17,73
2014-03-18,72
2014-03-19,26
2014-03-20,57
2014-03-21,62
2014-03-22,82
2014-03-23,53
2014-03-24,59
2014-03-25,47
2014-03-26,60
2014-03-27,97
2014-03-28,76
2014-03-29,64
2014-03-30,83
2014-03-31,90
2014-04-01,95
2014-04-02,115
2014-04-03,101
2014-04-04,132
2014-04-05,96
2014-04-06,73
2014-04-07,54
2014-04-08,35
2014-04-09,117
2014-04-10,111
2014-04-11,154
2014-04-12,88
2014-04-13,65
2014-04-14,114
2014-04-15,107
2014-04-16,167
2014-04-17,158
2014-04-18,143
2014-04-19,138
2014-04-20,84
2014-04-21,137
2014-04-22,116
2014-04-23,101
2014-04-24,147
2014-04-25,125
2014-04-26,48
2014-04-27,90
2014-04-28,140
2014-04-29,130
2014-04-30,133
2014-05-01,119
2014-05-02,91
2014-05-03,82
2014-05-04,71
2014-05-05,165
2014-05-06,150
2014-05-07,159
2014-05-08,165
2014-05-09,137
2014-05-10,168
2014-05-11,251
2014-05-12,238
2014-05-13,238
2014-05-14,200
2014-05-15,177
2014-05-16,227
2014-05-17,250
2014-05-18,195
2014-05-19,238
2014-05-20,302
2014-05-21,228
2014-05-22,345
2014-05-23,285
2014-05-24,174
2014-05-25,320
2014-05-26,242
2014-05-27,193
2014-05-28,322
2014-05-29,304
2014-05-30,268
2014-05-31,216
2014-06-01,218
2014-06-02,233
2014-06-03,305
2014-06-04,372
2014-06-05,315
2014-06-06,267
2014-06-07,251
2014-06-08,202
2014-06-09,244
2014-06-10,266
2014-06-11,220
2014-06-12,327
2014-06-13,269
2014-06-14,239
2014-06-15,221
2014-06-16,316
2014-06-17,255
2014-06-18,229
2014-06-19,248
2014-06-20,269
2014-06-21,281
2014-06-22,250
2014-06-23,208
2014-06-24,208
2014-06-25,186
2014-06-26,141
2014-06-27,208
2014-06-28,195
2014-06-29,142
2014-06-30,194
2014-07-01,182
2014-07-02,159
2014-07-03,219
2014-07-04,136
2014-07-05,131
2014-07-06,138
2014-07-07,169
2014-07-08,170
2014-07-09,152
2014-07-10,169
2014-07-11,146
2014-07-12,143
2014-07-13,150
2014-07-14,187
2014-07-15,226
2014-07-16,168
2014-07-17,176
2014-07-18,182
2014-07-19,160
2014-07-20,118
2014-07-21,125
2014-07-22,151
2014-07-23,146
2014-07-24,198
2014-07-25,145
2014-07-26,108
2014-07-27,138
2014-07-28,123
2014-07-29,119
2014-07-30,132
2014-07-31,203
2014-08-01,159
2014-08-02,136
2014-08-03,95
2014-08-04,143
2014-08-05,137
2014-08-06,137
2014-08-07,103
2014-08-08,113
2014-08-09,114
2014-08-10,147
2014-08-11,114
2014-08-12,174
2014-08-13,195
2014-08-14,211
2014-08-15,153
2014-08-16,152
2014-08-17,159
2014-08-18,181
2014-08-19,159
2014-08-20,194
2014-08-21,149
2014-08-22,144
2014-08-23,136
2014-08-24,94
2014-08-25,140
2014-08-26,131
2014-08-27,147
2014-08-28,163
2014-08-29,134
2014-08-30,110
2014-08-31,191
2014-09-01,199
2014-09-02,191
2014-09-03,149
2014-09-04,146
2014-09-05,137
2014-09-06,109
2014-09-07,135
2014-09-08,165
2014-09-09,139
2014-09-10,172
2014-09-11,136
2014-09-12,140
2014-09-13,136
2014-09-14,82
2014-09-15,150
2014-09-16,127
2014-09-17,159
2014-09-18,198
2014-09-19,215
2014-09-20,175
2014-09-21,182
2014-09-22,131
2014-09-23,188
2014-09-24,124
2014-09-25,183
2014-09-26,111
2014-09-27,109
2014-09-28,140
2014-09-29,134
2014-09-30,109
2014-10-01,118
2014-10-02,122
2014-10-03,204
2014-10-04,262
2014-10-05,244
2014-10-06,201
2014-10-07,160
2014-10-08,249
2014-10-09,269
2014-10-10,128
2014-10-11,118
2014-10-12,129
2014-10-13,176
2014-10-14,240
2014-10-15,172
2014-10-16,148
2014-10-17,136
2014-10-18,159
2014-10-19,96
2014-10-20,116
2014-10-21,137
2014-10-22,111
2014-10-23,146
2014-10-24,110
2014-10-25,107
2014-10-26,112
2014-10-27,160
2014-10-28,102
2014-10-29,166
2014-10-30,171
2014-10-31,144
2014-11-01,129
2014-11-02,99
2014-11-03,95
2014-11-04,143
2014-11-05,140
2014-11-06,147
2014-11-07,140
2014-11-08,90
2014-11-09,108
2014-11-10,142
2014-11-11,110
2014-11-12,197
2014-11-13,226
2014-11-14,186
2014-11-15,90
2014-11-16,137
2014-11-17,190
2014-11-18,148
2014-11-19,102
2014-11-20,90
2014-11-21,152
2014-11-22,125
2014-11-23,101
2014-11-24,145
2014-11-25,154
2014-11-26,111
2014-11-27,135
2014-11-28,143
2014-11-29,99
2014-11-30,109
2014-12-01,109
2014-12-02,105
2014-12-03,105
2014-12-04,108
2014-12-05,125
2014-12-06,78
2014-12-07,109
2014-12-08,120
2014-12-09,141
2014-12-10,112
2014-12-11,126
2014-12-12,128
2014-12-13,106
2014-12-14,88
2014-12-15,159
2014-12-16,192
2014-12-17,196
2014-12-18,189
2014-12-19,171
2014-12-20,168
2014-12-21,103
2014-12-22,167
2014-12-23,151
2014-12-24,106
2014-12-25,87
2014-12-26,109
2014-12-27,113
2014-12-28,126
2014-12-29,101
2014-12-30,130
2014-12-31,101
2015-01-01,130
2015-01-02,107
2015-01-03,178
2015-01-04,149
2015-01-05,108
2015-01-06,100
2015-01-07,109
2015-01-08,116
2015-01-09,145
2015-01-10,196
2015-01-11,157
2015-01-12,140
2015-01-13,267
2015-01-14,275
2015-01-15,303
2015-01-16,163
2015-01-17,118
2015-01-18,122
2015-01-19,120
2015-01-20,174
2015-01-21,199
2015-01-22,180
2015-01-23,153
2015-01-24,153
2015-01-25,155
2015-01-26,327
2015-01-27,229
2015-01-28,171
2015-01-29,192
2015-01-30,157
2015-01-31,134
2015-02-01,165
2015-02-02,175
2015-02-03,183
2015-02-04,171
2015-02-05,145
2015-02-06,200
2015-02-07,125
2015-02-08,133
2015-02-09,137
2015-02-10,130
2015-02-11,126
2015-02-12,120
2015-02-13,197
2015-02-14,167
2015-02-15,233
2015-02-16,165
2015-02-17,198
2015-02-18,167
2015-02-19,156
2015-02-20,138
2015-02-21,112
2015-02-22,117
2015-02-23,156
2015-02-24,152
2015-02-25,123
2015-02-26,151
2015-02-27,240
2015-02-28,171
2015-03-01,145
2015-03-02,246
2015-03-03,234
2015-03-04,265
2015-03-05,283
2015-03-06,312
2015-03-07,200
2015-03-08,192
2015-03-09,349
2015-03-10,310
2015-03-11,253
2015-03-12,274
2015-03-13,218
2015-03-14,179
2015-03-15,153
2015-03-16,255
2015-03-17,190
2015-03-18,257
2015-03-19,242
2015-03-20,202
2015-03-21,214
2015-03-22,195
2015-03-23,252
2015-03-24,260
2015-03-25,293
2015-03-26,250
2015-03-27,209
2015-03-28,224
2015-03-29,225
2015-03-30,256
2015-03-31,309
2015-04-01,287
2015-04-02,235
2015-04-03,201
2015-04-04,178
2015-04-05,217
2015-04-06,277
2015-04-07,291
2015-04-08,325
2015-04-09,252
2015-04-10,325
2015-04-11,334
2015-04-12,293
2015-04-13,272
2015-04-14,260
2015-04-15,246
2015-04-16,191
2015-04-17,218
2015-04-18,172
2015-04-19,191
2015-04-20,249
2015-04-21,240
2015-04-22,243
2015-04-23,225
2015-04-24,231
2015-04-25,243
2015-04-26,293
2015-04-27,296
2015-04-28,282
2015-04-29,256
2015-04-30,248
2015-05-01,226
2015-05-02,240
2015-05-03,268
2015-05-04,256
2015-05-05,302
2015-05-06,280
2015-05-07,276
2015-05-08,269
2015-05-09,195
2015-05-10,221
2015-05-11,270
2015-05-12,253
2015-05-13,261
2015-05-14,273
2015-05-15,248
2015-05-16,194
2015-05-17,242
2015-05-18,274
2015-05-19,279
2015-05-20,272
2015-05-21,245
2015-05-22,240
2015-05-23,262
2015-05-24,206
2015-05-25,277
2015-05-26,276
2015-05-27,227
2015-05-28,224
2015-05-29,220
2015-05-30,224
2015-05-31,210
2015-06-01,226
2015-06-02,223
2015-06-03,232
2015-06-04,249
2015-06-05,255
2015-06-06,198
2015-06-07,210
2015-06-08,229
2015-06-09,300
2015-06-10,267
2015-06-11,237
2015-06-12,277
2015-06-13,232
2015-06-14,225
2015-06-15,257
2015-06-16,277
2015-06-17,413
2015-06-18,355
2015-06-19,271
2015-06-20,251
2015-06-21,226
2015-06-22,279
2015-06-23,292
2015-06-24,321
2015-06-25,294
2015-06-26,356
2015-06-27,307
2015-06-28,317
2015-06-29,366
2015-06-30,438
2015-07-01,470
2015-07-02,417
2015-07-03,295
2015-07-04,232
2015-07-05,337
2015-07-06,442
2015-07-07,365
2015-07-08,319
2015-07-09,440
2015-07-10,526
2015-07-11,313
2015-07-12,341
2015-07-13,378
2015-07-14,333
2015-07-15,237
2015-07-16,376
2015-07-17,358
2015-07-18,214
2015-07-19,226
2015-07-20,292
2015-07-21,309
2015-07-22,309
2015-07-23,258
2015-07-24,292
2015-07-25,297
2015-07-26,296
2015-07-27,365
2015-07-28,360
2015-07-29,366
2015-07-30,427
2015-07-31,683
2015-08-01,364
2015-08-02,336
2015-08-03,388
2015-08-04,387
2015-08-05,371
2015-08-06,360
2015-08-07,385
2015-08-08,419
2015-08-09,370
2015-08-10,376
2015-08-11,426
2015-08-12,487
2015-08-13,481
2015-08-14,466
2015-08-15,377
2015-08-16,366
2015-08-17,326
2015-08-18,323
2015-08-19,359
2015-08-20,376
2015-08-21,338
2015-08-22,274
2015-08-23,281
2015-08-24,424
2015-08-25,446
2015-08-26,402
2015-08-27,462
2015-08-28,346
2015-08-29,276
2015-08-30,296
2015-08-31,319
2015-09-01,329
2015-09-02,278
2015-09-03,317
2015-09-04,302
2015-09-05,300
2015-09-06,284
2015-09-07,337
2015-09-08,330
2015-09-09,293
2015-09-10,303
2015-09-11,323
2015-09-12,226
2015-09-13,252
2015-09-14,298
2015-09-15,300
2015-09-16,311
2015-09-17,367
2015-09-18,345
2015-09-19,291
2015-09-20,327
2015-09-21,339
2015-09-22,338
2015-09-23,302
2015-09-24,342
2015-09-25,318
2015-09-26,279
2015-09-27,288
2015-09-28,361
2015-09-29,331
2015-09-30,415
2015-10-01,344
2015-10-02,341
2015-10-03,318
2015-10-04,326
2015-10-05,358
2015-10-06,323
2015-10-07,381
2015-10-08,333
2015-10-09,336
2015-10-10,262
2015-10-11,342
2015-10-12,349
2015-10-13,359
2015-10-14,412
2015-10-15,446
2015-10-16,433
2015-10-17,465
2015-10-18,354
2015-10-19,398
2015-10-20,398
2015-10-21,398
2015-10-22,381
2015-10-23,400
2015-10-24,287
2015-10-25,335
2015-10-26,380
2015-10-27,413
2015-10-28,435
2015-10-29,515
2015-10-30,492
2015-10-31,335
2015-11-01,292
2015-11-02,398
2015-11-03,595
2015-11-04,674
2015-11-05,504
2015-11-06,497
2015-11-07,353
2015-11-08,401
2015-11-09,412
2015-11-10,351
2015-11-11,379
2015-11-12,263
2015-11-13,348
2015-11-14,265
2015-11-15,384
2015-11-16,279
2015-11-17,275
2015-11-18,353
2015-11-19,338
2015-11-20,257
2015-11-21,260
2015-11-22,340
2015-11-23,296
2015-11-24,311
2015-11-25,271
2015-11-26,456
2015-11-27,314
2015-11-28,276
2015-11-29,371
2015-11-30,384
2015-12-01,355
2015-12-02,314
2015-12-03,277
2015-12-04,292
2015-12-05,367
2015-12-06,614
2015-12-07,504
2015-12-08,571
2015-12-09,494
2015-12-10,402
2015-12-11,469
2015-12-12,369
2015-12-13,422
2015-12-14,491
2015-12-15,559
2015-12-16,475
2015-12-17,389
2015-12-18,411
2015-12-19,410
2015-12-20,505
2015-12-21,488
2015-12-22,378
2015-12-23,441
2015-12-24,356
2015-12-25,301
2015-12-26,502
2015-12-27,462
2015-12-28,430
2015-12-29,417
2015-12-30,406
2015-12-31,371
2016-01-01,324
2016-01-02,419
2016-01-03,524
2016-01-04,447
2016-01-05,411
2016-01-06,381
2016-01-07,461
2016-01-08,451
2016-01-09,386
2016-01-10,501
2016-01-11,420
2016-01-12,546
2016-01-13,494
2016-01-14,441
2016-01-15,589
2016-01-16,518
2016-01-17,588
2016-01-18,607
2016-01-19,415
2016-01-20,531
2016-01-21,676
2016-01-22,549
2016-01-23,803
2016-01-24,653
2016-01-25,654
2016-01-26,647
2016-01-27,693
2016-01-28,564
2016-01-29,530
2016-01-30,657
2016-01-31,616
2016-02-01,506
2016-02-02,547
2016-02-03,442
2016-02-04,513
2016-02-05,494
2016-02-06,683
2016-02-07,599
2016-02-08,641
2016-02-09,759
2016-02-10,838
2016-02-11,861
2016-02-12,918
2016-02-13,913
2016-02-14,673
2016-02-15,820
2016-02-16,870
2016-02-17,868
2016-02-18,717
2016-02-19,698
2016-02-20,977
2016-02-21,761
2016-02-22,896
2016-02-23,893
2016-02-24,751
2016-02-25,805
2016-02-26,668
2016-02-27,951
2016-02-28,851
2016-02-29,918
2016-03-01,1029
2016-03-02,1108
2016-03-03,1354
2016-03-04,1238
2016-03-05,1766
2016-03-06,1124
2016-03-07,1090
2016-03-08,1073
2016-03-09,1326
2016-03-10,1128
2016-03-11,933
2016-03-12,1211
2016-03-13,1050
2016-03-14,1198
2016-03-15,1188
2016-03-16,1121
2016-03-17,1186
2016-03-18,1275
2016-03-19,1216
2016-03-20,954
2016-03-21,1003
2016-03-22,995
2016-03-23,1009
2016-03-24,1037
2016-03-25,939
2016-03-26,968
2016-03-27,986
2016-03-28,1062
2016-03-29,1018
2016-03-30,983
2016-03-31,993
2016-04-01,1235
2016-04-02,1415
2016-04-03,1017
2016-04-04,999
2016-04-05,1057
2016-04-06,900
2016-04-07,860
2016-04-08,886
2016-04-09,1205
2016-04-10,937
2016-04-11,853
2016-04-12,916
2016-04-13,895
2016-04-14,854
2016-04-15,792
2016-04-16,717
2016-04-17,1029
2016-04-18,834
2016-04-19,866
2016-04-20,847
2016-04-21,791
2016-04-22,778
2016-04-23,750
2016-04-24,1127
2016-04-25,836
2016-04-26,854
2016-04-27,809
2016-04-28,799
2016-04-29,829
2016-04-30,932
2016-05-01,949
2016-05-02,1029
2016-05-03,1016
2016-05-04,814
2016-05-05,817
2016-05-06,836
2016-05-07,762
2016-05-08,687
2016-05-09,928
2016-05-10,898
2016-05-11,832
2016-05-12,857
2016-05-13,963
2016-05-14,1238
2016-05-15,765
2016-05-16,1051
2016-05-17,1215
2016-05-18,1283
2016-05-19,1229
2016-05-20,1205
2016-05-21,1381
2016-05-22,880
2016-05-23,1089
2016-05-24,1251
2016-05-25,1298
2016-05-26,1383
2016-05-27,1615
2016-05-28,1790
2016-05-29,1184
2016-05-30,1166
2016-05-31,1260
2016-06-01,1094
2016-06-02,909
2016-06-03,1052
2016-06-04,1504
2016-06-05,868
2016-06-06,992
2016-06-07,1220
2016-06-08,1033
2016-06-09,1054
2016-06-10,1003
2016-06-11,1312
2016-06-12,1435
2016-06-13,1712
2016-06-14,1591
2016-06-15,1424
2016-06-16,1579
2016-06-17,1900
2016-06-18,2508
2016-06-19,1471
2016-06-20,1593
2016-06-21,1762
2016-06-22,1732
2016-06-23,1383
2016-06-24,1299
2016-06-25,1599
2016-06-26,949
2016-06-27,1053
2016-06-28,1345
2016-06-29,1173
2016-06-30,1286
2016-07-01,1176
2016-07-02,1264
2016-07-03,809
2016-07-04,988
2016-07-05,1234
2016-07-06,976
2016-07-07,1062
2016-07-08,938
2016-07-09,1090
2016-07-10,792
2016-07-11,1047
2016-07-12,1248
2016-07-13,1061
2016-07-14,1131
2016-07-15,1142
2016-07-16,1288
2016-07-17,949
2016-07-18,935
2016-07-19,1114
2016-07-20,1075
2016-07-21,910
2016-07-22,1073
2016-07-23,1255
2016-07-24,1072
2016-07-25,1079
2016-07-26,1609
2016-07-27,1469
2016-07-28,1092
2016-07-29,1145
2016-07-30,1207
2016-07-31,1076
2016-08-01,1405
2016-08-02,1659
2016-08-03,1582
2016-08-04,1212
2016-08-05,1028
2016-08-06,1406
2016-08-07,932
2016-08-08,1165
2016-08-09,1211
2016-08-10,1176
2016-08-11,1186
2016-08-12,1096
2016-08-13,878
2016-08-14,929
2016-08-15,1047
2016-08-16,1206
2016-08-17,943
2016-08-18,1177
2016-08-19,1186
2016-08-20,827
2016-08-21,704
2016-08-22,990
2016-08-23,1104
2016-08-24,1441
2016-08-25,1025
2016-08-26,863
2016-08-27,736
2016-08-28,1496
2016-08-29,1219
2016-08-30,1118
2016-08-31,1038
2016-09-01,1057
2016-09-02,1420
2016-09-03,2284
2016-09-04,1267
2016-09-05,1171
2016-09-06,1156
2016-09-07,1246
2016-09-08,1200
2016-09-09,983
2016-09-10,1205
2016-09-11,874
2016-09-12,1114
2016-09-13,1225
2016-09-14,994
2016-09-15,1098
2016-09-16,1204
2016-09-17,1188
2016-09-18,836
2016-09-19,930
2016-09-20,1107
2016-09-21,1056
2016-09-22,894
2016-09-23,915
2016-09-24,1166
2016-09-25,770
2016-09-26,1021
2016-09-27,1033
2016-09-28,1041
2016-09-29,1117
2016-09-30,1065
2016-10-01,1299
2016-10-02,813
2016-10-03,1166
2016-10-04,1181
2016-10-05,1141
2016-10-06,1115
2016-10-07,998
2016-10-08,1448
2016-10-09,848
2016-10-10,1142
2016-10-11,1247
2016-10-12,1043
2016-10-13,962
2016-10-14,1032
2016-10-15,1212
2016-10-16,846
2016-10-17,1101
2016-10-18,1130
2016-10-19,1063
2016-10-20,1197
2016-10-21,1074
2016-10-22,1769
2016-10-23,1236
2016-10-24,1286
2016-10-25,1486
2016-10-26,1649
2016-10-27,1501
2016-10-28,1603
2016-10-29,2317
2016-10-30,1281
2016-10-31,1561
2016-11-01,1798
2016-11-02,1641
2016-11-03,1646
2016-11-04,1607
2016-11-05,2099
2016-11-06,1305
2016-11-07,1518
2016-11-08,1541
2016-11-09,1525
2016-11-10,1234
2016-11-11,1184
2016-11-12,1894
2016-11-13,1155
2016-11-14,1465
2016-11-15,1322
2016-11-16,1467
2016-11-17,1410
2016-11-18,1342
2016-11-19,1946
2016-11-20,1144
2016-11-21,1221
2016-11-22,1407
2016-11-23,1317
2016-11-24,1349
2016-11-25,1252
2016-11-26,1040
2016-11-27,1681
2016-11-28,1356
2016-11-29,1334
2016-11-30,1285
2016-12-01,1327
2016-12-02,1304
2016-12-03,1267
2016-12-04,1417
2016-12-05,1251
2016-12-06,1395
2016-12-07,1313
2016-12-08,1249
2016-12-09,1144
2016-12-10,969
2016-12-11,1418
2016-12-12,1330
2016-12-13,1127
2016-12-14,1212
2016-12-15,1210
2016-12-16,1070
2016-12-17,1235
2016-12-18,934
2016-12-19,1361
2016-12-20,1188
2016-12-21,1427
2016-12-22,1538
2016-12-23,1560
2016-12-24,1086
2016-12-25,1193
2016-12-26,1149
2016-12-27,1437
2016-12-28,1617
2016-12-29,1565
2016-12-30,1399
2016-12-31,1749
2017-01-01,1057
2017-01-02,1640
2017-01-03,1624
2017-01-04,2127
2017-01-05,2155
2017-01-06,1998
2017-01-07,2292
2017-01-08,1345
2017-01-09,1436
2017-01-10,1653
2017-01-11,1981
2017-01-12,1770
2017-01-13,1613
2017-01-14,1569
2017-01-15,1600
2017-01-16,1627
2017-01-17,1821
2017-01-18,1521
2017-01-19,1414
2017-01-20,1359
2017-01-21,1341
2017-01-22,1328
2017-01-23,1357
2017-01-24,1459
2017-01-25,1409
2017-01-26,1565
2017-01-27,1555
2017-01-28,1452
2017-01-29,1690
2017-01-30,1504
2017-01-31,1733
2017-02-01,1821
2017-02-02,1698
2017-02-03,1787
2017-02-04,1550
2017-02-05,1330
2017-02-06,1414
2017-02-07,1646
2017-02-08,1592
2017-02-09,1817
2017-02-10,1554
2017-02-11,1535
2017-02-12,1414
2017-02-13,1631
2017-02-14,1705
2017-02-15,1581
2017-02-16,1595
2017-02-17,1554
2017-02-18,1702
2017-02-19,1264
2017-02-20,1488
2017-02-21,1660
2017-02-22,1503
2017-02-23,1522
2017-02-24,1746
2017-02-25,1430
2017-02-26,1592
2017-02-27,1577
2017-02-28,1588
2017-03-01,1815
2017-03-02,1984
2017-03-03,1928
2017-03-04,1527
2017-03-05,1236
2017-03-06,1511
2017-03-07,1522
2017-03-08,1615
2017-03-09,1571
2017-03-10,1811
2017-03-11,1659
2017-03-12,1653
2017-03-13,2407
2017-03-14,2026
2017-03-15,2254
2017-03-16,3480
2017-03-17,3256
2017-03-18,2564
2017-03-19,2336
2017-03-20,2502
2017-03-21,2324
2017-03-22,2688
2017-03-23,2561
2017-03-24,2827
2017-03-25,2488
2017-03-26,2269
2017-03-27,2504
2017-03-28,2724
2017-03-29,2570
2017-03-30,2716
2017-03-31,2809
2017-04-01,2316
2017-04-02,3009
2017-04-03,3265
2017-04-04,2478
2017-04-05,2629
2017-04-06,2475
2017-04-07,2215
2017-04-08,1851
2017-04-09,1882
2017-04-10,2196
2017-04-11,2241
2017-04-12,2340
2017-04-13,2558
2017-04-14,2137
2017-04-15,2185
2017-04-16,2085
2017-04-17,2470
2017-04-18,2678
2017-04-19,2745
2017-04-20,2675
2017-04-21,2687
2017-04-22,2396
2017-04-23,2525
2017-04-24,2599
2017-04-25,2966
2017-04-26,3121
2017-04-27,3162
2017-04-28,3375
2017-04-29,3366
2017-04-30,3220
2017-05-01,4782
2017-05-02,3988
2017-05-03,3482
2017-05-04,4974
2017-05-05,5286
2017-05-06,4689
2017-05-07,5811
2017-05-08,6745
2017-05-09,5390
2017-05-10,5381
2017-05-11,4948
2017-05-12,5007
2017-05-13,3972
2017-05-14,3569
2017-05-15,5267
2017-05-16,6599
2017-05-17,6556
2017-05-18,5770
2017-05-19,6405
2017-05-20,5129
2017-05-21,5822
2017-05-22,6336
2017-05-23,7631
2017-05-24,7389
2017-05-25,8893
2017-05-26,7185
2017-05-27,7264
2017-05-28,6418
2017-05-29,5864
2017-05-30,7628
2017-05-31,7726
2017-06-01,7675
2017-06-02,7940
2017-06-03,9537
2017-06-04,7577
2017-06-05,8517
2017-06-06,8457
2017-06-07,8609
2017-06-08,7359
2017-06-09,7670
2017-06-10,7522
2017-06-11,6688
2017-06-12,8571
2017-06-13,10216
2017-06-14,9309
2017-06-15,9284
2017-06-16,7266
2017-06-17,6449
2017-06-18,5864
2017-06-19,8133
2017-06-20,10079
2017-06-21,9357
2017-06-22,7848
2017-06-23,7237
2017-06-24,6764
2017-06-25,5737
2017-06-26,8241
2017-06-27,8605
2017-06-28,7384
2017-06-29,6350
2017-06-30,6604
2017-07-01,5177
2017-07-02,5396
2017-07-03,6721
2017-07-04,6757
2017-07-05,5985
2017-07-06,5619
2017-07-07,6116
2017-07-08,5153
2017-07-09,3766
2017-07-10,6299
2017-07-11,8509
2017-07-12,6783
2017-07-13,5494
2017-07-14,5206
2017-07-15,5444
2017-07-16,5436
2017-07-17,5768
2017-07-18,7193
2017-07-19,5857
2017-07-20,5961
2017-07-21,6359
2017-07-22,5450
2017-07-23,3534
2017-07-24,4854
2017-07-25,5683
2017-07-26,4843
2017-07-27,4731
2017-07-28,6879
2017-07-29,6195
2017-07-30,5510
2017-07-31,4856
2017-08-01,2277
2017-08-02,6375
2017-08-03,6301
2017-08-04,6369
2017-08-05,6952
2017-08-06,5911
2017-08-07,7515
2017-08-08,9511
2017-08-09,8003
2017-08-10,9363
2017-08-11,9507
2017-08-12,7979
2017-08-13,8682
2017-08-14,9170
2017-08-15,11199
2017-08-16,8164
2017-08-17,8875
2017-08-18,10041
2017-08-19,8407
2017-08-20,7251
2017-08-21,8966
2017-08-22,6743
2017-08-23,9063
2017-08-24,7244
2017-08-25,6955
2017-08-26,5617
2017-08-27,6565
2017-08-28,7854
2017-08-29,9034
2017-08-30,8291
2017-08-31,8532
2017-09-01,9200
2017-09-02,9536
2017-09-03,7080
2017-09-04,9898
2017-09-05,9720
2017-09-06,8477
2017-09-07,8117
2017-09-08,8950
2017-09-09,6294
2017-09-10,6157
2017-09-11,6984
2017-09-12,8159
2017-09-13,8437
2017-09-14,9229
2017-09-15,10633
2017-09-16,5940
2017-09-17,4694
2017-09-18,6486
2017-09-19,6408
2017-09-20,5161
2017-09-21,5820
2017-09-22,5710
2017-09-23,4061
2017-09-24,3709
2017-09-25,5472
2017-09-26,5792
2017-09-27,7360
2017-09-28,8196
2017-09-29,7161
2017-09-30,5603
2017-10-01,5904
2017-10-02,7722
2017-10-03,6751
2017-10-04,6013
2017-10-05,5618
2017-10-06,6128
2017-10-07,4738
2017-10-08,5385
2017-10-09,6855
2017-10-10,6831
2017-10-11,5954
2017-10-12,7644
2017-10-13,9177
2017-10-14,6449
2017-10-15,6017
2017-10-16,7489
2017-10-17,6888
2017-10-18,6666
2017-10-19,6531
2017-10-20,7359
2017-10-21,6631
2017-10-22,6142
2017-10-23,6555
2017-10-24,8373
2017-10-25,6951
2017-10-26,6156
2017-10-27,6108
2017-10-28,4225
2017-10-29,6337
2017-10-30,5628
2017-10-31,6087
2017-11-01,7093
2017-11-02,8595
2017-11-03,7716
2017-11-04,5178
2017-11-05,5369
2017-11-06,7005
2017-11-07,6697
2017-11-08,7154
2017-11-09,9195
2017-11-10,8278
2017-11-11,5738
2017-11-12,5656
2017-11-13,7722
2017-11-14,6612
2017-11-15,7261
2017-11-16,6912
2017-11-17,7528
2017-11-18,5922
2017-11-19,5560
2017-11-20,8178
2017-11-21,8576
2017-11-22,8524
2017-11-23,8381
2017-11-24,8768
2017-11-25,7209
2017-11-26,8172
2017-11-27,10533
2017-11-28,12631
2017-11-29,13644
2017-11-30,12130
2017-12-01,11077
2017-12-02,8099
2017-12-03,9228
2017-12-04,11609
2017-12-05,13980
2017-12-06,17225
2017-12-07,13904
2017-12-08,13574
2017-12-09,12696
2017-12-10,9820
2017-12-11,11546
2017-12-12,15466
2017-12-13,17769
2017-12-14,19588
2017-12-15,16682
2017-12-16,14834
2017-12-17,18163
2017-12-18,19553
2017-12-19,19990
2017-12-20,19254
2017-12-21,19740
2017-12-22,19709
2017-12-23,17028
2017-12-24,13279
2017-12-25,13230
2017-12-26,13858
2017-12-27,17358
2017-12-28,18075
2017-12-29,21447
2017-12-30,21609
2017-12-31,16421
2018-01-01,15467
2018-01-02,23101
2018-01-03,25822
2018-01-04,31860
2018-01-05,27571
2018-01-06,24255
2018-01-07,20406
2018-01-08,22705
2018-01-09,26913
2018-01-10,26567
2018-01-11,22029
2018-01-12,19079
2018-01-13,16998
2018-01-14,16158
2018-01-15,19539
2018-01-16,24549
2018-01-17,23304
2018-01-18,22376
2018-01-19,17534
2018-01-20,14619
2018-01-21,13512
2018-01-22,15613
2018-01-23,15152
2018-01-24,15645
2018-01-25,14945
2018-01-26,13431
2018-01-27,10215
2018-01-28,11795
2018-01-29,12213
2018-01-30,13543
2018-01-31,12914
2018-02-01,14530
2018-02-02,15509
2018-02-03,9752
2018-02-04,8953
2018-02-05,13464
2018-02-06,15949
2018-02-07,12236
2018-02-08,6285
2018-02-09,9306
2018-02-10,10136
2018-02-11,7863
2018-02-12,8965
2018-02-13,8349
2018-02-14,10158
2018-02-15,11365
2018-02-16,9378
2018-02-17,8938
2018-02-18,8242
2018-02-19,8988
2018-02-20,10177
2018-02-21,10238
2018-02-22,10964
2018-02-23,9833
2018-02-24,8611
2018-02-25,7211
2018-02-26,9672
2018-02-27,9535
2018-02-28,10011
2018-03-01,9475
2018-03-02,9336
2018-03-03,7896
2018-03-04,7082
2018-03-05,8315
2018-03-06,9372
2018-03-07,9911
2018-03-08,10524
2018-03-09,11461
2018-03-10,7086
2018-03-11,6492
2018-03-12,8119
2018-03-13,10292
2018-03-14,10533
2018-03-15,11302
2018-03-16,9759
2018-03-17,7808
2018-03-18,9529
2018-03-19,9944
2018-03-20,9209
2018-03-21,8977
2018-03-22,8512
2018-03-23,8723
2018-03-24,7377
2018-03-25,6266
2018-03-26,8577
2018-03-27,7927
2018-03-28,7391
2018-03-29,9577
2018-03-30,9839
2018-03-31,6351
2018-04-01,6249
2018-04-02,6892
2018-04-03,8440
2018-04-04,7533
2018-04-05,7320
2018-04-06,6614
2018-04-07,5706
2018-04-08,5094
2018-04-09,7145
2018-04-10,7182
2018-04-11,7448
2018-04-12,9443
2018-04-13,10690
2018-04-14,6412
2018-04-15,7208
2018-04-16,8283
2018-04-17,8835
2018-04-18,8820
2018-04-19,9963
2018-04-20,11906
2018-04-21,9198
2018-04-22,9773
2018-04-23,11387
2018-04-24,14041
2018-04-25,12535
2018-04-26,11141
2018-04-27,11431
2018-04-28,9748
2018-04-29,10759
2018-04-30,11554
2018-05-01,10486
2018-05-02,11497
2018-05-03,12774
2018-05-04,11764
2018-05-05,10220
2018-05-06,9160
2018-05-07,10651
2018-05-08,11013
2018-05-09,10497
2018-05-10,11042
2018-05-11,12511
2018-05-12,10214
2018-05-13,8218
2018-05-14,10739
2018-05-15,10065
2018-05-16,9137
2018-05-17,8288
2018-05-18,9126
2018-05-19,6582
2018-05-20,6559
2018-05-21,7959
2018-05-22,7705
2018-05-23,10088
2018-05-24,9034
2018-05-25,7659
2018-05-26,5442
2018-05-27,5574
2018-05-28,7630
2018-05-29,8363
2018-05-30,7376
2018-05-31,7591
2018-06-01,7843
2018-06-02,6632
2018-06-03,6469
2018-06-04,7801
2018-06-05,7482
2018-06-06,7393
2018-06-07,7000
2018-06-08,6723
2018-06-09,4897
2018-06-10,8406
2018-06-11,8645
2018-06-12,7933
2018-06-13,8339
2018-06-14,7766
2018-06-15,6444
2018-06-16,4240
2018-06-17,3982
2018-06-18,5584
2018-06-19,6074
2018-06-20,5474
2018-06-21,5679
2018-06-22,7875
2018-06-23,4998
2018-06-24,5937
2018-06-25,5981
2018-06-26,4495
2018-06-27,5241
2018-06-28,5012
2018-06-29,6284
2018-06-30,5432
2018-07-01,4287
2018-07-02,6422
2018-07-03,6686
2018-07-04,5704
2018-07-05,6205
2018-07-06,6102
2018-07-07,4542
2018-07-08,4995
2018-07-09,5677
2018-07-10,6508
2018-07-11,5620
2018-07-12,5173
2018-07-13,5441
2018-07-14,3602
2018-07-15,3799
2018-07-16,5491
2018-07-17,6770
2018-07-18,7926
2018-07-19,6162
2018-07-20,6307
2018-07-21,4189
2018-07-22,3757
2018-07-23,6223
2018-07-24,7847
2018-07-25,7438
2018-07-26,6478
2018-07-27,6099
2018-07-28,4222
2018-07-29,4239
2018-07-30,5579
2018-07-31,6381
2018-08-01,6250
2018-08-02,5567
2018-08-03,6408
2018-08-04,4795
2018-08-05,4318
2018-08-06,5172
2018-08-07,5632
2018-08-08,7464
2018-08-09,5917
2018-08-10,5760
2018-08-11,5256
2018-08-12,3972
2018-08-13,5602
2018-08-14,7635
2018-08-15,6296
2018-08-16,5616
2018-08-17,6248
2018-08-18,4452
2018-08-19,3639
2018-08-20,5086
2018-08-21,5212
2018-08-22,5846
2018-08-23,5076
2018-08-24,5149
2018-08-25,4152
2018-08-26,3854
2018-08-27,5353
2018-08-28,6553
2018-08-29,5676
2018-08-30,5360
2018-08-31,5748
2018-09-01,5993
2018-09-02,5220
2018-09-03,5430
2018-09-04,5725
2018-09-05,7410
2018-09-06,7552
2018-09-07,5744
2018-09-08,4246
2018-09-09,4632
2018-09-10,5452
2018-09-11,5897
2018-09-12,5828
2018-09-13,5657
2018-09-14,5342
2018-09-15,3754
2018-09-16,3157
2018-09-17,5308
2018-09-18,5218
2018-09-19,5080
2018-09-20,5519
2018-09-21,8644
2018-09-22,5230
2018-09-23,4493
2018-09-24,4883
2018-09-25,6025
2018-09-26,5656
2018-09-27,5626
2018-09-28,6145
2018-09-29,4539
2018-09-30,4825
2018-10-01,5809
2018-10-02,5778
2018-10-03,5360
2018-10-04,4763
2018-10-05,4701
2018-10-06,3763
2018-10-07,3495
2018-10-08,5136
2018-10-09,5232
2018-10-10,5152
2018-10-11,7541
2018-10-12,5862
2018-10-13,3789
2018-10-14,3998
2018-10-15,8641
2018-10-16,5708
2018-10-17,5334
2018-10-18,5078
2018-10-19,4494
2018-10-20,3638
2018-10-21,3605
2018-10-22,5054
2018-10-23,5202
2018-10-24,5555
2018-10-25,5902
2018-10-26,4767
2018-10-27,3422
2018-10-28,3585
2018-10-29,5550
2018-10-30,5026
2018-10-31,5008
2018-11-01,4455
2018-11-02,4763
2018-11-03,3388
2018-11-04,3952
2018-11-05,5319
2018-11-06,5823
2018-11-07,5601
2018-11-08,4964
2018-11-09,5087
2018-11-10,3429
2018-11-11,3533
2018-11-12,5188
2018-11-13,5229
2018-11-14,7547
2018-11-15,8961
2018-11-16,6186
2018-11-17,4161
2018-11-18,3924
2018-11-19,7611
2018-11-20,10622
2018-11-21,7208
2018-11-22,5133
2018-11-23,5548
2018-11-24,4494
2018-11-25,7048
2018-11-26,6894
2018-11-27,5925
2018-11-28,6997
2018-11-29,6540
2018-11-30,5985
2018-12-01,4381
2018-12-02,3772
2018-12-03,5643
2018-12-04,5756
2018-12-05,5888
2018-12-06,6914
2018-12-07,8128
2018-12-08,4901
2018-12-09,4470
2018-12-10,5447
2018-12-11,5105
2018-12-12,4693
2018-12-13,5007
2018-12-14,5261
2018-12-15,4029
2018-12-16,3625
2018-12-17,5513
2018-12-18,5833
2018-12-19,7470
2018-12-20,7194
2018-12-21,6966
2018-12-22,4497
2018-12-23,4776
2018-12-24,6882
2018-12-25,5518
2018-12-26,4764
2018-12-27,5208
2018-12-28,5850
2018-12-29,4300
2018-12-30,3986
2018-12-31,4340
2019-01-01,3318
2019-01-02,4919
2019-01-03,4687
2019-01-04,4813
2019-01-05,4063
2019-01-06,4509
2019-01-07,5271
2019-01-08,5514
2019-01-09,5452
2019-01-10,7122
2019-01-11,6006
2019-01-12,3623
2019-01-13,3531
2019-01-14,5248
2019-01-15,5297
2019-01-16,5270
2019-01-17,4828
2019-01-18,4671
2019-01-19,3915
2019-01-20,4046
2019-01-21,4695
2019-01-22,5011
2019-01-23,4681
2019-01-24,4887
2019-01-25,4488
2019-01-26,3743
2019-01-27,3677
2019-01-28,6132
2019-01-29,5065
2019-01-30,5429
2019-01-31,5719
2019-02-01,4627
2019-02-02,3014
2019-02-03,2893
2019-02-04,3677
2019-02-05,3640
2019-02-06,4056
2019-02-07,3521
2019-02-08,4425
2019-02-09,3602
2019-02-10,3254
2019-02-11,4227
2019-02-12,4423
2019-02-13,4367
2019-02-14,4109
2019-02-15,3740
2019-02-16,4145
2019-02-17,4050
2019-02-18,6053
2019-02-19,6420
2019-02-20,5666
2019-02-21,5092
2019-02-22,4739
2019-02-23,4333
2019-02-24,6262
2019-02-25,6358
2019-02-26,5290
2019-02-27,4877
2019-02-28,5037
2019-03-01,5188
2019-03-02,4118
2019-03-03,3436
2019-03-04,5217
2019-03-05,5663
2019-03-06,5242
2019-03-07,5791
2019-03-08,5625
2019-03-09,4542
2019-03-10,4238
2019-03-11,5741
2019-03-12,5542
2019-03-13,5958
2019-03-14,5984
2019-03-15,5892
2019-03-16,5114
2019-03-17,3920
2019-03-18,5457
2019-03-19,6167
2019-03-20,7444
2019-03-21,6835
2019-03-22,5853
2019-03-23,4705
2019-03-24,4897
2019-03-25,7141
2019-03-26,8181
2019-03-27,7299
2019-03-28,6081
2019-03-29,6375
2019-03-30,5327
2019-03-31,5357
2019-04-01,7412
2019-04-02,12024
2019-04-03,12022
2019-04-04,9263
2019-04-05,7607
2019-04-06,6319
2019-04-07,9423
2019-04-08,13316
2019-04-09,9319
2019-04-10,10089
2019-04-11,9360
2019-04-12,7088
2019-04-13,4728
2019-04-14,4749
2019-04-15,6608
2019-04-16,6776
2019-04-17,6561
2019-04-18,6729
2019-04-19,6529
2019-04-20,6087
2019-04-21,10134
2019-04-22,10630
2019-04-23,8966
2019-04-24,10322
2019-04-25,8187
2019-04-26,9341
2019-04-27,4943
2019-04-28,5516
2019-04-29,6136
2019-04-30,6129
2019-05-01,5020
2019-05-02,5153
2019-05-03,6451
2019-05-04,4545
2019-05-05,4163
2019-05-06,5273
2019-05-07,6170
2019-05-08,4146
2019-05-09,4560
2019-05-10,4647
2019-05-11,5928
2019-05-12,5201
2019-05-13,5581
2019-05-14,6156
2019-05-15,8449
2019-05-16,11400
2019-05-17,8411
2019-05-18,5710
2019-05-19,6245
2019-05-20,6750
2019-05-21,8001
2019-05-22,7805
2019-05-23,6906
2019-05-24,7224
2019-05-25,5457
2019-05-26,5909
2019-05-27,8369
2019-05-28,7405
2019-05-29,7462
2019-05-30,8473
2019-05-31,7261
2019-06-01,6125
2019-06-02,5403
2019-06-03,6480
2019-06-04,8354
2019-06-05,6571
2019-06-06,6027
2019-06-07,5440
2019-06-08,4534
2019-06-09,4542
2019-06-10,6869
2019-06-11,6529
2019-06-12,6562
2019-06-13,6582
2019-06-14,7167
2019-06-15,5500
2019-06-16,6487
2019-06-17,6956
2019-06-18,6240
2019-06-19,5798
2019-06-20,6765
2019-06-21,7678
2019-06-22,8942
2019-06-23,6371
2019-06-24,7114
2019-06-25,7908
2019-06-26,11848
2019-06-27,10983
2019-06-28,8156
2019-06-29,6560
2019-06-30,5818
2019-07-01,7341
2019-07-02,7766
2019-07-03,7047
2019-07-04,6192
2019-07-05,5934
2019-07-06,4710
2019-07-07,4261
2019-07-08,5798
2019-07-09,6859
2019-07-10,7326
2019-07-11,6703
2019-07-12,5407
2019-07-13,4223
2019-07-14,4581
2019-07-15,6028
2019-07-16,6350
2019-07-17,6462
2019-07-18,5244
2019-07-19,4744
2019-07-20,3741
2019-07-21,3349
2019-07-22,4460
2019-07-23,4531
2019-07-24,4352
2019-07-25,3999
2019-07-26,3874
2019-07-27,3541
2019-07-28,2947
2019-07-29,4182
2019-07-30,4081
2019-07-31,4566
2019-08-01,4275
2019-08-02,4205
2019-08-03,3266
2019-08-04,3124
2019-08-05,5523
2019-08-06,5276
2019-08-07,4542
2019-08-08,4593
2019-08-09,4132
2019-08-10,3458
2019-08-11,2896
2019-08-12,3188
2019-08-13,3782
2019-08-14,4763
2019-08-15,5098
2019-08-16,4036
2019-08-17,2633
2019-08-18,2576
2019-08-19,3825
2019-08-20,3565
2019-08-21,4241
2019-08-22,3850
2019-08-23,3346
2019-08-24,3013
2019-08-25,2483
2019-08-26,3718
2019-08-27,3624
2019-08-28,3960
2019-08-29,4521
2019-08-30,3343
2019-08-31,2440
2019-09-01,2293
2019-09-02,3755
2019-09-03,4399
2019-09-04,3694
2019-09-05,3566
2019-09-06,4101
2019-09-07,2845
2019-09-08,2536
2019-09-09,3714
2019-09-10,3550
2019-09-11,3630
2019-09-12,3354
2019-09-13,2987
2019-09-14,2265
2019-09-15,2111
2019-09-16,3500
2019-09-17,4029
2019-09-18,4428
2019-09-19,4489
2019-09-20,3659
2019-09-21,2486
2019-09-22,2409
2019-09-23,3474
2019-09-24,5253
2019-09-25,5590
2019-09-26,4420
2019-09-27,3890
2019-09-28,2728
2019-09-29,2561
2019-09-30,3894
2019-10-01,3541
2019-10-02,3023
2019-10-03,2763
2019-10-04,2737
2019-10-05,2101
2019-10-06,2268
2019-10-07,3242
2019-10-08,3304
2019-10-09,3701
2019-10-10,3619
2019-10-11,3179
2019-10-12,2153
2019-10-13,2055
2019-10-14,2839
2019-10-15,3122
2019-10-16,3209
2019-10-17,3237
2019-10-18,3291
2019-10-19,2388
2019-10-20,2413
2019-10-21,3377
2019-10-22,3248
2019-10-23,4369
2019-10-24,3638
2019-10-25,4205
2019-10-26,5025
2019-10-27,3335
2019-10-28,4339
2019-10-29,4034
2019-10-30,4042
2019-10-31,3799
2019-11-01,3507
2019-11-02,2534
2019-11-03,2239
2019-11-04,3213
2019-11-05,3752
2019-11-06,3305
2019-11-07,3199
2019-11-08,3252
2019-11-09,2290
2019-11-10,2286
2019-11-11,3029
2019-11-12,2912
2019-11-13,2946
2019-11-14,2864
2019-11-15,3245
2019-11-16,2129
2019-11-17,2014
2019-11-18,3092
2019-11-19,3373
2019-11-20,3033
2019-11-21,4029
2019-11-22,4933
2019-11-23,2734
2019-11-24,2542
2019-11-25,4548
2019-11-26,3586
2019-11-27,3617
2019-11-28,3136
2019-11-29,3098
2019-11-30,2408
2019-12-01,2443
2019-12-02,3098
2019-12-03,3080
2019-12-04,3762
2019-12-05,3671
2019-12-06,3300
2019-12-07,2455
2019-12-08,2300
2019-12-09,3282
2019-12-10,3876
2019-12-11,3276
2019-12-12,3245
2019-12-13,3120
2019-12-14,2490
2019-12-15,2379
2019-12-16,3361
2019-12-17,4475
2019-12-18,4509
2019-12-19,4007
2019-12-20,3254
2019-12-21,2155
2019-12-22,2231
2019-12-23,3681
2019-12-24,3128
2019-12-25,2349
2019-12-26,2502
2019-12-27,2957
2019-12-28,2231
2019-12-29,2289
2019-12-30,3036
2019-12-31,2684
2020-01-01,1854
2020-01-02,2815
2020-01-03,3565
2020-01-04,2369
2020-01-05,2502
2020-01-06,3718
2020-01-07,4607
2020-01-08,4701
2020-01-09,3616
2020-01-10,3582
2020-01-11,2961
2020-01-12,2254
2020-01-13,2881
2020-01-14,5507
2020-01-15,5234
2020-01-16,4010
2020-01-17,4353
2020-01-18,3049
2020-01-19,3594
2020-01-20,3365
2020-01-21,3270
2020-01-22,3120
2020-01-23,3516
2020-01-24,3125
2020-01-25,2182
2020-01-26,2102
2020-01-27,3504
2020-01-28,4078
2020-01-29,4426
2020-01-30,4145
2020-01-31,3935
2020-02-01,2932
2020-02-02,3208
2020-02-03,3805
2020-02-04,4086
2020-02-05,4831
2020-02-06,5039
2020-02-07,4650
2020-02-08,4078
2020-02-09,4340
2020-02-10,4977
2020-02-11,4967
2020-02-12,6282
2020-02-13,5941
2020-02-14,5222
2020-02-15,4829
2020-02-16,4340
2020-02-17,5139
2020-02-18,4886
2020-02-19,4615
2020-02-20,5107
2020-02-21,3995
2020-02-22,2730
2020-02-23,3130
2020-02-24,3853
2020-02-25,4537
2020-02-26,5942
2020-02-27,4699
2020-02-28,4518
2020-02-29,3117
2020-03-01,3119
2020-03-02,4050
2020-03-03,3810
2020-03-04,3682
2020-03-05,4074
2020-03-06,3708
2020-03-07,3052
2020-03-08,4206
2020-03-09,5987
2020-03-10,4656
2020-03-11,4244
2020-03-12,9049
2020-03-13,10816
2020-03-14,5656
2020-03-15,4771
2020-03-16,7424
2020-03-17,5514
2020-03-18,5518
2020-03-19,7121
2020-03-20,6569
2020-03-21,4137
2020-03-22,4050
2020-03-23,5193
2020-03-24,5106
2020-03-25,4451
2020-03-26,4406
2020-03-27,4134
2020-03-28,4060
2020-03-29,3428
2020-03-30,4993
2020-03-31,5028
2020-04-01,4445
2020-04-02,5080
2020-04-03,4703
2020-04-04,3480
2020-04-05,2987
2020-04-06,4696
2020-04-07,5258
2020-04-08,4246
2020-04-09,4146
2020-04-10,4646
2020-04-11,3048
2020-04-12,3129
2020-04-13,4371
2020-04-14,4047
2020-04-15,4094
2020-04-16,5211
2020-04-17,3799
2020-04-18,3282
2020-04-19,3104
2020-04-20,4548
2020-04-21,4069
2020-04-22,3907
2020-04-23,5071
2020-04-24,4947
2020-04-25,3889
2020-04-26,3779
2020-04-27,5021
2020-04-28,4483
2020-04-29,7661
2020-04-30,7364
2020-05-01,5513
2020-05-02,3880
2020-05-03,4130
2020-05-04,4725
2020-05-05,4937
2020-05-06,5580
2020-05-07,7128
2020-05-08,6923
2020-05-09,5003
2020-05-10,6305
2020-05-11,6204
2020-05-12,5315
2020-05-13,5306
2020-05-14,5384
2020-05-15,5615
2020-05-16,3957
2020-05-17,3816
2020-05-18,4859
2020-05-19,4488
2020-05-20,5399
2020-05-21,5612
2020-05-22,5478
2020-05-23,3627
2020-05-24,3516
2020-05-25,4677
2020-05-26,4441
2020-05-27,4410
2020-05-28,4833
2020-05-29,4430
2020-05-30,3820
2020-05-31,3898
2020-06-01,4647
2020-06-02,6166
2020-06-03,4621
2020-06-04,4711
2020-06-05,4365
2020-06-06,3474
2020-06-07,3365
2020-06-08,4241
2020-06-09,4498
2020-06-10,4505
2020-06-11,5272
2020-06-12,4433
2020-06-13,3126
2020-06-14,2918
2020-06-15,4572
2020-06-16,4149
2020-06-17,4078
2020-06-18,4096
2020-06-19,4360
2020-06-20,3139
2020-06-21,2811
2020-06-22,4458
2020-06-23,4284
2020-06-24,4270
2020-06-25,4122
2020-06-26,3923
2020-06-27,3244
2020-06-28,3072
2020-06-29,3923
2020-06-30,3892
2020-07-01,4567
2020-07-02,4402
2020-07-03,4094
2020-07-04,3170
2020-07-05,3013
2020-07-06,4627
2020-07-07,4749
2020-07-08,6071
2020-07-09,5099
2020-07-10,4492
2020-07-11,3383
2020-07-12,3306
2020-07-13,4965
2020-07-14,4744
2020-07-15,4631
2020-07-16,5168
2020-07-17,4468
2020-07-18,3736
2020-07-19,3662
2020-07-20,4779
2020-07-21,5178
2020-07-22,5073
2020-07-23,5583
2020-07-24,4661
2020-07-25,4334
2020-07-26,4882
2020-07-27,7468
2020-07-28,6985
2020-07-29,5856
2020-07-30,5806
2020-07-31,5987
2020-08-01,5673
2020-08-02,5782
2020-08-03,5870
2020-08-04,5612
2020-08-05,5701
2020-08-06,5926
2020-08-07,5801
2020-08-08,4596
2020-08-09,4508
2020-08-10,6585
2020-08-11,6689
2020-08-12,6196
2020-08-13,6997
2020-08-14,7244
2020-08-15,5360
2020-08-16,5144
2020-08-17,7110
2020-08-18,7278
2020-08-19,6510
2020-08-20,6053
2020-08-21,6079
2020-08-22,4696
2020-08-23,4107
2020-08-24,5347
2020-08-25,6514
2020-08-26,5889
2020-08-27,5926
2020-08-28,5702
2020-08-29,4959
2020-08-30,4949
2020-08-31,6311
2020-09-01,7944
2020-09-02,7346
2020-09-03,7289
2020-09-04,7595
2020-09-05,5775
2020-09-06,4779
2020-09-07,5227
2020-09-08,5380
2020-09-09,5074
2020-09-10,5423
2020-09-11,4806
2020-09-12,4052
2020-09-13,3898
2020-09-14,5200
2020-09-15,5150
2020-09-16,5112
2020-09-17,5160
2020-09-18,5099
2020-09-19,3891
2020-09-20,3415
2020-09-21,4974
2020-09-22,4739
2020-09-23,4952
2020-09-24,4708
2020-09-25,4698
2020-09-26,2894
2020-09-27,2709
2020-09-28,3889
2020-09-29,4269
2020-09-30,4036
2020-10-01,4453
2020-10-02,6138
2020-10-03,2963
2020-10-04,2631
2020-10-05,3624
2020-10-06,4186
2020-10-07,4372
2020-10-08,4149
2020-10-09,4377
2020-10-10,3661
2020-10-11,3017
2020-10-12,4225
2020-10-13,4143
2020-10-14,4122
2020-10-15,4372
2020-10-16,4121
2020-10-17,2865
2020-10-18,2490
2020-10-19,4057
2020-10-20,4563
2020-10-21,5505
2020-10-22,5665
2020-10-23,4292
2020-10-24,3035
2020-10-25,3168
2020-10-26,4230
2020-10-27,4607
2020-10-28,4797
2020-10-29,4727
2020-10-30,4599
2020-10-31,3768
2020-11-01,2980
2020-11-02,4547
2020-11-03,4949
2020-11-04,4724
2020-11-05,6118
2020-11-06,6188
2020-11-07,4454
2020-11-08,3597
2020-11-09,4976
2020-11-10,4942
2020-11-11,4978
2020-11-12,5480
2020-11-13,5090
2020-11-14,3580
2020-11-15,3230
2020-11-16,4784
2020-11-17,5957
2020-11-18,6775
2020-11-19,5134
2020-11-20,5690
2020-11-21,5252
2020-11-22,4903
2020-11-23,6379
2020-11-24,8135
2020-11-25,7247
2020-11-26,7884
2020-11-27,5629
2020-11-28,4510
2020-11-29,4083
2020-11-30,6132
2020-12-01,7530
2020-12-02,5731
2020-12-03,5575
2020-12-04,5317
2020-12-05,3667
2020-12-06,3521
2020-12-07,4660
2020-12-08,4891
2020-12-09,5133
2020-12-10,4691
2020-12-11,4972
2020-12-12,3913
2020-12-13,3636
2020-12-14,4292
2020-12-15,4605
2020-12-16,5706
2020-12-17,7732
2020-12-18,6204
2020-12-19,5075
2020-12-20,4541
2020-12-21,5326
2020-12-22,5927
2020-12-23,6507
2020-12-24,5471
2020-12-25,4441
2020-12-26,5189
2020-12-27,6613
2020-12-28,6060
2020-12-29,6619
2020-12-30,6669
2020-12-31,6191
2021-01-01,5134
2021-01-02,7575
2021-01-03,8152
2021-01-04,9516
2021-01-05,8633
2021-01-06,8980
2021-01-07,10203
2021-01-08,8905
2021-01-09,7067
2021-01-10,6952
2021-01-11,9625
2021-01-12,7163
2021-01-13,6712
2021-01-14,6829
2021-01-15,7016
2021-01-16,6414
2021-01-17,5572
2021-01-18,6151
2021-01-19,6778
2021-01-20,6365
2021-01-21,7588
2021-01-22,7399
2021-01-23,4950
2021-01-24,4642
2021-01-25,6178
2021-01-26,5883
2021-01-27,6957
2021-01-28,7865
2021-01-29,11481
2021-01-30,8011
2021-01-31,7106
2021-02-01,7980
2021-02-02,7980
2021-02-03,7844
2021-02-04,8763
2021-02-05,8814
2021-02-06,7966
2021-02-07,7088
2021-02-08,10030
2021-02-09,11738
2021-02-10,9674
2021-02-11,9938
2021-02-12,9677
2021-02-13,7877
2021-02-14,7629
2021-02-15,8405
2021-02-16,8304
2021-02-17,9689
2021-02-18,9735
2021-02-19,9888
2021-02-20,10824
2021-02-21,8345
2021-02-22,11027
2021-02-23,11075
2021-02-24,9773
2021-02-25,8339
2021-02-26,8635
2021-02-27,6670
2021-02-28,6768
2021-03-01,8664
2021-03-02,7767
2021-03-03,8092
2021-03-04,7340
2021-03-05,7312
2021-03-06,5305
2021-03-07,6226
2021-03-08,7295
2021-03-09,8420
2021-03-10,9033
2021-03-11,7851
2021-03-12,8625
2021-03-13,8381
2021-03-14,6988
2021-03-15,9171
2021-03-16,8736
2021-03-17,8229
2021-03-18,8270
2021-03-19,7582
2021-03-20,6712
2021-03-21,6178
2021-03-22,8006
2021-03-23,8015
2021-03-24,7832
2021-03-25,7840
2021-03-26,7545
2021-03-27,5809
2021-03-28,5571
2021-03-29,7300
2021-03-30,8058
2021-03-31,8020
2021-04-01,8567
2021-04-02,7724
2021-04-03,6842
2021-04-04,5895
2021-04-05,8445
2021-04-06,9210
2021-04-07,8886
