t,v
2009-01-03,0
2009-01-04,0
2009-01-05,0
2009-01-06,0
2009-01-07,0
2009-01-08,0
2009-01-09,0
2009-01-10,0
2009-01-11,0
2009-01-12,0
2009-01-13,0
2009-01-14,0
2009-01-15,1
2009-01-16,3
2009-01-17,3
2009-01-18,4
2009-01-19,5
2009-01-20,6
2009-01-21,7
2009-01-22,7
2009-01-23,8
2009-01-24,9
2009-01-25,9
2009-01-26,9
2009-01-27,10
2009-01-28,10
2009-01-29,10
2009-01-30,10
2009-01-31,11
2009-02-01,12
2009-02-02,12
2009-02-03,12
2009-02-04,12
2009-02-05,12
2009-02-06,12
2009-02-07,15
2009-02-08,15
2009-02-09,15
2009-02-10,15
2009-02-11,17
2009-02-12,17
2009-02-13,17
2009-02-14,17
2009-02-15,18
2009-02-16,18
2009-02-17,18
2009-02-18,18
2009-02-19,18
2009-02-20,18
2009-02-21,18
2009-02-22,19
2009-02-23,19
2009-02-24,19
2009-02-25,19
2009-02-26,19
2009-02-27,19
2009-02-28,19
2009-03-01,19
2009-03-02,19
2009-03-03,19
2009-03-04,19
2009-03-05,19
2009-03-06,19
2009-03-07,19
2009-03-08,19
2009-03-09,19
2009-03-10,19
2009-03-11,19
2009-03-12,20
2009-03-13,19
2009-03-14,19
2009-03-15,19
2009-03-16,19
2009-03-17,19
2009-03-18,19
2009-03-19,19
2009-03-20,19
2009-03-21,19
2009-03-22,19
2009-03-23,19
2009-03-24,19
2009-03-25,19
2009-03-26,19
2009-03-27,19
2009-03-28,19
2009-03-29,19
2009-03-30,19
2009-03-31,19
2009-04-01,19
2009-04-02,19
2009-04-03,19
2009-04-04,19
2009-04-05,19
2009-04-06,19
2009-04-07,19
2009-04-08,19
2009-04-09,19
2009-04-10,19
2009-04-11,20
2009-04-12,19
2009-04-13,19
2009-04-14,19
2009-04-15,19
2009-04-16,19
2009-04-17,19
2009-04-18,19
2009-04-19,19
2009-04-20,20
2009-04-21,20
2009-04-22,20
2009-04-23,20
2009-04-24,20
2009-04-25,20
2009-04-26,20
2009-04-27,20
2009-04-28,20
2009-04-29,20
2009-04-30,20
2009-05-01,20
2009-05-02,21
2009-05-03,21
2009-05-04,21
2009-05-05,21
2009-05-06,21
2009-05-07,21
2009-05-08,21
2009-05-09,21
2009-05-10,21
2009-05-11,21
2009-05-12,21
2009-05-13,21
2009-05-14,22
2009-05-15,22
2009-05-16,22
2009-05-17,22
2009-05-18,22
2009-05-19,22
2009-05-20,22
2009-05-21,22
2009-05-22,22
2009-05-23,22
2009-05-24,22
2009-05-25,22
2009-05-26,22
2009-05-27,22
2009-05-28,22
2009-05-29,22
2009-05-30,22
2009-05-31,22
2009-06-01,22
2009-06-02,22
2009-06-03,22
2009-06-04,22
2009-06-05,22
2009-06-06,22
2009-06-07,22
2009-06-08,22
2009-06-09,22
2009-06-10,22
2009-06-11,22
2009-06-12,22
2009-06-13,22
2009-06-14,22
2009-06-15,22
2009-06-16,22
2009-06-17,22
2009-06-18,22
2009-06-19,22
2009-06-20,22
2009-06-21,22
2009-06-22,22
2009-06-23,22
2009-06-24,22
2009-06-25,22
2009-06-26,22
2009-06-27,22
2009-06-28,22
2009-06-29,22
2009-06-30,23
2009-07-01,23
2009-07-02,23
2009-07-03,23
2009-07-04,23
2009-07-05,23
2009-07-06,23
2009-07-07,23
2009-07-08,23
2009-07-09,23
2009-07-10,23
2009-07-11,23
2009-07-12,23
2009-07-13,23
2009-07-14,23
2009-07-15,23
2009-07-16,23
2009-07-17,23
2009-07-18,23
2009-07-19,23
2009-07-20,23
2009-07-21,23
2009-07-22,23
2009-07-23,23
2009-07-24,23
2009-07-25,23
2009-07-26,23
2009-07-27,23
2009-07-28,23
2009-07-29,24
2009-07-30,24
2009-07-31,24
2009-08-01,24
2009-08-02,24
2009-08-03,24
2009-08-04,24
2009-08-05,24
2009-08-06,24
2009-08-07,24
2009-08-08,24
2009-08-09,24
2009-08-10,24
2009-08-11,24
2009-08-12,24
2009-08-13,24
2009-08-14,24
2009-08-15,24
2009-08-16,24
2009-08-17,24
2009-08-18,24
2009-08-19,24
2009-08-20,24
2009-08-21,24
2009-08-22,24
2009-08-23,24
2009-08-24,24
2009-08-25,24
2009-08-26,24
2009-08-27,24
2009-08-28,24
2009-08-29,24
2009-08-30,24
2009-08-31,25
2009-09-01,25
2009-09-02,25
2009-09-03,25
2009-09-04,25
2009-09-05,25
2009-09-06,25
2009-09-07,25
2009-09-08,25
2009-09-09,25
2009-09-10,25
2009-09-11,25
2009-09-12,25
2009-09-13,25
2009-09-14,25
2009-09-15,25
2009-09-16,25
2009-09-17,25
2009-09-18,25
2009-09-19,25
2009-09-20,25
2009-09-21,25
2009-09-22,25
2009-09-23,25
2009-09-24,25
2009-09-25,25
2009-09-26,25
2009-09-27,25
2009-09-28,25
2009-09-29,25
2009-09-30,25
2009-10-01,25
2009-10-02,25
2009-10-03,25
2009-10-04,25
2009-10-05,25
2009-10-06,26
2009-10-07,26
2009-10-08,26
2009-10-09,26
2009-10-10,26
2009-10-11,26
2009-10-12,26
2009-10-13,26
2009-10-14,26
2009-10-15,26
2009-10-16,26
2009-10-17,26
2009-10-18,26
2009-10-19,26
2009-10-20,26
2009-10-21,26
2009-10-22,26
2009-10-23,26
2009-10-24,26
2009-10-25,26
2009-10-26,26
2009-10-27,26
2009-10-28,26
2009-10-29,26
2009-10-30,26
2009-10-31,26
2009-11-01,26
2009-11-02,26
2009-11-03,26
2009-11-04,26
2009-11-05,26
2009-11-06,26
2009-11-07,26
2009-11-08,26
2009-11-09,26
2009-11-10,26
2009-11-11,26
2009-11-12,26
2009-11-13,26
2009-11-14,26
2009-11-15,26
2009-11-16,26
2009-11-17,26
2009-11-18,26
2009-11-19,26
2009-11-20,26
2009-11-21,26
2009-11-22,26
2009-11-23,26
2009-11-24,26
2009-11-25,26
2009-11-26,26
2009-11-27,26
2009-11-28,26
2009-11-29,26
2009-11-30,26
2009-12-01,27
2009-12-02,27
2009-12-03,27
2009-12-04,27
2009-12-05,28
2009-12-06,29
2009-12-07,29
2009-12-08,29
2009-12-09,30
2009-12-10,30
2009-12-11,30
2009-12-12,30
2009-12-13,30
2009-12-14,32
2009-12-15,32
2009-12-16,33
2009-12-17,34
2009-12-18,34
2009-12-19,34
2009-12-20,34
2009-12-21,34
2009-12-22,34
2009-12-23,34
2009-12-24,34
2009-12-25,34
2009-12-26,34
2009-12-27,35
2009-12-28,35
2009-12-29,35
2009-12-30,35
2009-12-31,35
2010-01-01,35
2010-01-02,35
2010-01-03,35
2010-01-04,35
2010-01-05,35
2010-01-06,35
2010-01-07,35
2010-01-08,35
2010-01-09,35
2010-01-10,35
2010-01-11,35
2010-01-12,35
2010-01-13,35
2010-01-14,35
2010-01-15,35
2010-01-16,36
2010-01-17,36
2010-01-18,36
2010-01-19,36
2010-01-20,36
2010-01-21,37
2010-01-22,37
2010-01-23,37
2010-01-24,37
2010-01-25,37
2010-01-26,37
2010-01-27,37
2010-01-28,37
2010-01-29,37
2010-01-30,39
2010-01-31,39
2010-02-01,39
2010-02-02,39
2010-02-03,39
2010-02-04,40
2010-02-05,42
2010-02-06,43
2010-02-07,43
2010-02-08,44
2010-02-09,47
2010-02-10,47
2010-02-11,47
2010-02-12,47
2010-02-13,47
2010-02-14,47
2010-02-15,47
2010-02-16,48
2010-02-17,48
2010-02-18,50
2010-02-19,50
2010-02-20,50
2010-02-21,51
2010-02-22,51
2010-02-23,51
2010-02-24,54
2010-02-25,55
2010-02-26,55
2010-02-27,55
2010-02-28,55
2010-03-01,56
2010-03-02,56
2010-03-03,55
2010-03-04,57
2010-03-05,58
2010-03-06,56
2010-03-07,56
2010-03-08,58
2010-03-09,59
2010-03-10,61
2010-03-11,62
2010-03-12,62
2010-03-13,63
2010-03-14,62
2010-03-15,62
2010-03-16,65
2010-03-17,66
2010-03-18,69
2010-03-19,71
2010-03-20,76
2010-03-21,76
2010-03-22,77
2010-03-23,81
2010-03-24,83
2010-03-25,87
2010-03-26,87
2010-03-27,86
2010-03-28,86
2010-03-29,86
2010-03-30,87
2010-03-31,89
2010-04-01,90
2010-04-02,90
2010-04-03,91
2010-04-04,91
2010-04-05,94
2010-04-06,94
2010-04-07,97
2010-04-08,99
2010-04-09,107
2010-04-10,113
2010-04-11,109
2010-04-12,109
2010-04-13,111
2010-04-14,119
2010-04-15,123
2010-04-16,129
2010-04-17,132
2010-04-18,142
2010-04-19,146
2010-04-20,152
2010-04-21,154
2010-04-22,158
2010-04-23,158
2010-04-24,164
2010-04-25,171
2010-04-26,173
2010-04-27,176
2010-04-28,177
2010-04-29,182
2010-04-30,181
2010-05-01,183
2010-05-02,184
2010-05-03,181
2010-05-04,186
2010-05-05,184
2010-05-06,190
2010-05-07,190
2010-05-08,193
2010-05-09,194
2010-05-10,198
2010-05-11,199
2010-05-12,196
2010-05-13,196
2010-05-14,197
2010-05-15,197
2010-05-16,201
2010-05-17,197
2010-05-18,202
2010-05-19,205
2010-05-20,206
2010-05-21,210
2010-05-22,212
2010-05-23,210
2010-05-24,212
2010-05-25,213
2010-05-26,216
2010-05-27,221
2010-05-28,223
2010-05-29,223
2010-05-30,224
2010-05-31,226
2010-06-01,225
2010-06-02,227
2010-06-03,230
2010-06-04,231
2010-06-05,232
2010-06-06,232
2010-06-07,228
2010-06-08,233
2010-06-09,200
2010-06-10,199
2010-06-11,205
2010-06-12,207
2010-06-13,212
2010-06-14,214
2010-06-15,213
2010-06-16,218
2010-06-17,223
2010-06-18,221
2010-06-19,190
2010-06-20,192
2010-06-21,196
2010-06-22,198
2010-06-23,201
2010-06-24,203
2010-06-25,205
2010-06-26,209
2010-06-27,221
2010-06-28,229
2010-06-29,235
2010-06-30,242
2010-07-01,251
2010-07-02,260
2010-07-03,259
2010-07-04,266
2010-07-05,275
2010-07-06,284
2010-07-07,290
2010-07-08,295
2010-07-09,304
2010-07-10,311
2010-07-11,320
2010-07-12,346
2010-07-13,373
2010-07-14,395
2010-07-15,417
2010-07-16,436
2010-07-17,444
2010-07-18,472
2010-07-19,503
2010-07-20,514
2010-07-21,534
2010-07-22,532
2010-07-23,546
2010-07-24,556
2010-07-25,562
2010-07-26,574
2010-07-27,581
2010-07-28,590
2010-07-29,591
2010-07-30,592
2010-07-31,602
2010-08-01,606
2010-08-02,623
2010-08-03,640
2010-08-04,654
2010-08-05,666
2010-08-06,670
2010-08-07,684
2010-08-08,692
2010-08-09,691
2010-08-10,704
2010-08-11,703
2010-08-12,710
2010-08-13,712
2010-08-14,718
2010-08-15,721
2010-08-16,728
2010-08-17,731
2010-08-18,734
2010-08-19,741
2010-08-20,742
2010-08-21,745
2010-08-22,755
2010-08-23,763
2010-08-24,769
2010-08-25,777
2010-08-26,787
2010-08-27,790
2010-08-28,797
2010-08-29,805
2010-08-30,808
2010-08-31,796
2010-09-01,799
2010-09-02,804
2010-09-03,810
2010-09-04,812
2010-09-05,812
2010-09-06,819
2010-09-07,822
2010-09-08,829
2010-09-09,832
2010-09-10,833
2010-09-11,833
2010-09-12,834
2010-09-13,848
2010-09-14,848
2010-09-15,839
2010-09-16,837
2010-09-17,846
2010-09-18,850
2010-09-19,856
2010-09-20,859
2010-09-21,870
2010-09-22,881
2010-09-23,880
2010-09-24,880
2010-09-25,886
2010-09-26,886
2010-09-27,893
2010-09-28,894
2010-09-29,901
2010-09-30,904
2010-10-01,897
2010-10-02,889
2010-10-03,897
2010-10-04,915
2010-10-05,909
2010-10-06,910
2010-10-07,909
2010-10-08,920
2010-10-09,920
2010-10-10,910
2010-10-11,920
2010-10-12,931
2010-10-13,944
2010-10-14,946
2010-10-15,956
2010-10-16,958
2010-10-17,967
2010-10-18,972
2010-10-19,975
2010-10-20,982
2010-10-21,994
2010-10-22,990
2010-10-23,991
2010-10-24,991
2010-10-25,992
2010-10-26,991
2010-10-27,980
2010-10-28,985
2010-10-29,992
2010-10-30,994
2010-10-31,999
2010-11-01,1006
2010-11-02,1015
2010-11-03,1022
2010-11-04,1018
2010-11-05,1017
2010-11-06,1014
2010-11-07,1034
2010-11-08,1038
2010-11-09,1046
2010-11-10,1062
2010-11-11,1064
2010-11-12,1076
2010-11-13,1094
2010-11-14,1108
2010-11-15,1114
2010-11-16,1122
2010-11-17,1139
2010-11-18,1147
2010-11-19,1161
2010-11-20,1169
2010-11-21,1170
2010-11-22,1178
2010-11-23,1163
2010-11-24,1170
2010-11-25,1171
2010-11-26,1182
2010-11-27,1188
2010-11-28,1192
2010-11-29,1194
2010-11-30,1196
2010-12-01,1199
2010-12-02,1208
2010-12-03,1213
2010-12-04,1206
2010-12-05,1207
2010-12-06,1222
2010-12-07,1235
2010-12-08,1237
2010-12-09,1246
2010-12-10,1250
2010-12-11,1252
2010-12-12,1264
2010-12-13,1267
2010-12-14,1274
2010-12-15,1270
2010-12-16,1282
2010-12-17,1280
2010-12-18,1278
2010-12-19,1290
2010-12-20,1297
2010-12-21,1309
2010-12-22,1316
2010-12-23,1322
2010-12-24,1322
2010-12-25,1324
2010-12-26,1332
2010-12-27,1336
2010-12-28,1344
2010-12-29,1362
2010-12-30,1371
2010-12-31,1375
2011-01-01,1372
2011-01-02,1379
2011-01-03,1395
2011-01-04,1397
2011-01-05,1400
2011-01-06,1410
2011-01-07,1413
2011-01-08,1422
2011-01-09,1431
2011-01-10,1435
2011-01-11,1437
2011-01-12,1438
2011-01-13,1440
2011-01-14,1449
2011-01-15,1453
2011-01-16,1453
2011-01-17,1447
2011-01-18,1446
2011-01-19,1444
2011-01-20,1445
2011-01-21,1451
2011-01-22,1462
2011-01-23,1460
2011-01-24,1474
2011-01-25,1483
2011-01-26,1491
2011-01-27,1379
2011-01-28,1379
2011-01-29,1386
2011-01-30,1401
2011-01-31,1410
2011-02-01,1417
2011-02-02,1399
2011-02-03,1390
2011-02-04,1390
2011-02-05,1366
2011-02-06,1370
2011-02-07,1388
2011-02-08,1392
2011-02-09,1395
2011-02-10,1408
2011-02-11,1430
2011-02-12,1433
2011-02-13,1442
2011-02-14,1462
2011-02-15,1473
2011-02-16,1479
2011-02-17,1495
2011-02-18,1505
2011-02-19,1511
2011-02-20,1504
2011-02-21,1521
2011-02-22,1522
2011-02-23,1543
2011-02-24,1547
2011-02-25,1554
2011-02-26,1567
2011-02-27,1574
2011-02-28,1593
2011-03-01,1587
2011-03-02,1619
2011-03-03,1641
2011-03-04,1649
2011-03-05,1665
2011-03-06,1668
2011-03-07,1682
2011-03-08,1683
2011-03-09,1686
2011-03-10,1702
2011-03-11,1709
2011-03-12,1718
2011-03-13,1729
2011-03-14,1743
2011-03-15,1752
2011-03-16,1756
2011-03-17,1755
2011-03-18,1760
2011-03-19,1770
2011-03-20,1780
2011-03-21,1780
2011-03-22,1792
2011-03-23,1793
2011-03-24,1809
2011-03-25,1821
2011-03-26,1828
2011-03-27,1838
2011-03-28,1846
2011-03-29,1853
2011-03-30,1865
2011-03-31,1878
2011-04-01,1882
2011-04-02,1900
2011-04-03,1916
2011-04-04,1921
2011-04-05,1933
2011-04-06,1950
2011-04-07,1955
2011-04-08,1973
2011-04-09,1980
2011-04-10,1994
2011-04-11,2002
2011-04-12,2024
2011-04-13,2038
2011-04-14,2042
2011-04-15,2067
2011-04-16,2098
2011-04-17,2116
2011-04-18,2144
2011-04-19,2033
2011-04-20,2021
2011-04-21,2074
2011-04-22,2096
2011-04-23,2147
2011-04-24,2168
2011-04-25,2182
2011-04-26,2188
2011-04-27,2201
2011-04-28,2220
2011-04-29,2257
2011-04-30,2233
2011-05-01,2261
2011-05-02,2284
2011-05-03,2288
2011-05-04,2315
2011-05-05,2356
2011-05-06,2377
2011-05-07,2402
2011-05-08,2427
2011-05-09,2449
2011-05-10,2510
2011-05-11,2513
2011-05-12,2548
2011-05-13,2580
2011-05-14,2617
2011-05-15,2622
2011-05-16,2632
2011-05-17,2660
2011-05-18,2670
2011-05-19,2711
2011-05-20,2732
2011-05-21,2670
2011-05-22,2680
2011-05-23,2736
2011-05-24,2788
2011-05-25,2835
2011-05-26,2867
2011-05-27,2893
2011-05-28,2934
2011-05-29,2947
2011-05-30,2984
2011-05-31,2958
2011-06-01,2996
2011-06-02,3027
2011-06-03,2996
2011-06-04,3037
2011-06-05,3022
2011-06-06,3087
2011-06-07,3095
2011-06-08,3163
2011-06-09,3149
2011-06-10,3189
2011-06-11,3212
2011-06-12,3017
2011-06-13,3030
2011-06-14,3050
2011-06-15,3056
2011-06-16,3070
2011-06-17,3108
2011-06-18,3112
2011-06-19,3051
2011-06-20,3067
2011-06-21,3069
2011-06-22,3082
2011-06-23,3101
2011-06-24,3112
2011-06-25,3184
2011-06-26,3261
2011-06-27,3349
2011-06-28,3428
2011-06-29,3486
2011-06-30,3524
2011-07-01,3494
2011-07-02,3513
2011-07-03,3540
2011-07-04,3555
2011-07-05,3555
2011-07-06,3562
2011-07-07,3590
2011-07-08,3617
2011-07-09,3642
2011-07-10,3675
2011-07-11,3700
2011-07-12,3727
2011-07-13,3749
2011-07-14,3771
2011-07-15,3796
2011-07-16,3805
2011-07-17,3824
2011-07-18,3746
2011-07-19,3761
2011-07-20,3799
2011-07-21,3816
2011-07-22,3825
2011-07-23,3823
2011-07-24,3841
2011-07-25,3872
2011-07-26,3864
2011-07-27,3877
2011-07-28,3948
2011-07-29,3975
2011-07-30,3987
2011-07-31,4009
2011-08-01,4028
2011-08-02,4033
2011-08-03,4016
2011-08-04,4025
2011-08-05,3990
2011-08-06,4013
2011-08-07,4002
2011-08-08,3938
2011-08-09,3980
2011-08-10,4002
2011-08-11,4023
2011-08-12,4043
2011-08-13,4055
2011-08-14,4106
2011-08-15,4187
2011-08-16,4210
2011-08-17,4147
2011-08-18,4174
2011-08-19,4171
2011-08-20,4187
2011-08-21,4203
2011-08-22,4218
2011-08-23,4246
2011-08-24,4276
2011-08-25,4320
2011-08-26,4341
2011-08-27,4219
2011-08-28,4233
2011-08-29,4259
2011-08-30,4271
2011-08-31,4296
2011-09-01,4325
2011-09-02,4299
2011-09-03,4321
2011-09-04,4250
2011-09-05,4288
2011-09-06,4326
2011-09-07,4283
2011-09-08,4300
2011-09-09,4292
2011-09-10,4302
2011-09-11,4306
2011-09-12,4294
2011-09-13,4324
2011-09-14,4320
2011-09-15,4336
2011-09-16,4343
2011-09-17,4377
2011-09-18,4414
2011-09-19,4467
2011-09-20,4514
2011-09-21,4454
2011-09-22,4479
2011-09-23,4503
2011-09-24,4523
2011-09-25,4552
2011-09-26,4566
2011-09-27,4597
2011-09-28,4635
2011-09-29,4660
2011-09-30,4683
2011-10-01,4745
2011-10-02,4759
2011-10-03,4792
2011-10-04,4767
2011-10-05,4754
2011-10-06,4735
2011-10-07,4716
2011-10-08,4749
2011-10-09,4759
2011-10-10,4794
2011-10-11,4836
2011-10-12,4881
2011-10-13,4875
2011-10-14,4880
2011-10-15,4903
2011-10-16,4929
2011-10-17,4984
2011-10-18,5014
2011-10-19,4994
2011-10-20,5027
2011-10-21,5009
2011-10-22,5033
2011-10-23,5034
2011-10-24,5072
2011-10-25,5089
2011-10-26,5073
2011-10-27,5096
2011-10-28,5071
2011-10-29,5078
2011-10-30,5087
2011-10-31,5090
2011-11-01,5108
2011-11-02,5160
2011-11-03,5154
2011-11-04,5150
2011-11-05,5153
2011-11-06,5178
2011-11-07,5186
2011-11-08,5205
2011-11-09,5228
2011-11-10,5258
2011-11-11,5275
2011-11-12,5299
2011-11-13,5350
2011-11-14,5381
2011-11-15,5413
2011-11-16,5461
2011-11-17,5468
2011-11-18,5552
2011-11-19,5463
2011-11-20,5496
2011-11-21,5512
2011-11-22,5502
2011-11-23,5552
2011-11-24,5583
2011-11-25,5609
2011-11-26,5629
2011-11-27,5633
2011-11-28,5623
2011-11-29,5586
2011-11-30,5630
2011-12-01,5655
2011-12-02,5679
2011-12-03,5697
2011-12-04,5689
2011-12-05,5731
2011-12-06,5757
2011-12-07,5773
2011-12-08,5842
2011-12-09,6083
2011-12-10,6246
2011-12-11,6414
2011-12-12,6537
2011-12-13,6576
2011-12-14,6613
2011-12-15,6658
2011-12-16,6688
2011-12-17,6709
2011-12-18,6741
2011-12-19,6770
2011-12-20,6721
2011-12-21,6746
2011-12-22,6787
2011-12-23,6805
2011-12-24,6836
2011-12-25,6856
2011-12-26,6838
2011-12-27,6866
2011-12-28,6893
2011-12-29,6917
2011-12-30,6962
2011-12-31,6994
2012-01-01,7012
2012-01-02,7049
2012-01-03,7075
2012-01-04,7100
2012-01-05,7114
2012-01-06,7212
2012-01-07,7227
2012-01-08,7232
2012-01-09,7188
2012-01-10,7202
2012-01-11,7213
2012-01-12,7247
2012-01-13,7240
2012-01-14,7272
2012-01-15,7303
2012-01-16,7311
2012-01-17,7371
2012-01-18,7397
2012-01-19,7360
2012-01-20,7367
2012-01-21,7381
2012-01-22,7400
2012-01-23,7411
2012-01-24,7388
2012-01-25,7359
2012-01-26,7372
2012-01-27,7370
2012-01-28,7392
2012-01-29,7400
2012-01-30,7412
2012-01-31,7390
2012-02-01,7377
2012-02-02,7375
2012-02-03,7383
2012-02-04,7370
2012-02-05,7365
2012-02-06,7381
2012-02-07,7397
2012-02-08,7410
2012-02-09,7420
2012-02-10,7423
2012-02-11,7448
2012-02-12,7447
2012-02-13,7438
2012-02-14,7482
2012-02-15,7545
2012-02-16,7679
2012-02-17,7695
2012-02-18,7699
2012-02-19,7707
2012-02-20,7734
2012-02-21,7752
2012-02-22,7791
2012-02-23,7810
2012-02-24,7782
2012-02-25,7766
2012-02-26,7778
2012-02-27,7797
2012-02-28,7819
2012-02-29,7822
2012-03-01,7834
2012-03-02,7784
2012-03-03,7823
2012-03-04,7854
2012-03-05,7880
2012-03-06,7887
2012-03-07,7908
2012-03-08,7890
2012-03-09,7898
2012-03-10,7908
2012-03-11,7910
2012-03-12,7946
2012-03-13,7962
2012-03-14,7988
2012-03-15,7999
2012-03-16,8006
2012-03-17,8045
2012-03-18,8069
2012-03-19,8097
2012-03-20,8115
2012-03-21,8112
2012-03-22,8143
2012-03-23,8165
2012-03-24,8152
2012-03-25,8121
2012-03-26,8118
2012-03-27,8150
2012-03-28,8156
2012-03-29,8159
2012-03-30,8155
2012-03-31,8172
2012-04-01,8202
2012-04-02,8209
2012-04-03,8212
2012-04-04,8172
2012-04-05,8142
2012-04-06,8118
2012-04-07,8090
2012-04-08,8086
2012-04-09,8131
2012-04-10,8177
2012-04-11,8181
2012-04-12,8144
2012-04-13,8159
2012-04-14,8165
2012-04-15,8170
2012-04-16,8150
2012-04-17,8156
2012-04-18,8193
2012-04-19,8178
2012-04-20,8122
2012-04-21,8082
2012-04-22,8014
2012-04-23,8027
2012-04-24,7996
2012-04-25,7931
2012-04-26,7974
2012-04-27,7955
2012-04-28,7984
2012-04-29,8030
2012-04-30,8037
2012-05-01,8051
2012-05-02,8014
2012-05-03,7995
2012-05-04,8001
2012-05-05,7981
2012-05-06,7967
2012-05-07,7959
2012-05-08,7972
2012-05-09,7952
2012-05-10,7922
2012-05-11,7880
2012-05-12,7879
2012-05-13,7886
2012-05-14,7908
2012-05-15,7890
2012-05-16,7884
2012-05-17,7890
2012-05-18,7892
2012-05-19,7907
2012-05-20,7840
2012-05-21,7861
2012-05-22,7843
2012-05-23,7839
2012-05-24,7840
2012-05-25,7807
2012-05-26,7837
2012-05-27,7857
2012-05-28,7871
2012-05-29,7850
2012-05-30,7846
2012-05-31,7841
2012-06-01,7992
2012-06-02,8069
2012-06-03,8052
2012-06-04,8078
2012-06-05,8117
2012-06-06,8180
2012-06-07,8173
2012-06-08,8170
2012-06-09,8082
2012-06-10,8060
2012-06-11,8098
2012-06-12,8098
2012-06-13,8076
2012-06-14,8136
2012-06-15,8109
2012-06-16,8127
2012-06-17,8136
2012-06-18,8135
2012-06-19,8122
2012-06-20,8159
2012-06-21,8180
2012-06-22,8191
2012-06-23,8187
2012-06-24,8175
2012-06-25,8221
2012-06-26,8206
2012-06-27,8165
2012-06-28,8164
2012-06-29,8197
2012-06-30,8179
2012-07-01,8176
2012-07-02,8180
2012-07-03,8122
2012-07-04,8158
2012-07-05,8167
2012-07-06,8134
2012-07-07,8139
2012-07-08,8159
2012-07-09,8183
2012-07-10,8209
2012-07-11,8226
2012-07-12,8083
2012-07-13,8082
2012-07-14,8131
2012-07-15,8164
2012-07-16,8192
2012-07-17,8247
2012-07-18,8276
2012-07-19,8350
2012-07-20,8402
2012-07-21,8426
2012-07-22,8421
2012-07-23,8452
2012-07-24,8432
2012-07-25,8433
2012-07-26,8430
2012-07-27,8440
2012-07-28,8478
2012-07-29,8472
2012-07-30,8499
2012-07-31,8542
2012-08-01,8540
2012-08-02,8587
2012-08-03,8608
2012-08-04,8551
2012-08-05,8561
2012-08-06,8586
2012-08-07,8600
2012-08-08,8647
2012-08-09,8684
2012-08-10,8667
2012-08-11,8670
2012-08-12,8695
2012-08-13,8700
2012-08-14,8697
2012-08-15,8744
2012-08-16,8743
2012-08-17,8830
2012-08-18,8873
2012-08-19,8898
2012-08-20,9032
2012-08-21,9074
2012-08-22,9131
2012-08-23,9178
2012-08-24,9197
2012-08-25,9232
2012-08-26,9251
2012-08-27,9319
2012-08-28,9326
2012-08-29,9375
2012-08-30,9459
2012-08-31,9462
2012-09-01,9505
2012-09-02,9544
2012-09-03,9555
2012-09-04,9619
2012-09-05,9675
2012-09-06,9745
2012-09-07,9795
2012-09-08,9780
2012-09-09,9786
2012-09-10,9802
2012-09-11,9868
2012-09-12,9909
2012-09-13,9924
2012-09-14,9977
2012-09-15,9979
2012-09-16,10022
2012-09-17,10130
2012-09-18,10280
2012-09-19,10352
2012-09-20,10332
2012-09-21,10265
2012-09-22,10306
2012-09-23,10344
2012-09-24,10255
2012-09-25,10230
2012-09-26,10198
2012-09-27,10189
2012-09-28,10260
2012-09-29,10305
2012-09-30,10379
2012-10-01,10368
2012-10-02,10429
2012-10-03,10453
2012-10-04,10412
2012-10-05,10368
2012-10-06,10316
2012-10-07,10271
2012-10-08,10236
2012-10-09,10192
2012-10-10,10164
2012-10-11,10160
2012-10-12,10171
2012-10-13,10149
2012-10-14,10094
2012-10-15,10106
2012-10-16,10129
2012-10-17,10133
2012-10-18,10149
2012-10-19,10185
2012-10-20,10192
2012-10-21,10202
2012-10-22,10218
2012-10-23,10175
2012-10-24,10196
2012-10-25,10235
2012-10-26,10200
2012-10-27,10214
2012-10-28,10185
2012-10-29,10176
2012-10-30,10149
2012-10-31,10094
2012-11-01,10066
2012-11-02,10066
2012-11-03,10019
2012-11-04,9980
2012-11-05,9941
2012-11-06,9947
2012-11-07,10009
2012-11-08,10017
2012-11-09,10000
2012-11-10,10013
2012-11-11,10021
2012-11-12,10014
2012-11-13,10020
2012-11-14,10039
2012-11-15,10062
2012-11-16,10127
2012-11-17,10129
2012-11-18,10163
2012-11-19,10159
2012-11-20,10185
2012-11-21,10150
2012-11-22,10116
2012-11-23,10134
2012-11-24,10158
2012-11-25,10170
2012-11-26,10197
2012-11-27,10145
2012-11-28,10171
2012-11-29,10225
2012-11-30,10248
2012-12-01,10293
2012-12-02,10297
2012-12-03,10290
2012-12-04,10343
2012-12-05,10365
2012-12-06,10382
2012-12-07,10426
2012-12-08,10455
2012-12-09,10519
2012-12-10,10549
2012-12-11,10606
2012-12-12,10604
2012-12-13,10678
2012-12-14,10674
2012-12-15,10710
2012-12-16,10746
2012-12-17,10805
2012-12-18,10806
2012-12-19,10789
2012-12-20,10805
2012-12-21,10824
2012-12-22,10864
2012-12-23,10907
2012-12-24,10931
2012-12-25,10968
2012-12-26,10925
2012-12-27,10958
2012-12-28,10990
2012-12-29,11023
2012-12-30,11022
2012-12-31,11065
2013-01-01,11066
2013-01-02,11024
2013-01-03,11055
2013-01-04,11098
2013-01-05,11147
2013-01-06,11144
2013-01-07,11165
2013-01-08,11240
2013-01-09,11262
2013-01-10,11268
2013-01-11,11276
2013-01-12,11294
2013-01-13,11356
2013-01-14,11323
2013-01-15,11331
2013-01-16,11321
2013-01-17,11334
2013-01-18,11343
2013-01-19,11352
2013-01-20,11372
2013-01-21,11409
2013-01-22,11402
2013-01-23,11356
2013-01-24,11382
2013-01-25,11363
2013-01-26,11340
2013-01-27,11339
2013-01-28,11313
2013-01-29,11299
2013-01-30,11478
2013-01-31,11476
2013-02-01,11528
2013-02-02,11514
2013-02-03,11484
2013-02-04,11512
2013-02-05,11508
2013-02-06,11473
2013-02-07,11469
2013-02-08,11440
2013-02-09,11442
2013-02-10,11450
2013-02-11,11449
2013-02-12,11473
2013-02-13,11497
2013-02-14,11474
2013-02-15,11496
2013-02-16,11497
2013-02-17,11509
2013-02-18,11495
2013-02-19,11433
2013-02-20,11376
2013-02-21,11373
2013-02-22,11264
2013-02-23,11279
2013-02-24,11276
2013-02-25,11282
2013-02-26,11296
2013-02-27,11332
2013-02-28,11388
2013-03-01,11402
2013-03-02,11423
2013-03-03,11431
2013-03-04,11442
2013-03-05,11472
2013-03-06,11508
2013-03-07,11491
2013-03-08,11484
2013-03-09,11479
2013-03-10,11517
2013-03-11,11523
2013-03-12,11576
2013-03-13,11525
2013-03-14,11517
2013-03-15,11460
2013-03-16,11499
2013-03-17,11526
2013-03-18,11499
2013-03-19,11472
2013-03-20,11512
2013-03-21,11533
2013-03-22,11529
2013-03-23,11541
2013-03-24,11519
2013-03-25,11448
2013-03-26,11446
2013-03-27,11412
2013-03-28,11459
2013-03-29,11472
2013-03-30,11519
2013-03-31,11489
2013-04-01,11470
2013-04-02,11450
2013-04-03,11456
2013-04-04,11466
2013-04-05,11453
2013-04-06,11468
2013-04-07,11456
2013-04-08,11482
2013-04-09,11483
2013-04-10,11475
2013-04-11,11351
2013-04-12,11401
2013-04-13,11385
2013-04-14,11370
2013-04-15,11277
2013-04-16,11314
2013-04-17,11368
2013-04-18,11363
2013-04-19,11344
2013-04-20,11336
2013-04-21,11336
2013-04-22,11377
2013-04-23,11387
2013-04-24,11390
2013-04-25,11368
2013-04-26,11384
2013-04-27,11388
2013-04-28,11381
2013-04-29,11448
2013-04-30,11448
2013-05-01,11443
2013-05-02,11445
2013-05-03,11407
2013-05-04,11414
2013-05-05,11368
2013-05-06,11328
2013-05-07,11357
2013-05-08,11341
2013-05-09,11322
2013-05-10,11352
2013-05-11,11351
2013-05-12,11326
2013-05-13,11275
2013-05-14,11193
2013-05-15,11089
2013-05-16,11027
2013-05-17,11068
2013-05-18,11129
2013-05-19,11134
2013-05-20,11149
2013-05-21,11167
2013-05-22,11150
2013-05-23,11190
2013-05-24,11211
2013-05-25,11215
2013-05-26,11198
2013-05-27,11219
2013-05-28,11249
2013-05-29,11266
2013-05-30,11279
2013-05-31,11282
2013-06-01,11302
2013-06-02,11315
2013-06-03,11376
2013-06-04,11377
2013-06-05,11393
2013-06-06,11399
2013-06-07,11462
2013-06-08,11437
2013-06-09,11435
2013-06-10,11442
2013-06-11,11463
2013-06-12,11440
2013-06-13,11429
2013-06-14,11434
2013-06-15,11450
2013-06-16,11426
2013-06-17,11428
2013-06-18,11431
2013-06-19,11434
2013-06-20,11450
2013-06-21,11427
2013-06-22,11412
2013-06-23,11371
2013-06-24,11376
2013-06-25,11409
2013-06-26,11423
2013-06-27,11437
2013-06-28,11455
2013-06-29,11443
2013-06-30,11443
2013-07-01,11433
2013-07-02,11428
2013-07-03,11432
2013-07-04,11425
2013-07-05,11494
2013-07-06,11496
2013-07-07,11481
2013-07-08,11494
2013-07-09,11490
2013-07-10,11473
2013-07-11,11480
2013-07-12,11508
2013-07-13,11521
2013-07-14,11520
2013-07-15,11531
2013-07-16,11517
2013-07-17,11471
2013-07-18,11480
2013-07-19,11481
2013-07-20,11420
2013-07-21,11391
2013-07-22,11397
2013-07-23,11428
2013-07-24,11401
2013-07-25,11416
2013-07-26,11408
2013-07-27,11430
2013-07-28,11413
2013-07-29,11417
2013-07-30,11434
2013-07-31,11401
2013-08-01,11390
2013-08-02,11395
2013-08-03,11352
2013-08-04,11382
2013-08-05,11362
2013-08-06,11379
2013-08-07,11390
2013-08-08,11419
2013-08-09,11409
2013-08-10,11431
2013-08-11,11417
2013-08-12,11423
2013-08-13,11442
2013-08-14,11432
2013-08-15,11429
2013-08-16,11481
2013-08-17,11497
2013-08-18,11496
2013-08-19,11488
2013-08-20,11558
2013-08-21,11562
2013-08-22,11564
2013-08-23,11621
2013-08-24,11565
2013-08-25,11617
2013-08-26,11609
2013-08-27,11630
2013-08-28,11637
2013-08-29,11633
2013-08-30,11671
2013-08-31,11711
2013-09-01,11714
2013-09-02,11718
2013-09-03,11746
2013-09-04,11752
2013-09-05,11711
2013-09-06,11715
2013-09-07,11715
2013-09-08,11710
2013-09-09,11743
2013-09-10,11784
2013-09-11,11802
2013-09-12,11806
2013-09-13,11799
2013-09-14,11797
2013-09-15,11824
2013-09-16,11843
2013-09-17,11867
2013-09-18,11868
2013-09-19,11836
2013-09-20,11859
2013-09-21,11877
2013-09-22,11901
2013-09-23,11902
2013-09-24,11926
2013-09-25,11979
2013-09-26,11979
2013-09-27,11978
2013-09-28,11993
2013-09-29,12006
2013-09-30,12003
2013-10-01,11989
2013-10-02,12034
2013-10-03,11953
2013-10-04,11936
2013-10-05,11955
2013-10-06,11970
2013-10-07,12004
2013-10-08,12018
2013-10-09,12073
2013-10-10,12106
2013-10-11,12084
2013-10-12,12144
2013-10-13,12162
2013-10-14,12159
2013-10-15,12048
2013-10-16,12049
2013-10-17,12068
2013-10-18,12020
2013-10-19,12023
2013-10-20,12079
2013-10-21,12084
2013-10-22,12119
2013-10-23,12106
2013-10-24,12117
2013-10-25,12801
2013-10-26,12784
2013-10-27,12825
2013-10-28,12815
2013-10-29,12831
2013-10-30,12758
2013-10-31,12772
2013-11-01,12775
2013-11-02,12834
2013-11-03,12812
2013-11-04,12865
2013-11-05,12871
2013-11-06,12855
2013-11-07,12852
2013-11-08,12865
2013-11-09,12789
2013-11-10,12756
2013-11-11,12835
2013-11-12,12801
2013-11-13,12845
2013-11-14,12798
2013-11-15,12859
2013-11-16,12886
2013-11-17,12840
2013-11-18,12894
2013-11-19,12841
2013-11-20,12899
2013-11-21,12944
2013-11-22,12998
2013-11-23,12988
2013-11-24,13040
2013-11-25,13029
2013-11-26,12990
2013-11-27,12954
2013-11-28,13024
2013-11-29,13037
2013-11-30,12997
2013-12-01,12993
2013-12-02,13006
2013-12-03,12968
2013-12-04,12933
2013-12-05,12947
2013-12-06,12941
2013-12-07,12875
2013-12-08,12882
2013-12-09,12894
2013-12-10,12929
2013-12-11,12967
2013-12-12,12964
2013-12-13,12956
2013-12-14,12962
2013-12-15,12975
2013-12-16,13050
2013-12-17,13027
2013-12-18,12959
2013-12-19,12948
2013-12-20,12951
2013-12-21,12969
2013-12-22,12975
2013-12-23,12981
2013-12-24,13030
2013-12-25,13000
2013-12-26,12991
2013-12-27,13007
2013-12-28,13011
2013-12-29,13040
2013-12-30,13066
2013-12-31,13081
2014-01-01,13076
2014-01-02,13061
2014-01-03,13039
2014-01-04,12970
2014-01-05,13011
2014-01-06,13023
2014-01-07,13039
2014-01-08,13036
2014-01-09,13026
2014-01-10,13036
2014-01-11,13052
2014-01-12,13057
2014-01-13,13073
2014-01-14,13094
2014-01-15,13081
2014-01-16,13089
2014-01-17,13104
2014-01-18,13089
2014-01-19,13090
2014-01-20,13130
2014-01-21,13095
2014-01-22,13111
2014-01-23,13111
2014-01-24,13068
2014-01-25,13090
2014-01-26,13077
2014-01-27,13073
2014-01-28,13099
2014-01-29,13093
2014-01-30,13113
2014-01-31,13117
2014-02-01,13098
2014-02-02,13085
2014-02-03,13083
2014-02-04,13085
2014-02-05,13096
2014-02-06,13115
2014-02-07,13147
2014-02-08,13139
2014-02-09,13188
2014-02-10,13154
2014-02-11,13137
2014-02-12,13140
2014-02-13,13140
2014-02-14,13127
2014-02-15,13171
2014-02-16,13163
2014-02-17,13132
2014-02-18,13118
2014-02-19,13132
2014-02-20,13131
2014-02-21,13138
2014-02-22,13145
2014-02-23,13162
2014-02-24,13214
2014-02-25,13215
2014-02-26,13206
2014-02-27,13229
2014-02-28,13229
2014-03-01,13236
2014-03-02,13246
2014-03-03,13285
2014-03-04,13330
2014-03-05,13332
2014-03-06,13316
2014-03-07,13586
2014-03-08,13784
2014-03-09,13450
2014-03-10,13482
2014-03-11,13427
2014-03-12,13515
2014-03-13,13520
2014-03-14,13651
2014-03-15,14528
2014-03-16,14595
2014-03-17,14609
2014-03-18,14646
2014-03-19,14647
2014-03-20,14620
2014-03-21,14638
2014-03-22,14636
2014-03-23,14630
2014-03-24,14655
2014-03-25,14657
2014-03-26,14656
2014-03-27,14642
2014-03-28,14655
2014-03-29,14655
2014-03-30,14637
2014-03-31,14606
2014-04-01,14595
2014-04-02,14589
2014-04-03,14608
2014-04-04,14591
2014-04-05,14594
2014-04-06,14596
2014-04-07,14580
2014-04-08,14584
2014-04-09,14580
2014-04-10,14564
2014-04-11,14541
2014-04-12,14557
2014-04-13,14555
2014-04-14,14558
2014-04-15,14567
2014-04-16,14565
2014-04-17,14558
2014-04-18,14564
2014-04-19,14575
2014-04-20,14598
2014-04-21,14583
2014-04-22,14581
2014-04-23,14592
2014-04-24,14602
2014-04-25,14588
2014-04-26,14588
2014-04-27,14602
2014-04-28,14585
2014-04-29,14609
2014-04-30,14614
2014-05-01,14609
2014-05-02,14607
2014-05-03,14621
2014-05-04,14643
2014-05-05,14617
2014-05-06,14633
2014-05-07,14621
2014-05-08,14634
2014-05-09,14643
2014-05-10,14638
2014-05-11,14656
2014-05-12,14655
2014-05-13,14655
2014-05-14,14684
2014-05-15,14679
2014-05-16,14671
2014-05-17,14666
2014-05-18,14663
2014-05-19,14684
2014-05-20,14667
2014-05-21,14651
2014-05-22,14644
2014-05-23,14675
2014-05-24,14648
2014-05-25,14645
2014-05-26,14643
2014-05-27,14636
2014-05-28,14644
2014-05-29,14651
2014-05-30,14661
2014-05-31,14673
2014-06-01,14660
2014-06-02,14654
2014-06-03,14655
2014-06-04,14659
2014-06-05,14669
2014-06-06,14671
2014-06-07,14663
2014-06-08,14680
2014-06-09,14681
2014-06-10,14667
2014-06-11,14690
2014-06-12,14711
2014-06-13,14710
2014-06-14,14703
2014-06-15,14702
2014-06-16,14684
2014-06-17,14684
2014-06-18,14692
2014-06-19,14686
2014-06-20,14689
2014-06-21,14684
2014-06-22,14683
2014-06-23,14725
2014-06-24,14786
2014-06-25,14808
2014-06-26,14838
2014-06-27,14864
2014-06-28,14867
2014-06-29,14852
2014-06-30,14854
2014-07-01,14865
2014-07-02,14856
2014-07-03,14862
2014-07-04,14869
2014-07-05,14868
2014-07-06,14875
2014-07-07,14874
2014-07-08,14882
2014-07-09,14876
2014-07-10,14863
2014-07-11,14900
2014-07-12,14923
2014-07-13,14920
2014-07-14,14907
2014-07-15,14917
2014-07-16,14917
2014-07-17,14913
2014-07-18,14942
2014-07-19,14933
2014-07-20,14929
2014-07-21,14955
2014-07-22,14946
2014-07-23,14955
2014-07-24,14962
2014-07-25,14969
2014-07-26,14985
2014-07-27,14987
2014-07-28,15022
2014-07-29,15037
2014-07-30,15018
2014-07-31,15041
2014-08-01,15056
2014-08-02,15048
2014-08-03,15046
2014-08-04,15011
2014-08-05,15186
2014-08-06,15184
2014-08-07,15174
2014-08-08,15176
2014-08-09,15183
2014-08-10,15192
2014-08-11,15182
2014-08-12,15174
2014-08-13,15173
2014-08-14,15198
2014-08-15,15156
2014-08-16,15151
2014-08-17,15164
2014-08-18,15137
2014-08-19,15146
2014-08-20,15155
2014-08-21,15118
2014-08-22,15139
2014-08-23,15150
2014-08-24,15143
2014-08-25,15158
2014-08-26,15165
2014-08-27,15162
2014-08-28,15176
2014-08-29,15310
2014-08-30,15299
2014-08-31,15317
2014-09-01,15305
2014-09-02,15307
2014-09-03,15295
2014-09-04,15308
2014-09-05,15286
2014-09-06,15295
2014-09-07,15310
2014-09-08,15330
2014-09-09,15335
2014-09-10,15345
2014-09-11,15357
2014-09-12,15357
2014-09-13,15379
2014-09-14,15391
2014-09-15,15376
2014-09-16,15370
2014-09-17,15358
2014-09-18,15349
2014-09-19,15352
2014-09-20,15387
2014-09-21,15362
2014-09-22,15361
2014-09-23,15382
2014-09-24,15393
2014-09-25,15404
2014-09-26,15408
2014-09-27,15408
2014-09-28,15417
2014-09-29,15417
2014-09-30,15410
2014-10-01,15434
2014-10-02,15431
2014-10-03,15424
2014-10-04,15439
2014-10-05,15426
2014-10-06,15364
2014-10-07,15378
2014-10-08,15383
2014-10-09,15398
2014-10-10,15394
2014-10-11,15378
2014-10-12,15379
2014-10-13,15406
2014-10-14,15382
2014-10-15,15390
2014-10-16,15416
2014-10-17,15424
2014-10-18,15422
2014-10-19,15417
2014-10-20,15424
2014-10-21,15423
2014-10-22,15451
2014-10-23,15424
2014-10-24,15399
2014-10-25,15420
2014-10-26,15436
2014-10-27,15448
2014-10-28,15455
2014-10-29,15461
2014-10-30,15454
2014-10-31,15445
2014-11-01,15473
2014-11-02,15484
2014-11-03,15476
2014-11-04,15450
2014-11-05,15452
2014-11-06,15464
2014-11-07,15495
2014-11-08,15498
2014-11-09,15505
2014-11-10,15498
2014-11-11,15496
2014-11-12,15513
2014-11-13,15511
2014-11-14,15508
2014-11-15,15534
2014-11-16,15483
2014-11-17,15426
2014-11-18,15417
2014-11-19,15392
2014-11-20,15384
2014-11-21,15389
2014-11-22,15402
2014-11-23,15412
2014-11-24,15401
2014-11-25,15413
2014-11-26,15445
2014-11-27,15458
2014-11-28,15421
2014-11-29,15434
2014-11-30,15431
2014-12-01,15443
2014-12-02,15421
2014-12-03,15419
2014-12-04,15400
2014-12-05,15388
2014-12-06,15375
2014-12-07,15378
2014-12-08,15390
2014-12-09,15385
2014-12-10,15411
2014-12-11,15426
2014-12-12,15426
2014-12-13,15458
2014-12-14,15456
2014-12-15,15432
2014-12-16,15437
2014-12-17,15445
2014-12-18,15463
2014-12-19,15478
2014-12-20,15478
2014-12-21,15467
2014-12-22,15473
2014-12-23,15448
2014-12-24,15426
2014-12-25,15442
2014-12-26,15436
2014-12-27,15441
2014-12-28,15452
2014-12-29,15474
2014-12-30,15434
2014-12-31,15430
2015-01-01,15443
2015-01-02,15455
2015-01-03,15469
2015-01-04,15439
2015-01-05,15438
2015-01-06,15480
2015-01-07,15516
2015-01-08,15555
2015-01-09,15566
2015-01-10,15589
2015-01-11,15600
2015-01-12,15525
2015-01-13,15525
2015-01-14,15507
2015-01-15,15485
2015-01-16,15550
2015-01-17,15561
2015-01-18,15546
2015-01-19,15544
2015-01-20,15525
2015-01-21,15455
2015-01-22,15479
2015-01-23,15458
2015-01-24,15486
2015-01-25,15527
2015-01-26,15513
2015-01-27,15487
2015-01-28,15539
2015-01-29,15576
2015-01-30,15569
2015-01-31,15556
2015-02-01,15559
2015-02-02,15577
2015-02-03,15589
2015-02-04,15672
2015-02-05,15680
2015-02-06,15689
2015-02-07,15716
2015-02-08,15722
2015-02-09,15738
2015-02-10,15750
2015-02-11,15749
2015-02-12,15759
2015-02-13,15771
2015-02-14,15768
2015-02-15,15769
2015-02-16,15774
2015-02-17,15809
2015-02-18,15788
2015-02-19,15805
2015-02-20,15815
2015-02-21,15806
2015-02-22,15834
2015-02-23,15815
2015-02-24,15773
2015-02-25,15787
2015-02-26,15804
2015-02-27,15782
2015-02-28,15790
2015-03-01,15815
2015-03-02,15821
2015-03-03,15835
2015-03-04,15825
2015-03-05,15828
2015-03-06,15852
2015-03-07,15870
2015-03-08,16005
2015-03-09,15990
2015-03-10,16013
2015-03-11,16023
2015-03-12,16050
2015-03-13,16073
2015-03-14,16070
2015-03-15,16051
2015-03-16,16036
2015-03-17,16044
2015-03-18,16102
2015-03-19,16075
2015-03-20,16081
2015-03-21,16089
2015-03-22,16104
2015-03-23,16082
2015-03-24,16135
2015-03-25,16146
2015-03-26,16106
2015-03-27,16123
2015-03-28,16112
2015-03-29,16118
2015-03-30,16106
2015-03-31,16133
2015-04-01,16119
2015-04-02,16142
2015-04-03,16125
2015-04-04,16124
2015-04-05,16128
2015-04-06,16144
2015-04-07,16147
2015-04-08,16160
2015-04-09,16172
2015-04-10,16185
2015-04-11,16140
2015-04-12,16120
2015-04-13,16155
2015-04-14,16117
2015-04-15,16120
2015-04-16,16116
2015-04-17,16135
2015-04-18,16137
2015-04-19,16132
2015-04-20,16134
2015-04-21,16118
2015-04-22,16112
2015-04-23,16112
2015-04-24,16117
2015-04-25,16145
2015-04-26,16128
2015-04-27,16138
2015-04-28,16135
2015-04-29,16138
2015-04-30,16138
2015-05-01,16157
2015-05-02,16153
2015-05-03,16154
2015-05-04,16159
2015-05-05,16145
2015-05-06,16177
2015-05-07,16161
2015-05-08,16156
2015-05-09,16153
2015-05-10,16181
2015-05-11,16200
2015-05-12,16192
2015-05-13,16181
2015-05-14,16194
2015-05-15,16205
2015-05-16,16206
2015-05-17,16210
2015-05-18,16207
2015-05-19,16206
2015-05-20,16199
2015-05-21,16200
2015-05-22,16232
2015-05-23,16235
2015-05-24,16261
2015-05-25,16265
2015-05-26,16257
2015-05-27,16293
2015-05-28,16289
2015-05-29,16283
2015-05-30,16320
2015-05-31,16338
2015-06-01,16354
2015-06-02,16367
2015-06-03,16369
2015-06-04,16383
2015-06-05,16372
2015-06-06,16379
2015-06-07,16384
2015-06-08,16381
2015-06-09,16363
2015-06-10,16386
2015-06-11,16372
2015-06-12,16386
2015-06-13,16405
2015-06-14,16397
2015-06-15,16365
2015-06-16,16373
2015-06-17,16329
2015-06-18,16331
2015-06-19,16270
2015-06-20,16276
2015-06-21,16287
2015-06-22,16281
2015-06-23,16262
2015-06-24,16313
2015-06-25,16339
2015-06-26,16332
2015-06-27,16328
2015-06-28,16329
2015-06-29,16332
2015-06-30,16339
2015-07-01,16339
2015-07-02,16354
2015-07-03,16360
2015-07-04,16355
2015-07-05,16350
2015-07-06,16345
2015-07-07,16343
2015-07-08,16357
2015-07-09,16347
2015-07-10,16331
2015-07-11,16338
2015-07-12,16363
2015-07-13,16370
2015-07-14,16348
2015-07-15,16359
2015-07-16,16381
2015-07-17,16386
2015-07-18,16400
2015-07-19,16411
2015-07-20,16432
2015-07-21,16426
2015-07-22,16412
2015-07-23,16437
2015-07-24,16433
2015-07-25,16426
2015-07-26,16418
2015-07-27,16388
2015-07-28,16374
2015-07-29,16395
2015-07-30,16388
2015-07-31,16397
2015-08-01,16396
2015-08-02,16401
2015-08-03,16436
2015-08-04,16448
2015-08-05,16471
2015-08-06,16507
2015-08-07,16540
2015-08-08,16543
2015-08-09,16409
2015-08-10,16449
2015-08-11,16446
2015-08-12,16432
2015-08-13,16459
2015-08-14,16452
2015-08-15,16429
2015-08-16,16455
2015-08-17,16472
2015-08-18,16503
2015-08-19,16508
2015-08-20,16484
2015-08-21,16516
2015-08-22,16535
2015-08-23,16540
2015-08-24,16561
2015-08-25,16577
2015-08-26,16560
2015-08-27,16559
2015-08-28,16561
2015-08-29,16572
2015-08-30,16555
2015-08-31,16549
2015-09-01,16551
2015-09-02,16552
2015-09-03,16564
2015-09-04,16575
2015-09-05,16562
2015-09-06,16579
2015-09-07,16575
2015-09-08,16602
2015-09-09,16649
2015-09-10,16665
2015-09-11,16677
2015-09-12,16670
2015-09-13,16687
2015-09-14,16696
2015-09-15,16699
2015-09-16,16720
2015-09-17,16718
2015-09-18,16746
2015-09-19,16739
2015-09-20,16741
2015-09-21,16756
2015-09-22,16760
2015-09-23,16731
2015-09-24,16713
2015-09-25,16747
2015-09-26,16746
2015-09-27,16743
2015-09-28,16746
2015-09-29,16763
2015-09-30,16750
2015-10-01,16748
2015-10-02,16753
2015-10-03,16768
2015-10-04,16778
2015-10-05,16758
2015-10-06,16745
2015-10-07,16809
2015-10-08,16798
2015-10-09,16814
2015-10-10,16826
2015-10-11,16817
2015-10-12,16818
2015-10-13,16792
2015-10-14,16782
2015-10-15,16746
2015-10-16,16743
2015-10-17,16731
2015-10-18,16755
2015-10-19,16762
2015-10-20,16768
2015-10-21,16848
2015-10-22,16820
2015-10-23,16792
2015-10-24,16782
2015-10-25,16781
2015-10-26,16797
2015-10-27,16763
2015-10-28,16846
2015-10-29,16793
2015-10-30,16829
2015-10-31,16837
2015-11-01,16820
2015-11-02,16886
2015-11-03,16864
2015-11-04,16831
2015-11-05,16786
2015-11-06,16777
2015-11-07,16760
2015-11-08,16780
2015-11-09,16788
2015-11-10,16806
2015-11-11,16779
2015-11-12,16810
2015-11-13,16807
2015-11-14,16821
2015-11-15,16809
2015-11-16,16746
2015-11-17,16740
2015-11-18,16779
2015-11-19,16760
2015-11-20,16741
2015-11-21,16764
2015-11-22,16757
2015-11-23,16773
2015-11-24,16758
2015-11-25,16728
2015-11-26,16729
2015-11-27,16778
2015-11-28,16774
2015-11-29,16756
2015-11-30,16715
2015-12-01,16709
2015-12-02,16688
2015-12-03,16765
2015-12-04,16726
2015-12-05,16673
2015-12-06,16629
2015-12-07,16641
2015-12-08,16644
2015-12-09,16623
2015-12-10,16620
2015-12-11,16561
2015-12-12,16543
2015-12-13,16518
2015-12-14,16509
2015-12-15,16537
2015-12-16,16574
2015-12-17,16600
2015-12-18,16584
2015-12-19,16614
2015-12-20,16588
2015-12-21,16632
2015-12-22,16616
2015-12-23,16589
2015-12-24,16555
2015-12-25,16531
2015-12-26,16589
2015-12-27,16614
2015-12-28,16622
2015-12-29,16623
2015-12-30,16642
2015-12-31,16580
2016-01-01,16589
2016-01-02,16614
2016-01-03,16605
2016-01-04,16607
2016-01-05,16692
2016-01-06,16687
2016-01-07,16714
2016-01-08,16743
2016-01-09,16763
2016-01-10,16795
2016-01-11,16827
2016-01-12,16816
2016-01-13,16817
2016-01-14,16836
2016-01-15,16831
2016-01-16,16816
2016-01-17,16832
2016-01-18,16822
2016-01-19,16864
2016-01-20,16807
2016-01-21,16822
2016-01-22,16828
2016-01-23,16848
2016-01-24,16841
2016-01-25,16863
2016-01-26,16908
2016-01-27,16986
2016-01-28,16964
2016-01-29,16966
2016-01-30,17005
2016-01-31,17050
2016-02-01,17161
2016-02-02,17186
2016-02-03,17156
2016-02-04,17133
2016-02-05,17059
2016-02-06,17085
2016-02-07,17030
2016-02-08,17041
2016-02-09,17044
2016-02-10,17106
2016-02-11,17081
2016-02-12,17078
2016-02-13,17063
2016-02-14,17047
2016-02-15,17030
2016-02-16,17078
2016-02-17,17052
2016-02-18,17058
2016-02-19,17045
2016-02-20,17035
2016-02-21,16991
2016-02-22,17004
2016-02-23,17025
2016-02-24,17040
2016-02-25,17039
2016-02-26,17017
2016-02-27,16998
2016-02-28,16932
2016-02-29,16921
2016-03-01,16945
2016-03-02,16939
2016-03-03,16957
2016-03-04,17053
2016-03-05,17001
2016-03-06,17011
2016-03-07,17059
2016-03-08,17048
2016-03-09,17044
2016-03-10,17039
2016-03-11,17063
2016-03-12,17066
2016-03-13,17076
2016-03-14,17096
2016-03-15,17108
2016-03-16,17153
2016-03-17,17170
2016-03-18,17176
2016-03-19,17160
2016-03-20,17171
2016-03-21,17180
2016-03-22,17209
2016-03-23,17155
2016-03-24,16952
2016-03-25,16939
2016-03-26,16919
2016-03-27,16929
2016-03-28,17002
2016-03-29,17090
2016-03-30,17100
2016-03-31,17115
2016-04-01,17112
2016-04-02,17123
2016-04-03,17120
2016-04-04,17152
2016-04-05,17177
2016-04-06,17205
2016-04-07,17203
2016-04-08,17200
2016-04-09,17231
2016-04-10,17191
2016-04-11,17195
2016-04-12,17190
2016-04-13,17209
2016-04-14,17192
2016-04-15,17222
2016-04-16,17230
2016-04-17,17231
2016-04-18,17246
2016-04-19,17254
2016-04-20,17259
2016-04-21,17291
2016-04-22,17290
2016-04-23,17322
2016-04-24,17317
2016-04-25,17355
2016-04-26,17323
2016-04-27,17351
2016-04-28,17382
2016-04-29,17392
2016-04-30,17383
2016-05-01,17398
2016-05-02,17412
2016-05-03,17434
2016-05-04,17317
2016-05-05,17382
2016-05-06,17437
2016-05-07,17437
2016-05-08,17447
2016-05-09,17399
2016-05-10,17458
2016-05-11,17466
2016-05-12,17457
2016-05-13,17475
2016-05-14,17488
2016-05-15,17496
2016-05-16,17523
2016-05-17,17532
2016-05-18,17536
2016-05-19,17510
2016-05-20,17457
2016-05-21,17433
2016-05-22,17445
2016-05-23,17425
2016-05-24,17442
2016-05-25,17414
2016-05-26,17395
2016-05-27,17261
2016-05-28,17229
2016-05-29,17188
2016-05-30,17142
2016-05-31,17141
2016-06-01,17113
2016-06-02,17142
2016-06-03,17117
2016-06-04,17158
2016-06-05,17183
2016-06-06,17175
2016-06-07,17159
2016-06-08,17169
2016-06-09,17124
2016-06-10,17141
2016-06-11,17187
2016-06-12,17222
2016-06-13,17212
2016-06-14,17156
2016-06-15,17115
2016-06-16,17199
2016-06-17,17168
2016-06-18,17158
2016-06-19,17179
2016-06-20,17204
2016-06-21,17087
2016-06-22,17103
2016-06-23,17130
2016-06-24,17206
2016-06-25,17114
2016-06-26,17107
2016-06-27,17148
2016-06-28,17139
2016-06-29,17153
2016-06-30,17222
2016-07-01,17224
2016-07-02,17206
2016-07-03,17233
2016-07-04,17209
2016-07-05,17214
2016-07-06,17207
2016-07-07,17180
2016-07-08,17103
2016-07-09,17130
2016-07-10,17121
2016-07-11,17164
2016-07-12,17156
2016-07-13,17146
2016-07-14,17162
2016-07-15,17143
2016-07-16,17152
2016-07-17,17210
2016-07-18,17180
2016-07-19,17198
2016-07-20,17208
2016-07-21,17196
2016-07-22,17191
2016-07-23,17192
2016-07-24,17196
2016-07-25,17203
2016-07-26,17200
2016-07-27,17203
2016-07-28,17230
2016-07-29,17291
2016-07-30,17290
2016-07-31,17295
2016-08-01,17260
2016-08-02,17240
2016-08-03,17269
2016-08-04,17290
2016-08-05,17315
2016-08-06,17333
2016-08-07,17289
2016-08-08,17303
2016-08-09,17303
2016-08-10,17374
2016-08-11,17434
2016-08-12,17462
2016-08-13,17456
2016-08-14,17496
2016-08-15,17478
2016-08-16,17450
2016-08-17,17439
2016-08-18,17511
2016-08-19,17497
2016-08-20,17500
2016-08-21,17524
2016-08-22,17508
2016-08-23,17547
2016-08-24,17517
2016-08-25,17569
2016-08-26,17567
2016-08-27,17604
2016-08-28,17611
2016-08-29,17643
2016-08-30,17674
2016-08-31,17677
2016-09-01,17667
2016-09-02,17696
2016-09-03,17704
2016-09-04,17676
2016-09-05,17650
2016-09-06,17711
2016-09-07,17711
2016-09-08,17730
2016-09-09,17699
2016-09-10,17728
2016-09-11,17736
2016-09-12,17738
2016-09-13,17755
2016-09-14,17826
2016-09-15,17840
2016-09-16,17825
2016-09-17,17844
2016-09-18,17834
2016-09-19,17823
2016-09-20,17800
2016-09-21,17820
2016-09-22,17831
2016-09-23,17846
2016-09-24,17820
2016-09-25,17816
2016-09-26,17814
2016-09-27,17876
2016-09-28,17877
2016-09-29,17890
2016-09-30,17878
2016-10-01,17865
2016-10-02,17880
2016-10-03,17844
2016-10-04,17855
2016-10-05,17802
2016-10-06,17801
2016-10-07,17789
2016-10-08,17784
2016-10-09,17781
2016-10-10,17775
2016-10-11,17859
2016-10-12,17853
2016-10-13,17875
2016-10-14,17843
2016-10-15,17856
2016-10-16,17874
2016-10-17,17856
2016-10-18,17895
2016-10-19,17890
2016-10-20,17850
2016-10-21,17877
2016-10-22,17886
2016-10-23,17894
2016-10-24,17921
2016-10-25,18022
2016-10-26,18018
2016-10-27,17971
2016-10-28,17988
2016-10-29,17994
2016-10-30,17979
2016-10-31,17931
2016-11-01,17918
2016-11-02,17890
2016-11-03,17949
2016-11-04,17952
2016-11-05,17992
2016-11-06,17935
2016-11-07,17994
2016-11-08,17958
2016-11-09,17966
2016-11-10,17915
2016-11-11,17942
2016-11-12,17924
2016-11-13,17928
2016-11-14,17985
2016-11-15,17939
2016-11-16,17934
2016-11-17,17959
2016-11-18,18015
2016-11-19,18034
2016-11-20,18067
2016-11-21,18090
2016-11-22,18056
2016-11-23,18084
2016-11-24,18065
2016-11-25,18109
2016-11-26,18116
2016-11-27,18089
2016-11-28,18067
2016-11-29,18107
2016-11-30,18068
2016-12-01,18054
2016-12-02,18086
2016-12-03,18103
2016-12-04,18109
2016-12-05,18121
2016-12-06,18146
2016-12-07,18171
2016-12-08,18152
2016-12-09,18134
2016-12-10,18130
2016-12-11,18125
2016-12-12,18130
2016-12-13,18151
2016-12-14,18142
2016-12-15,18145
2016-12-16,18143
2016-12-17,18117
2016-12-18,18143
2016-12-19,18177
2016-12-20,18155
2016-12-21,18203
2016-12-22,18241
2016-12-23,18222
2016-12-24,18239
2016-12-25,18212
2016-12-26,18253
2016-12-27,18258
2016-12-28,18270
2016-12-29,18252
2016-12-30,18234
2016-12-31,18250
2017-01-01,18257
2017-01-02,18252
2017-01-03,18327
2017-01-04,18256
2017-01-05,18295
2017-01-06,18406
2017-01-07,18424
2017-01-08,18310
2017-01-09,18284
2017-01-10,18317
2017-01-11,18386
2017-01-12,18388
2017-01-13,18375
2017-01-14,18385
2017-01-15,18433
2017-01-16,18403
2017-01-17,18407
2017-01-18,18417
2017-01-19,18419
2017-01-20,18453
2017-01-21,18444
2017-01-22,18447
2017-01-23,18459
2017-01-24,18446
2017-01-25,18442
2017-01-26,18477
2017-01-27,18475
2017-01-28,18450
2017-01-29,18459
2017-01-30,18472
2017-01-31,18461
2017-02-01,18462
2017-02-02,18442
2017-02-03,18379
2017-02-04,18407
2017-02-05,18411
2017-02-06,18395
2017-02-07,18415
2017-02-08,18384
2017-02-09,18427
2017-02-10,18417
2017-02-11,18425
2017-02-12,18454
2017-02-13,18488
2017-02-14,18474
2017-02-15,18481
2017-02-16,18454
2017-02-17,18453
2017-02-18,18463
2017-02-19,18481
2017-02-20,18469
2017-02-21,18476
2017-02-22,18498
2017-02-23,18523
2017-02-24,18512
2017-02-25,18532
2017-02-26,18543
2017-02-27,18532
2017-02-28,18525
2017-03-01,18529
2017-03-02,18521
2017-03-03,18468
2017-03-04,18464
2017-03-05,18470
2017-03-06,18413
2017-03-07,18349
2017-03-08,18359
2017-03-09,18337
2017-03-10,18344
2017-03-11,18360
2017-03-12,18355
2017-03-13,18374
2017-03-14,18368
2017-03-15,18390
2017-03-16,18323
2017-03-17,18301
2017-03-18,18234
2017-03-19,18234
2017-03-20,18270
2017-03-21,18249
2017-03-22,18288
2017-03-23,18313
2017-03-24,18303
2017-03-25,18257
2017-03-26,18248
2017-03-27,18277
2017-03-28,18224
2017-03-29,18275
2017-03-30,18314
2017-03-31,18241
2017-04-01,18227
2017-04-02,18233
2017-04-03,18237
2017-04-04,18206
2017-04-05,18261
2017-04-06,18250
2017-04-07,18209
2017-04-08,18193
2017-04-09,18237
2017-04-10,18218
2017-04-11,18205
2017-04-12,18192
2017-04-13,18191
2017-04-14,18204
2017-04-15,18183
2017-04-16,18189
2017-04-17,18192
2017-04-18,18245
2017-04-19,18226
2017-04-20,18207
2017-04-21,18198
2017-04-22,18159
2017-04-23,18199
2017-04-24,18194
2017-04-25,18261
2017-04-26,18301
2017-04-27,18287
2017-04-28,18291
2017-04-29,18285
2017-04-30,18272
2017-05-01,18225
2017-05-02,18275
2017-05-03,18232
2017-05-04,18216
2017-05-05,18256
2017-05-06,18236
2017-05-07,18224
2017-05-08,18226
2017-05-09,18194
2017-05-10,18245
2017-05-11,18148
2017-05-12,18128
2017-05-13,18143
2017-05-14,18121
2017-05-15,18217
2017-05-16,18193
2017-05-17,18177
2017-05-18,18179
2017-05-19,18173
2017-05-20,18181
2017-05-21,18141
2017-05-22,18114
2017-05-23,18133
2017-05-24,18084
2017-05-25,18034
2017-05-26,18032
2017-05-27,18007
2017-05-28,17994
2017-05-29,18049
2017-05-30,18079
2017-05-31,18080
2017-06-01,18067
2017-06-02,18106
2017-06-03,18078
2017-06-04,18085
2017-06-05,18120
2017-06-06,18147
2017-06-07,18122
2017-06-08,18116
2017-06-09,18121
2017-06-10,18102
2017-06-11,18091
2017-06-12,18101
2017-06-13,18120
2017-06-14,18076
2017-06-15,18059
2017-06-16,18073
2017-06-17,18032
2017-06-18,17998
2017-06-19,17993
2017-06-20,18029
2017-06-21,18020
2017-06-22,17958
2017-06-23,17955
2017-06-24,17962
2017-06-25,17925
2017-06-26,17935
2017-06-27,17965
2017-06-28,18008
2017-06-29,18013
2017-06-30,18066
2017-07-01,18054
2017-07-02,18037
2017-07-03,18064
2017-07-04,18076
2017-07-05,18131
2017-07-06,18116
2017-07-07,18082
2017-07-08,18112
2017-07-09,18123
2017-07-10,18082
2017-07-11,18087
2017-07-12,18072
2017-07-13,18059
2017-07-14,18102
2017-07-15,18089
2017-07-16,18077
2017-07-17,18085
2017-07-18,18098
2017-07-19,18089
2017-07-20,18074
2017-07-21,18064
2017-07-22,18082
2017-07-23,18085
2017-07-24,18137
2017-07-25,18160
2017-07-26,18206
2017-07-27,18215
2017-07-28,18237
2017-07-29,18276
2017-07-30,18288
2017-07-31,18482
2017-08-01,18290
2017-08-02,18312
2017-08-03,18336
2017-08-04,18392
2017-08-05,18382
2017-08-06,18383
2017-08-07,18430
2017-08-08,18417
2017-08-09,18375
2017-08-10,18335
2017-08-11,18394
2017-08-12,18385
2017-08-13,18379
2017-08-14,18385
2017-08-15,18380
2017-08-16,18386
2017-08-17,18390
2017-08-18,18330
2017-08-19,18302
2017-08-20,18286
2017-08-21,18298
2017-08-22,18308
2017-08-23,18342
2017-08-24,18335
2017-08-25,18329
2017-08-26,18340
2017-08-27,18352
2017-08-28,18340
2017-08-29,18295
2017-08-30,18288
2017-08-31,18316
2017-09-01,18312
2017-09-02,18346
2017-09-03,18403
2017-09-04,18383
2017-09-05,18392
2017-09-06,18386
2017-09-07,18340
2017-09-08,18335
2017-09-09,18347
2017-09-10,18384
2017-09-11,18372
2017-09-12,18333
2017-09-13,18340
2017-09-14,18339
2017-09-15,18335
2017-09-16,18340
2017-09-17,18324
2017-09-18,18330
2017-09-19,18340
2017-09-20,18362
2017-09-21,18388
2017-09-22,18364
2017-09-23,18340
2017-09-24,18333
2017-09-25,18333
2017-09-26,18369
2017-09-27,18368
2017-09-28,18346
2017-09-29,18339
2017-09-30,18329
2017-10-01,18340
2017-10-02,18301
2017-10-03,18273
2017-10-04,18306
2017-10-05,18285
2017-10-06,18302
2017-10-07,18263
2017-10-08,18270
2017-10-09,18286
2017-10-10,18276
2017-10-11,18299
2017-10-12,18279
2017-10-13,18276
2017-10-14,18272
2017-10-15,18269
2017-10-16,18254
2017-10-17,18258
2017-10-18,18169
2017-10-19,18114
2017-10-20,18098
2017-10-21,18081
2017-10-22,18057
2017-10-23,18032
2017-10-24,18047
2017-10-25,18050
2017-10-26,18033
2017-10-27,18045
2017-10-28,18045
2017-10-29,18029
2017-10-30,18062
2017-10-31,18020
2017-11-01,18014
2017-11-02,18035
2017-11-03,18041
2017-11-04,18009
2017-11-05,17996
2017-11-06,18003
2017-11-07,18009
2017-11-08,17991
2017-11-09,17992
2017-11-10,18042
2017-11-11,18057
2017-11-12,18021
2017-11-13,18021
2017-11-14,18006
2017-11-15,18041
2017-11-16,18006
2017-11-17,18112
2017-11-18,18090
2017-11-19,18095
2017-11-20,18116
2017-11-21,18141
2017-11-22,18136
2017-11-23,18121
2017-11-24,18115
2017-11-25,18105
2017-11-26,18130
2017-11-27,18115
2017-11-28,18122
2017-11-29,18076
2017-11-30,18038
2017-12-01,18013
2017-12-02,17967
2017-12-03,17965
2017-12-04,17971
2017-12-05,17954
2017-12-06,17929
2017-12-07,17929
2017-12-08,17938
2017-12-09,17971
2017-12-10,17991
2017-12-11,17931
2017-12-12,17854
2017-12-13,17811
2017-12-14,17777
2017-12-15,17784
2017-12-16,17745
2017-12-17,17677
2017-12-18,17659
2017-12-19,17629
2017-12-20,17602
2017-12-21,17585
2017-12-22,17574
2017-12-23,17562
2017-12-24,17581
2017-12-25,17556
2017-12-26,17559
2017-12-27,17594
2017-12-28,17544
2017-12-29,17568
2017-12-30,17516
2017-12-31,17428
2018-01-01,17427
2018-01-02,17396
2018-01-03,17388
2018-01-04,17343
2018-01-05,17350
2018-01-06,17450
2018-01-07,17349
2018-01-08,17355
2018-01-09,17390
2018-01-10,17371
2018-01-11,17388
2018-01-12,17378
2018-01-13,17385
2018-01-14,17371
2018-01-15,17379
2018-01-16,17417
2018-01-17,17445
2018-01-18,17416
2018-01-19,17381
2018-01-20,17323
2018-01-21,17290
2018-01-22,17307
2018-01-23,17358
2018-01-24,17376
2018-01-25,17371
2018-01-26,17372
2018-01-27,17339
2018-01-28,17355
2018-01-29,17370
2018-01-30,17381
2018-01-31,17384
2018-02-01,17418
2018-02-02,17446
2018-02-03,17445
2018-02-04,17472
2018-02-05,17443
2018-02-06,17458
2018-02-07,17417
2018-02-08,17447
2018-02-09,17387
2018-02-10,17378
2018-02-11,17403
2018-02-12,17366
2018-02-13,17382
2018-02-14,17367
2018-02-15,17402
2018-02-16,17437
2018-02-17,17444
2018-02-18,17459
2018-02-19,17448
2018-02-20,17442
2018-02-21,17428
2018-02-22,17400
2018-02-23,17372
2018-02-24,17345
2018-02-25,17364
2018-02-26,17371
2018-02-27,17361
2018-02-28,17364
2018-03-01,17364
2018-03-02,17352
2018-03-03,17355
2018-03-04,17342
2018-03-05,17373
2018-03-06,17371
2018-03-07,17387
2018-03-08,17410
2018-03-09,17408
2018-03-10,17404
2018-03-11,17390
2018-03-12,17384
2018-03-13,17382
2018-03-14,17381
2018-03-15,17398
2018-03-16,17365
2018-03-17,17341
2018-03-18,17339
2018-03-19,17351
2018-03-20,17347
2018-03-21,17337
2018-03-22,17330
2018-03-23,17344
2018-03-24,17362
2018-03-25,17366
2018-03-26,17384
2018-03-27,17379
2018-03-28,17374
2018-03-29,17407
2018-03-30,17410
2018-03-31,17388
2018-04-01,17378
2018-04-02,17387
2018-04-03,17356
2018-04-04,17372
2018-04-05,17359
2018-04-06,17347
2018-04-07,17376
2018-04-08,17368
2018-04-09,17378
2018-04-10,17390
2018-04-11,17386
2018-04-12,17388
2018-04-13,17409
2018-04-14,17425
2018-04-15,17430
2018-04-16,17449
2018-04-17,17427
2018-04-18,17460
2018-04-19,17463
2018-04-20,17487
2018-04-21,17492
2018-04-22,17491
2018-04-23,17509
2018-04-24,17524
2018-04-25,17483
2018-04-26,17469
2018-04-27,17463
2018-04-28,17490
2018-04-29,17484
2018-04-30,17492
2018-05-01,17491
2018-05-02,17401
2018-05-03,17414
2018-05-04,17391
2018-05-05,17420
2018-05-06,17419
2018-05-07,17428
2018-05-08,17397
2018-05-09,17428
2018-05-10,17422
2018-05-11,17453
2018-05-12,17471
2018-05-13,17475
2018-05-14,17493
2018-05-15,17461
2018-05-16,17466
2018-05-17,17463
2018-05-18,17442
2018-05-19,17451
2018-05-20,17460
2018-05-21,17469
2018-05-22,17453
2018-05-23,17475
2018-05-24,17445
2018-05-25,17401
2018-05-26,17392
2018-05-27,17407
2018-05-28,17382
2018-05-29,17398
2018-05-30,17390
2018-05-31,17351
2018-06-01,17362
2018-06-02,17366
2018-06-03,17367
2018-06-04,17394
2018-06-05,17440
2018-06-06,17429
2018-06-07,17435
2018-06-08,17436
2018-06-09,17429
2018-06-10,17400
2018-06-11,17398
2018-06-12,17412
2018-06-13,17437
2018-06-14,17428
2018-06-15,17448
2018-06-16,17443
2018-06-17,17421
2018-06-18,17417
2018-06-19,17406
2018-06-20,17424
2018-06-21,17445
2018-06-22,17417
2018-06-23,17401
2018-06-24,17397
2018-06-25,17428
2018-06-26,17409
2018-06-27,17408
2018-06-28,17425
2018-06-29,17411
2018-06-30,17418
2018-07-01,17416
2018-07-02,17436
2018-07-03,17434
2018-07-04,17434
2018-07-05,17427
2018-07-06,17432
2018-07-07,17458
2018-07-08,17466
2018-07-09,17469
2018-07-10,17510
2018-07-11,17505
2018-07-12,17487
2018-07-13,17494
2018-07-14,17484
2018-07-15,17486
2018-07-16,17462
2018-07-17,17438
2018-07-18,17447
2018-07-19,17447
2018-07-20,17442
2018-07-21,17442
2018-07-22,17447
2018-07-23,17455
2018-07-24,17480
2018-07-25,17462
2018-07-26,17481
2018-07-27,17508
2018-07-28,17502
2018-07-29,17459
2018-07-30,17494
2018-07-31,17456
2018-08-01,17449
2018-08-02,17438
2018-08-03,17365
2018-08-04,17373
2018-08-05,17379
2018-08-06,17382
2018-08-07,17391
2018-08-08,17404
2018-08-09,17381
2018-08-10,17395
2018-08-11,17382
2018-08-12,17387
2018-08-13,17392
2018-08-14,17372
2018-08-15,17358
2018-08-16,17300
2018-08-17,17255
2018-08-18,17261
2018-08-19,17218
2018-08-20,17189
2018-08-21,17098
2018-08-22,17058
2018-08-23,16981
2018-08-24,16972
2018-08-25,16893
2018-08-26,16834
2018-08-27,16715
2018-08-28,16685
2018-08-29,16602
2018-08-30,16525
2018-08-31,16535
2018-09-01,16538
2018-09-02,16548
2018-09-03,16516
2018-09-04,16550
2018-09-05,16524
2018-09-06,16499
2018-09-07,16476
2018-09-08,16469
2018-09-09,16481
2018-09-10,16493
2018-09-11,16495
2018-09-12,16485
2018-09-13,16491
2018-09-14,16475
2018-09-15,16481
2018-09-16,16473
2018-09-17,16463
2018-09-18,16461
2018-09-19,16483
2018-09-20,16486
2018-09-21,16440
2018-09-22,16405
2018-09-23,16401
2018-09-24,16401
2018-09-25,16405
2018-09-26,16397
2018-09-27,16421
2018-09-28,16436
2018-09-29,16441
2018-09-30,16455
2018-10-01,16463
2018-10-02,16477
2018-10-03,16472
2018-10-04,16489
2018-10-05,16504
2018-10-06,16507
2018-10-07,16511
2018-10-08,16531
2018-10-09,16526
2018-10-10,16504
2018-10-11,16521
2018-10-12,16541
2018-10-13,16541
2018-10-14,16540
2018-10-15,16579
2018-10-16,16587
2018-10-17,16603
2018-10-18,16537
2018-10-19,16540
2018-10-20,16548
2018-10-21,16548
2018-10-22,16552
2018-10-23,16562
2018-10-24,16576
2018-10-25,16556
2018-10-26,16542
2018-10-27,16564
2018-10-28,16569
2018-10-29,16586
2018-10-30,16564
2018-10-31,16571
2018-11-01,16575
2018-11-02,16600
2018-11-03,16608
2018-11-04,16610
2018-11-05,16623
2018-11-06,16648
2018-11-07,16619
2018-11-08,16593
2018-11-09,16602
2018-11-10,16601
2018-11-11,16611
2018-11-12,16577
2018-11-13,16586
2018-11-14,16610
2018-11-15,16598
2018-11-16,16632
2018-11-17,16628
2018-11-18,16645
2018-11-19,16637
2018-11-20,16633
2018-11-21,16669
2018-11-22,16672
2018-11-23,16631
2018-11-24,16644
2018-11-25,16628
2018-11-26,16622
2018-11-27,16562
2018-11-28,16508
2018-11-29,16497
2018-11-30,16506
2018-12-01,16501
2018-12-02,16495
2018-12-03,16525
2018-12-04,16551
2018-12-05,16575
2018-12-06,16591
2018-12-07,16600
2018-12-08,16622
2018-12-09,16607
2018-12-10,16630
2018-12-11,16635
2018-12-12,16636
2018-12-13,16627
2018-12-14,16672
2018-12-15,16675
2018-12-16,16654
2018-12-17,16651
2018-12-18,16668
2018-12-19,16652
2018-12-20,16609
2018-12-21,16597
2018-12-22,16617
2018-12-23,16637
2018-12-24,16633
2018-12-25,16617
2018-12-26,16619
2018-12-27,16604
2018-12-28,16610
2018-12-29,16594
2018-12-30,16614
2018-12-31,16626
2019-01-01,16623
2019-01-02,16614
2019-01-03,16613
2019-01-04,16628
2019-01-05,16622
2019-01-06,16630
2019-01-07,16649
2019-01-08,16653
2019-01-09,16618
2019-01-10,16613
2019-01-11,16593
2019-01-12,16577
2019-01-13,16575
2019-01-14,16580
2019-01-15,16599
2019-01-16,16581
2019-01-17,16564
2019-01-18,16560
2019-01-19,16546
2019-01-20,16559
2019-01-21,16552
2019-01-22,16547
2019-01-23,16548
2019-01-24,16564
2019-01-25,16547
2019-01-26,16539
2019-01-27,16532
2019-01-28,16530
2019-01-29,16525
2019-01-30,16557
2019-01-31,16565
2019-02-01,16529
2019-02-02,16527
2019-02-03,16517
2019-02-04,16524
2019-02-05,16526
2019-02-06,16540
2019-02-07,16526
2019-02-08,16519
2019-02-09,16512
2019-02-10,16525
2019-02-11,16561
2019-02-12,16528
2019-02-13,16516
2019-02-14,16505
2019-02-15,16496
2019-02-16,16499
2019-02-17,16483
2019-02-18,16530
2019-02-19,16518
2019-02-20,16558
2019-02-21,16598
2019-02-22,16577
2019-02-23,16573
2019-02-24,16582
2019-02-25,16564
2019-02-26,16551
2019-02-27,16545
2019-02-28,16598
2019-03-01,16587
2019-03-02,16551
2019-03-03,16541
2019-03-04,16560
2019-03-05,16543
2019-03-06,16556
2019-03-07,16531
2019-03-08,16491
2019-03-09,16496
2019-03-10,16507
2019-03-11,16535
2019-03-12,16515
2019-03-13,16498
2019-03-14,16522
2019-03-15,16504
2019-03-16,16494
2019-03-17,16502
2019-03-18,16508
2019-03-19,16519
2019-03-20,16533
2019-03-21,16507
2019-03-22,16508
2019-03-23,16506
2019-03-24,16518
2019-03-25,16529
2019-03-26,16514
2019-03-27,16513
2019-03-28,16484
2019-03-29,16498
2019-03-30,16496
2019-03-31,16540
2019-04-01,16545
2019-04-02,16541
2019-04-03,16558
2019-04-04,16580
2019-04-05,16579
2019-04-06,16579
2019-04-07,16576
2019-04-08,16558
2019-04-09,16539
2019-04-10,16498
2019-04-11,16475
2019-04-12,16476
2019-04-13,16450
2019-04-14,16383
2019-04-15,16375
2019-04-16,16372
2019-04-17,16329
2019-04-18,16315
2019-04-19,16277
2019-04-20,16283
2019-04-21,16297
2019-04-22,16293
2019-04-23,16278
2019-04-24,16307
2019-04-25,16320
2019-04-26,16321
2019-04-27,16314
2019-04-28,16326
2019-04-29,16347
2019-04-30,16336
2019-05-01,16331
2019-05-02,16341
2019-05-03,16344
2019-05-04,16338
2019-05-05,16343
2019-05-06,16361
2019-05-07,16376
2019-05-08,16334
2019-05-09,16329
2019-05-10,16337
2019-05-11,16347
2019-05-12,16375
2019-05-13,16373
2019-05-14,16390
2019-05-15,16404
2019-05-16,16395
2019-05-17,16413
2019-05-18,16403
2019-05-19,16410
2019-05-20,16447
2019-05-21,16473
2019-05-22,16430
2019-05-23,16434
2019-05-24,16456
2019-05-25,16452
2019-05-26,16466
2019-05-27,16483
2019-05-28,16475
2019-05-29,16450
2019-05-30,16420
2019-05-31,16409
2019-06-01,16411
2019-06-02,16421
2019-06-03,16446
2019-06-04,16424
2019-06-05,16401
2019-06-06,16410
2019-06-07,16416
2019-06-08,16409
2019-06-09,16410
2019-06-10,16400
2019-06-11,16352
2019-06-12,16342
2019-06-13,16349
2019-06-14,16319
2019-06-15,16348
2019-06-16,16346
2019-06-17,16372
2019-06-18,16346
2019-06-19,16175
2019-06-20,16186
2019-06-21,16161
2019-06-22,16181
2019-06-23,16202
2019-06-24,16179
2019-06-25,16183
2019-06-26,16155
2019-06-27,16152
2019-06-28,16145
2019-06-29,16163
2019-06-30,16162
2019-07-01,16164
2019-07-02,16190
2019-07-03,16194
2019-07-04,16189
2019-07-05,16187
2019-07-06,16187
2019-07-07,16195
2019-07-08,16166
2019-07-09,16187
2019-07-10,16186
2019-07-11,16150
2019-07-12,16124
2019-07-13,16131
2019-07-14,16156
2019-07-15,16160
2019-07-16,16126
2019-07-17,16161
2019-07-18,16134
2019-07-19,16127
2019-07-20,16121
2019-07-21,16115
2019-07-22,16111
2019-07-23,16123
2019-07-24,16093
2019-07-25,16101
2019-07-26,16105
2019-07-27,16114
2019-07-28,16121
2019-07-29,16176
2019-07-30,16194
2019-07-31,16205
2019-08-01,16186
2019-08-02,16186
2019-08-03,16193
2019-08-04,16186
2019-08-05,16200
2019-08-06,16190
2019-08-07,16184
2019-08-08,16181
2019-08-09,16188
2019-08-10,16188
2019-08-11,16162
2019-08-12,16176
2019-08-13,16190
2019-08-14,16225
2019-08-15,16204
2019-08-16,16301
2019-08-17,16272
2019-08-18,16263
2019-08-19,16274
2019-08-20,16275
2019-08-21,16287
2019-08-22,16280
2019-08-23,16245
2019-08-24,16232
2019-08-25,16238
2019-08-26,16258
2019-08-27,16233
2019-08-28,16235
2019-08-29,16228
2019-08-30,16251
2019-08-31,16212
2019-09-01,16234
2019-09-02,16224
2019-09-03,16241
2019-09-04,16206
2019-09-05,16230
2019-09-06,16240
2019-09-07,16248
2019-09-08,16251
2019-09-09,16271
2019-09-10,16260
2019-09-11,16275
2019-09-12,16303
2019-09-13,16285
2019-09-14,16269
2019-09-15,16233
2019-09-16,16268
2019-09-17,16264
2019-09-18,16295
2019-09-19,16276
2019-09-20,16285
2019-09-21,16285
2019-09-22,16292
2019-09-23,16289
2019-09-24,15985
2019-09-25,16068
2019-09-26,16050
2019-09-27,16062
2019-09-28,16065
2019-09-29,16080
2019-09-30,16070
2019-10-01,16074
2019-10-02,16079
2019-10-03,16075
2019-10-04,16089
2019-10-05,16098
2019-10-06,16099
2019-10-07,16110
2019-10-08,16114
2019-10-09,16091
2019-10-10,16098
2019-10-11,16089
2019-10-12,16092
2019-10-13,16096
2019-10-14,16106
2019-10-15,16102
2019-10-16,16108
2019-10-17,16094
2019-10-18,16087
2019-10-19,16085
2019-10-20,16098
2019-10-21,16085
2019-10-22,16070
2019-10-23,16191
2019-10-24,16270
2019-10-25,16302
2019-10-26,16256
2019-10-27,16224
2019-10-28,16231
2019-10-29,16231
2019-10-30,16182
2019-10-31,16184
2019-11-01,16178
2019-11-02,16195
2019-11-03,16183
2019-11-04,16168
2019-11-05,16175
2019-11-06,16201
2019-11-07,16162
2019-11-08,16190
2019-11-09,16193
2019-11-10,16196
2019-11-11,16202
2019-11-12,16169
2019-11-13,16210
2019-11-14,16204
2019-11-15,16205
2019-11-16,16234
2019-11-17,16236
2019-11-18,16230
2019-11-19,16219
2019-11-20,16209
2019-11-21,16231
2019-11-22,16247
2019-11-23,16267
2019-11-24,16291
2019-11-25,16294
2019-11-26,16305
2019-11-27,16169
2019-11-28,16168
2019-11-29,16192
2019-11-30,16226
2019-12-01,16234
2019-12-02,16253
2019-12-03,16278
2019-12-04,16217
2019-12-05,16186
2019-12-06,16186
2019-12-07,16180
2019-12-08,16176
2019-12-09,16200
2019-12-10,16208
2019-12-11,16218
2019-12-12,16207
2019-12-13,16213
2019-12-14,16202
2019-12-15,16201
2019-12-16,16194
2019-12-17,16202
2019-12-18,16183
2019-12-19,16197
2019-12-20,16199
2019-12-21,16217
2019-12-22,16225
2019-12-23,16234
2019-12-24,16242
2019-12-25,16233
2019-12-26,16234
2019-12-27,16247
2019-12-28,16249
2019-12-29,16237
2019-12-30,16240
2019-12-31,16214
2020-01-01,16220
2020-01-02,16241
2020-01-03,16245
2020-01-04,16252
2020-01-05,16256
2020-01-06,16275
2020-01-07,16275
2020-01-08,16274
2020-01-09,16308
2020-01-10,16331
2020-01-11,16326
2020-01-12,16318
2020-01-13,16345
2020-01-14,16355
2020-01-15,16348
2020-01-16,16337
2020-01-17,16345
2020-01-18,16302
2020-01-19,16323
2020-01-20,16323
2020-01-21,16327
2020-01-22,16334
2020-01-23,16323
2020-01-24,16303
2020-01-25,16293
2020-01-26,16293
2020-01-27,16299
2020-01-28,16318
2020-01-29,16327
2020-01-30,16309
2020-01-31,16248
2020-02-01,16244
2020-02-02,16228
2020-02-03,16242
2020-02-04,16248
2020-02-05,16286
2020-02-06,16254
2020-02-07,16243
2020-02-08,16263
2020-02-09,16252
2020-02-10,16238
2020-02-11,16243
2020-02-12,16249
2020-02-13,16243
2020-02-14,16261
2020-02-15,16270
2020-02-16,16266
2020-02-17,16240
2020-02-18,16263
2020-02-19,16253
2020-02-20,16258
2020-02-21,16246
2020-02-22,16256
2020-02-23,16247
2020-02-24,16246
2020-02-25,16257
2020-02-26,16255
2020-02-27,16256
2020-02-28,16271
2020-02-29,16271
2020-03-01,16259
2020-03-02,16266
2020-03-03,16259
2020-03-04,16268
2020-03-05,16256
2020-03-06,16240
2020-03-07,16240
2020-03-08,16222
2020-03-09,16205
2020-03-10,16223
2020-03-11,16194
2020-03-12,16248
2020-03-13,16330
2020-03-14,16322
2020-03-15,16346
2020-03-16,16344
2020-03-17,16290
2020-03-18,16208
2020-03-19,16161
2020-03-20,16109
2020-03-21,16104
2020-03-22,16101
2020-03-23,16061
2020-03-24,16048
2020-03-25,16042
2020-03-26,16052
2020-03-27,16065
2020-03-28,16053
2020-03-29,16048
2020-03-30,16050
2020-03-31,16049
2020-04-01,16041
2020-04-02,16075
2020-04-03,16060
2020-04-04,16053
2020-04-05,16052
2020-04-06,16096
2020-04-07,16085
2020-04-08,16072
2020-04-09,16045
2020-04-10,16069
2020-04-11,16052
2020-04-12,16053
2020-04-13,16057
2020-04-14,16051
2020-04-15,16054
2020-04-16,16050
2020-04-17,16062
2020-04-18,16058
2020-04-19,16062
2020-04-20,16046
2020-04-21,16050
2020-04-22,16074
2020-04-23,16057
2020-04-24,16081
2020-04-25,16088
2020-04-26,16082
2020-04-27,16068
2020-04-28,16075
2020-04-29,16077
2020-04-30,16114
2020-05-01,16112
2020-05-02,16126
2020-05-03,16125
2020-05-04,16139
2020-05-05,16101
2020-05-06,16098
2020-05-07,16089
2020-05-08,16016
2020-05-09,16017
2020-05-10,16032
2020-05-11,16066
2020-05-12,16034
2020-05-13,16011
2020-05-14,15999
2020-05-15,16016
2020-05-16,16004
2020-05-17,16001
2020-05-18,16013
2020-05-19,16037
2020-05-20,16038
2020-05-21,16064
2020-05-22,16064
2020-05-23,16060
2020-05-24,16067
2020-05-25,16084
2020-05-26,16081
2020-05-27,16066
2020-05-28,16078
2020-05-29,16074
2020-05-30,16083
2020-05-31,16089
2020-06-01,16054
2020-06-02,16023
2020-06-03,16014
2020-06-04,16022
2020-06-05,16029
2020-06-06,16049
2020-06-07,16061
2020-06-08,16058
2020-06-09,16062
2020-06-10,16077
2020-06-11,16088
2020-06-12,16070
2020-06-13,16060
2020-06-14,16078
2020-06-15,16093
2020-06-16,16103
2020-06-17,16089
2020-06-18,16077
2020-06-19,16098
2020-06-20,16090
2020-06-21,16092
2020-06-22,16114
2020-06-23,16069
2020-06-24,16068
2020-06-25,16038
2020-06-26,16058
2020-06-27,16068
2020-06-28,16064
2020-06-29,16075
2020-06-30,16072
2020-07-01,16107
2020-07-02,16121
2020-07-03,16114
2020-07-04,16107
2020-07-05,16109
2020-07-06,16092
2020-07-07,16088
2020-07-08,16058
2020-07-09,16067
2020-07-10,16073
2020-07-11,16072
2020-07-12,16066
2020-07-13,16074
2020-07-14,16091
2020-07-15,16087
2020-07-16,16078
2020-07-17,16093
2020-07-18,16079
2020-07-19,16072
2020-07-20,16075
2020-07-21,16064
2020-07-22,16068
2020-07-23,16052
2020-07-24,16064
2020-07-25,16075
2020-07-26,16072
2020-07-27,16058
2020-07-28,16024
2020-07-29,16039
2020-07-30,16009
2020-07-31,16011
2020-08-01,16001
2020-08-02,15991
2020-08-03,16001
2020-08-04,16020
2020-08-05,16023
2020-08-06,15995
2020-08-07,16011
2020-08-08,16003
2020-08-09,15993
2020-08-10,15984
2020-08-11,15979
2020-08-12,15992
2020-08-13,15993
2020-08-14,16001
2020-08-15,16017
2020-08-16,15990
2020-08-17,15991
2020-08-18,16003
2020-08-19,16002
2020-08-20,16003
2020-08-21,16025
2020-08-22,16027
2020-08-23,16048
2020-08-24,16041
2020-08-25,16023
2020-08-26,16035
2020-08-27,16042
2020-08-28,16005
2020-08-29,16034
2020-08-30,16019
2020-08-31,16021
2020-09-01,16021
2020-09-02,16034
2020-09-03,16021
2020-09-04,16004
2020-09-05,15982
2020-09-06,15994
2020-09-07,16011
2020-09-08,15990
2020-09-09,15986
2020-09-10,15959
2020-09-11,15984
2020-09-12,15982
2020-09-13,15985
2020-09-14,15988
2020-09-15,16013
2020-09-16,15978
2020-09-17,15983
2020-09-18,15983
2020-09-19,16065
2020-09-20,16063
2020-09-21,16075
2020-09-22,16120
2020-09-23,16138
2020-09-24,16141
2020-09-25,16119
2020-09-26,16105
2020-09-27,16116
2020-09-28,16122
2020-09-29,16106
2020-09-30,16092
2020-10-01,16088
2020-10-02,16093
2020-10-03,16070
2020-10-04,16070
2020-10-05,16054
2020-10-06,16038
2020-10-07,16066
2020-10-08,16063
2020-10-09,16064
2020-10-10,16057
2020-10-11,16058
2020-10-12,16031
2020-10-13,16076
2020-10-14,16087
2020-10-15,16117
2020-10-16,16119
2020-10-17,16107
2020-10-18,16097
2020-10-19,16165
2020-10-20,16169
2020-10-21,16107
2020-10-22,16099
2020-10-23,16107
2020-10-24,16101
2020-10-25,16082
2020-10-26,16092
2020-10-27,16106
2020-10-28,16108
2020-10-29,16074
2020-10-30,16072
2020-10-31,16066
2020-11-01,16084
2020-11-02,16094
2020-11-03,16204
2020-11-04,16258
2020-11-05,16241
2020-11-06,16267
2020-11-07,16258
2020-11-08,16278
2020-11-09,16246
2020-11-10,16163
2020-11-11,16193
2020-11-12,16222
2020-11-13,16173
2020-11-14,16211
2020-11-15,16241
2020-11-16,16276
2020-11-17,16238
2020-11-18,16242
2020-11-19,16199
2020-11-20,16210
2020-11-21,16187
2020-11-22,16154
2020-11-23,16161
2020-11-24,16149
2020-11-25,16140
2020-11-26,16121
2020-11-27,16089
2020-11-28,16082
2020-11-29,16105
2020-11-30,16150
2020-12-01,16130
2020-12-02,16094
2020-12-03,16096
2020-12-04,16108
2020-12-05,16085
2020-12-06,16097
2020-12-07,16107
2020-12-08,16119
2020-12-09,16135
2020-12-10,16125
2020-12-11,16120
2020-12-12,16114
2020-12-13,16100
2020-12-14,16083
2020-12-15,16078
2020-12-16,16108
2020-12-17,16127
2020-12-18,16145
2020-12-19,16123
2020-12-20,16101
2020-12-21,16081
2020-12-22,16136
2020-12-23,16119
2020-12-24,16089
2020-12-25,16068
2020-12-26,16104
2020-12-27,16038
2020-12-28,16197
2020-12-29,16227
2020-12-30,16233
2020-12-31,16212
2021-01-01,16333
2021-01-02,16235
2021-01-03,16221
2021-01-04,16215
2021-01-05,16205
2021-01-06,16220
2021-01-07,16212
2021-01-08,16240
2021-01-09,16253
2021-01-10,16274
2021-01-11,16271
2021-01-12,16278
2021-01-13,16271
2021-01-14,16267
2021-01-15,16241
2021-01-16,16233
2021-01-17,16217
2021-01-18,16216
2021-01-19,16228
2021-01-20,16227
2021-01-21,16226
2021-01-22,16224
2021-01-23,16228
2021-01-24,16215
2021-01-25,16226
2021-01-26,16238
2021-01-27,16254
2021-01-28,16235
2021-01-29,16240
2021-01-30,16226
2021-01-31,16231
2021-02-01,16221
2021-02-02,16229
2021-02-03,16208
2021-02-04,16215
2021-02-05,16222
2021-02-06,16198
2021-02-07,16207
2021-02-08,16216
2021-02-09,16172
2021-02-10,16188
2021-02-11,16211
2021-02-12,16215
2021-02-13,16213
2021-02-14,16202
2021-02-15,16215
2021-02-16,16205
2021-02-17,16197
2021-02-18,16198
2021-02-19,16169
2021-02-20,16177
2021-02-21,16166
2021-02-22,16190
2021-02-23,16235
2021-02-24,16323
2021-02-25,16208
2021-02-26,16201
2021-02-27,16201
2021-02-28,16205
2021-03-01,16191
2021-03-02,16209
2021-03-03,16183
2021-03-04,16165
2021-03-05,16161
2021-03-06,16169
2021-03-07,16167
2021-03-08,16174
2021-03-09,16167
2021-03-10,16137
2021-03-11,16181
2021-03-12,16200
2021-03-13,16220
2021-03-14,16202
2021-03-15,16197
2021-03-16,16236
2021-03-17,16245
2021-03-18,16237
2021-03-19,16227
2021-03-20,16226
2021-03-21,16197
2021-03-22,16224
2021-03-23,16230
2021-03-24,16222
2021-03-25,16246
2021-03-26,16230
2021-03-27,16263
2021-03-28,16251
2021-03-29,16252
2021-03-30,16253
2021-03-31,16234
2021-04-01,16241
2021-04-02,16242
2021-04-03,16232
2021-04-04,16236
2021-04-05,16231
2021-04-06,16231
2021-04-07,16245
