t,v
2015-07-30,0.0
2015-07-31,72038527.53073
2015-08-01,72102506.90573
2015-08-02,72133582.21823
2015-08-03,72158947.84323
2015-08-04,72191365.18698
2015-08-05,72219633.93698
2015-08-06,231300.46875
2015-08-07,215013.782963142
2015-08-08,425676.975063059
2015-08-09,14498923.6597623
2015-08-10,15743090.408033
2015-08-11,16249328.8893996
2015-08-12,16465871.1753082
2015-08-13,16957699.3657133
2015-08-14,17607019.9641196
2015-08-15,6522126.54779356
2015-08-16,9682531.49706481
2015-08-17,9752688.82077421
2015-08-18,7561433.92382162
2015-08-19,7527801.80050456
2015-08-20,5717472.45782649
2015-08-21,5553270.33999556
2015-08-22,3340154.26678494
2015-08-23,3308014.97723998
2015-08-24,2343318.65924951
2015-08-25,2436916.7010984
2015-08-26,1380087.26882384
2015-08-27,1176142.65540151
2015-08-28,1277043.90576096
2015-08-29,977020.314744868
2015-08-30,1051146.78111963
2015-08-31,1078958.72149397
2015-09-01,782003.321227361
2015-09-02,1725828.5823534
2015-09-03,1455106.23415444
2015-09-04,1413986.5427631
2015-09-05,1138575.42363247
2015-09-06,1062203.98734353
2015-09-07,1100583.45711603
2015-09-08,411302.733832964
2015-09-09,415440.096007054
2015-09-10,469802.149853147
2015-09-11,471738.734351475
2015-09-12,542603.169804251
2015-09-13,432215.95201123
2015-09-14,560874.427880323
2015-09-15,1069488.07463116
2015-09-16,959659.90389862
2015-09-17,1179817.87060983
2015-09-18,1204050.37220805
2015-09-19,1134734.69956521
2015-09-20,1035225.20831233
2015-09-21,1020328.99661338
2015-09-22,902784.597287438
2015-09-23,854809.529864559
2015-09-24,469694.114269597
2015-09-25,414700.521764989
2015-09-26,385566.150161668
2015-09-27,356122.878567236
2015-09-28,509767.810300104
2015-09-29,298802.827660789
2015-09-30,302230.532074856
2015-10-01,374291.985384088
2015-10-02,586828.521311724
2015-10-03,507806.352335141
2015-10-04,522449.533015349
2015-10-05,646945.149437241
2015-10-06,523688.570326379
2015-10-07,595070.364028938
2015-10-08,368326.039708012
2015-10-09,503767.001266619
2015-10-10,515163.308403768
2015-10-11,389916.169386554
2015-10-12,422088.376895977
2015-10-13,364111.440881139
2015-10-14,553623.997380121
2015-10-15,798888.44738655
2015-10-16,1291070.14110956
2015-10-17,1285292.84157367
2015-10-18,923761.144437568
2015-10-19,1390936.81149163
2015-10-20,1600485.78053141
2015-10-21,925798.470022323
2015-10-22,289183.452168464
2015-10-23,214685.158269834
2015-10-24,620744.769648481
2015-10-25,623091.803892788
2015-10-26,718766.680349418
2015-10-27,554010.397208402
2015-10-28,1520515.50771305
2015-10-29,1816043.65000252
2015-10-30,1889573.16075853
2015-10-31,2124091.39389624
2015-11-01,2050730.62713295
2015-11-02,1934705.36863447
2015-11-03,819026.184187151
2015-11-04,559449.219817462
2015-11-05,563214.314439895
2015-11-06,519079.003692444
2015-11-07,1107269.22224594
2015-11-08,1428293.96939922
2015-11-09,2039301.90410376
2015-11-10,2011808.94026348
2015-11-11,2098258.52842425
2015-11-12,2159022.23422221
2015-11-13,1371916.01605539
2015-11-14,1296801.64294768
2015-11-15,887544.090704299
2015-11-16,759694.946358866
2015-11-17,820929.368477091
2015-11-18,1481726.26877178
2015-11-19,1787927.3403556
2015-11-20,1690524.70054053
2015-11-21,1758447.8347235
2015-11-22,1525952.48631016
2015-11-23,1281081.37230025
2015-11-24,580916.384102102
2015-11-25,686411.394565237
2015-11-26,593743.20522252
2015-11-27,627367.524469639
2015-11-28,1105953.21593177
2015-11-29,1099142.08613677
2015-11-30,1053575.19632556
2015-12-01,932251.542515886
2015-12-02,900687.831675695
2015-12-03,736998.853177746
2015-12-04,261969.052538766
2015-12-05,309274.403950145
2015-12-06,277064.918693636
2015-12-07,336113.113393889
2015-12-08,373067.852588005
2015-12-09,316670.14214876
2015-12-10,299703.445318617
2015-12-11,355330.855969399
2015-12-12,554127.147325412
2015-12-13,454417.794698692
2015-12-14,417214.070165367
2015-12-15,729551.441117517
2015-12-16,761226.974855491
2015-12-17,891267.972106305
2015-12-18,937859.332525442
2015-12-19,814846.159717052
2015-12-20,825517.068504243
2015-12-21,730544.272435403
2015-12-22,488570.886145597
2015-12-23,410256.823499
2015-12-24,373129.013648927
2015-12-25,389273.170733907
2015-12-26,328425.532446238
2015-12-27,302920.80595265
2015-12-28,295271.307285427
2015-12-29,576294.067866805
2015-12-30,691250.711534846
2015-12-31,742899.590768838
2016-01-01,787216.096829501
2016-01-02,806779.5545092
2016-01-03,841103.271357546
2016-01-04,847572.151056007
2016-01-05,658247.806680302
2016-01-06,785941.6691711
2016-01-07,762836.608953062
2016-01-08,351057.758430479
2016-01-09,383759.38334733
2016-01-10,407064.505773939
2016-01-11,350370.156650407
2016-01-12,493098.297348601
2016-01-13,603184.18857149
2016-01-14,643684.333963109
2016-01-15,586186.118558181
2016-01-16,855792.486276748
2016-01-17,820051.367526285
2016-01-18,1068521.30882236
2016-01-19,1246357.45025578
2016-01-20,1359274.91139096
2016-01-21,1304159.34462202
2016-01-22,1401669.43901159
2016-01-23,1897401.15764927
2016-01-24,1562725.91464256
2016-01-25,1799851.38968203
2016-01-26,1992920.47217988
2016-01-27,2115001.0568506
2016-01-28,2461489.43648762
2016-01-29,2109303.0829434
2016-01-30,2171417.7366949
2016-01-31,2105663.2102762
2016-02-01,1837331.62599881
2016-02-02,1940764.29334743
2016-02-03,1784077.63508544
2016-02-04,1898803.64530989
2016-02-05,1596002.66087251
2016-02-06,1533353.05683884
2016-02-07,1378106.71959352
2016-02-08,1381619.93059783
2016-02-09,1553069.79322837
2016-02-10,1765787.89934091
2016-02-11,2317982.67063775
2016-02-12,2327779.36815077
2016-02-13,3026335.12292067
2016-02-14,3080488.80780165
2016-02-15,2998584.49369946
2016-02-16,2963196.60051079
2016-02-17,2823657.03124612
2016-02-18,2695806.01220894
2016-02-19,2188191.58571223
2016-02-20,2148483.54994766
2016-02-21,1993199.16783036
2016-02-22,1416783.36820728
2016-02-23,1501733.09914398
2016-02-24,1542319.12258738
2016-02-25,1220007.50882524
2016-02-26,1181709.67469242
2016-02-27,1211302.542219
2016-02-28,1173119.36651399
2016-02-29,1394505.81451184
2016-03-01,1552878.65091711
2016-03-02,3917387.0457311
2016-03-03,3929779.98635143
2016-03-04,3940686.25758513
2016-03-05,1797442.91546164
2016-03-06,2396243.07789806
2016-03-07,2449343.98533866
2016-03-08,2680450.52320676
2016-03-09,3512260.35430696
2016-03-10,3639066.86656922
2016-03-11,3590142.23441276
2016-03-12,3190714.32174062
2016-03-13,3165653.10875424
2016-03-14,3262358.4281028
2016-03-15,2774456.98540073
2016-03-16,2876946.55106702
2016-03-17,2967410.10817164
2016-03-18,2844168.25458749
2016-03-19,2820925.92118849
2016-03-20,2738879.20068183
2016-03-21,2674414.00513979
2016-03-22,2159027.98508718
2016-03-23,1690736.17677359
2016-03-24,1632699.5586609
2016-03-25,1741548.77382287
2016-03-26,1454800.47614354
2016-03-27,1184903.15965889
2016-03-28,1471823.92094836
2016-03-29,2152556.44509802
2016-03-30,1908352.3175337
2016-03-31,2388883.77803618
2016-04-01,2074224.36806434
2016-04-02,2096450.95597357
2016-04-03,1970235.6793333
2016-04-04,1876678.33996719
2016-04-05,1778561.39166926
2016-04-06,1281625.94376912
2016-04-07,1128509.08209235
2016-04-08,1186437.96547083
2016-04-09,1249771.1717688
2016-04-10,1876378.43286292
2016-04-11,1897673.86660923
2016-04-12,1919726.94521042
2016-04-13,1773738.8366346
2016-04-14,1939898.3000985
2016-04-15,1756371.67209205
2016-04-16,1569343.5593814
2016-04-17,1312853.14673502
2016-04-18,1359642.74476204
2016-04-19,1366590.72808387
2016-04-20,1256565.04298109
2016-04-21,1252909.74171635
2016-04-22,850125.599381728
2016-04-23,1377053.23985623
2016-04-24,1311754.22804058
2016-04-25,1088779.49672571
2016-04-26,1014617.55991841
2016-04-27,1070420.81807652
2016-04-28,1078835.59195407
2016-04-29,879215.362904693
2016-04-30,1436371.74739277
2016-05-01,1347266.33346689
2016-05-02,2750234.95238402
2016-05-03,3130373.38292272
2016-05-04,3413195.05346964
2016-05-05,3691371.03022718
2016-05-06,3921388.93770223
2016-05-07,4214212.3903316
2016-05-08,4600257.36195618
2016-05-09,5173453.63803784
2016-05-10,5544420.04097676
2016-05-11,5895190.19773415
2016-05-12,7447714.70695336
2016-05-13,9640892.76090547
2016-05-14,11878209.5937227
2016-05-15,13478673.3052545
2016-05-16,13486728.6322361
2016-05-17,2747943.33200538
2016-05-18,2150382.74944697
2016-05-19,1954531.57146357
2016-05-20,2791459.76411152
2016-05-21,2546546.04440644
2016-05-22,2434605.71405051
2016-05-23,2182368.81923491
2016-05-24,2295722.58767015
2016-05-25,2006391.82159191
2016-05-26,2017189.91779206
2016-05-27,2056750.71003079
2016-05-28,2561992.21782834
2016-05-29,2569711.74550556
2016-05-30,2154280.17674424
2016-05-31,2014345.69262918
2016-06-01,1736296.76945698
2016-06-02,1799179.7863841
2016-06-03,1593831.1234565
2016-06-04,1321453.18735067
2016-06-05,1251973.24389356
2016-06-06,1122107.18837784
2016-06-07,868840.587595781
2016-06-08,1593503.31763887
2016-06-09,2319339.83433206
2016-06-10,2371436.30230004
2016-06-11,2736568.98453436
2016-06-12,2243137.72760301
2016-06-13,2325679.88362876
2016-06-14,2064160.15501855
2016-06-15,2478777.01502022
2016-06-16,2926789.84191149
2016-06-17,2067060.52588696
2016-06-18,6300787.62346195
2016-06-19,6528689.59873939
2016-06-20,6779883.07714972
2016-06-21,6766275.79241803
2016-06-22,14185332.3535778
2016-06-23,14827974.0573147
2016-06-24,11575893.1710114
2016-06-25,11483087.2694377
2016-06-26,11298976.8212679
2016-06-27,10964544.1368921
2016-06-28,3238223.78467894
2016-06-29,3119171.56504668
2016-06-30,3182710.2330463
2016-07-01,1879144.42272412
2016-07-02,1963110.40345733
2016-07-03,1905505.58618407
2016-07-04,2433496.95618948
2016-07-05,2026466.86514542
2016-07-06,2690785.10629068
2016-07-07,2453144.0886568
2016-07-08,2698770.03833146
2016-07-09,3071180.04844757
2016-07-10,2654460.69124239
2016-07-11,2328172.98593105
2016-07-12,1887910.06929399
2016-07-13,2380025.2399328
2016-07-14,1777664.68992612
2016-07-15,2225980.57336799
2016-07-16,2959446.28613168
2016-07-17,2941519.5873321
2016-07-18,2088328.68126589
2016-07-19,2226010.04894881
2016-07-20,2481342.70168664
2016-07-21,19961777.953194
2016-07-22,21694906.9839131
2016-07-23,20762694.1685128
2016-07-24,20827707.6213544
2016-07-25,21550883.8182738
2016-07-26,19958776.4463457
2016-07-27,10244633.221211
2016-07-28,12156704.2776584
2016-07-29,11921172.6424003
2016-07-30,12559768.982269
2016-07-31,12149899.0470949
2016-08-01,11450045.9989865
2016-08-02,10952562.8264749
2016-08-03,8439461.56893035
2016-08-04,9112290.51460762
2016-08-05,7821197.18743839
2016-08-06,7599263.19592482
2016-08-07,7236337.50751182
2016-08-08,7026766.16847519
2016-08-09,6705143.32150717
2016-08-10,5782578.28164544
2016-08-11,6790487.32373786
2016-08-12,5484371.1734196
2016-08-13,6208518.04889815
2016-08-14,5917908.95034077
2016-08-15,5518138.77366621
2016-08-16,4537274.3490859
2016-08-17,2888601.2993621
2016-08-18,2331125.85863504
2016-08-19,2134390.29226787
2016-08-20,2140080.8935041
2016-08-21,1602709.5936863
2016-08-22,2060676.42346237
2016-08-23,1923731.31396907
2016-08-24,2014243.92757511
2016-08-25,2040152.48064771
2016-08-26,1852018.28302886
2016-08-27,2071189.02626021
2016-08-28,2019175.34253594
2016-08-29,1989482.82131766
2016-08-30,2115811.37319017
2016-08-31,2109451.53033108
2016-09-01,2079422.10688748
2016-09-02,2055330.79028186
2016-09-03,2024274.11311709
2016-09-04,1959301.5779509
2016-09-05,1945828.45101327
2016-09-06,1707545.36421849
2016-09-07,1555849.47583916
2016-09-08,1373819.87246825
2016-09-09,1663741.015187
2016-09-10,1478566.36261387
2016-09-11,1587708.06961542
2016-09-12,1608591.76256209
2016-09-13,1616130.68244794
2016-09-14,1540820.71514129
2016-09-15,1508345.73303964
2016-09-16,1301545.75452117
2016-09-17,2818050.49496709
2016-09-18,1877840.99193019
2016-09-19,1787913.02212698
2016-09-20,1710011.27136644
2016-09-21,1608137.11294436
2016-09-22,2219139.27020903
2016-09-23,1831452.36400107
2016-09-24,2016497.00375783
2016-09-25,2190638.47966907
2016-09-26,2696716.0622818
2016-09-27,2738913.55206152
2016-09-28,2189401.61197222
2016-09-29,2464900.05572744
2016-09-30,3329240.19516616
2016-10-01,3427116.32527451
2016-10-02,3040384.40537937
2016-10-03,3664684.03615208
2016-10-04,3483952.94156873
2016-10-05,2546347.11085909
2016-10-06,1853472.97533619
2016-10-07,1924062.37333536
2016-10-08,1812699.33628673
2016-10-09,1255820.55336697
2016-10-10,1612411.12893549
2016-10-11,1782103.4914611
2016-10-12,2299608.48571358
2016-10-13,2804305.82943892
2016-10-14,2493779.3597707
2016-10-15,4590368.57947732
2016-10-16,4569738.90691331
2016-10-17,4391756.22079896
2016-10-18,4106058.18264077
2016-10-19,3331790.56164187
2016-10-20,3558914.69428924
2016-10-21,1808822.4978384
2016-10-22,1701644.12784137
2016-10-23,1622180.62757306
2016-10-24,1648936.10592805
2016-10-25,1788686.3162362
2016-10-26,1677943.87866378
2016-10-27,1911165.48848752
2016-10-28,1633410.02211041
2016-10-29,1751666.67828462
2016-10-30,1440259.11423829
2016-10-31,2511922.8124824
2016-11-01,2481845.86084272
2016-11-02,2582340.49395295
2016-11-03,2741497.68301303
2016-11-04,2529186.47759105
2016-11-05,2713930.87322434
2016-11-06,1526710.62335657
2016-11-07,1585821.89356722
2016-11-08,1341516.70445932
2016-11-09,1280530.60717502
2016-11-10,1223336.64385259
2016-11-11,933484.734168136
2016-11-12,2180782.66660456
2016-11-13,2191363.62695526
2016-11-14,2121632.88694128
2016-11-15,2079619.02233368
2016-11-16,2276514.26222975
2016-11-17,2481520.48849331
2016-11-18,1477545.71466458
2016-11-19,1568490.17894915
2016-11-20,1896233.97158341
2016-11-21,1916025.80849516
2016-11-22,2084600.38123711
2016-11-23,1997258.69804969
2016-11-24,1809395.68010861
2016-11-25,1562420.24995269
2016-11-26,1557990.48461171
2016-11-27,1694572.26825191
2016-11-28,1647736.61434231
2016-11-29,1661489.09759405
2016-11-30,1550623.59908757
2016-12-01,1332079.57648653
2016-12-02,1457090.6629928
2016-12-03,1476122.86914503
2016-12-04,1868715.05609903
2016-12-05,1689221.11270726
2016-12-06,2500207.63056312
2016-12-07,2753164.96814838
2016-12-08,2577397.20864301
2016-12-09,2318842.08257189
2016-12-10,2130392.27411605
2016-12-11,2183368.63348801
2016-12-12,1974997.32798653
2016-12-13,1893686.63800916
2016-12-14,1891825.64529213
2016-12-15,1546347.33723031
2016-12-16,1552258.52674951
2016-12-17,1499366.23939688
2016-12-18,1496372.68257841
2016-12-19,1497985.76899514
2016-12-20,1765391.66937784
2016-12-21,2261131.17655267
2016-12-22,2215701.63115515
2016-12-23,3262532.1564331
2016-12-24,2923775.94373231
2016-12-25,1348923.94892269
2016-12-26,1410322.27804944
2016-12-27,1539258.34653748
2016-12-28,1522940.18069348
2016-12-29,1957126.7576898
2016-12-30,1460359.61190097
2016-12-31,1489381.09154114
2017-01-01,1687888.73092857
2017-01-02,1882017.53071071
2017-01-03,1377264.13857379
2017-01-04,1244110.38374121
2017-01-05,1515431.13291783
2017-01-06,1603230.74440353
2017-01-07,2432947.31650543
2017-01-08,1973505.37080874
2017-01-09,1712587.16602226
2017-01-10,2141179.51359052
2017-01-11,1782278.44729811
2017-01-12,1870997.40325555
2017-01-13,1783730.1527684
2017-01-14,1695347.88978176
2017-01-15,1674143.34493847
2017-01-16,1691202.91779623
2017-01-17,1867028.41691299
2017-01-18,1373969.93666344
2017-01-19,1784173.78430568
2017-01-20,1719005.20036954
2017-01-21,2505413.79763378
2017-01-22,2369205.32811163
2017-01-23,2550556.56754901
2017-01-24,2391021.08683777
2017-01-25,2353989.08196742
2017-01-26,2348822.09297794
2017-01-27,1645975.03586512
2017-01-28,1697086.33823326
2017-01-29,1020542.38018786
2017-01-30,1136334.84194802
2017-01-31,1111344.84136057
2017-02-01,1256955.29114161
2017-02-02,1149732.03340014
2017-02-03,1163240.43734005
2017-02-04,1040207.53638371
2017-02-05,1215200.58200768
2017-02-06,1219524.97327583
2017-02-07,1314866.72142498
2017-02-08,1306893.40228879
2017-02-09,1394491.4139082
2017-02-10,1467389.35389819
2017-02-11,1590279.26092575
2017-02-12,1590347.33445674
2017-02-13,1579267.1411131
2017-02-14,1422151.53648417
2017-02-15,1923883.69386048
2017-02-16,2470384.67613153
2017-02-17,2475091.73462359
2017-02-18,2244714.21746131
2017-02-19,2210843.60068471
2017-02-20,1914057.23783947
2017-02-21,1539926.73347625
2017-02-22,1520775.79578743
2017-02-23,1460182.14405556
2017-02-24,1551492.20818527
2017-02-25,1835269.40794861
2017-02-26,1741860.20822661
2017-02-27,1966174.21820206
2017-02-28,3065433.05668919
2017-03-01,3493572.72129218
2017-03-02,3504718.00229837
2017-03-03,3873021.34906314
2017-03-04,3353731.35663834
2017-03-05,3296490.27668878
2017-03-06,3074553.01702282
2017-03-07,3089027.99128325
2017-03-08,3211224.0711685
2017-03-09,2931149.82306575
2017-03-10,3056805.8334532
2017-03-11,2921024.93251339
2017-03-12,3290366.57647179
2017-03-13,3174401.29805399
2017-03-14,3394191.46715205
2017-03-15,3533150.22466978
2017-03-16,3298375.40913052
2017-03-17,4513080.5353593
2017-03-18,4729597.31499754
2017-03-19,5272079.64904855
2017-03-20,5054217.127781
2017-03-21,4799740.83387634
2017-03-22,4665399.73276907
2017-03-23,4621395.00140997
2017-03-24,4074369.64105712
2017-03-25,3869857.10779135
2017-03-26,4111503.63468176
2017-03-27,4414135.36867049
2017-03-28,3964106.38957368
2017-03-29,4098706.86440974
2017-03-30,3978048.72598324
2017-03-31,3662581.75639199
2017-04-01,4672989.31923814
2017-04-02,3906119.17184414
2017-04-03,3482334.53531288
2017-04-04,3977485.39099275
2017-04-05,4008938.97208297
2017-04-06,4356284.37662413
2017-04-07,4345282.43588687
2017-04-08,4616255.2946193
2017-04-09,4537359.39675152
2017-04-10,3105500.55376807
2017-04-11,3184573.04802782
2017-04-12,2781048.71490782
2017-04-13,2540371.97215467
2017-04-14,2587999.19360293
2017-04-15,2554951.2309103
2017-04-16,2584591.79902005
2017-04-17,2446301.80691278
2017-04-18,2253547.91801909
2017-04-19,2001302.1215548
2017-04-20,2210376.31345663
2017-04-21,2099731.30769659
2017-04-22,2046666.44598725
2017-04-23,2386881.16727263
2017-04-24,1889011.53913569
2017-04-25,2112395.68568827
2017-04-26,1773481.14595817
2017-04-27,2945538.08727436
2017-04-28,2928302.74889749
2017-04-29,3003355.4660062
2017-04-30,3810344.54325061
2017-05-01,3439922.70836973
2017-05-02,5214979.7312686
2017-05-03,5547803.059945
2017-05-04,5679010.14660824
2017-05-05,6125775.80449636
2017-05-06,6967119.9650119
2017-05-07,6689571.03042376
2017-05-08,5232702.3989843
2017-05-09,5012030.90548741
2017-05-10,5247520.87242019
2017-05-11,4591724.28746372
2017-05-12,3247062.67175075
2017-05-13,3264504.67598124
2017-05-14,2743750.87077107
2017-05-15,3128677.14314701
2017-05-16,3018820.4322057
2017-05-17,2879577.62178611
2017-05-18,3756311.74753498
2017-05-19,3686851.98460463
2017-05-20,3895695.59884145
2017-05-21,3846611.5332184
2017-05-22,4450131.044687
2017-05-23,4513284.92439399
2017-05-24,4216256.34622941
2017-05-25,4465563.72644377
2017-05-26,4053949.85621655
2017-05-27,4847456.33537289
2017-05-28,4839483.4343958
2017-05-29,4943789.39598916
2017-05-30,4803620.36082405
2017-05-31,4819337.7947548
2017-06-01,4841445.44555572
2017-06-02,4404702.9132453
2017-06-03,4609884.50133966
2017-06-04,4582944.00167312
2017-06-05,4416724.43590464
2017-06-06,4092066.18635566
2017-06-07,3966321.74692817
2017-06-08,4314923.68373107
2017-06-09,4372695.45212523
2017-06-10,4033942.78759066
2017-06-11,4105179.70136511
2017-06-12,3724358.09025871
2017-06-13,4829570.27385322
2017-06-14,4474957.87599572
2017-06-15,4652656.19852578
2017-06-16,4631273.19759292
2017-06-17,4736088.32910417
2017-06-18,4437059.05536004
2017-06-19,4230731.06523451
2017-06-20,4246209.77231688
2017-06-21,3989010.04538004
2017-06-22,4212447.43755582
2017-06-23,5636993.97334883
2017-06-24,5626740.63288363
2017-06-25,5920016.59301273
2017-06-26,5695502.56159929
2017-06-27,4822780.76721993
2017-06-28,4451352.15624411
2017-06-29,3838817.84153719
2017-06-30,4936755.88623521
2017-07-01,4808066.89524557
2017-07-02,5335447.14807226
2017-07-03,5272950.18707628
2017-07-04,5646868.56418248
2017-07-05,5318007.12894178
2017-07-06,3778653.3333036
2017-07-07,3320620.51391013
2017-07-08,3348098.67577986
2017-07-09,2946256.39880168
2017-07-10,2987199.96871438
2017-07-11,2348747.02165635
2017-07-12,2664217.30348489
2017-07-13,2769043.37604027
2017-07-14,3287431.91348524
2017-07-15,3292762.16366923
2017-07-16,3417686.87410697
2017-07-17,3727483.60766543
2017-07-18,3504104.38198557
2017-07-19,3114605.73238447
2017-07-20,3477641.722985
2017-07-21,3707988.83873145
2017-07-22,3484411.77485989
2017-07-23,3611426.55564894
2017-07-24,3430044.68360118
2017-07-25,3277153.94424444
2017-07-26,3003738.12246006
2017-07-27,3155591.02490454
2017-07-28,3066031.82536836
2017-07-29,3665075.22543596
2017-07-30,3954565.87458587
2017-07-31,3740460.76470179
2017-08-01,3367186.67544536
2017-08-02,2848965.40220745
2017-08-03,3009189.41303129
2017-08-04,2874431.39961458
2017-08-05,2556619.78107517
2017-08-06,2696635.60318864
2017-08-07,2805964.44193278
2017-08-08,2734137.21144482
2017-08-09,2715592.65802155
2017-08-10,3273471.25038697
2017-08-11,3347183.91597429
2017-08-12,3767535.78303192
2017-08-13,3559930.87669467
2017-08-14,3513394.74728209
2017-08-15,3202123.92343115
2017-08-16,2745272.90535461
2017-08-17,3272046.66120908
2017-08-18,3524081.26059917
2017-08-19,3778254.55992995
2017-08-20,3936137.76869898
2017-08-21,4223439.0738609
2017-08-22,5361492.07764265
2017-08-23,5125842.75435331
2017-08-24,5190998.51293105
2017-08-25,5311423.5146019
2017-08-26,5377869.96526037
2017-08-27,5147715.56736603
2017-08-28,3974057.04301847
2017-08-29,3867092.22655054
2017-08-30,4428292.31970566
2017-08-31,4197521.04708767
2017-09-01,4364563.82724513
2017-09-02,4464391.22436336
2017-09-03,4302104.65106427
2017-09-04,3991236.55084424
2017-09-05,3813438.57279234
2017-09-06,3877913.32414208
2017-09-07,3864108.78386111
2017-09-08,3962989.4402417
2017-09-09,3973625.59033502
2017-09-10,4633777.13209726
2017-09-11,4372078.08041172
2017-09-12,4257420.08584076
2017-09-13,4493030.95602322
2017-09-14,4432824.6657483
2017-09-15,4358598.40687915
2017-09-16,4578900.90572043
2017-09-17,5130784.82963049
2017-09-18,4491776.55601974
2017-09-19,3279642.15819923
2017-09-20,3302263.79139083
2017-09-21,3158171.17264514
2017-09-22,2986913.45057022
2017-09-23,2629208.85506969
2017-09-24,2544206.07819233
2017-09-25,2756494.84141385
2017-09-26,2756182.21926346
2017-09-27,2521335.97292351
2017-09-28,2827936.70308563
2017-09-29,2847308.27705569
2017-09-30,2462952.50081849
2017-10-01,2393964.96967688
2017-10-02,2963395.78026363
2017-10-03,3248839.45037845
2017-10-04,3035884.82096915
2017-10-05,2668531.79604009
2017-10-06,2755028.17783482
2017-10-07,2812115.1517916
2017-10-08,2565987.12431778
2017-10-09,1998816.409388
2017-10-10,2306755.15676117
2017-10-11,2236369.21584873
2017-10-12,2320041.95377096
2017-10-13,1883210.09650557
2017-10-14,2171282.97969077
2017-10-15,2380074.23539934
2017-10-16,2087646.39029374
2017-10-17,2165570.09395278
2017-10-18,2461662.67600253
2017-10-19,2487972.31735582
2017-10-20,2470364.97317462
2017-10-21,2328051.03551727
2017-10-22,2222830.65245642
2017-10-23,2101745.88954022
2017-10-24,2074726.84508464
2017-10-25,2308817.11472228
2017-10-26,2347243.1648156
2017-10-27,2221364.30064451
2017-10-28,2065496.9124991
2017-10-29,2119720.68896593
2017-10-30,2342708.70894458
2017-10-31,2203367.99564066
2017-11-01,2080688.36832355
2017-11-02,1952274.6107221
2017-11-03,1948202.16531769
2017-11-04,1776394.78184675
2017-11-05,1736207.91773181
2017-11-06,1862162.11468276
2017-11-07,1854114.66476048
2017-11-08,2175874.30878903
2017-11-09,2464060.16015414
2017-11-10,2656143.87728297
2017-11-11,2688879.2682187
2017-11-12,3240309.71179358
2017-11-13,3378400.45245618
2017-11-14,3489984.65283185
2017-11-15,3691875.41426079
2017-11-16,3075237.93311422
2017-11-17,3046611.74257099
2017-11-18,2895618.19294989
2017-11-19,2551083.44722204
2017-11-20,3000582.41642264
2017-11-21,3095656.12118283
2017-11-22,3839848.86976978
2017-11-23,4110624.470291
2017-11-24,4023120.19118049
2017-11-25,3896825.07809349
2017-11-26,3758606.81250313
2017-11-27,3665178.79097845
2017-11-28,3209276.8693953
2017-11-29,3442191.37841065
2017-11-30,3913739.46212265
2017-12-01,3729174.77549351
2017-12-02,3740249.60548771
2017-12-03,3737630.24340507
2017-12-04,3634142.53006872
2017-12-05,3469547.06903844
2017-12-06,2803820.34445028
2017-12-07,2775437.06047159
2017-12-08,3113875.22187391
2017-12-09,3084325.22983831
2017-12-10,3217549.40842993
2017-12-11,3514767.44047786
2017-12-12,3009542.71683392
2017-12-13,3409151.27835905
2017-12-14,3499535.00309261
2017-12-15,3899452.09025079
2017-12-16,4140955.82788526
2017-12-17,3982872.70023808
2017-12-18,4260575.37336597
2017-12-19,3797809.26752089
2017-12-20,3801258.84777144
2017-12-21,3785051.06117955
2017-12-22,3790324.59060737
2017-12-23,4012255.16771308
2017-12-24,4139817.41870667
2017-12-25,4138234.78608236
2017-12-26,3933910.46936909
2017-12-27,3885531.26548879
2017-12-28,3533794.22370942
2017-12-29,3572365.95895589
2017-12-30,3435153.12355721
2017-12-31,3327322.03577652
2018-01-01,3747240.56022631
2018-01-02,3142909.40038881
2018-01-03,3469900.5571019
2018-01-04,3256392.17914496
2018-01-05,3689747.11504833
2018-01-06,4142412.19456597
2018-01-07,3814833.80780023
2018-01-08,3917611.00066758
2018-01-09,3774964.63530751
2018-01-10,4461282.97867103
2018-01-11,4485225.73010968
2018-01-12,4711393.84003965
2018-01-13,5083431.04564512
2018-01-14,5216764.62124189
2018-01-15,4918151.79335685
2018-01-16,5206575.98782465
2018-01-17,4914180.27490853
2018-01-18,5069891.30082203
2018-01-19,5157426.31199057
2018-01-20,5201341.09080157
2018-01-21,4967321.27941459
2018-01-22,4845221.30010709
2018-01-23,4450321.92608031
2018-01-24,4619251.66088487
2018-01-25,4192228.21373723
2018-01-26,3776945.61073701
2018-01-27,3974616.23504828
2018-01-28,3963813.44399293
2018-01-29,4089996.95961565
2018-01-30,4231339.81871474
2018-01-31,4060692.13863078
2018-02-01,4193124.22908889
2018-02-02,4296018.62472818
2018-02-03,4468789.9268341
2018-02-04,4350529.00248746
2018-02-05,4021155.0580401
2018-02-06,4230483.47326821
2018-02-07,4027997.39238479
2018-02-08,4595918.83593255
2018-02-09,4270161.2422831
2018-02-10,4184503.46313611
2018-02-11,4210217.25015601
2018-02-12,3953642.88803456
2018-02-13,4150856.09306637
2018-02-14,3834338.13576842
2018-02-15,3585761.41646595
2018-02-16,3647814.11259843
2018-02-17,3496677.84594249
2018-02-18,3162752.95364546
2018-02-19,2980245.12341109
2018-02-20,2797612.55482921
2018-02-21,2541036.66721735
2018-02-22,2560972.37226237
2018-02-23,4336113.87733676
2018-02-24,5059787.0741757
2018-02-25,5117658.64672209
2018-02-26,4908931.97904036
2018-02-27,5096610.63239704
2018-02-28,4746145.11510237
2018-03-01,2856880.11730237
2018-03-02,2468012.43662946
2018-03-03,2621924.34183267
2018-03-04,2656932.01792066
2018-03-05,2390801.43272242
2018-03-06,2375198.36060835
2018-03-07,2593028.6147086
2018-03-08,2822020.11795297
2018-03-09,2536376.06275393
2018-03-10,2487106.24759644
2018-03-11,2441573.29482702
2018-03-12,2229226.69411897
2018-03-13,2092086.10529401
2018-03-14,2718307.57753164
2018-03-15,2820725.94735147
2018-03-16,2932446.56689197
2018-03-17,2939708.26605705
2018-03-18,3278235.9078831
2018-03-19,3297734.56951212
2018-03-20,2667330.91986668
2018-03-21,2652554.70336684
2018-03-22,2646191.23705898
2018-03-23,2749686.59670774
2018-03-24,2802637.81017934
2018-03-25,2442410.26234254
2018-03-26,2408814.06815699
2018-03-27,2548767.51727625
2018-03-28,2898683.61094714
2018-03-29,3581734.18272849
2018-03-30,3640599.85248004
2018-03-31,3777889.68067757
2018-04-01,3772973.05443397
2018-04-02,3292931.46991734
2018-04-03,2845214.24398734
2018-04-04,2176398.09093583
2018-04-05,2411180.63046939
2018-04-06,2273378.32115298
2018-04-07,2283709.22846851
2018-04-08,2144745.54426706
2018-04-09,2081545.26284635
2018-04-10,2247949.70348684
2018-04-11,2034609.90433271
2018-04-12,1990774.64502532
2018-04-13,1681263.86774715
2018-04-14,2032942.71023923
2018-04-15,2056303.95668119
2018-04-16,1973052.51774538
2018-04-17,1934954.28280318
2018-04-18,1952207.11650034
2018-04-19,1905659.26129568
2018-04-20,2047196.38133818
2018-04-21,2368840.41235793
2018-04-22,2554721.52197183
2018-04-23,2713870.36387692
2018-04-24,2599473.58964268
2018-04-25,2534002.33186612
2018-04-26,2795806.61964977
2018-04-27,2565967.07982805
2018-04-28,2878153.54567414
2018-04-29,3175751.50987059
2018-04-30,2935031.29866576
2018-05-01,2970891.54265601
2018-05-02,3127440.98152298
2018-05-03,3523869.54456938
2018-05-04,3577777.16213296
2018-05-05,3593412.78744588
2018-05-06,3651858.93810318
2018-05-07,3862677.03777331
2018-05-08,2736171.66078475
2018-05-09,2705867.8167604
2018-05-10,2540522.06266706
2018-05-11,2768623.28639873
2018-05-12,2870464.87808242
2018-05-13,2899022.20385917
2018-05-14,2581717.12598308
2018-05-15,2578970.2798579
2018-05-16,2585487.73965591
2018-05-17,2609305.4904531
2018-05-18,2463055.07565438
2018-05-19,2540227.39692284
2018-05-20,2457053.05789656
2018-05-21,2334818.75770123
2018-05-22,2393731.93689003
2018-05-23,2551455.79032572
2018-05-24,2405813.52115844
2018-05-25,2702409.60705099
2018-05-26,2802870.27148689
2018-05-27,2728951.83989861
2018-05-28,2976587.79008568
2018-05-29,3090492.38979406
2018-05-30,3135071.87553023
2018-05-31,3278396.52715487
2018-06-01,3642926.89949426
2018-06-02,3535931.88451522
2018-06-03,3332004.78966168
2018-06-04,3195193.46288877
2018-06-05,3132224.04747392
2018-06-06,2168498.38175445
2018-06-07,2466795.2491205
2018-06-08,2603346.10015931
2018-06-09,2756820.90611349
2018-06-10,2680924.89044543
2018-06-11,2559608.43224877
2018-06-12,2652018.72694527
2018-06-13,2524140.61882803
2018-06-14,2797460.90694511
2018-06-15,2961359.70072263
2018-06-16,3151728.17245561
2018-06-17,3164186.48294094
2018-06-18,2843560.30215222
2018-06-19,2607935.1899157
2018-06-20,2461378.16325151
2018-06-21,2389608.40192922
2018-06-22,2339047.96812685
2018-06-23,2434016.28109265
2018-06-24,2269146.5746312
2018-06-25,2219479.40899477
2018-06-26,2334423.54831802
2018-06-27,2477002.64024387
2018-06-28,2364755.07070458
2018-06-29,2308702.84287648
2018-06-30,2174207.24993684
2018-07-01,2109089.07671018
2018-07-02,2017342.77870433
2018-07-03,1962096.29443336
2018-07-04,2105219.5861992
2018-07-05,2196925.97101258
2018-07-06,2291546.955311
2018-07-07,2336442.02907178
2018-07-08,2391632.89258081
2018-07-09,2405954.37931672
2018-07-10,2061117.97320031
2018-07-11,2285703.51459221
2018-07-12,2261833.85941097
2018-07-13,2164961.58522297
2018-07-14,2160715.00283047
2018-07-15,2122033.49396062
2018-07-16,2022660.79348247
2018-07-17,2212675.86939391
2018-07-18,2139553.3195117
2018-07-19,2221334.70911531
2018-07-20,2151369.67127755
2018-07-21,2348932.89472062
2018-07-22,2410016.7498266
2018-07-23,2235258.75295552
2018-07-24,2046597.67282357
2018-07-25,2064280.39354858
2018-07-26,2211996.18261744
2018-07-27,1871017.93520491
2018-07-28,1890541.63477274
2018-07-29,1931012.12755216
2018-07-30,1756603.99928659
2018-07-31,1893602.9131014
2018-08-01,1936113.81501885
2018-08-02,1907595.65929861
2018-08-03,2147774.92305046
2018-08-04,2253418.44749237
2018-08-05,2197365.21281679
2018-08-06,2017735.36559967
2018-08-07,1932278.7220719
2018-08-08,1943145.16912282
2018-08-09,2079534.67616481
2018-08-10,2104952.30729613
2018-08-11,2213058.32194061
2018-08-12,2319537.41662905
2018-08-13,2161526.3271169
2018-08-14,2382803.62172348
2018-08-15,2637189.49021941
2018-08-16,2648015.5766995
2018-08-17,2578590.51397104
2018-08-18,2697826.44136529
2018-08-19,2757582.10539068
2018-08-20,2477100.55062563
2018-08-21,1852317.8942964
2018-08-22,1838351.17683543
2018-08-23,1949390.20064313
2018-08-24,1905739.41784956
2018-08-25,2017795.44769664
2018-08-26,2109035.46300586
2018-08-27,1893680.82949775
2018-08-28,1868825.38494139
2018-08-29,1757596.61103313
2018-08-30,1846043.05178621
2018-08-31,1883856.2104768
2018-09-01,1799057.01340631
2018-09-02,1705243.1422127
2018-09-03,1579559.98305168
2018-09-04,1717329.66909276
2018-09-05,2235272.6083201
2018-09-06,2444291.71315895
2018-09-07,2374703.84869068
2018-09-08,2629077.41692576
2018-09-09,2781806.8789704
2018-09-10,2621324.10270839
2018-09-11,2376767.14716168
2018-09-12,2340627.98905889
2018-09-13,2538341.69899763
2018-09-14,2520160.10940859
2018-09-15,2575439.48697856
2018-09-16,2635615.50126142
2018-09-17,2523614.32078937
2018-09-18,2406937.403949
2018-09-19,2417138.61173114
2018-09-20,2304940.63243415
2018-09-21,2220459.10068098
2018-09-22,1998007.7151045
2018-09-23,1942881.02998967
2018-09-24,1865088.02777261
2018-09-25,2446757.02081288
2018-09-26,2498635.00940487
2018-09-27,2464928.14894627
2018-09-28,2496378.95831634
2018-09-29,2713037.4555493
2018-09-30,2804431.16400282
2018-10-01,2315810.4905223
2018-10-02,2314490.92087263
2018-10-03,2318288.80522324
2018-10-04,2308320.35870141
2018-10-05,2304303.90603159
2018-10-06,2582450.1758849
2018-10-07,2500245.71761731
2018-10-08,2346845.20013751
2018-10-09,2232480.69813653
2018-10-10,2138434.46309717
2018-10-11,1996387.18142852
2018-10-12,2004898.13635316
2018-10-13,2043801.76663967
2018-10-14,2080128.82932037
2018-10-15,1845329.57859185
2018-10-16,2110126.64720818
2018-10-17,2327196.2222484
2018-10-18,2416267.05784106
2018-10-19,2615426.70826515
2018-10-20,2524341.33071238
2018-10-21,2697452.03670599
2018-10-22,3640599.87113392
2018-10-23,3224414.92634244
2018-10-24,3131211.66204915
2018-10-25,3341957.5539049
2018-10-26,3437883.13610971
2018-10-27,3518518.42945033
2018-10-28,2550857.78287909
2018-10-29,2591134.40383731
2018-10-30,2509102.23662512
2018-10-31,2369686.77724217
2018-11-01,2428192.60218753
2018-11-02,2414887.85201552
2018-11-03,2470444.47414953
2018-11-04,2203230.11037116
2018-11-05,1931269.01713467
2018-11-06,2342432.96204975
2018-11-07,2195594.73810751
2018-11-08,2230186.81051598
2018-11-09,2252137.57708401
2018-11-10,2162039.57432075
2018-11-11,2168225.58583388
2018-11-12,2085893.05692703
2018-11-13,2107951.5570472
2018-11-14,1917976.73646223
2018-11-15,2187778.90851157
2018-11-16,2316107.68942266
2018-11-17,2470245.1307562
2018-11-18,2609965.22414805
2018-11-19,2635774.84761431
2018-11-20,2727890.76846244
2018-11-21,2555368.81891417
2018-11-22,3392869.39958902
2018-11-23,3476609.01059603
2018-11-24,3416853.11950068
2018-11-25,3094833.00435759
2018-11-26,2973483.91586978
2018-11-27,3187918.74110604
2018-11-28,2680187.46993574
2018-11-29,2871390.47458705
2018-11-30,3733175.75633629
2018-12-01,9081993.50367773
2018-12-02,13613248.8417004
2018-12-03,13024519.3694665
2018-12-04,12920135.4039628
2018-12-05,13171890.2485756
2018-12-06,12140599.38964
2018-12-07,7137939.63928117
2018-12-08,2584212.42783567
2018-12-09,2652181.45714466
2018-12-10,2537360.26505264
2018-12-11,2577959.97052426
2018-12-12,2605000.46632869
2018-12-13,2532245.04740119
2018-12-14,3012392.60434633
2018-12-15,3072945.74805222
2018-12-16,2992016.15761022
2018-12-17,2933184.31423224
2018-12-18,2958843.98895364
2018-12-19,3196442.56229732
2018-12-20,2913276.74614747
2018-12-21,2688846.31221979
2018-12-22,3263085.72626128
2018-12-23,3020145.30064564
2018-12-24,2899670.12080805
2018-12-25,3058438.37759407
2018-12-26,2826136.01846077
2018-12-27,2466854.20710382
2018-12-28,2181465.39306512
2018-12-29,2230091.81047497
2018-12-30,2700270.89018971
2018-12-31,2575736.7502903
2019-01-01,2555430.32757282
2019-01-02,2382156.78680716
2019-01-03,2463811.88694784
2019-01-04,2423741.47842194
2019-01-05,2795599.4618053
2019-01-06,3400985.07686593
2019-01-07,3332987.76051663
2019-01-08,3128393.12619588
2019-01-09,3155058.09827682
2019-01-10,3258120.90103511
2019-01-11,2888538.49781646
2019-01-12,3692059.34294381
2019-01-13,3516703.64547447
2019-01-14,3709062.59997988
2019-01-15,3884226.51633793
2019-01-16,4035784.9077692
2019-01-17,4560919.02692044
2019-01-18,3391788.6072772
2019-01-19,3381004.35441462
2019-01-20,2771074.47507769
2019-01-21,2680865.56041677
2019-01-22,2565974.76717523
2019-01-23,2339918.03960093
2019-01-24,2384692.80735654
2019-01-25,2300353.47729613
2019-01-26,2483831.36707984
2019-01-27,2415041.23746228
2019-01-28,2184705.87498455
2019-01-29,2551862.13707489
2019-01-30,2593166.30119007
2019-01-31,2805380.51651482
2019-02-01,2800108.13118489
2019-02-02,2690118.22023252
2019-02-03,2736900.12515157
2019-02-04,2510677.53548129
2019-02-05,2304453.69754557
2019-02-06,2079339.499988
2019-02-07,2209508.27676012
2019-02-08,1918450.18006579
2019-02-09,1928424.58742061
2019-02-10,2215441.29684578
2019-02-11,2133127.45039838
2019-02-12,2062638.77406013
2019-02-13,1767629.22832311
2019-02-14,2339700.51045795
2019-02-15,2314226.23041018
2019-02-16,2173173.51939843
2019-02-17,2170803.05593881
2019-02-18,2471854.50754001
2019-02-19,2792051.65691329
2019-02-20,2615129.07119195
2019-02-21,2736047.02103736
2019-02-22,3695069.34287481
2019-02-23,3351838.42818271
2019-02-24,3491075.75704492
2019-02-25,3931781.78671217
2019-02-26,4204835.84641688
2019-02-27,3873867.88321538
2019-02-28,3376258.25319715
2019-03-01,3113683.20055141
2019-03-02,3041442.04431767
2019-03-03,2707237.26300795
2019-03-04,2687637.41637777
2019-03-05,2759933.79891209
2019-03-06,2552875.36169875
2019-03-07,2270725.79664257
2019-03-08,2373754.47019768
2019-03-09,3031965.27231989
2019-03-10,3047405.90882828
2019-03-11,3196716.11102851
2019-03-12,3171723.11620428
2019-03-13,3262009.12522979
2019-03-14,3406278.89590847
2019-03-15,2792794.35458339
2019-03-16,2732609.4355002
2019-03-17,2767789.75930805
2019-03-18,2299401.27085428
2019-03-19,2456787.60054011
2019-03-20,2427403.31442152
2019-03-21,2389760.03137286
2019-03-22,2347059.79589254
2019-03-23,2280407.06978833
2019-03-24,2708392.21616952
2019-03-25,2785267.82462686
2019-03-26,2786851.92139012
2019-03-27,2891376.5161966
2019-03-28,2858522.02788971
2019-03-29,2808836.44832372
2019-03-30,2157061.96679646
2019-03-31,2569955.36601375
2019-04-01,2708006.2811046
2019-04-02,2690414.06764868
2019-04-03,2741595.37987316
2019-04-04,2839968.82263847
2019-04-05,2865090.31600781
2019-04-06,2760711.05483169
2019-04-07,2626724.84889727
2019-04-08,2333392.72766428
2019-04-09,2303966.90233717
2019-04-10,2387204.03274658
2019-04-11,2387457.50351803
2019-04-12,2058780.00729677
2019-04-13,2263149.15010362
2019-04-14,2237354.77326254
2019-04-15,2116022.64904888
2019-04-16,2133801.15563602
2019-04-17,2135196.88694975
2019-04-18,2257273.43059487
2019-04-19,2340782.77750129
2019-04-20,2402522.44555129
2019-04-21,2345521.20566438
2019-04-22,2343625.68024603
2019-04-23,2233642.53305286
2019-04-24,2257765.21596117
2019-04-25,2467877.76870108
2019-04-26,2790683.94783065
2019-04-27,3261662.7196307
2019-04-28,3280637.18755809
2019-04-29,3114950.83927365
2019-04-30,3076516.38323298
2019-05-01,2690773.72480433
2019-05-02,2836325.86481573
2019-05-03,2188718.41132989
2019-05-04,2136136.87622193
2019-05-05,1965139.96436468
2019-05-06,1829082.83447546
2019-05-07,1995008.46193224
2019-05-08,2092807.53743211
2019-05-09,2239361.10184555
2019-05-10,2249242.32161659
2019-05-11,2439320.65521762
2019-05-12,2536685.07719911
2019-05-13,2789577.21684491
2019-05-14,3126217.94920496
2019-05-15,3160464.44069599
2019-05-16,3282133.71632187
2019-05-17,3969818.05661378
2019-05-18,4030942.26477894
2019-05-19,4196430.79078342
2019-05-20,3426477.58514217
2019-05-21,3127528.34192598
2019-05-22,3335276.87091507
2019-05-23,2661045.20174262
2019-05-24,2518907.47173272
2019-05-25,2519596.98862484
2019-05-26,2326594.22677058
2019-05-27,2296183.20752596
2019-05-28,2347654.37377606
2019-05-29,3340981.85325785
2019-05-30,3622233.09102072
2019-05-31,3697541.4433946
2019-06-01,3107949.74334016
2019-06-02,2860100.02909102
2019-06-03,2755406.36469687
2019-06-04,2843131.75290551
2019-06-05,2727490.61447026
2019-06-06,3814939.89270981
2019-06-07,3702869.75131998
2019-06-08,3711463.74513177
2019-06-09,3310165.06272238
2019-06-10,3414570.30056338
2019-06-11,3548340.27658182
2019-06-12,2427909.14017575
2019-06-13,2494641.18151188
2019-06-14,2730411.37006879
2019-06-15,2940002.02042571
2019-06-16,3206459.67823498
2019-06-17,2708979.50623496
2019-06-18,2646615.76881765
2019-06-19,2715918.67047943
2019-06-20,3063039.06329618
2019-06-21,2938753.31049739
2019-06-22,2864892.09904201
2019-06-23,2938132.2810153
2019-06-24,2898428.90692877
2019-06-25,2801692.95649526
2019-06-26,2592266.00991551
2019-06-27,2822446.90989359
2019-06-28,2856410.18447318
2019-06-29,3144628.03800815
2019-06-30,3569089.12931573
2019-07-01,3456044.01972725
2019-07-02,3317738.4584297
2019-07-03,3193962.78231692
2019-07-04,2736473.74933906
2019-07-05,2322778.74713461
2019-07-06,2022749.81310004
2019-07-07,1936982.55548534
2019-07-08,1794513.56127154
2019-07-09,1837504.76034036
2019-07-10,4108155.30737996
2019-07-11,4201817.83770542
2019-07-12,4172549.78771225
2019-07-13,4142759.77518095
2019-07-14,4087616.82169288
2019-07-15,4146585.81105841
2019-07-16,1902278.33615036
2019-07-17,1950519.24983031
2019-07-18,1693458.15026336
2019-07-19,1831573.18806096
2019-07-20,1878364.44926188
2019-07-21,1951806.6954561
2019-07-22,1724443.2887666
2019-07-23,1671285.58979095
2019-07-24,1641376.96375265
2019-07-25,1669487.69343781
2019-07-26,2153756.04793423
2019-07-27,2459373.71766003
2019-07-28,2332880.54566535
2019-07-29,2225665.06129435
2019-07-30,2436506.21229393
2019-07-31,2430405.10622311
2019-08-01,1523434.75466786
2019-08-02,2674392.1531892
2019-08-03,3089537.55822305
2019-08-04,3382612.9380411
2019-08-05,2846609.34555889
2019-08-06,3516129.75695213
2019-08-07,3630568.48970664
2019-08-08,2890340.69709635
2019-08-09,2878692.61267544
2019-08-10,2308238.42551425
2019-08-11,2401987.27600279
2019-08-12,2083028.50172747
2019-08-13,1898008.73214075
2019-08-14,1932787.38236509
2019-08-15,1944029.57927134
2019-08-16,2086914.20516447
2019-08-17,2267239.90302644
2019-08-18,2260852.42100082
2019-08-19,2045769.84375629
2019-08-20,1849286.04883645
2019-08-21,1991268.66252362
2019-08-22,1898292.83252759
2019-08-23,1912230.03959115
2019-08-24,1989243.85283863
2019-08-25,1843831.00948054
2019-08-26,1789833.27484542
2019-08-27,1535570.84084004
2019-08-28,1736910.6969545
2019-08-29,1694466.24438357
2019-08-30,1787289.02395
2019-08-31,1909273.97734144
2019-09-01,2196435.8688033
2019-09-02,2067081.30821688
2019-09-03,2107482.32487924
2019-09-04,2230082.44078405
2019-09-05,2117056.04511099
2019-09-06,2030818.93402489
2019-09-07,2091558.83668682
2019-09-08,1707441.15073778
2019-09-09,1560215.48740437
2019-09-10,1493684.64808701
2019-09-11,1583540.18826269
2019-09-12,1750580.47963919
2019-09-13,2518034.02643402
2019-09-14,2513876.38731367
2019-09-15,2350414.06666533
2019-09-16,2272774.77447201
2019-09-17,2618420.80383698
2019-09-18,2462716.83378977
2019-09-19,2635257.15971721
2019-09-20,2199236.14180389
2019-09-21,2364095.88210989
2019-09-22,2381588.38952021
2019-09-23,1852780.52271306
2019-09-24,1881824.50904489
2019-09-25,1789890.66178129
2019-09-26,2364851.71959492
2019-09-27,2490511.8695656
2019-09-28,2897556.76644036
2019-09-29,2872724.63553335
2019-09-30,2631504.81083281
2019-10-01,2974686.30957407
2019-10-02,2760671.28644848
2019-10-03,2321233.49511999
2019-10-04,2368124.23103645
2019-10-05,2203280.83710489
2019-10-06,2123940.59678024
2019-10-07,1629972.13299022
2019-10-08,1493699.13381563
2019-10-09,1685548.34620201
2019-10-10,1713068.26381152
2019-10-11,1698773.57787848
2019-10-12,1532170.93760307
2019-10-13,1684258.56572988
2019-10-14,1666996.03128655
2019-10-15,2453230.31091781
2019-10-16,2332621.46546712
2019-10-17,2064862.15837738
2019-10-18,2218401.47560077
2019-10-19,2353620.01503933
2019-10-20,2321236.9915878
2019-10-21,1388279.07515951
2019-10-22,1562970.21415878
2019-10-23,1798259.39903821
2019-10-24,1734835.82717645
2019-10-25,2138893.62127896
2019-10-26,2319426.60438957
2019-10-27,2415588.39297059
2019-10-28,2500481.34188071
2019-10-29,3313650.8319903
2019-10-30,3354714.24982931
2019-10-31,2849609.44047319
2019-11-01,3248361.52497166
2019-11-02,3351426.1353345
2019-11-03,2793328.29492275
2019-11-04,2284142.22363309
2019-11-05,2218974.68358698
2019-11-06,2602130.25788746
2019-11-07,2197863.44182316
2019-11-08,2171560.62353525
2019-11-09,2183093.22013148
2019-11-10,2195547.95893079
2019-11-11,2026381.1176526
2019-11-12,1218994.60465681
2019-11-13,1591775.37725524
2019-11-14,1643937.90513187
2019-11-15,1731154.51413214
2019-11-16,1774432.83280159
2019-11-17,1781727.3419159
2019-11-18,1790235.5309966
2019-11-19,1570720.90833178
2019-11-20,1597322.97260642
2019-11-21,1337838.81617247
2019-11-22,1582456.37330289
2019-11-23,1541172.80738672
2019-11-24,1756305.42788837
2019-11-25,2265669.46679464
2019-11-26,2207650.39335221
2019-11-27,2278383.04040231
2019-11-28,2158891.32745637
2019-11-29,2691398.32609593
2019-11-30,2652963.67293183
2019-12-01,2114113.65169787
2019-12-02,2111589.6646448
2019-12-03,2058080.97924511
2019-12-04,2058208.60139119
2019-12-05,1857873.00120292
2019-12-06,1880940.47041079
2019-12-07,1671743.59527706
2019-12-08,1822532.13451773
2019-12-09,1582109.64212232
2019-12-10,1218760.65708455
2019-12-11,1406660.28624048
2019-12-12,1413999.55348195
2019-12-13,1332933.70533542
2019-12-14,1400046.6775549
2019-12-15,1268421.81740086
2019-12-16,1327332.85046685
2019-12-17,1138562.28604159
2019-12-18,1731626.45751952
2019-12-19,2018628.90773936
2019-12-20,2970248.27986029
2019-12-21,3151379.71388913
2019-12-22,2995109.08292488
2019-12-23,2553838.81843375
2019-12-24,2442609.83885581
2019-12-25,2643669.25910452
2019-12-26,2087926.62331529
2019-12-27,1337621.19087039
2019-12-28,1323444.72875946
2019-12-29,1641678.77639517
2019-12-30,1692253.20506943
2019-12-31,1869555.43030638
2020-01-01,2142325.1079083
2020-01-02,1866139.23529483
2020-01-03,1868352.8212414
2020-01-04,1585956.54895592
2020-01-05,2021143.90376366
2020-01-06,1605022.91587908
2020-01-07,1209965.19828299
2020-01-08,1394354.34673601
2020-01-09,1411348.8642053
2020-01-10,1328688.02087643
2020-01-11,1310778.94802429
2020-01-12,1201697.70145218
2020-01-13,1381792.69259483
2020-01-14,1336739.43941514
2020-01-15,1360289.3827769
2020-01-16,1621587.64797983
2020-01-17,1600964.81801402
2020-01-18,1572087.82433907
2020-01-19,1961967.48976868
2020-01-20,1853921.75022867
2020-01-21,1701050.12406794
2020-01-22,1737025.52128449
2020-01-23,1472743.12328543
2020-01-24,1606803.7160145
2020-01-25,1419158.55630496
2020-01-26,1237565.61484341
2020-01-27,1161498.99713946
2020-01-28,1143990.02155856
2020-01-29,1397997.12027181
2020-01-30,1402062.26052331
2020-01-31,1263713.41436706
2020-02-01,1596809.79996356
2020-02-02,1543460.37735923
2020-02-03,1644533.31291434
2020-02-04,1611015.61111222
2020-02-05,1686662.9856977
2020-02-06,1750127.47068372
2020-02-07,1760337.60534679
2020-02-08,2360143.56074547
2020-02-09,2314392.43923454
2020-02-10,2316485.61651505
2020-02-11,2354190.94707396
2020-02-12,2554061.68386746
2020-02-13,2389862.48121292
2020-02-14,2283693.82213193
2020-02-15,2072796.07536373
2020-02-16,2103675.64225741
2020-02-17,1859781.72446411
2020-02-18,1994322.80804398
2020-02-19,2138515.86144786
2020-02-20,2119803.3647358
2020-02-21,2462108.30292267
2020-02-22,2359923.33123636
2020-02-23,2400706.2632268
2020-02-24,2040021.92263691
2020-02-25,1975858.93805163
2020-02-26,1750751.35821714
2020-02-27,1657151.73748745
2020-02-28,1899438.21931114
2020-02-29,1990240.49990561
2020-03-01,1846088.53209754
2020-03-02,1742397.47899778
2020-03-03,1982769.01938614
2020-03-04,2022339.24737746
2020-03-05,2065412.507604
2020-03-06,2093685.89414817
2020-03-07,1881524.37516007
2020-03-08,1966104.69400179
2020-03-09,1830574.17161683
2020-03-10,1821147.18962551
2020-03-11,1879600.28094949
2020-03-12,1847669.79039006
2020-03-13,2343655.00163969
2020-03-14,3389892.02347053
2020-03-15,3572961.58730198
2020-03-16,3711736.90678294
2020-03-17,3690661.02697492
2020-03-18,3528917.97407477
2020-03-19,3575293.31481082
2020-03-20,3251936.01629005
2020-03-21,3036213.72020719
2020-03-22,2853765.47470886
2020-03-23,2721842.76185435
2020-03-24,2649814.620997
2020-03-25,2788936.18987686
2020-03-26,2811098.1319073
2020-03-27,2792233.16227976
2020-03-28,2680216.75690094
2020-03-29,2520675.35292361
2020-03-30,2333634.06938002
2020-03-31,1800199.45356173
2020-04-01,2135141.84924956
2020-04-02,2042458.87775338
2020-04-03,2429612.85674331
2020-04-04,2694992.15869026
2020-04-05,2717012.49414129
2020-04-06,2756459.95743433
2020-04-07,2159615.74207587
2020-04-08,2571790.90991262
2020-04-09,2483499.16523976
2020-04-10,2004595.56457018
2020-04-11,2081642.01571383
2020-04-12,1929360.37954209
2020-04-13,1880273.47567366
2020-04-14,1864756.3960559
2020-04-15,1798836.28890474
2020-04-16,1881183.86814115
2020-04-17,2096730.19451724
2020-04-18,2046559.03150563
2020-04-19,2098797.75063219
2020-04-20,2237689.62583819
2020-04-21,2455824.42635355
2020-04-22,2391010.21976358
2020-04-23,2311580.29851785
2020-04-24,2139419.49559538
2020-04-25,3683240.73308082
2020-04-26,3634037.05549422
2020-04-27,3589499.93939166
2020-04-28,3404831.29782504
2020-04-29,3440235.26109838
2020-04-30,3203916.92066818
2020-05-01,2673291.21544496
2020-05-02,2549595.10578864
2020-05-03,2289129.17272332
2020-05-04,2102271.57367626
2020-05-05,1971258.65661802
2020-05-06,2017482.92027227
2020-05-07,1450245.28738501
2020-05-08,1792388.68980039
2020-05-09,2025525.46410685
2020-05-10,1735595.02454744
2020-05-11,1808981.37827161
2020-05-12,1908519.2336697
2020-05-13,1848847.99789514
2020-05-14,1936724.32723525
2020-05-15,2138583.24035496
2020-05-16,2349986.30644562
2020-05-17,2171110.19364805
2020-05-18,1819399.70005886
2020-05-19,1886936.92846197
2020-05-20,1907828.58668136
2020-05-21,1652771.95898797
2020-05-22,1828723.88435776
2020-05-23,1947753.64898633
2020-05-24,1939845.76539282
2020-05-25,1816836.2483679
2020-05-26,1769614.36551481
2020-05-27,1935366.03618301
2020-05-28,1734568.14462198
2020-05-29,1960473.84207487
2020-05-30,2122247.16221372
2020-05-31,2040172.61350832
2020-06-01,2466338.9794504
2020-06-02,2482279.74562624
2020-06-03,3644206.45312267
2020-06-04,3557771.20544989
2020-06-05,3389553.07816076
2020-06-06,3447951.48287955
2020-06-07,2915091.08973842
2020-06-08,2686632.88221111
2020-06-09,1831491.45036231
2020-06-10,2025120.17333198
2020-06-11,2020838.52092705
2020-06-12,2076403.68607163
2020-06-13,2110889.02961017
2020-06-14,1950009.36279677
2020-06-15,2006623.51618823
2020-06-16,2082973.56932194
2020-06-17,2044470.095868
2020-06-18,1781804.92330956
2020-06-19,1716241.19856991
2020-06-20,1779237.18499318
2020-06-21,1679484.9937583
2020-06-22,1361994.73334291
2020-06-23,1422187.63238786
2020-06-24,1554854.58256408
2020-06-25,2008398.28539786
2020-06-26,2581610.10845922
2020-06-27,3511501.33884329
2020-06-28,3614544.10608013
2020-06-29,3539731.57606091
2020-06-30,3412879.64051846
2020-07-01,3840158.02805202
2020-07-02,3135639.6738284
2020-07-03,2253188.28319443
2020-07-04,2228134.24874066
2020-07-05,2208885.57719088
2020-07-06,2069259.68770946
2020-07-07,1663408.68275862
2020-07-08,1821803.40023931
2020-07-09,2060286.24861829
2020-07-10,2270984.60100192
2020-07-11,2214852.65626601
2020-07-12,2068318.16021051
2020-07-13,2029271.3654952
2020-07-14,1943820.70807692
2020-07-15,1763696.01481164
2020-07-16,1790183.57503403
2020-07-17,1837841.39901537
2020-07-18,1834558.73145137
2020-07-19,1716156.90893666
2020-07-20,1630170.35127928
2020-07-21,1373137.69453122
2020-07-22,1463322.55197359
2020-07-23,1502651.92300977
2020-07-24,2994225.60176877
2020-07-25,3403979.60081658
2020-07-26,3673277.02641612
2020-07-27,3801842.20063389
2020-07-28,4607822.92720811
2020-07-29,4711934.19263546
2020-07-30,3410946.41976052
2020-07-31,3408655.54905108
2020-08-01,3325159.08148559
2020-08-02,3619453.86688763
2020-08-03,3215818.1457736
2020-08-04,3072291.86102577
2020-08-05,3080755.96688964
2020-08-06,2924455.20233217
2020-08-07,2805805.06560335
2020-08-08,2551752.68853066
2020-08-09,2252423.42713352
2020-08-10,2123286.32645428
2020-08-11,1928993.48946864
2020-08-12,2133650.08680622
2020-08-13,2239587.23432824
2020-08-14,2496543.23212036
2020-08-15,2947905.79513804
2020-08-16,2989690.10261763
2020-08-17,3138473.65685178
2020-08-18,3304713.98303657
2020-08-19,3193377.80983549
2020-08-20,3098185.31918188
2020-08-21,3008693.88928292
2020-08-22,2903767.56067547
2020-08-23,2843785.36445696
2020-08-24,2430867.21406158
2020-08-25,2409597.9123003
2020-08-26,2276318.85271506
2020-08-27,2362419.49049728
2020-08-28,2339027.65875225
2020-08-29,2313753.7824856
2020-08-30,1980623.78515203
2020-08-31,1730785.51069202
2020-09-01,2179408.15771147
2020-09-02,3085610.13944655
2020-09-03,3204053.06626457
2020-09-04,3436913.33752018
2020-09-05,4086394.82118847
2020-09-06,4175506.11915747
2020-09-07,3848159.66282773
2020-09-08,3806508.88498372
2020-09-09,3722816.62347916
2020-09-10,9902508.34373378
2020-09-11,9455888.01986084
2020-09-12,9314500.94823839
2020-09-13,9541619.79453863
2020-09-14,9270404.81869492
2020-09-15,9321945.31630456
2020-09-16,9215850.70648191
2020-09-17,9878299.23087473
2020-09-18,10121753.3549312
2020-09-19,10870873.3194878
2020-09-20,11132316.0704011
2020-09-21,11165015.9699702
2020-09-22,4306335.21734304
2020-09-23,4235361.9081049
2020-09-24,4517037.49200633
2020-09-25,4626948.86748347
2020-09-26,4523735.37111729
2020-09-27,4149308.46160759
2020-09-28,3698974.58619784
2020-09-29,4180626.13148736
2020-09-30,4077258.67803328
2020-10-01,4554018.52691368
2020-10-02,4802040.79326606
2020-10-03,4528472.01790445
2020-10-04,4186893.13147018
2020-10-05,3441176.31930922
2020-10-06,3179829.85678105
2020-10-07,2490051.78184627
2020-10-08,2548709.62168151
2020-10-09,2449960.43126789
2020-10-10,3289637.4520347
2020-10-11,3227689.91162607
2020-10-12,3145391.01350832
2020-10-13,3100737.91340922
2020-10-14,2919744.45716944
2020-10-15,3301050.64529398
2020-10-16,2948735.8380697
2020-10-17,3131146.73780729
2020-10-18,3096871.66781368
2020-10-19,2756454.55897324
2020-10-20,2593045.82115839
2020-10-21,2335132.60099972
2020-10-22,2881168.96182676
2020-10-23,3012864.94460281
2020-10-24,3437857.7714068
2020-10-25,3161299.6895278
2020-10-26,2759091.79668666
2020-10-27,3051434.22041806
2020-10-28,2823938.0988236
2020-10-29,3160455.26126476
2020-10-30,2952256.73528574
2020-10-31,2986374.47645345
2020-11-01,3268320.45449421
2020-11-02,2454848.59197518
2020-11-03,2731025.44042887
2020-11-04,2591678.75947761
2020-11-05,2742170.75747463
2020-11-06,3026780.15914879
2020-11-07,3163976.53787098
2020-11-08,3345101.506272
2020-11-09,2931288.81789518
2020-11-10,2656706.29426389
2020-11-11,2505980.20293578
2020-11-12,2519967.8779626
2020-11-13,2851211.95597643
2020-11-14,3129139.58451872
2020-11-15,3303996.3198835
2020-11-16,2995322.90704165
2020-11-17,2911857.48341175
2020-11-18,3583028.025863
2020-11-19,3666405.08910444
2020-11-20,3468966.6527851
2020-11-21,3560621.44302987
2020-11-22,4706053.46330052
2020-11-23,5278138.88346173
2020-11-24,5601703.44656707
2020-11-25,6157235.91142978
2020-11-26,6522381.02294518
2020-11-27,5885862.44157198
2020-11-28,5278896.50906714
2020-11-29,4278522.76524947
2020-11-30,4325178.21433587
2020-12-01,3512322.63166799
2020-12-02,3567979.90713937
2020-12-03,3425368.50357147
2020-12-04,3181597.11449861
2020-12-05,3261108.87513444
2020-12-06,2848570.68036874
2020-12-07,2510530.37774935
2020-12-08,2571921.46523408
2020-12-09,2771122.2668016
2020-12-10,3087427.3548078
2020-12-11,3242497.81242937
2020-12-12,3346152.11762326
2020-12-13,3451104.10192242
2020-12-14,3211543.89654674
2020-12-15,2940897.99165539
2020-12-16,2676517.28403689
2020-12-17,2729473.5278443
2020-12-18,3417827.22188391
2020-12-19,4229396.73240309
2020-12-20,4159368.91198132
2020-12-21,3845230.17901738
2020-12-22,3744316.73975619
2020-12-23,3863334.95855198
2020-12-24,2827164.84832936
2020-12-25,2720925.72544899
2020-12-26,2592925.65695255
2020-12-27,2824962.66665058
2020-12-28,3031249.67682181
2020-12-29,2987091.66606168
2020-12-30,3898781.31212874
2020-12-31,4011104.97325349
2021-01-01,4134700.59043497
2021-01-02,4361018.02460591
2021-01-03,4605638.44709925
2021-01-04,5351317.39969897
2021-01-05,5077426.76456156
2021-01-06,4706045.44590466
2021-01-07,5488336.16934973
2021-01-08,6277279.08907591
2021-01-09,6429691.00884584
2021-01-10,6823938.71260599
2021-01-11,6094272.06820964
2021-01-12,6587333.98029482
2021-01-13,6275952.89452699
2021-01-14,7283625.42052148
2021-01-15,7006722.44754108
2021-01-16,6688376.41239478
2021-01-17,6665682.04625096
2021-01-18,3958626.45302634
2021-01-19,3741314.98450159
2021-01-20,4274100.41093335
2021-01-21,4117062.18872588
2021-01-22,4313447.75056768
2021-01-23,5225580.92822728
2021-01-24,5437240.41333026
2021-01-25,5327659.03575673
2021-01-26,5097212.3675563
2021-01-27,4874929.5671409
2021-01-28,4718030.09407188
2021-01-29,3814571.82750694
2021-01-30,3780684.81954689
2021-01-31,3884811.50106114
2021-02-01,3910401.22398276
2021-02-02,4097728.15174622
2021-02-03,4274764.24037745
2021-02-04,4704560.20681352
2021-02-05,4900466.30008514
2021-02-06,5255859.90573338
2021-02-07,5190062.90983513
2021-02-08,5381873.95068549
2021-02-09,5120626.85212893
2021-02-10,4900379.66940044
2021-02-11,4508601.31607941
2021-02-12,4762924.81766143
2021-02-13,4604389.37028076
2021-02-14,4654556.77751861
2021-02-15,4402294.82326766
2021-02-16,3967789.42810383
2021-02-17,3843943.47258739
2021-02-18,3654170.4297818
2021-02-19,3841096.04006971
2021-02-20,3960051.74576749
2021-02-21,3942384.24395341
2021-02-22,4016902.88705776
2021-02-23,4162723.69519296
2021-02-24,4981288.30164368
2021-02-25,4668138.8539798
2021-02-26,4374469.78900887
2021-02-27,4431541.98371029
2021-02-28,4388744.5820601
2021-03-01,4047605.62979174
2021-03-02,4235126.84681253
2021-03-03,4132828.21260894
2021-03-04,4156363.61108978
2021-03-05,4385717.51403238
2021-03-06,4098705.70795188
2021-03-07,3782054.50000675
2021-03-08,3836986.6334638
2021-03-09,3542383.37193209
2021-03-10,3495048.17137161
2021-03-11,3140574.6934002
2021-03-12,2994618.72214408
2021-03-13,3979533.56945913
2021-03-14,3926582.33805557
2021-03-15,3678022.75493709
2021-03-16,3759987.6184315
2021-03-17,3934228.05465575
2021-03-18,4119819.69656045
2021-03-19,3724145.17199868
2021-03-20,3583047.17189251
2021-03-21,3470585.17128442
2021-03-22,3033189.87025246
2021-03-23,3085189.47547589
2021-03-24,2943823.75337135
2021-03-25,2786389.41828508
2021-03-26,3449488.041386
2021-03-27,3800544.75119225
2021-03-28,3822171.52307906
2021-03-29,3347403.90115402
2021-03-30,3147186.66856279
2021-03-31,3819063.86508033
2021-04-01,3856142.2192888
2021-04-02,3285622.41508934
2021-04-03,3350884.89861853
2021-04-04,3565685.22674294
2021-04-05,3727377.53568735
2021-04-06,3641087.48094736
2021-04-07,3582823.95796982
