t,v
2015-07-30,2.8684565377050855
2015-07-31,2.8685040095009424
2015-08-01,2.8686711074692943
2015-08-02,2.868661886323306
2015-08-03,2.868666168151575
2015-08-04,2.8686552464027835
2015-08-05,2.8686761945874544
2015-08-06,2.8686837562517344
2015-08-07,2.868676093784173
2015-08-08,2.775312277517788
2015-08-09,2.5739615316978086
2015-08-10,2.549665403111814
2015-08-11,2.530785616676156
2015-08-12,2.5185209314722985
2015-08-13,2.51141880406709
2015-08-14,2.5003679878364915
2015-08-15,2.494898084858389
2015-08-16,2.4992159520855415
2015-08-17,2.4907212613186456
2015-08-18,2.477568836874526
2015-08-19,2.4633880518906124
2015-08-20,2.4600491329669674
2015-08-21,2.4573451968817706
2015-08-22,2.4536183250465426
2015-08-23,2.448880595238026
2015-08-24,2.444483215368323
2015-08-25,2.4402319686555525
2015-08-26,2.434971722271543
2015-08-27,2.4333365161610265
2015-08-28,2.4307315711990105
2015-08-29,2.427557865765366
2015-08-30,2.4238744589128536
2015-08-31,2.4220261884489345
2015-09-01,2.420813215892158
2015-09-02,2.419726799794599
2015-09-03,2.418362343726747
2015-09-04,2.4162263382453744
2015-09-05,2.4147553357752587
2015-09-06,2.413115482388436
2015-09-07,2.41138120994806
2015-09-08,2.409244181066911
2015-09-09,2.395602319144548
2015-09-10,2.3846936980380256
2015-09-11,2.3822618675723684
2015-09-12,2.378774658985601
2015-09-13,2.3767850673220803
2015-09-14,2.373729592891391
2015-09-15,2.3691823760132493
2015-09-16,2.3651586290390267
2015-09-17,2.3632593109150366
2015-09-18,2.360354626357874
2015-09-19,2.3575961139608332
2015-09-20,2.3568797762317026
2015-09-21,2.3560653082892284
2015-09-22,2.3539902589854997
2015-09-23,2.352928849897883
2015-09-24,2.351053624607453
2015-09-25,2.3471800928927125
2015-09-26,2.343731846672399
2015-09-27,2.3417604676806025
2015-09-28,2.336898901345714
2015-09-29,2.3319396710169222
2015-09-30,2.329068703872728
2015-10-01,2.3197135889599627
2015-10-02,2.3168948229655943
2015-10-03,2.3157955875712366
2015-10-04,2.313859233978686
2015-10-05,2.3128823496192474
2015-10-06,2.3105416720183007
2015-10-07,2.308622399969717
2015-10-08,2.3057664826027136
2015-10-09,2.3033169509989713
2015-10-10,2.301926319506637
2015-10-11,2.301013817529483
2015-10-12,2.299043052492224
2015-10-13,2.29390189683919
2015-10-14,2.287839116158308
2015-10-15,2.281493806890292
2015-10-16,2.273701317243908
2015-10-17,2.2715400228067995
2015-10-18,2.2699589435368064
2015-10-19,2.2664106061649933
2015-10-20,2.2634727146041986
2015-10-21,2.2573289144437436
2015-10-22,2.2523528168914106
2015-10-23,2.2475251155712272
2015-10-24,2.2428973362608335
2015-10-25,2.2421215987731933
2015-10-26,2.239000039985354
2015-10-27,2.232048940092695
2015-10-28,2.2230681020281264
2015-10-29,2.220236171283272
2015-10-30,2.2122878497554783
2015-10-31,2.2072481222510962
2015-11-01,2.206113476542196
2015-11-02,2.205405115921928
2015-11-03,2.204224334989648
2015-11-04,2.201377873026563
2015-11-05,2.1994359149693112
2015-11-06,2.196686131331324
2015-11-07,2.192681231207948
2015-11-08,2.1876817442793177
2015-11-09,2.1829770937192756
2015-11-10,2.1786461018608283
2015-11-11,2.1773497404425353
2015-11-12,2.17597605396462
2015-11-13,2.1743919606860427
2015-11-14,2.17337450035739
2015-11-15,2.1721665435787822
2015-11-16,2.1712406779386537
2015-11-17,2.166271506844426
2015-11-18,2.164529704865347
2015-11-19,2.1630040617147848
2015-11-20,2.162257131104027
2015-11-21,2.1614935929998995
2015-11-22,2.1606760618395526
2015-11-23,2.1545818822527196
2015-11-24,2.149596254561357
2015-11-25,2.1479470909931515
2015-11-26,2.130258900100601
2015-11-27,2.1265251073590865
2015-11-28,2.12414753229521
2015-11-29,2.123361903111767
2015-11-30,2.122238094447714
2015-12-01,2.1213071469874154
2015-12-02,2.12030055646127
2015-12-03,2.119402126394386
2015-12-04,2.11840265850661
2015-12-05,2.1174355170064696
2015-12-06,2.1157737610762233
2015-12-07,2.114542361457069
2015-12-08,2.113411161821177
2015-12-09,2.1123886989423752
2015-12-10,2.111464971471873
2015-12-11,2.110489434560071
2015-12-12,2.107900670123767
2015-12-13,2.1068497124554386
2015-12-14,2.1063249025223265
2015-12-15,2.1033737206213123
2015-12-16,2.0766748962120167
2015-12-17,2.074018788659182
2015-12-18,2.0716273881067897
2015-12-19,2.069996675532698
2015-12-20,2.0694121852249765
2015-12-21,2.068352892167033
2015-12-22,2.0667891336535744
2015-12-23,2.066233917891964
2015-12-24,2.0655936052470905
2015-12-25,2.065141407195168
2015-12-26,2.064674039555344
2015-12-27,2.0640917133201113
2015-12-28,2.0631645315567186
2015-12-29,2.061330568402162
2015-12-30,2.0606138430675554
2015-12-31,2.0587512512966524
2016-01-01,2.057985922803113
2016-01-02,2.0568946793346585
2016-01-03,2.0562065993686347
2016-01-04,2.055571946664005
2016-01-05,2.0549733783395014
2016-01-06,2.0538186860426775
2016-01-07,2.052586323898279
2016-01-08,2.05170134860101
2016-01-09,2.0512071672330747
2016-01-10,2.0507538542453845
2016-01-11,2.0493283179544894
2016-01-12,2.0488420106608087
2016-01-13,2.048984318144499
2016-01-14,2.0476575134833332
2016-01-15,2.04699676980682
2016-01-16,2.046214040234345
2016-01-17,2.04583505371899
2016-01-18,2.0481426233109556
2016-01-19,2.052071891512148
2016-01-20,2.052047747067161
2016-01-21,2.052217129817186
2016-01-22,2.052984634605887
2016-01-23,2.0559195453500485
2016-01-24,2.064607239283503
2016-01-25,2.073130331788625
2016-01-26,2.085662067205697
2016-01-27,2.0925209043393584
2016-01-28,2.098181466815942
2016-01-29,2.1045525277275225
2016-01-30,2.1120447585773685
2016-01-31,2.1185132432413147
2016-02-01,2.119196969437155
2016-02-02,2.1213152138161013
2016-02-03,2.1231855835744318
2016-02-04,2.1264418376642125
2016-02-05,2.1301088458070296
2016-02-06,2.1319788761933145
2016-02-07,2.1339865141810765
2016-02-08,2.143362370647115
2016-02-09,2.1574295373503602
2016-02-10,2.182289027569976
2016-02-11,2.217160096210369
2016-02-12,2.283181850004177
2016-02-13,2.3098198499319023
2016-02-14,2.3226376215106868
2016-02-15,2.3379346278990614
2016-02-16,2.352827961325293
2016-02-17,2.367249209554664
2016-02-18,2.374445673801365
2016-02-19,2.3832867856596716
2016-02-20,2.3841336579575017
2016-02-21,2.3874361690130037
2016-02-22,2.3962910339953245
2016-02-23,2.4053842494534616
2016-02-24,2.413388992751847
2016-02-25,2.4295747718985123
2016-02-26,2.4718536846287926
2016-02-27,2.530511491473025
2016-02-28,2.5479671032864877
2016-02-29,2.5608088798551387
2016-03-01,2.578203660024735
2016-03-02,2.652794154348076
2016-03-03,2.8445356442767094
2016-03-04,2.908913547835217
2016-03-05,2.9818446323406045
2016-03-06,3.105562253677733
2016-03-07,3.162591841157496
2016-03-08,3.235024717465704
2016-03-09,3.3418492577874708
2016-03-10,3.367637243861003
2016-03-11,3.400457320401014
2016-03-12,3.4617212786561042
2016-03-13,3.536544100032475
2016-03-14,3.6305467053121108
2016-03-15,3.7100546232686673
2016-03-16,3.764914882233358
2016-03-17,3.820848415840598
2016-03-18,3.8440153636387597
2016-03-19,3.856920118549381
2016-03-20,3.872577388717426
2016-03-21,3.8929993133665266
2016-03-22,3.9160326879591323
2016-03-23,3.939160449935025
2016-03-24,3.970079891437064
2016-03-25,3.9912397533643986
2016-03-26,4.006901666199772
2016-03-27,4.029642741067744
2016-03-28,4.057831082575294
2016-03-29,4.085951793257689
2016-03-30,4.123589887513336
2016-03-31,4.151952576929926
2016-04-01,4.17033435980086
2016-04-02,4.181589630492595
2016-04-03,4.193575798798565
2016-04-04,4.201582536553324
2016-04-05,4.215903456619977
2016-04-06,4.229696697165965
2016-04-07,4.243141310504939
2016-04-08,4.251835495964214
2016-04-09,4.257652871241712
2016-04-10,4.283186576812021
2016-04-11,4.285763584474878
2016-04-12,4.284174766804621
2016-04-13,4.285120448596219
2016-04-14,4.290785231625802
2016-04-15,4.315672563625665
2016-04-16,4.319405672926799
2016-04-17,4.324960356306389
2016-04-18,4.329504413114413
2016-04-19,4.3325185856070725
2016-04-20,4.336136159078226
2016-04-21,4.341370163277497
2016-04-22,4.344763940876479
2016-04-23,4.364839095652281
2016-04-24,4.3763321208609
2016-04-25,4.377776825742517
2016-04-26,4.375308422323323
2016-04-27,4.374109211437973
2016-04-28,4.37583467470702
2016-04-29,4.380033494453865
2016-04-30,4.393133899415437
2016-05-01,4.443893727776021
2016-05-02,4.459464780836739
2016-05-03,4.483564851811545
2016-05-04,4.50067555179756
2016-05-05,4.514564689669841
2016-05-06,4.541042243155627
2016-05-07,4.579874733362931
2016-05-08,4.61164976469967
2016-05-09,4.641998848289927
2016-05-10,4.687207645588074
2016-05-11,4.7422126493355785
2016-05-12,4.837061908676788
2016-05-13,4.995984533846755
2016-05-14,5.2221918631591135
2016-05-15,5.348915585738401
2016-05-16,5.3779737693725504
2016-05-17,5.403483553298256
2016-05-18,5.445177964890932
2016-05-19,5.518662623809015
2016-05-20,5.679656646567034
2016-05-21,5.708591110153975
2016-05-22,5.724773176773793
2016-05-23,5.758604974674973
2016-05-24,5.793027628924062
2016-05-25,5.8284036962152435
2016-05-26,5.852241427583132
2016-05-27,5.873704633501658
2016-05-28,5.918005422469922
2016-05-29,5.955466698565474
2016-05-30,5.975428904243724
2016-05-31,5.992219463059666
2016-06-01,6.014787573034228
2016-06-02,6.033187467287126
2016-06-03,6.04325103992123
2016-06-04,6.0538631647237
2016-06-05,6.065340520291653
2016-06-06,6.075716899784631
2016-06-07,6.08953263140249
2016-06-08,6.167747154430997
2016-06-09,6.225946672047024
2016-06-10,6.2447532386465445
2016-06-11,6.266141615523946
2016-06-12,6.284730575748371
2016-06-13,6.317170524824132
2016-06-14,6.365727679884511
2016-06-15,6.405026231724073
2016-06-16,6.472782721872141
2016-06-17,6.944244837699457
2016-06-18,7.123659183481772
2016-06-19,7.133349831785098
2016-06-20,7.146665922453567
2016-06-21,7.192089389846268
2016-06-22,7.365973167846988
2016-06-23,7.39012230843577
2016-06-24,7.44060964783723
2016-06-25,7.4909733283237765
2016-06-26,7.508276514643786
2016-06-27,7.517256080526655
2016-06-28,7.542148315377782
2016-06-29,7.558813384557905
2016-06-30,7.582117280580734
2016-07-01,7.5898867037167035
2016-07-02,7.590952078887856
2016-07-03,7.593946180367251
2016-07-04,7.60852152219368
2016-07-05,7.705140293491041
2016-07-06,7.71907040145367
2016-07-07,7.714912656113431
2016-07-08,7.714023423456642
2016-07-09,7.710964431173446
2016-07-10,7.71578694106883
2016-07-11,7.718117501893966
2016-07-12,7.7235426808772285
2016-07-13,7.7324811172875565
2016-07-14,7.740067337535389
2016-07-15,7.766709157640228
2016-07-16,7.8735266565959705
2016-07-17,7.879091920581118
2016-07-18,7.879378894136956
2016-07-19,7.8938957138386305
2016-07-20,7.884657852051736
2016-07-21,7.826764934261424
2016-07-22,7.850408430061657
2016-07-23,7.893672013324819
2016-07-24,7.965909373824071
2016-07-25,8.072903849449068
2016-07-26,8.186360816064386
2016-07-27,8.276332384122954
2016-07-28,8.365087149277269
2016-07-29,8.420107713055588
2016-07-30,8.453051974658447
2016-07-31,8.475423033959071
2016-08-01,8.508859289044304
2016-08-02,8.525696099405435
2016-08-03,8.5061950652533
2016-08-04,8.548126144729363
2016-08-05,8.604491723674178
2016-08-06,8.646011695196957
2016-08-07,8.661015708259184
2016-08-08,8.677434714269381
2016-08-09,8.692520322087452
2016-08-10,8.744781806856672
2016-08-11,8.815664128217918
2016-08-12,8.84627643196259
2016-08-13,8.841940086164644
2016-08-14,8.84265937063463
2016-08-15,8.844146673156999
2016-08-16,8.842603965295233
2016-08-17,8.846943076150225
2016-08-18,8.851395223386788
2016-08-19,8.846566035180638
2016-08-20,8.84801693483687
2016-08-21,8.850653435406603
2016-08-22,8.850249305327365
2016-08-23,8.855741401591239
2016-08-24,8.85860391957142
2016-08-25,8.867709587233268
2016-08-26,8.872623464904237
2016-08-27,8.87487697416101
2016-08-28,8.87542056476506
2016-08-29,8.881141891866843
2016-08-30,8.883398400549737
2016-08-31,8.883428655224526
2016-09-01,8.888961970729929
2016-09-02,8.896952301189419
2016-09-03,8.903941448965483
2016-09-04,8.905708651655441
2016-09-05,8.914067521360682
2016-09-06,8.915532124382214
2016-09-07,8.916467001120113
2016-09-08,8.922030483923212
2016-09-09,8.927748535315533
2016-09-10,8.929047585347801
2016-09-11,8.93447715264658
2016-09-12,8.94072115681742
2016-09-13,8.949401419655818
2016-09-14,8.955753964007666
2016-09-15,8.963519430558774
2016-09-16,8.970089857438738
2016-09-17,8.976612555423529
2016-09-18,8.985937234591974
2016-09-19,8.992108112685159
2016-09-20,9.006923915422956
2016-09-21,9.046235131657328
2016-09-22,9.104066952535701
2016-09-23,9.111256686098002
2016-09-24,9.128919893601177
2016-09-25,9.153573747866337
2016-09-26,9.161835850877376
2016-09-27,9.168000188638556
2016-09-28,9.173669155958592
2016-09-29,9.348275203242967
2016-09-30,9.366931689178879
2016-10-01,9.378012884850886
2016-10-02,9.391222226757899
2016-10-03,9.402429958602083
2016-10-04,9.407120536513345
2016-10-05,9.41194532943069
2016-10-06,9.417202681295866
2016-10-07,9.41940736957156
2016-10-08,9.420466840311164
2016-10-09,9.421211799728573
2016-10-10,9.42137432642206
2016-10-11,9.42950469858144
2016-10-12,9.423954149577414
2016-10-13,9.424260377979376
2016-10-14,9.424267528830082
2016-10-15,9.408586289910966
2016-10-16,9.407755723398797
2016-10-17,9.409532474052686
2016-10-18,9.413196966662133
2016-10-19,9.417848251251028
2016-10-20,9.419246862972438
2016-10-21,9.423456840362338
2016-10-22,9.424950217576798
2016-10-23,9.425818143516727
2016-10-24,9.42644570906476
2016-10-25,9.426122629804759
2016-10-26,9.424537934359394
2016-10-27,9.426964284020103
2016-10-28,9.437315565198194
2016-10-29,9.433791987130526
2016-10-30,9.430202477889386
2016-10-31,9.43772851769386
2016-11-01,9.434611169690951
2016-11-02,9.434422541441851
2016-11-03,9.43583605482113
2016-11-04,9.433984548588969
2016-11-05,9.436939743737947
2016-11-06,9.43733466251492
2016-11-07,9.437200858637663
2016-11-08,9.43695247550425
2016-11-09,9.435392303894709
2016-11-10,9.432858043633987
2016-11-11,9.425342194406023
2016-11-12,9.412881834999821
2016-11-13,9.406124427748026
2016-11-14,9.406341144512242
2016-11-15,9.400682384268832
2016-11-16,9.396467774920563
2016-11-17,9.38455298454973
2016-11-18,9.375056575890062
2016-11-19,9.367506073266513
2016-11-20,9.36937267391546
2016-11-21,9.370284821020356
2016-11-22,9.362546784509712
2016-11-23,9.358500208292348
2016-11-24,9.35781665860142
2016-11-25,9.355546263620047
2016-11-26,9.352218482010137
2016-11-27,9.345184395970508
2016-11-28,9.340491932074283
2016-11-29,9.33773111269118
2016-11-30,9.332273851303771
2016-12-01,9.327024724529943
2016-12-02,9.309776630334166
2016-12-03,9.286886959568935
2016-12-04,9.276848409868787
2016-12-05,9.259804167313252
2016-12-06,9.213673101023273
2016-12-07,9.19700615852898
2016-12-08,9.184833582507615
2016-12-09,9.184560862175445
2016-12-10,9.185384804897687
2016-12-11,9.187417992172604
2016-12-12,9.186915897816675
2016-12-13,9.18408905492835
2016-12-14,9.178786683525704
2016-12-15,9.175669283269288
2016-12-16,9.169866185891925
2016-12-17,9.156811039635707
2016-12-18,9.147464883761929
2016-12-19,9.143555251306747
2016-12-20,9.138881058471796
2016-12-21,9.130982708600287
2016-12-22,9.120818830492212
2016-12-23,9.099919147716292
2016-12-24,9.069296672670541
2016-12-25,9.066869892596888
2016-12-26,9.063994474180843
2016-12-27,9.059367547953604
2016-12-28,9.05191640276427
2016-12-29,9.048196801856855
2016-12-30,9.04923450910733
2016-12-31,9.05151580495869
2017-01-01,9.045940394458032
2017-01-02,9.042600957519713
2017-01-03,9.043107121757826
2017-01-04,9.060016783551099
2017-01-05,9.084413750569306
2017-01-06,9.092401010059392
2017-01-07,9.098396576316805
2017-01-08,9.100602482352574
2017-01-09,9.112112650187182
2017-01-10,9.118258201634431
2017-01-11,9.1227677561837
2017-01-12,9.121548075035003
2017-01-13,9.12189730176273
2017-01-14,9.122177002936892
2017-01-15,9.122854853440302
2017-01-16,9.122668060829492
2017-01-17,9.121770497014559
2017-01-18,9.121999627996132
2017-01-19,9.125804467426196
2017-01-20,9.125552438301142
2017-01-21,9.123507057711347
2017-01-22,9.127084194352246
2017-01-23,9.130901792346757
2017-01-24,9.133421324394265
2017-01-25,9.139956041307741
2017-01-26,9.149261647882952
2017-01-27,9.152143901000649
2017-01-28,9.153726796727454
2017-01-29,9.164718834348761
2017-01-30,9.166701165159042
2017-01-31,9.168684870004256
2017-02-01,9.171262958534914
2017-02-02,9.175045979583725
2017-02-03,9.179754892137609
2017-02-04,9.186889579938159
2017-02-05,9.19640433435807
2017-02-06,9.200483133269406
2017-02-07,9.206496684153153
2017-02-08,9.211594505809073
2017-02-09,9.214598707473714
2017-02-10,9.218124645025801
2017-02-11,9.223720609617356
2017-02-12,9.229006941764423
2017-02-13,9.23268758586754
2017-02-14,9.242461275452825
2017-02-15,9.269638139485236
2017-02-16,9.281202695666861
2017-02-17,9.295771540010444
2017-02-18,9.302392668328272
2017-02-19,9.307446514022226
2017-02-20,9.313839838603144
2017-02-21,9.318481443498335
2017-02-22,9.324160071008254
2017-02-23,9.328502036627484
2017-02-24,9.340303166226771
2017-02-25,9.35380977017016
2017-02-26,9.362692125975283
2017-02-27,9.406104993630787
2017-02-28,9.49396233281407
2017-03-01,9.541899008230622
2017-03-02,9.632205141741206
2017-03-03,9.791521660237766
2017-03-04,9.857946724992647
2017-03-05,9.88117250775906
2017-03-06,9.910899213840711
2017-03-07,9.983074309220315
2017-03-08,10.018111495734026
2017-03-09,10.043688420141914
2017-03-10,10.086279299457978
2017-03-11,10.140680960369316
2017-03-12,10.210779878390262
2017-03-13,10.415378955757815
2017-03-14,10.659108493370427
2017-03-15,10.856497374344288
2017-03-16,11.393204212912996
2017-03-17,12.139071455273312
2017-03-18,12.517366735654903
2017-03-19,12.614191652172542
2017-03-20,12.761113632730954
2017-03-21,12.9606109137358
2017-03-22,13.07339771779517
2017-03-23,13.186750014512553
2017-03-24,13.346385691211815
2017-03-25,13.571913439285739
2017-03-26,13.899977037112325
2017-03-27,14.061652207572571
2017-03-28,14.220494632322069
2017-03-29,14.416918943235196
2017-03-30,14.766815423519693
2017-03-31,15.086748083367796
2017-04-01,15.443557103986567
2017-04-02,15.523180142027536
2017-04-03,15.63977597395036
2017-04-04,15.708647509142502
2017-04-05,15.808722976312728
2017-04-06,15.914910526804974
2017-04-07,16.037139441544326
2017-04-08,16.124598488163542
2017-04-09,16.230108815044748
2017-04-10,16.31401833806604
2017-04-11,16.497693971798753
2017-04-12,16.599131427964267
2017-04-13,16.67466474487173
2017-04-14,16.8553364270525
2017-04-15,16.90609439459279
2017-04-16,16.94073978857195
2017-04-17,16.96820585515259
2017-04-18,17.026197238882464
2017-04-19,17.147931680320653
2017-04-20,17.263013448494473
2017-04-21,17.32631196644644
2017-04-22,17.412744117174206
2017-04-23,17.514712343045097
2017-04-24,17.563544773432938
2017-04-25,17.648850574365216
2017-04-26,17.891175835206962
2017-04-27,18.07875131831615
2017-04-28,18.34715695550387
2017-04-29,18.70071685753961
2017-04-30,19.01476207568373
2017-05-01,19.815041945210304
2017-05-02,20.908298912891635
2017-05-03,21.225727669580284
2017-05-04,21.67749114023488
2017-05-05,22.487629423430118
2017-05-06,23.367623321798863
2017-05-07,24.027249909951582
2017-05-08,24.34406019100752
2017-05-09,24.57110488357821
2017-05-10,24.91643599984614
2017-05-11,25.109452615170902
2017-05-12,25.291265467506385
2017-05-13,25.442924089421545
2017-05-14,25.62795832373153
2017-05-15,25.903220499609674
2017-05-16,26.252467128114873
2017-05-17,26.533150115887533
2017-05-18,26.887836080877516
2017-05-19,27.46105615755938
2017-05-20,28.154861717654764
2017-05-21,28.929639237824
2017-05-22,30.83388582455237
2017-05-23,32.1068038655237
2017-05-24,33.173722042326254
2017-05-25,34.8781743079603
2017-05-26,36.447343745057594
2017-05-27,37.18685057497678
2017-05-28,37.97530273601261
2017-05-29,38.519933277752074
2017-05-30,39.78891238745712
2017-05-31,42.07104817473247
2017-06-01,43.9047216185495
2017-06-02,44.80552417658814
2017-06-03,45.71566103524828
2017-06-04,46.38544367545566
2017-06-05,47.539086546293326
2017-06-06,48.92787768499932
2017-06-07,50.21110673435607
2017-06-08,51.54745647961688
2017-06-09,52.50697174810865
2017-06-10,53.74747776982529
2017-06-11,55.815347521933674
2017-06-12,58.99157842937897
2017-06-13,63.568741135691525
2017-06-14,66.3890845845477
2017-06-15,67.88679761147891
2017-06-16,68.95997387602893
2017-06-17,69.97872780692579
2017-06-18,70.96707303524886
2017-06-19,71.85661261156277
2017-06-20,74.42984238078084
2017-06-21,76.01667649011458
2017-06-22,77.32612878611033
2017-06-23,78.9349795239195
2017-06-24,79.54542207734305
2017-06-25,80.98237187536128
2017-06-26,80.92016403347
2017-06-27,80.58942359509305
2017-06-28,80.79313990177116
2017-06-29,82.15025894327898
2017-06-30,86.47854478088885
2017-07-01,87.53779326516269
2017-07-02,87.91407190644789
2017-07-03,88.62878468795647
2017-07-04,88.93192276591391
2017-07-05,89.05756718449472
2017-07-06,89.40275936529396
2017-07-07,89.54737444067554
2017-07-08,89.63237670586186
2017-07-09,89.97012753338704
2017-07-10,89.88513385774648
2017-07-11,89.45841883340002
2017-07-12,89.36661456898133
2017-07-13,89.42850080376233
2017-07-14,89.36126241514172
2017-07-15,89.23307906709795
2017-07-16,88.53181492414576
2017-07-17,88.0235363473286
2017-07-18,88.10256875529237
2017-07-19,88.75817368140788
2017-07-20,89.64644604084373
2017-07-21,90.02096427669608
2017-07-22,90.29906775957315
2017-07-23,90.81080642377594
2017-07-24,91.10850462701869
2017-07-25,91.23692635135029
2017-07-26,90.8982565429541
2017-07-27,90.81250479695952
2017-07-28,90.85995094209798
2017-07-29,90.91807888431143
2017-07-30,90.794565855869
2017-07-31,90.85543624827707
2017-08-01,91.30144598292767
2017-08-02,91.65169084161951
2017-08-03,92.05382791889646
2017-08-04,92.40813988009356
2017-08-05,92.57940328337068
2017-08-06,93.1517194571204
2017-08-07,94.00374845731417
2017-08-08,94.63220359248895
2017-08-09,95.65638143636565
2017-08-10,96.86094421926265
2017-08-11,97.98028536450192
2017-08-12,98.6444956145766
2017-08-13,99.0064493439241
2017-08-14,99.32596138041208
2017-08-15,99.76672686638342
2017-08-16,100.52462932339806
2017-08-17,101.32093904413868
2017-08-18,101.89010788860683
2017-08-19,102.15649292771772
2017-08-20,102.35979110885576
2017-08-21,103.0230402207776
2017-08-22,103.76733207660084
2017-08-23,104.2737049778717
2017-08-24,105.01787460432125
2017-08-25,106.17649809789927
2017-08-26,106.84627710004195
2017-08-27,108.07052939464518
2017-08-28,109.15366304885191
2017-08-29,110.5725117497339
2017-08-30,112.24573979561262
2017-08-31,114.0385245161298
2017-09-01,115.18431826948523
2017-09-02,116.17365498003137
2017-09-03,116.97017011315025
2017-09-04,116.92643845010899
2017-09-05,116.67963779478615
2017-09-06,117.11581999700859
2017-09-07,117.6193376034741
2017-09-08,117.78424310874375
2017-09-09,117.71966447067584
2017-09-10,117.63938759413676
2017-09-11,117.60166726633803
2017-09-12,117.67703139089828
2017-09-13,117.82299710203564
2017-09-14,117.99708784257135
2017-09-15,117.57695878282215
2017-09-16,117.59661300803019
2017-09-17,117.52611328466155
2017-09-18,117.60228670836591
2017-09-19,117.83454565100406
2017-09-20,117.92887235998782
2017-09-21,118.03602188775663
2017-09-22,118.13095510167544
2017-09-23,118.2300499094471
2017-09-24,118.51894156192692
2017-09-25,118.724391500766
2017-09-26,119.09127043931058
2017-09-27,119.72269519121407
2017-09-28,120.56668600148272
2017-09-29,120.76614797140532
2017-09-30,120.91610854531167
2017-10-01,121.45776454204884
2017-10-02,122.21996960544116
2017-10-03,123.18908512201212
2017-10-04,123.46849036808665
2017-10-05,123.55907290332664
2017-10-06,123.69970686064968
2017-10-07,123.93246378896566
2017-10-08,124.12891606516038
2017-10-09,124.53806599689742
2017-10-10,124.88893868745012
2017-10-11,125.04318566575954
2017-10-12,125.26989301768324
2017-10-13,125.62947152625752
2017-10-14,126.09807607209153
2017-10-15,126.4948910730084
2017-10-16,126.87681374004161
2017-10-17,127.45762395160982
2017-10-18,127.77495197825539
2017-10-19,127.89748324231371
2017-10-20,128.06651945460408
2017-10-21,128.19219720489218
2017-10-22,128.2737070287025
2017-10-23,128.3881202372558
2017-10-24,128.67889268518388
2017-10-25,128.90252663638933
2017-10-26,128.9864128044313
2017-10-27,129.10328940344112
2017-10-28,129.38755509124022
2017-10-29,129.64246693567432
2017-10-30,129.91707564151872
2017-10-31,130.11598415126122
2017-11-01,130.31026211173477
2017-11-02,130.37593354207567
2017-11-03,130.42362576242527
2017-11-04,130.6054997051866
2017-11-05,130.72974991569097
2017-11-06,130.96632932503653
2017-11-07,131.20417256527912
2017-11-08,131.99782286021343
2017-11-09,132.79925501934892
2017-11-10,133.11172591022958
2017-11-11,133.18449071607992
2017-11-12,133.5599041332158
2017-11-13,134.16687063681124
2017-11-14,134.6577601864162
2017-11-15,135.20986689595344
2017-11-16,135.56885698789333
2017-11-17,135.90042724873467
2017-11-18,136.13651180721482
2017-11-19,136.6044763027151
2017-11-20,137.70121387089478
2017-11-21,138.84539134970677
2017-11-22,142.091591674881
2017-11-23,143.08292892658005
2017-11-24,144.1868919510503
2017-11-25,145.9740894692963
2017-11-26,147.04258374994907
2017-11-27,148.48870913740572
2017-11-28,150.73018636321348
2017-11-29,152.22516408321704
2017-11-30,153.92307692404438
2017-12-01,154.42145252141904
2017-12-02,155.06142926021354
2017-12-03,155.6221311638051
2017-12-04,156.5138224987929
2017-12-05,157.49853982956392
2017-12-06,158.47118941509922
2017-12-07,160.72059287179766
2017-12-08,162.0261322086453
2017-12-09,163.0511331125119
2017-12-10,164.0675567214457
2017-12-11,165.05722333674365
2017-12-12,167.74292984414794
2017-12-13,172.78521502263348
2017-12-14,177.90643374987016
2017-12-15,180.7926836496004
2017-12-16,183.33457520538622
2017-12-17,185.80415458842162
2017-12-18,188.47867909495363
2017-12-19,192.62445007346196
2017-12-20,196.09533615826194
2017-12-21,199.8482298363676
2017-12-22,201.86860376706863
2017-12-23,202.83203332897534
2017-12-24,204.05669487529647
2017-12-25,205.5691690351013
2017-12-26,207.23410229675272
2017-12-27,209.35882670871806
2017-12-28,210.14847845254715
2017-12-29,211.45837463728733
2017-12-30,213.28941288807349
2017-12-31,214.6605941547097
2018-01-01,217.17011254180264
2018-01-02,219.79267418912784
2018-01-03,223.1858154143376
2018-01-04,227.94688955712388
2018-01-05,234.12904682777932
2018-01-06,238.3236189217807
2018-01-07,242.53748034451732
2018-01-08,249.2485613403457
2018-01-09,255.68133346192116
2018-01-10,265.07820570671595
2018-01-11,271.5621365500966
2018-01-12,276.0492440548024
2018-01-13,282.60770423518267
2018-01-14,289.4192596672062
2018-01-15,294.9814798793291
2018-01-16,298.81078418517933
2018-01-17,297.9512780800819
2018-01-18,297.2475697001457
2018-01-19,298.8516673191248
2018-01-20,300.69686624549
2018-01-21,302.6220552047582
2018-01-22,303.7646795617126
2018-01-23,304.9403200137052
2018-01-24,306.9877741919109
2018-01-25,309.6629367539941
2018-01-26,311.09667712680863
2018-01-27,311.9713999671553
2018-01-28,314.0458961002843
2018-01-29,317.3865309797297
2018-01-30,320.2419478150519
2018-01-31,322.07785320346767
2018-02-01,324.1145770110342
2018-02-02,323.8652337313239
2018-02-03,324.2893053744424
2018-02-04,324.35792776553774
2018-02-05,323.20992383527516
2018-02-06,320.2448107995095
2018-02-07,321.36952657005384
2018-02-08,321.8442953543223
2018-02-09,322.1225402419181
2018-02-10,322.77966529962987
2018-02-11,323.07502156477426
2018-02-12,323.92183466078103
2018-02-13,325.39979572542643
2018-02-14,326.11738129845565
2018-02-15,327.5211430029189
2018-02-16,328.31166689466016
2018-02-17,329.16841886844554
2018-02-18,331.134793891319
2018-02-19,332.74412197465506
2018-02-20,334.58094129749657
2018-02-21,335.0508202676692
2018-02-22,338.2635690912396
2018-02-23,350.7982280801759
2018-02-24,350.8835024713672
2018-02-25,350.6311201780154
2018-02-26,351.20116887772167
2018-02-27,351.71812737351445
2018-02-28,352.00971432872205
2018-03-01,352.31887789853346
2018-03-02,352.8111381255037
2018-03-03,353.2828879031929
2018-03-04,353.509095791019
2018-03-05,353.8470527407349
2018-03-06,354.19681666855536
2018-03-07,354.44271263882086
2018-03-08,354.2202839618763
2018-03-09,353.86334751373903
2018-03-10,353.5375196921265
2018-03-11,353.21920274484563
2018-03-12,353.0825789261112
2018-03-13,352.6620628360384
2018-03-14,352.24048185432804
2018-03-15,351.4759372485196
2018-03-16,350.92570960065314
2018-03-17,350.45062002595
2018-03-18,349.2868164665282
2018-03-19,347.9568140250375
2018-03-20,347.3643391230199
2018-03-21,346.9194835821523
2018-03-22,346.00090059260333
2018-03-23,345.295037829962
2018-03-24,344.67996036390025
2018-03-25,344.324720998903
2018-03-26,343.73514483631567
2018-03-27,341.26907044412883
2018-03-28,340.1339110752249
2018-03-29,339.47899903163363
2018-03-30,337.8859522023448
2018-03-31,336.8489485815169
2018-04-01,336.1217949499002
2018-04-02,335.40664776613033
2018-04-03,334.6988542073477
2018-04-04,334.02961123390884
2018-04-05,333.32946116915207
2018-04-06,332.7197067195802
2018-04-07,332.2402617651498
2018-04-08,331.748521448848
2018-04-09,331.2975977991168
2018-04-10,330.7438997160746
2018-04-11,330.2680479838954
2018-04-12,330.0866891873349
2018-04-13,329.5779204286523
2018-04-14,329.2977851633124
2018-04-15,329.10381958486073
2018-04-16,329.2300722135392
2018-04-17,329.46917715191375
2018-04-18,329.5910763199987
2018-04-19,329.781008969482
2018-04-20,330.8730042033501
2018-04-21,331.74441415750516
2018-04-22,332.1326459144526
2018-04-23,333.2291771483927
2018-04-24,335.0154966530047
2018-04-25,335.942315522289
2018-04-26,336.3087524319825
2018-04-27,337.03360846995133
2018-04-28,337.731406316111
2018-04-29,338.35783798041774
2018-04-30,338.9550444626312
2018-05-01,339.32284957399787
2018-05-02,339.896163338032
2018-05-03,341.6774467581409
2018-05-04,343.353337240624
2018-05-05,344.5216741401332
2018-05-06,345.3483436944559
2018-05-07,346.38437612123704
2018-05-08,347.19292590648064
2018-05-09,347.8902026463016
2018-05-10,349.10540811904264
2018-05-11,349.49066098511196
2018-05-12,349.40627309282536
2018-05-13,349.26708542493895
2018-05-14,349.40468956628507
2018-05-15,349.7409128194966
2018-05-16,349.8447320106354
2018-05-17,349.9578150410121
2018-05-18,349.96443636254156
2018-05-19,350.1548807313172
2018-05-20,350.3571572417994
2018-05-21,350.79762620804206
2018-05-22,350.9513023962633
2018-05-23,350.587857412822
2018-05-24,349.4198359894262
2018-05-25,348.96162030129744
2018-05-26,348.7810997169263
2018-05-27,348.97425679713547
2018-05-28,350.4333338076067
2018-05-29,349.9558582643283
2018-05-30,349.7150823089541
2018-05-31,349.5179444914037
2018-06-01,349.3784103953908
2018-06-02,349.4435772543927
2018-06-03,349.56174189668957
2018-06-04,349.6830089986376
2018-06-05,349.5820866533841
2018-06-06,349.65119368027734
2018-06-07,349.6930722454901
2018-06-08,349.7664091272454
2018-06-09,349.7937313622538
2018-06-10,349.60591581708695
2018-06-11,349.0245832075631
2018-06-12,348.4220265941138
2018-06-13,347.4194836465084
2018-06-14,346.5215466615842
2018-06-15,345.91272248818916
2018-06-16,345.52477557093596
2018-06-17,345.38063639698817
2018-06-18,345.20558932789777
2018-06-19,345.0624727260187
2018-06-20,344.95470701226236
2018-06-21,344.92620666659184
2018-06-22,344.65718326927197
2018-06-23,344.2307112260311
2018-06-24,343.91649338442625
2018-06-25,343.36413686525617
2018-06-26,342.53482956355316
2018-06-27,341.86154609719597
2018-06-28,341.38639766199947
2018-06-29,340.7357853055274
2018-06-30,340.4011425211524
2018-07-01,340.3227988348083
2018-07-02,340.12155297023367
2018-07-03,340.03178666902716
2018-07-04,339.95488989972677
2018-07-05,339.80290291787844
2018-07-06,339.6233359020235
2018-07-07,339.4778633480635
2018-07-08,339.5043736134925
2018-07-09,339.33405358060537
2018-07-10,339.07647658297554
2018-07-11,338.6812492962278
2018-07-12,338.3669361482253
2018-07-13,338.09089651183444
2018-07-14,337.8580720957892
2018-07-15,337.6804684667367
2018-07-16,337.5604547977376
2018-07-17,337.48086264878384
2018-07-18,337.6872963573238
2018-07-19,337.6647899927547
2018-07-20,337.5000910300341
2018-07-21,337.4230757078175
2018-07-22,337.34086238252814
2018-07-23,337.2374233277186
2018-07-24,337.0626783705138
2018-07-25,336.99668353496156
2018-07-26,336.9285227726751
2018-07-27,336.9229471198212
2018-07-28,336.8842389067066
2018-07-29,336.8524143435512
2018-07-30,336.77100686483044
2018-07-31,336.3079333346837
2018-08-01,335.51674521170736
2018-08-02,335.17647608962466
2018-08-03,334.7806237043851
2018-08-04,334.5514273374629
2018-08-05,334.3163508749344
2018-08-06,333.95071678653096
2018-08-07,333.66616887678543
2018-08-08,333.19045801872386
2018-08-09,332.3177616701553
2018-08-10,331.6958356663059
2018-08-11,330.8540762080511
2018-08-12,330.25506038159216
2018-08-13,329.95183490922153
2018-08-14,328.07643606419043
2018-08-15,326.7501788555299
2018-08-16,325.9919859723132
2018-08-17,325.49865045905074
2018-08-18,325.1356134612673
2018-08-19,324.8372550448498
2018-08-20,324.4569556718692
2018-08-21,323.7987316889553
2018-08-22,323.175533874285
2018-08-23,322.4490053148908
2018-08-24,321.86568637019246
2018-08-25,321.5998279733706
2018-08-26,321.63010663583276
2018-08-27,321.2283952548322
2018-08-28,320.8126229580691
2018-08-29,320.4647442542875
2018-08-30,320.0851700822633
2018-08-31,319.57809824572166
2018-09-01,319.26332215274766
2018-09-02,319.16585376943124
2018-09-03,318.87290586988485
2018-09-04,319.36673237909935
2018-09-05,318.90644487276245
2018-09-06,317.2767786392061
2018-09-07,315.980307420495
2018-09-08,314.8348594963085
2018-09-09,313.3376367806671
2018-09-10,312.29856493211463
2018-09-11,311.14432259363844
2018-09-12,309.0294346160235
2018-09-13,307.64723782704004
2018-09-14,307.0049808221604
2018-09-15,306.71417255916117
2018-09-16,306.55252967875293
2018-09-17,306.34932003315276
2018-09-18,305.83982991186247
2018-09-19,305.28774957137455
2018-09-20,304.7093361173342
2018-09-21,304.4390933958824
2018-09-22,304.43273904771854
2018-09-23,304.35100007039955
2018-09-24,304.2089763133739
2018-09-25,303.8768117173882
2018-09-26,303.4199589052686
2018-09-27,302.8788780612824
2018-09-28,302.51493505088513
2018-09-29,302.2674737585511
2018-09-30,302.07025448385286
2018-10-01,301.800046665277
2018-10-02,301.5279487139517
2018-10-03,301.19851680296546
2018-10-04,300.89314540844947
2018-10-05,300.4392714630735
2018-10-06,299.51462709330985
2018-10-07,299.40641476176097
2018-10-08,299.16812261502315
2018-10-09,298.9293950711512
2018-10-10,298.6741822773382
2018-10-11,298.11461829218246
2018-10-12,297.44196163378575
2018-10-13,297.10020100624257
2018-10-14,296.941156893713
2018-10-15,296.59879033235006
2018-10-16,296.32568477028366
2018-10-17,296.21852033051465
2018-10-18,295.75153715413114
2018-10-19,295.2835266237426
2018-10-20,294.99474088117523
2018-10-21,292.89562964483326
2018-10-22,290.60613323614075
2018-10-23,290.3087970187943
2018-10-24,290.0220077020794
2018-10-25,289.090930621519
2018-10-26,288.5893616320222
2018-10-27,288.2722538109245
2018-10-28,287.9053045178037
2018-10-29,287.6518547211856
2018-10-30,287.3186057105494
2018-10-31,286.8416913412261
2018-11-01,286.5547439864858
2018-11-02,286.3822574082701
2018-11-03,286.4721369609873
2018-11-04,286.3757816509823
2018-11-05,286.2255756939193
2018-11-06,286.0360835637819
2018-11-07,285.9349267120257
2018-11-08,285.66318976325516
2018-11-09,285.41796548689007
2018-11-10,285.2449676701728
2018-11-11,285.16660338678287
2018-11-12,285.0618940478488
2018-11-13,284.92180783353405
2018-11-14,284.59517453287555
2018-11-15,283.70638197734894
2018-11-16,283.1810414037724
2018-11-17,282.8051344312281
2018-11-18,282.49078466375965
2018-11-19,281.79187768703815
2018-11-20,279.78122274483354
2018-11-21,278.23801878476905
2018-11-22,277.5928728059819
2018-11-23,276.5842336776797
2018-11-24,275.8344859269874
2018-11-25,274.8304463722473
2018-11-26,273.84700886999804
2018-11-27,272.9802774296084
2018-11-28,272.3570024011963
2018-11-29,269.7746135145267
2018-11-30,265.53173852328933
2018-12-01,267.03018982882094
2018-12-02,267.05595912805353
2018-12-03,266.65211624922546
2018-12-04,266.17773561303005
2018-12-05,265.62269912224343
2018-12-06,264.84773498880315
2018-12-07,262.9549160443104
2018-12-08,261.92983734234446
2018-12-09,261.44615392143993
2018-12-10,260.97096323310996
2018-12-11,260.4882002656394
2018-12-12,259.72986965175807
2018-12-13,258.9072909824821
2018-12-14,258.40674396465016
2018-12-15,257.89199045355
2018-12-16,257.5553034967655
2018-12-17,257.01439630619586
2018-12-18,255.9849359052605
2018-12-19,255.45418284873844
2018-12-20,254.65197526806796
2018-12-21,254.05885896384694
2018-12-22,253.80278413930313
2018-12-23,253.63538199527346
2018-12-24,253.3768298037275
2018-12-25,253.131344113071
2018-12-26,252.92130664938887
2018-12-27,252.33721251196556
2018-12-28,251.1153799461204
2018-12-29,250.96518318693037
2018-12-30,250.80424370387877
2018-12-31,250.59453860872188
2019-01-01,250.40585266127908
2019-01-02,250.36218802965934
2019-01-03,250.2896090057848
2019-01-04,249.98064576183432
2019-01-05,249.31295685257766
2019-01-06,249.00696944989093
2019-01-07,248.5483443345137
2019-01-08,248.36167839612114
2019-01-09,248.10490202292718
2019-01-10,247.7188453803278
2019-01-11,246.56726035226677
2019-01-12,246.154951177198
2019-01-13,244.76107844516918
2019-01-14,243.32394653617183
2019-01-15,243.01310722297077
2019-01-16,242.63833946779104
2019-01-17,242.37678363901188
2019-01-18,242.1539572593585
2019-01-19,241.9500819257014
2019-01-20,241.79540340524792
2019-01-21,241.48223441864624
2019-01-22,241.24134667007604
2019-01-23,241.02560776537942
2019-01-24,240.71915686880695
2019-01-25,240.45201249866867
2019-01-26,240.26743716305214
2019-01-27,240.18588287043713
2019-01-28,239.89130915956542
2019-01-29,239.47187689747435
2019-01-30,239.0890362963888
2019-01-31,238.73024887620764
2019-02-01,238.54923610635112
2019-02-02,238.4388780215679
2019-02-03,238.36374058450593
2019-02-04,238.2345777839762
2019-02-05,238.04324414791503
2019-02-06,237.85856466272733
2019-02-07,237.63875814282972
2019-02-08,237.39983035956038
2019-02-09,237.3211134740889
2019-02-10,237.24547444760597
2019-02-11,237.00028445497725
2019-02-12,236.68260560791984
2019-02-13,236.60573460866783
2019-02-14,236.4314584975315
2019-02-15,236.33340880402125
2019-02-16,236.24325534503728
2019-02-17,236.21431556255249
2019-02-18,236.25298523464014
2019-02-19,236.2218781505413
2019-02-20,236.1302646022392
2019-02-21,233.79985480921627
2019-02-22,232.4373369281331
2019-02-23,232.41713648327246
2019-02-24,232.4563444103072
2019-02-25,231.65281461203597
2019-02-26,231.27648586078996
2019-02-27,231.14157065610738
2019-02-28,230.98630648519938
2019-03-01,230.85463493953065
2019-03-02,230.7643125205615
2019-03-03,230.69770538123268
2019-03-04,230.5230992386953
2019-03-05,230.2635415541922
2019-03-06,230.21740664757664
2019-03-07,230.14780201943006
2019-03-08,229.77877026298614
2019-03-09,229.70680164638827
2019-03-10,229.4696562699308
2019-03-11,228.99893377525217
2019-03-12,228.86441329286438
2019-03-13,228.70325569537866
2019-03-14,228.57941290285055
2019-03-15,228.4757135170715
2019-03-16,228.42397691656225
2019-03-17,228.23269123301688
2019-03-18,228.048874607736
2019-03-19,227.8978534458383
2019-03-20,227.79760681150339
2019-03-21,227.6736947945861
2019-03-22,227.51008521299738
2019-03-23,227.41968056625285
2019-03-24,227.34754521565193
2019-03-25,227.19743767958244
2019-03-26,226.9843167144968
2019-03-27,226.8568749753282
2019-03-28,226.84032304841298
2019-03-29,226.74900138955027
2019-03-30,226.62108036990088
2019-03-31,226.54790561003148
2019-04-01,226.50798669220666
2019-04-02,226.50053029795444
2019-04-03,226.58396369706597
2019-04-04,226.57160951558978
2019-04-05,226.536436047306
2019-04-06,226.41706071410997
2019-04-07,226.43060165434198
2019-04-08,226.55399895216763
2019-04-09,226.60541405243225
2019-04-10,226.60532270301104
2019-04-11,226.5426706406164
2019-04-12,226.3553767099689
2019-04-13,226.31281352537087
2019-04-14,226.27203244425215
2019-04-15,226.25034553567588
2019-04-16,226.1788108503535
2019-04-17,226.15606429794434
2019-04-18,226.18547398315877
2019-04-19,226.08035184011365
2019-04-20,225.9870006512516
2019-04-21,225.89291318473522
2019-04-22,225.7570452701619
2019-04-23,225.75414442327434
2019-04-24,225.69730699315744
2019-04-25,225.59879564570193
2019-04-26,225.28128670335948
2019-04-27,225.18506315442562
2019-04-28,225.12365049526844
2019-04-29,225.03592062901433
2019-04-30,224.96646874521818
2019-05-01,224.9213245972889
2019-05-02,224.8331156169028
2019-05-03,224.79913248581923
2019-05-04,224.78248639179063
2019-05-05,224.74246617506844
2019-05-06,224.71453003422715
2019-05-07,224.78098482964558
2019-05-08,224.80336617336252
2019-05-09,224.78354866453546
2019-05-10,224.78943173169392
2019-05-11,224.5959653411358
2019-05-12,224.7460943610207
2019-05-13,224.8720814974909
2019-05-14,225.09754122881827
2019-05-15,225.59245568280346
2019-05-16,227.28319797228727
2019-05-17,228.72674500253788
2019-05-18,228.8262565536211
2019-05-19,228.99536746164964
2019-05-20,228.78713746953142
2019-05-21,228.9406271082825
2019-05-22,229.14916270066064
2019-05-23,229.20697754874087
2019-05-24,229.31958594533785
2019-05-25,229.4694556940332
2019-05-26,229.56882337452913
2019-05-27,229.85324520872317
2019-05-28,230.14516983467246
2019-05-29,230.94320150276133
2019-05-30,231.57078375294537
2019-05-31,231.81960903035628
2019-06-01,231.98104774822286
2019-06-02,232.0824503976388
2019-06-03,232.29146952990422
2019-06-04,232.32629161609637
2019-06-05,232.42701570030002
2019-06-06,232.44974408450273
2019-06-07,232.46376475108798
2019-06-08,232.46010987694692
2019-06-09,232.40447136679916
2019-06-10,232.32869084192285
2019-06-11,232.3141314396835
2019-06-12,232.31013090267246
2019-06-13,232.4069811012177
2019-06-14,232.6058937520002
2019-06-15,232.528386692525
2019-06-16,232.7654401384587
2019-06-17,232.8834470973144
2019-06-18,233.10828410800224
2019-06-19,233.29677250591934
2019-06-20,233.4400665893238
2019-06-21,233.7347180257779
2019-06-22,234.2171375191502
2019-06-23,234.49491233148584
2019-06-24,234.78604201828028
2019-06-25,235.16132125259617
2019-06-26,236.10611530194953
2019-06-27,236.67838695393522
2019-06-28,236.9625461582598
2019-06-29,237.28807839192635
2019-06-30,237.46535192898898
2019-07-01,237.5224484556965
2019-07-02,237.51599577118023
2019-07-03,237.53873535887232
2019-07-04,237.54670431790936
2019-07-05,237.56154241837714
2019-07-06,237.60548913700177
2019-07-07,237.66239306743086
2019-07-08,237.80206803516603
2019-07-09,238.802040788715
2019-07-10,240.7080199145022
2019-07-11,240.79038476961242
2019-07-12,240.94158675845486
2019-07-13,240.89761092315865
2019-07-14,240.75787323911388
2019-07-15,240.35442304625707
2019-07-16,240.0804278128936
2019-07-17,239.56741686520502
2019-07-18,239.31261513256078
2019-07-19,239.13483998876325
2019-07-20,239.05732426129435
2019-07-21,239.01318329261775
2019-07-22,238.95097775333485
2019-07-23,238.8269389747426
2019-07-24,238.67562584555657
2019-07-25,238.58787390245274
2019-07-26,238.22546252353806
2019-07-27,237.91639207605536
2019-07-28,237.85190969248004
2019-07-29,237.58943228042193
2019-07-30,237.38834854701906
2019-07-31,237.3329241605248
2019-08-01,236.3670663085362
2019-08-02,235.27545709099135
2019-08-03,235.2489596725665
2019-08-04,235.23007763082
2019-08-05,235.2981433424813
2019-08-06,235.2107958211912
2019-08-07,235.14825588711045
2019-08-08,235.02835586191264
2019-08-09,234.72644561253156
2019-08-10,234.600822504567
2019-08-11,234.51760070270066
2019-08-12,234.44976514102828
2019-08-13,234.51347392015867
2019-08-14,234.53791695378965
2019-08-15,234.13476903569028
2019-08-16,233.6996472939149
2019-08-17,233.22640916700948
2019-08-18,233.13338189791534
2019-08-19,233.07148183809545
2019-08-20,233.05573180394867
2019-08-21,232.94686890263557
2019-08-22,232.80876796788615
2019-08-23,232.82095341621505
2019-08-24,232.7520676977684
2019-08-25,232.70258015692258
2019-08-26,232.6447425901975
2019-08-27,232.49269568258237
2019-08-28,232.40925270980296
2019-08-29,232.1845590525886
2019-08-30,231.93188142677872
2019-08-31,231.51952483475216
2019-09-01,231.13163503526886
2019-09-02,230.98917241122047
2019-09-03,230.80973059092506
2019-09-04,230.7303949193405
2019-09-05,230.61136493416626
2019-09-06,230.4870498855922
2019-09-07,230.26004143006938
2019-09-08,230.14433565154343
2019-09-09,230.07496697295264
2019-09-10,229.9948853907647
2019-09-11,229.92157823569096
2019-09-12,229.80617129669227
2019-09-13,229.6233977883984
2019-09-14,229.56772882166172
2019-09-15,229.54676763159102
2019-09-16,229.25709292997797
2019-09-17,229.2698098006972
2019-09-18,229.39523177553215
2019-09-19,229.45017406686307
2019-09-20,229.518434515812
2019-09-21,229.54374963307723
2019-09-22,229.55461314924062
2019-09-23,229.53505882514526
2019-09-24,229.41638317741698
2019-09-25,228.97177240259026
2019-09-26,228.771373543559
2019-09-27,228.38828056692716
2019-09-28,228.19875114471398
2019-09-29,228.08052868186593
2019-09-30,228.01213175654593
2019-10-01,227.98849431276463
2019-10-02,227.86725426441848
2019-10-03,227.77687594399382
2019-10-04,227.63274736318706
2019-10-05,227.17405031037933
2019-10-06,227.13169301694472
2019-10-07,227.05439887233894
2019-10-08,227.0876185080509
2019-10-09,227.07937606160897
2019-10-10,227.09858894426836
2019-10-11,227.05594347360054
2019-10-12,226.9554522948603
2019-10-13,226.91130202454835
2019-10-14,226.20557865017375
2019-10-15,225.63820099492153
2019-10-16,225.56282451745585
2019-10-17,225.45216887784215
2019-10-18,225.19366864046967
2019-10-19,224.921498796259
2019-10-20,224.90621542535965
2019-10-21,224.86743848197142
2019-10-22,224.838925685198
2019-10-23,224.73063296544302
2019-10-24,224.30630158422235
2019-10-25,223.9812196398805
2019-10-26,224.02295025761052
2019-10-27,224.05527370748607
2019-10-28,224.10817780886353
2019-10-29,224.2612405298794
2019-10-30,224.19847025960826
2019-10-31,224.14651871454925
2019-11-01,224.10001040839947
2019-11-02,224.11727313479636
2019-11-03,224.16464718641046
2019-11-04,224.12906694188422
2019-11-05,223.6094799289808
2019-11-06,219.72334188408584
2019-11-07,219.74636801610038
2019-11-08,219.76499447293682
2019-11-09,219.75070246772046
2019-11-10,219.6968736950942
2019-11-11,219.6899841501665
2019-11-12,219.69239105969865
2019-11-13,219.68587429640772
2019-11-14,219.58315975855285
2019-11-15,219.17067275853591
2019-11-16,219.1247626073197
2019-11-17,219.12429195426088
2019-11-18,219.09044051188266
2019-11-19,219.01671146337696
2019-11-20,218.92947030244977
2019-11-21,218.81841181921652
2019-11-22,218.44868510351566
2019-11-23,217.63219135138485
2019-11-24,217.34661843497287
2019-11-25,216.73766476575094
2019-11-26,216.38426690063181
2019-11-27,216.18778794420302
2019-11-28,216.06055621468767
2019-11-29,215.9790311709158
2019-11-30,215.88866514802822
2019-12-01,215.72280314975873
2019-12-02,215.61497552909768
2019-12-03,215.48600699375666
2019-12-04,215.3822317884868
2019-12-05,215.26666288094074
2019-12-06,215.05486164397325
2019-12-07,214.5574239911785
2019-12-08,214.5110591746542
2019-12-09,214.45860245956004
2019-12-10,214.3776578970696
2019-12-11,214.30054627398238
2019-12-12,214.29782015213868
2019-12-13,214.28362658543088
2019-12-14,214.22130269564957
2019-12-15,214.1716159727465
2019-12-16,214.09496971153573
2019-12-17,213.81324439476543
2019-12-18,213.20952018797655
2019-12-19,211.82444690017118
2019-12-20,211.5132777046649
2019-12-21,211.17498597268022
2019-12-22,211.10686549616858
2019-12-23,210.94472921258534
2019-12-24,210.6529335393247
2019-12-25,210.47278746347433
2019-12-26,210.2552772229317
2019-12-27,210.00475690137782
2019-12-28,209.80730263863714
2019-12-29,209.7365115320669
2019-12-30,209.6590947189059
2019-12-31,209.24641399013566
2020-01-01,209.0234906754692
2020-01-02,208.9554002952303
2020-01-03,208.8428063975812
2020-01-04,208.7797187059804
2020-01-05,208.7409445052431
2020-01-06,208.6865842745347
2020-01-07,208.64905554821107
2020-01-08,208.6596702663981
2020-01-09,208.64040834007065
2020-01-10,208.5706775464647
2020-01-11,208.53457389966516
2020-01-12,208.5287020901767
2020-01-13,208.50908107037384
2020-01-14,208.49699338970686
2020-01-15,208.61276586192972
2020-01-16,208.6340046735171
2020-01-17,208.6610793309732
2020-01-18,208.740538807452
2020-01-19,208.782483264575
2020-01-20,208.7742522917672
2020-01-21,208.73184774417672
2020-01-22,208.73147052462812
2020-01-23,208.7245878152666
2020-01-24,208.49694255623768
2020-01-25,208.50554942236303
2020-01-26,208.47874703849695
2020-01-27,208.4925181407656
2020-01-28,208.52727898509227
2020-01-29,208.55647320794222
2020-01-30,208.56622731005447
2020-01-31,208.6593918957009
2020-02-01,208.77730484471383
2020-02-02,208.82073424644702
2020-02-03,208.88693823162342
2020-02-04,208.9187869197833
2020-02-05,208.91706848511748
2020-02-06,209.11938402012674
2020-02-07,209.47725738965624
2020-02-08,209.7536886365297
2020-02-09,209.88872084522785
2020-02-10,210.08849941640713
2020-02-11,210.16528043742508
2020-02-12,210.50237481809867
2020-02-13,211.03240243092023
2020-02-14,211.36191039463608
2020-02-15,211.85858661858967
2020-02-16,212.1100197038343
2020-02-17,212.25063256386105
2020-02-18,212.55432137301602
2020-02-19,213.097047794706
2020-02-20,213.43313478392582
2020-02-21,213.61010682389187
2020-02-22,213.76657963721377
2020-02-23,213.80286252122818
2020-02-24,213.73392415634757
2020-02-25,213.84619611167017
2020-02-26,213.8360400663944
2020-02-27,213.68960147820297
2020-02-28,213.69775793547115
2020-02-29,213.67993616344435
2020-03-01,213.68923541184546
2020-03-02,213.72065603952245
2020-03-03,213.72982205684679
2020-03-04,213.75109645294222
2020-03-05,213.83191451021827
2020-03-06,213.92695068843958
2020-03-07,213.94415308443737
2020-03-08,213.9681124118145
2020-03-09,213.69715272200764
2020-03-10,213.48931123324869
2020-03-11,213.38189691242712
2020-03-12,212.6224517168076
2020-03-13,209.8811854549268
2020-03-14,208.9267524325696
2020-03-15,208.3876870369484
2020-03-16,207.41096119525602
2020-03-17,206.65700118409023
2020-03-18,206.179335492769
2020-03-19,205.85478903223208
2020-03-20,205.74683331601426
2020-03-21,205.63966165244213
2020-03-22,205.54496490447013
2020-03-23,205.38689470089884
2020-03-24,204.54325377497608
2020-03-25,204.2965747056148
2020-03-26,204.18798650665798
2020-03-27,204.1176655457149
2020-03-28,203.9866133274567
2020-03-29,203.8876780122599
2020-03-30,203.77649664587227
2020-03-31,203.495711007541
2020-04-01,203.3535145009951
2020-04-02,203.261172741295
2020-04-03,203.1586766645494
2020-04-04,202.98083121487326
2020-04-05,202.8432614385396
2020-04-06,202.77415497010224
2020-04-07,202.94162177024668
2020-04-08,203.06378820711862
2020-04-09,203.14541778074008
2020-04-10,203.113029479912
2020-04-11,203.0850157622256
2020-04-12,203.07740835888242
2020-04-13,202.6999727060296
2020-04-14,202.55084372110574
2020-04-15,202.50588764109915
2020-04-16,202.30642660093415
2020-04-17,202.3578927051728
2020-04-18,202.4052451238203
2020-04-19,202.5473807717145
2020-04-20,202.71898737178594
2020-04-21,202.76844571027704
2020-04-22,202.87828107226107
2020-04-23,202.96468557004565
2020-04-24,203.08285987892515
2020-04-25,203.27174787807505
2020-04-26,203.34294410141948
2020-04-27,203.38362818874873
2020-04-28,203.3550298801246
2020-04-29,203.4669651059337
2020-04-30,203.7133729281415
2020-05-01,203.85785030825917
2020-05-02,203.9390205995501
2020-05-03,204.01014630423106
2020-05-04,204.03319921645033
2020-05-05,204.07775588539747
2020-05-06,204.14796629003246
2020-05-07,204.22478406460442
2020-05-08,204.35542286079468
2020-05-09,204.50437110413364
2020-05-10,204.42660915691627
2020-05-11,204.32991015428178
2020-05-12,204.21812986506646
2020-05-13,204.1667808617603
2020-05-14,204.20215644956545
2020-05-15,204.22302767918038
2020-05-16,204.27224675941522
2020-05-17,204.31445558158308
2020-05-18,204.43093495355626
2020-05-19,204.50839152010226
2020-05-20,204.61100095444743
2020-05-21,204.68061385716888
2020-05-22,204.65686802221316
2020-05-23,204.6844508968674
2020-05-24,204.75223420164482
2020-05-25,204.76116175029898
2020-05-26,204.84874264107847
2020-05-27,204.87202196916957
2020-05-28,204.91137987739612
2020-05-29,205.07138394133688
2020-05-30,205.27507154124297
2020-05-31,205.57542128438882
2020-06-01,205.8458527524724
2020-06-02,206.59781975468408
2020-06-03,206.84235410945328
2020-06-04,206.91874959848317
2020-06-05,207.02875262078197
2020-06-06,207.12016366068232
2020-06-07,207.17020891780066
2020-06-08,207.22832550323614
2020-06-09,207.35236682447243
2020-06-10,207.53554142658672
2020-06-11,207.63981960061182
2020-06-12,207.63374925224988
2020-06-13,207.65827699408854
2020-06-14,207.6878723616913
2020-06-15,207.76801709816084
2020-06-16,207.8811943616452
2020-06-17,207.9325892456971
2020-06-18,208.00825183653438
2020-06-19,208.06887166859278
2020-06-20,208.09683942562506
2020-06-21,208.15514567038076
2020-06-22,208.27826207766515
2020-06-23,208.35921479769476
2020-06-24,208.7262240401943
2020-06-25,209.26318374606123
2020-06-26,209.80652729391613
2020-06-27,209.9314373717854
2020-06-28,209.81466142044582
2020-06-29,209.78570357305355
2020-06-30,209.84580301954125
2020-07-01,209.810584933247
2020-07-02,209.84284909087472
2020-07-03,209.86059863264327
2020-07-04,209.8479240343443
2020-07-05,209.84382671132002
2020-07-06,209.8707277852773
2020-07-07,209.98846075439764
2020-07-08,210.23218827644936
2020-07-09,210.4172831306746
2020-07-10,210.53398342643322
2020-07-11,210.60376139115442
2020-07-12,210.65549854513299
2020-07-13,210.73391491628476
2020-07-14,210.9169929498225
2020-07-15,211.0510663113178
2020-07-16,211.06229933695994
2020-07-17,211.04577183147876
2020-07-18,211.05320190640222
2020-07-19,211.089495065804
2020-07-20,211.147889332544
2020-07-21,211.21897760383143
2020-07-22,211.28843357970018
2020-07-23,211.78232531119966
2020-07-24,212.8384432378151
2020-07-25,213.3043805105638
2020-07-26,214.03450381553841
2020-07-27,215.08165138466964
2020-07-28,216.12841916965323
2020-07-29,216.6975162759617
2020-07-30,217.14135608159404
2020-07-31,217.82928137597486
2020-08-01,218.684989437523
2020-08-02,219.90118490797627
2020-08-03,220.83999554024706
2020-08-04,221.8370260334546
2020-08-05,222.52865241979174
2020-08-06,223.13578291771952
2020-08-07,223.66921396137383
2020-08-08,224.02516765617625
2020-08-09,224.41748914094404
2020-08-10,224.97865705417385
2020-08-11,225.63240685442773
2020-08-12,226.51781975950155
2020-08-13,227.36857142861277
2020-08-14,229.0855702441378
2020-08-15,230.48630368288485
2020-08-16,231.02815763163287
2020-08-17,231.62603659329608
2020-08-18,232.57170256446662
2020-08-19,233.00448748933542
2020-08-20,233.4860247188633
2020-08-21,233.86287759438827
2020-08-22,233.95354199059142
2020-08-23,234.0598998338354
2020-08-24,234.2713474933028
2020-08-25,234.59829038836853
2020-08-26,234.65718474484186
2020-08-27,234.88230401053818
2020-08-28,235.07369245384248
2020-08-29,235.41026909410587
2020-08-30,235.7471564619071
2020-08-31,236.59431644977747
2020-09-01,238.54398164511275
2020-09-02,241.75215153994344
2020-09-03,242.66387280948297
2020-09-04,242.85967244057986
2020-09-05,242.34075629982806
2020-09-06,241.11685054871094
2020-09-07,240.29089550868378
2020-09-08,239.7772707613427
2020-09-09,239.3245763393846
2020-09-10,239.40414181243167
2020-09-11,239.53076545742795
2020-09-12,240.1198311625122
2020-09-13,240.62139945217257
2020-09-14,240.53516595406373
2020-09-15,240.6445373213987
2020-09-16,240.26148395575598
2020-09-17,240.33651302984728
2020-09-18,241.00301151508302
2020-09-19,241.55698803972115
2020-09-20,241.84635594663789
2020-09-21,241.80422976926783
2020-09-22,241.50353262023742
2020-09-23,241.55612361098287
2020-09-24,241.23925290370752
2020-09-25,241.1697353006138
2020-09-26,241.18957279331073
2020-09-27,241.23796354534352
2020-09-28,241.19482159176394
2020-09-29,241.73410597928645
2020-09-30,242.34422843080446
2020-10-01,242.50233024141713
2020-10-02,242.4428990877721
2020-10-03,242.33556673429644
2020-10-04,242.31741125870758
2020-10-05,242.31155958142307
2020-10-06,242.3280751118089
2020-10-07,242.12744527134075
2020-10-08,241.82378847088563
2020-10-09,241.8169310381855
2020-10-10,242.10144292470315
2020-10-11,242.31434680132864
2020-10-12,242.55250446984766
2020-10-13,242.93075194561683
2020-10-14,243.690856854673
2020-10-15,244.09541792940811
2020-10-16,244.3227134873444
2020-10-17,244.43151245452236
2020-10-18,244.5053115608951
2020-10-19,244.63844963245563
2020-10-20,244.7924893276696
2020-10-21,245.16812694045294
2020-10-22,245.84129421395153
2020-10-23,246.8097634617585
2020-10-24,247.4674293371022
2020-10-25,247.76752759693983
2020-10-26,248.2306087745258
2020-10-27,248.77614837259074
2020-10-28,249.13276627283437
2020-10-29,249.2769631930126
2020-10-30,249.331954510246
2020-10-31,249.39666680794696
2020-11-01,249.4842826469507
2020-11-02,249.6508201099702
2020-11-03,249.691840710091
2020-11-04,249.87500488960427
2020-11-05,250.34168916139458
2020-11-06,251.26985696997966
2020-11-07,252.3060780323053
2020-11-08,252.83826611172552
2020-11-09,253.36269196697228
2020-11-10,253.85947594122018
2020-11-11,254.60318266318572
2020-11-12,255.93101534152618
2020-11-13,256.7314698555251
2020-11-14,257.49197030068893
2020-11-15,257.77612143943105
2020-11-16,258.1153413323414
2020-11-17,259.31383895404906
2020-11-18,260.4405686947387
2020-11-19,261.4280250170606
2020-11-20,262.33523702998
2020-11-21,265.2373347602178
2020-11-22,266.9015545956184
2020-11-23,269.53733661841443
2020-11-24,273.49620808847567
2020-11-25,276.1881586508079
2020-11-26,277.0267673968246
2020-11-27,277.69067053031523
2020-11-28,278.19769306280017
2020-11-29,278.8527362770273
2020-11-30,280.2881791776676
2020-12-01,282.0579827019488
2020-12-02,283.6668663161774
2020-12-03,284.7284841779198
2020-12-04,285.82777001452695
2020-12-05,286.54425232126624
2020-12-06,287.14467525287597
2020-12-07,287.9841422180595
2020-12-08,289.25426311339174
2020-12-09,290.25779970767667
2020-12-10,290.9109653954407
2020-12-11,291.40992773362
2020-12-12,291.7364525210935
2020-12-13,292.09352703518016
2020-12-14,292.8107380558376
2020-12-15,293.9757662672797
2020-12-16,294.8480556073392
2020-12-17,297.55934014575985
2020-12-18,300.0843265482481
2020-12-19,303.65914065050487
2020-12-20,309.16912911618175
2020-12-21,309.9239196601014
2020-12-22,310.6658996406955
2020-12-23,311.7391072157196
2020-12-24,312.0719624096453
2020-12-25,312.5219965207148
2020-12-26,312.9865722738476
2020-12-27,314.0505262414877
2020-12-28,316.61591795584786
2020-12-29,319.31992024304543
2020-12-30,323.43570685966506
2020-12-31,325.86467345514876
2021-01-01,327.3711647762751
2021-01-02,328.88929583340615
2021-01-03,332.2567981233747
2021-01-04,343.69354338578756
2021-01-05,353.4189699365413
2021-01-06,360.61119542971346
2021-01-07,376.55024997708847
2021-01-08,387.22226008762567
2021-01-09,395.72542938156255
2021-01-10,401.7121096891936
2021-01-11,407.85608808994346
2021-01-12,411.3696773030925
2021-01-13,415.21076120518825
2021-01-14,429.00564506761555
2021-01-15,439.7186726248625
2021-01-16,442.85115685073583
2021-01-17,445.7705455502772
2021-01-18,448.7479125567208
2021-01-19,455.1105874514863
2021-01-20,465.2927455511734
2021-01-21,470.82361138064306
2021-01-22,472.40560699569033
2021-01-23,479.80889834285773
2021-01-24,482.222496956109
2021-01-25,487.28639326698095
2021-01-26,490.56539516413443
2021-01-27,494.5800448159246
2021-01-28,496.85246280404067
2021-01-29,500.27291597989944
2021-01-30,504.217574958272
2021-01-31,505.94057241574126
2021-02-01,508.5577431562059
2021-02-02,513.1696053258006
2021-02-03,522.9395591828478
2021-02-04,534.6546577574928
2021-02-05,541.2747905631255
2021-02-06,548.0722173971659
2021-02-07,554.6259623211104
2021-02-08,558.5309827345214
2021-02-09,567.5557092876837
2021-02-10,574.0457377159573
2021-02-11,578.4991164017144
2021-02-12,584.134433041195
2021-02-13,588.8555468280063
2021-02-14,592.447085921959
2021-02-15,596.2494942606002
2021-02-16,599.6240152804047
2021-02-17,604.9124600348316
2021-02-18,612.1724326072707
2021-02-19,618.7813381564832
2021-02-20,625.3343744681794
2021-02-21,629.7867284933056
2021-02-22,633.2518024452233
2021-02-23,641.8027114560076
2021-02-24,644.2062099264592
2021-02-25,645.9837613031036
2021-02-26,648.1141687009492
2021-02-27,648.8031558327331
2021-02-28,649.8997340504299
2021-03-01,649.6147911391606
2021-03-02,650.8429290633346
2021-03-03,652.1383105155987
2021-03-04,657.5915829203525
2021-03-05,661.5488052297248
2021-03-06,662.9273133660334
2021-03-07,668.9693862334763
2021-03-08,674.7932735141119
2021-03-09,679.34562978302
2021-03-10,683.2640748780659
2021-03-11,686.4504498482191
2021-03-12,690.190531158671
2021-03-13,692.8616968469004
2021-03-14,695.8639444595024
2021-03-15,699.8401657602424
2021-03-16,703.9372953167525
2021-03-17,706.4764115873697
2021-03-18,709.5624012083748
2021-03-19,711.3786898774171
2021-03-20,713.8031176200033
2021-03-21,715.2443331189749
2021-03-22,716.7536183545542
2021-03-23,717.9630428076466
2021-03-24,718.8266292078738
2021-03-25,720.8693868871749
2021-03-26,725.4464530306076
2021-03-27,727.316982082943
2021-03-28,728.3602847147366
2021-03-29,729.6842766515899
2021-03-30,733.5988491890256
2021-03-31,738.3420783856525
2021-04-01,742.5639503451201
2021-04-02,748.1150186843822
2021-04-03,756.6707124509985
2021-04-04,766.4466806216626
2021-04-05,771.3828526772037
2021-04-06,778.2759813078446
2021-04-07,781.6433115218779
