t,v
2015-08-08,5251544.685314034
2015-08-09,7370565.849997289
2015-08-10,8484995.864312902
2015-08-11,15168795.371029098
2015-08-12,16364431.857203834
2015-08-13,23063556.679448508
2015-08-14,18750427.37187823
2015-08-15,16283838.437962899
2015-08-16,15239750.766392034
2015-08-17,11220236.108928362
2015-08-18,10234217.179625515
2015-08-19,11533242.476139514
2015-08-20,13104907.704081887
2015-08-21,12193138.88637661
2015-08-22,11423469.480153741
2015-08-23,10511718.679851213
2015-08-24,9470127.074955298
2015-08-25,8431924.42981183
2015-08-26,8613310.792911753
2015-08-27,8524690.138284305
2015-08-28,8562764.036520034
2015-08-29,8331521.335231526
2015-08-30,9268944.614128903
2015-08-31,9533851.0521945
2015-09-01,8981255.814253908
2015-09-02,8689347.010129593
2015-09-03,8529495.206326004
2015-09-04,8355387.803004485
2015-09-05,8734805.548689084
2015-09-06,8338413.869887268
2015-09-07,7888270.701296768
2015-09-08,7708036.265435397
2015-09-09,6900731.746230572
2015-09-10,6637317.498101122
2015-09-11,5627856.933697024
2015-09-12,5869219.878237685
2015-09-13,5213658.756058122
2015-09-14,4923746.66576066
2015-09-15,5033791.500180258
2015-09-16,4860348.090838367
2015-09-17,4788931.972209379
2015-09-18,4617295.622299969
2015-09-19,4820587.079134041
2015-09-20,5190953.196008753
2015-09-21,5219333.093159937
2015-09-22,4992116.028730409
2015-09-23,4976503.8173211245
2015-09-24,4496653.076583143
2015-09-25,4124363.621001369
2015-09-26,4439618.721487897
2015-09-27,4080559.3405171437
2015-09-28,3225620.752652436
2015-09-29,3727216.7641097703
2015-09-30,4196825.753982222
2015-10-01,3783795.38666624
2015-10-02,3800721.0636728415
2015-10-03,3880366.3260581335
2015-10-04,3769622.3309334237
2015-10-05,3537502.908913174
2015-10-06,3684233.306050062
2015-10-07,3470845.1910814233
2015-10-08,3714072.548902344
2015-10-09,3700782.479108758
2015-10-10,3627503.198487488
2015-10-11,3700207.8872720986
2015-10-12,3604017.198012509
2015-10-13,3498150.55175532
2015-10-14,3004936.0086780586
2015-10-15,3158943.36942375
2015-10-16,3022206.7524846722
2015-10-17,3121274.9644417013
2015-10-18,2981828.714995702
2015-10-19,2798950.0050046244
2015-10-20,2486896.3131458834
2015-10-21,2595916.845024941
2015-10-22,3266671.5152125177
2015-10-23,3122544.8512286316
2015-10-24,3265945.920583076
2015-10-25,3598679.903759028
2015-10-26,4255590.438281401
2015-10-27,5003244.376324504
2015-10-28,5755716.384280145
2015-10-29,6466054.133317473
2015-10-30,5375250.252051895
2015-10-31,4638749.514052749
2015-11-01,5454458.109284401
2015-11-02,5105229.84162396
2015-11-03,5176331.350087609
2015-11-04,4519741.911014021
2015-11-05,4518517.034749289
2015-11-06,4653392.161068462
2015-11-07,4172613.0390624166
2015-11-08,4651727.277291024
2015-11-09,4252517.460031505
2015-11-10,4010554.6656061946
2015-11-11,3391599.297900952
2015-11-12,3900151.8941287394
2015-11-13,3949593.058167095
2015-11-14,3879922.474421298
2015-11-15,3957894.4418462683
2015-11-16,4056429.569176601
2015-11-17,4274228.314658286
2015-11-18,3767871.2386122607
2015-11-19,3677482.3840978695
2015-11-20,3582708.277466742
2015-11-21,3774898.4195491057
2015-11-22,3740056.0405729692
2015-11-23,3587994.538349277
2015-11-24,3404860.836385348
2015-11-25,3278391.0534241227
2015-11-26,3272019.885480188
2015-11-27,3141886.169689028
2015-11-28,3284616.212270238
2015-11-29,3148178.677307116
2015-11-30,3151019.872139983
2015-12-01,3155213.5688032988
2015-12-02,2978015.307296928
2015-12-03,2954534.7989792954
2015-12-04,3056285.249794014
2015-12-05,3124209.2751333155
2015-12-06,3030773.868361196
2015-12-07,2922725.807300996
2015-12-08,3009704.086073056
2015-12-09,2899479.379374712
2015-12-10,3087279.5614373907
2015-12-11,3424186.608302358
2015-12-12,3538120.8138342435
2015-12-13,3478723.7699115463
2015-12-14,3451408.7965582907
2015-12-15,3498342.2186737945
2015-12-16,3345935.9866517046
2015-12-17,3162633.445856514
2015-12-18,3071702.8879474155
2015-12-19,3012004.664654629
2015-12-20,3009837.0629155985
2015-12-21,2988130.025009759
2015-12-22,2909442.92694678
2015-12-23,2853768.7708568587
2015-12-24,2915014.211587095
2015-12-25,2966286.829446228
2015-12-26,2940233.010634102
2015-12-27,2919447.455086319
2015-12-28,2867241.267217026
2015-12-29,2969102.676381228
2015-12-30,3098055.997212986
2015-12-31,3152150.781205747
2016-01-01,3176683.241704069
2016-01-02,3150607.6966052847
2016-01-03,3278522.8152126595
2016-01-04,3200203.965566757
2016-01-05,3214921.2383925505
2016-01-06,3077542.6959445896
2016-01-07,3038714.0372061557
2016-01-08,3193940.4384691976
2016-01-09,3199870.23705536
2016-01-10,3256852.078180118
2016-01-11,3442742.937152677
2016-01-12,3776570.6352283354
2016-01-13,3645399.6064141393
2016-01-14,3839053.267875249
2016-01-15,3831500.870989796
2016-01-16,3858711.908197649
2016-01-17,4189574.271106374
2016-01-18,4461805.610838733
2016-01-19,4255223.731393852
2016-01-20,4754999.046737154
2016-01-21,4789058.900493699
2016-01-22,4576859.022069483
2016-01-23,5902107.754631865
2016-01-24,6384820.424447448
2016-01-25,7294808.899720888
2016-01-26,6518085.297369407
2016-01-27,6834139.066300357
2016-01-28,7055566.804532553
2016-01-29,6847672.312416262
2016-01-30,6548995.82266934
2016-01-31,6143141.971770255
2016-02-01,5835009.066322758
2016-02-02,6289295.475990218
2016-02-03,6373762.203923178
2016-02-04,6464571.38239884
2016-02-05,6213094.14025446
2016-02-06,6169700.021812108
2016-02-07,6985171.718680301
2016-02-08,7277491.395082124
2016-02-09,8976616.579694707
2016-02-10,9440794.466385491
2016-02-11,12597010.051163802
2016-02-12,11155720.799851283
2016-02-13,10621556.245941801
2016-02-14,10134782.777684962
2016-02-15,9821989.429286895
2016-02-16,7814378.456942681
2016-02-17,6734831.054437737
2016-02-18,7643396.731445618
2016-02-19,8175474.792907435
2016-02-20,7532880.493253411
2016-02-21,7927093.791109608
2016-02-22,9576804.759381296
2016-02-23,9420712.673356012
2016-02-24,10450676.76126715
2016-02-25,9937654.717455626
2016-02-26,9213703.301736891
2016-02-27,9968497.82202211
2016-02-28,9928024.749551997
2016-02-29,9617255.794785485
2016-03-01,11415378.897923699
2016-03-02,11980082.667192984
2016-03-03,12773117.061982552
2016-03-04,13784648.017066905
2016-03-05,13950409.187878603
2016-03-06,13902557.697904538
2016-03-07,11226775.042022178
2016-03-08,10615638.796363695
2016-03-09,12016792.263955489
2016-03-10,12300917.454598632
2016-03-11,12030404.311001532
2016-03-12,12796464.105807347
2016-03-13,13962713.795591934
2016-03-14,11628116.933579225
2016-03-15,11969704.114898514
2016-03-16,11192737.283444788
2016-03-17,9695410.742688008
2016-03-18,9580754.440687021
2016-03-19,9144387.504896969
2016-03-20,8697105.623664837
2016-03-21,9949378.254818747
2016-03-22,9258455.565952163
2016-03-23,10153276.398968633
2016-03-24,8961236.578481128
2016-03-25,8408312.91702378
2016-03-26,8496402.980521511
2016-03-27,7787604.072327329
2016-03-28,8688466.111111363
2016-03-29,8552455.795102565
2016-03-30,8594623.494546516
2016-03-31,8144475.399036573
2016-04-01,8247658.476992841
2016-04-02,8149146.713051191
2016-04-03,8050742.057590323
2016-04-04,7657120.194837442
2016-04-05,7398755.610107515
2016-04-06,7197110.013266921
2016-04-07,6812368.053847837
2016-04-08,6448860.5821996
2016-04-09,6008695.894584109
2016-04-10,5822375.338857577
2016-04-11,5691122.660272135
2016-04-12,4915068.298672469
2016-04-13,5250913.774900325
2016-04-14,5425473.198488501
2016-04-15,5326161.147534577
2016-04-16,5532041.026729481
2016-04-17,5933539.269366135
2016-04-18,5772531.583876008
2016-04-19,5595333.843588793
2016-04-20,5470369.321421648
2016-04-21,5199690.035823085
2016-04-22,5014410.83004782
2016-04-23,5242022.139610384
2016-04-24,5058495.027426207
2016-04-25,4716768.883284031
2016-04-26,4629349.908037323
2016-04-27,4894694.18058168
2016-04-28,4476613.841183643
2016-04-29,4614555.958317224
2016-04-30,5442525.048207261
2016-05-01,5402226.8432096485
2016-05-02,6186222.185995343
2016-05-03,5708223.162887189
2016-05-04,5691066.055079245
2016-05-05,5875804.121174144
2016-05-06,5653017.527647322
2016-05-07,5565737.286873904
2016-05-08,5590421.720486167
2016-05-09,5446163.740990471
2016-05-10,5598722.395258421
2016-05-11,5943417.702973501
2016-05-12,5757403.898265347
2016-05-13,6119206.928755218
2016-05-14,5616590.387440819
2016-05-15,5442254.812242811
2016-05-16,6113527.506499642
2016-05-17,6597876.731391385
2016-05-18,7320158.38406098
2016-05-19,7598654.48342201
2016-05-20,7178355.702393781
2016-05-21,7304646.358719344
2016-05-22,7344138.298733729
2016-05-23,6892452.530757662
2016-05-24,6544235.350094501
2016-05-25,6408060.826026788
2016-05-26,6347643.149321468
2016-05-27,5711942.801840428
2016-05-28,5893947.7418450145
2016-05-29,6185078.656886208
2016-05-30,6172165.400053148
2016-05-31,6986685.504003853
2016-06-01,6827320.15864202
2016-06-02,6771722.512868044
2016-06-03,6894098.85856708
2016-06-04,6724435.165870123
2016-06-05,6721000.710177938
2016-06-06,6759112.14687218
2016-06-07,7011749.914776188
2016-06-08,6893842.728914903
2016-06-09,6779278.425129826
2016-06-10,6512869.132794839
2016-06-11,6533416.339586961
2016-06-12,7204966.705635227
2016-06-13,8100955.06479979
2016-06-14,8662055.214426316
2016-06-15,8415235.426043013
2016-06-16,9358697.2231446
2016-06-17,6867890.703879703
2016-06-18,4809852.517281985
2016-06-19,5487328.825631514
2016-06-20,5010611.074581818
2016-06-21,5771791.032893335
2016-06-22,5636440.222441391
2016-06-23,5816553.516446942
2016-06-24,5868548.201711216
2016-06-25,5972544.195216865
2016-06-26,5730262.135631408
2016-06-27,6289526.19583884
2016-06-28,5048862.41386304
2016-06-29,5279662.318942113
2016-06-30,5064622.175477968
2016-07-01,4966565.193649802
2016-07-02,4905113.357765768
2016-07-03,4776413.358248135
2016-07-04,4587403.021629253
2016-07-05,4569829.3126075575
2016-07-06,4384208.272713696
2016-07-07,3996777.68300297
2016-07-08,4565496.580210842
2016-07-09,4361186.633663337
2016-07-10,4392694.81412643
2016-07-11,4264217.38110984
2016-07-12,4275506.672463738
2016-07-13,4218306.160680845
2016-07-14,4517347.920896624
2016-07-15,4761360.879211236
2016-07-16,4593134.159104272
2016-07-17,4407292.723763389
2016-07-18,4343582.323027562
2016-07-19,4622153.462573568
2016-07-20,4900005.177249232
2016-07-21,5041232.87959977
2016-07-22,5764167.248430371
2016-07-23,5601943.36516315
2016-07-24,4780099.7214374235
2016-07-25,5331984.829176441
2016-07-26,4653488.421943428
2016-07-27,5134688.050188843
2016-07-28,5104250.3928133
2016-07-29,5053671.507141677
2016-07-30,4899408.044740597
2016-07-31,4580635.209936879
2016-08-01,4303501.51218973
2016-08-02,3460009.297741236
2016-08-03,4013277.752880763
2016-08-04,4441813.765928794
2016-08-05,4208522.899931638
2016-08-06,4201558.108835452
2016-08-07,4177009.25531309
2016-08-08,4308347.572642653
2016-08-09,4632618.453958253
2016-08-10,4593174.805846293
2016-08-11,4357237.447895991
2016-08-12,4403467.580541133
2016-08-13,4331194.640656664
2016-08-14,4123870.9479028373
2016-08-15,4179934.76837948
2016-08-16,4119639.82278611
2016-08-17,4025978.995272265
2016-08-18,3955872.265081785
2016-08-19,3951898.0410551005
2016-08-20,4021921.435183165
2016-08-21,4110805.414067523
2016-08-22,4138189.891617441
2016-08-23,4013968.1357587823
2016-08-24,3986583.4087541215
2016-08-25,4058449.670234954
2016-08-26,4076507.145824
2016-08-27,4066032.9114156878
2016-08-28,3985572.526152859
2016-08-29,3963537.6664441894
2016-08-30,4032866.571171484
2016-08-31,4184664.8784102937
2016-09-01,4356707.043147852
2016-09-02,4445715.004163167
2016-09-03,4260601.860378415
2016-09-04,4182817.1747823255
2016-09-05,4234772.305605806
2016-09-06,4225771.635091544
2016-09-07,4112548.7171314103
2016-09-08,4025670.847927891
2016-09-09,4109053.5612923703
2016-09-10,4187712.233286892
2016-09-11,4075438.063245341
2016-09-12,4106235.3090657
2016-09-13,4145148.8104968034
2016-09-14,4122424.9942605547
2016-09-15,4117174.1000684984
2016-09-16,4266355.474520715
2016-09-17,4332223.966778237
2016-09-18,4226896.85097493
2016-09-19,4490724.845484107
2016-09-20,4826457.295533751
2016-09-21,4702289.546625987
2016-09-22,4452298.80110755
2016-09-23,4548120.9334937055
2016-09-24,4320487.720662525
2016-09-25,4336472.493275275
2016-09-26,4321007.781534681
2016-09-27,4324884.297524415
2016-09-28,4333609.674555885
2016-09-29,4252238.902978825
2016-09-30,4214318.22258446
2016-10-01,4222182.694121811
2016-10-02,4216800.009143025
2016-10-03,4281469.2477631
2016-10-04,4234670.478245149
2016-10-05,4131284.637656308
2016-10-06,4086031.5395712135
2016-10-07,4026240.904875824
2016-10-08,3834644.930464159
2016-10-09,3864944.9034844777
2016-10-10,3680442.5018206225
2016-10-11,3652766.7814459414
2016-10-12,3664827.7225752333
2016-10-13,3772961.6096106893
2016-10-14,3682032.276819318
2016-10-15,3702129.406973238
2016-10-16,3695735.4437105604
2016-10-17,3735368.9644862018
2016-10-18,3856096.936417259
2016-10-19,3672496.514993431
2016-10-20,3713652.538815961
2016-10-21,3673609.0379226496
2016-10-22,3683801.1859671483
2016-10-23,3681548.6779891327
2016-10-24,3650255.644760818
2016-10-25,3456882.3799944664
2016-10-26,3509056.376534665
2016-10-27,3463314.419498243
2016-10-28,3338782.310824366
2016-10-29,3121030.8124880493
2016-10-30,3390669.5446358253
2016-10-31,3296878.8325180113
2016-11-01,3202892.271638743
2016-11-02,3222550.3825508435
2016-11-03,3238645.218417061
2016-11-04,3350848.362570557
2016-11-05,3308086.985952478
2016-11-06,3255939.3761281176
2016-11-07,3282529.7602538713
2016-11-08,3255190.723220419
2016-11-09,3219201.076734382
2016-11-10,3160898.9122412275
2016-11-11,3055866.8993255566
2016-11-12,2880030.728903088
2016-11-13,3031466.226143667
2016-11-14,2979824.5518440017
2016-11-15,3081658.1296296185
2016-11-16,2950486.9216100634
2016-11-17,2952711.5172683736
2016-11-18,2819768.050701431
2016-11-19,2910063.340396186
2016-11-20,2791580.9044337138
2016-11-21,2816839.160224215
2016-11-22,2892531.50082842
2016-11-23,2869918.837673787
2016-11-24,2704295.4042015844
2016-11-25,2781508.7829645113
2016-11-26,2771655.2762067127
2016-11-27,2743191.551807531
2016-11-28,2549523.0697585116
2016-11-29,2426553.8810837837
2016-11-30,2501181.7507915883
2016-12-01,2426421.0123117226
2016-12-02,2205580.8277323265
2016-12-03,2349158.6331079146
2016-12-04,2163439.460682464
2016-12-05,1952165.4557273195
2016-12-06,2248556.3618282843
2016-12-07,2433149.4218085264
2016-12-08,2365641.7528753467
2016-12-09,2478214.987682661
2016-12-10,2389332.7294333684
2016-12-11,2430395.0927190483
2016-12-12,2490412.960349334
2016-12-13,2432011.6897092857
2016-12-14,2429468.1944365003
2016-12-15,2227474.732413731
2016-12-16,2268314.696161804
2016-12-17,2198504.8254986675
2016-12-18,2282220.41362674
2016-12-19,2207751.952389588
2016-12-20,2174900.0773581658
2016-12-21,2279294.3818041175
2016-12-22,2227199.46892544
2016-12-23,2076551.8740650082
2016-12-24,2088566.9628441879
2016-12-25,2076500.589592638
2016-12-26,2086239.7926164044
2016-12-27,2067843.7760431885
2016-12-28,2442220.7832745803
2016-12-29,2396492.168525654
2016-12-30,2429608.4616359198
2016-12-31,2368442.008793172
2017-01-01,2352077.732948136
2017-01-02,2441082.653545791
2017-01-03,2794149.552576858
2017-01-04,3199627.294428401
2017-01-05,2955221.2505418295
2017-01-06,2914097.860890204
2017-01-07,2869539.007207344
2017-01-08,2975605.6910105683
2017-01-09,2962151.1558141336
2017-01-10,3045033.114618478
2017-01-11,2846521.9780666945
2017-01-12,2778946.567219886
2017-01-13,2916683.4752246183
2017-01-14,2804785.0966091906
2017-01-15,2789865.5320430896
2017-01-16,2729979.5293178256
2017-01-17,2889657.8644339927
2017-01-18,2940369.241590955
2017-01-19,2959682.9361471576
2017-01-20,3024966.894988434
2017-01-21,3064087.477399573
2017-01-22,3029135.6530033327
2017-01-23,3031158.653766435
2017-01-24,2977971.233412224
2017-01-25,2979035.861932877
2017-01-26,2997956.324439553
2017-01-27,2989234.958597765
2017-01-28,2963186.3190631205
2017-01-29,2934352.118429668
2017-01-30,2986220.3823440447
2017-01-31,2995233.3218921935
2017-02-01,2989173.1540564536
2017-02-02,3000780.294510944
2017-02-03,3050567.0254710047
2017-02-04,3160398.8690641993
2017-02-05,3110973.182023481
2017-02-06,3140047.038111279
2017-02-07,3191654.4454277484
2017-02-08,3183139.041235066
2017-02-09,3065416.1819470995
2017-02-10,3142048.927455874
2017-02-11,3161735.449676259
2017-02-12,3165119.5185007984
2017-02-13,3136854.2143562566
2017-02-14,3665003.002310337
2017-02-15,3635778.370712991
2017-02-16,3598898.257322706
2017-02-17,3546133.131233934
2017-02-18,3564877.4953100556
2017-02-19,3558720.5147963627
2017-02-20,3524740.7080943836
2017-02-21,3580812.122448231
2017-02-22,3540327.5801721076
2017-02-23,3692514.1092278925
2017-02-24,3696820.521054562
2017-02-25,3850407.4848824013
2017-02-26,4196467.186250683
2017-02-27,4341438.170963979
2017-02-28,4498373.550183061
2017-03-01,4983707.756800146
2017-03-02,5409131.142510115
2017-03-03,5537633.611837675
2017-03-04,5301317.804678815
2017-03-05,5468729.292332532
2017-03-06,5715094.975251069
2017-03-07,5453412.754376051
2017-03-08,4817667.2532027075
2017-03-09,5242201.78391147
2017-03-10,5581695.096798894
2017-03-11,6326160.403482104
2017-03-12,6961621.942886632
2017-03-13,8535314.364328489
2017-03-14,8563630.852484467
2017-03-15,10371203.743068123
2017-03-16,13504286.505678194
2017-03-17,13170293.118619168
2017-03-18,9874142.161750134
2017-03-19,12545617.460502438
2017-03-20,12382962.776208628
2017-03-21,12579787.497872513
2017-03-22,12267883.16521814
2017-03-23,12803978.555821598
2017-03-24,15733514.675237957
2017-03-25,15033849.919631187
2017-03-26,15073987.132578544
2017-03-27,14693984.989642318
2017-03-28,15140274.479227351
2017-03-29,16055468.247091345
2017-03-30,15654969.987769896
2017-03-31,14731975.945658576
2017-04-01,15309428.299144335
2017-04-02,14668242.66883523
2017-04-03,13287321.908959618
2017-04-04,13535022.254241165
2017-04-05,13769856.54790355
2017-04-06,13209463.89268968
2017-04-07,12847104.471290985
2017-04-08,13626859.122754952
2017-04-09,13326145.082550261
2017-04-10,13310468.882837946
2017-04-11,13255708.261726541
2017-04-12,14043372.025858624
2017-04-13,15143935.680177402
2017-04-14,14353301.049589727
2017-04-15,14686322.582760103
2017-04-16,14602340.171862265
2017-04-17,14544874.927201673
2017-04-18,15056741.684322491
2017-04-19,14452314.210085591
2017-04-20,14948400.482719868
2017-04-21,14620141.923837436
2017-04-22,14611259.911012776
2017-04-23,14729389.186561147
2017-04-24,15242817.61422812
2017-04-25,15214444.758740176
2017-04-26,16011654.568775512
2017-04-27,18965294.35624612
2017-04-28,21753882.377802376
2017-04-29,21006690.827520397
2017-04-30,23856095.73826416
2017-05-01,23023425.788196858
2017-05-02,23143374.581838828
2017-05-03,23900681.069718454
2017-05-04,28267631.961494498
2017-05-05,27188988.697091375
2017-05-06,28410619.24881768
2017-05-07,27384019.80600629
2017-05-08,26529137.017005045
2017-05-09,25924321.88580366
2017-05-10,26474505.846236058
2017-05-11,26350666.37558997
2017-05-12,25568560.679007184
2017-05-13,26454494.21397437
2017-05-14,26911684.809962794
2017-05-15,27418547.54079871
2017-05-16,26776686.020651277
2017-05-17,26361511.53285388
2017-05-18,29311949.129956357
2017-05-19,37917302.88546812
2017-05-20,37398442.033119366
2017-05-21,43775697.97282231
2017-05-22,49487077.942400865
2017-05-23,50232905.08764642
2017-05-24,56506845.2626665
2017-05-25,52271462.93421052
2017-05-26,47684928.019214235
2017-05-27,45196552.27068122
2017-05-28,49323830.62093741
2017-05-29,55068992.731443994
2017-05-30,64347315.06935443
2017-05-31,63524272.87370771
2017-06-01,60718033.078920074
2017-06-02,61485215.045871526
2017-06-03,61432753.1576464
2017-06-04,67156890.19442274
2017-06-05,67501652.96158743
2017-06-06,72312092.05447963
2017-06-07,68551282.48915546
2017-06-08,69744582.5992518
2017-06-09,74798660.9061522
2017-06-10,87688163.59067126
2017-06-11,89007328.4604253
2017-06-12,101748616.52730837
2017-06-13,98639508.24491505
2017-06-14,85236919.86972076
2017-06-15,85012917.4496025
2017-06-16,87187260.10916288
2017-06-17,91335364.323012
2017-06-18,86054393.9381027
2017-06-19,86784499.80924813
2017-06-20,82142326.0503347
2017-06-21,74662503.37404004
2017-06-22,69421338.14099157
2017-06-23,70585466.76767863
2017-06-24,65522995.24653581
2017-06-25,58268289.48887087
2017-06-26,53006214.347414725
2017-06-27,59395628.68230064
2017-06-28,65415081.22535886
2017-06-29,56861718.01926356
2017-06-30,53862598.737764135
2017-07-01,49617185.89167489
2017-07-02,52995364.714807235
2017-07-03,51567291.05410538
2017-07-04,50445610.903298944
2017-07-05,49721735.01698967
2017-07-06,49393089.41240604
2017-07-07,44622813.954677194
2017-07-08,45017913.43035708
2017-07-09,43313676.98190888
2017-07-10,37709505.041963235
2017-07-11,34823230.431628354
2017-07-12,40626621.1479169
2017-07-13,37231763.132444136
2017-07-14,35760307.47365599
2017-07-15,30569824.813224133
2017-07-16,27920868.691499457
2017-07-17,34468743.245444216
2017-07-18,41044026.90707352
2017-07-19,35019893.17558948
2017-07-20,41206116.54658894
2017-07-21,39084582.61641899
2017-07-22,40857876.875541985
2017-07-23,40291001.947779685
2017-07-24,39657934.94059684
2017-07-25,35803619.267013706
2017-07-26,35605981.527834855
2017-07-27,35691801.099062
2017-07-28,33579940.185547195
2017-07-29,36101196.87063987
2017-07-30,34373311.763851896
2017-07-31,35316773.89664835
2017-08-01,39349940.35711584
2017-08-02,37836503.71559114
2017-08-03,38587337.561235785
2017-08-04,37739381.649133325
2017-08-05,43716313.46216583
2017-08-06,45197988.19982576
2017-08-07,45667817.2724484
2017-08-08,50102822.25022748
2017-08-09,49317258.726071626
2017-08-10,49689579.039647765
2017-08-11,51364239.96981805
2017-08-12,51182021.191845104
2017-08-13,49145921.58699393
2017-08-14,49672608.347973086
2017-08-15,47547639.105995625
2017-08-16,49564335.712834515
2017-08-17,49493018.36471595
2017-08-18,47973447.21598737
2017-08-19,48058505.178656116
2017-08-20,48486669.2027526
2017-08-21,51566287.902199745
2017-08-22,50531146.07531521
2017-08-23,50876238.953430705
2017-08-24,51159556.59371673
2017-08-25,51942354.47091511
2017-08-26,51588395.12447568
2017-08-27,53785706.878088035
2017-08-28,53698450.31239494
2017-08-29,57162718.37093007
2017-08-30,58787107.485772796
2017-08-31,58942578.09079838
2017-09-01,59267668.36875012
2017-09-02,52888297.15741258
2017-09-03,52583927.45500188
2017-09-04,44672172.16589764
2017-09-05,47112536.9811222
2017-09-06,50219116.599107176
2017-09-07,49539615.942100845
2017-09-08,45451073.67888668
2017-09-09,44731452.580986835
2017-09-10,44244557.571286246
2017-09-11,43995013.88247801
2017-09-12,43400097.43577789
2017-09-13,40416863.16661115
2017-09-14,32486627.009111308
2017-09-15,37520137.87588669
2017-09-16,37006675.93129229
2017-09-17,37530485.711631484
2017-09-18,42907960.54069367
2017-09-19,40834914.601442985
2017-09-20,40697323.95161025
2017-09-21,37180463.67477104
2017-09-22,37789552.27931821
2017-09-23,40886897.89797171
2017-09-24,40484353.96474346
2017-09-25,41936975.73398718
2017-09-26,40884627.70299392
2017-09-27,43184460.35154127
2017-09-28,42379384.37598411
2017-09-29,41153327.5365552
2017-09-30,42238781.196836784
2017-10-01,40318828.518377505
2017-10-02,38759534.48936612
2017-10-03,38091773.32725073
2017-10-04,38062694.2157254
2017-10-05,38413427.43260989
2017-10-06,39835357.529991716
2017-10-07,40569603.1214404
2017-10-08,40099331.66126246
2017-10-09,38103991.29995221
2017-10-10,38313764.51680094
2017-10-11,38780458.165955536
2017-10-12,38751360.7054304
2017-10-13,43032384.180814564
2017-10-14,43249415.44406008
2017-10-15,42868985.71223153
2017-10-16,42346304.13624852
2017-10-17,39766044.6930467
2017-10-18,39409328.941002585
2017-10-19,38612706.14495007
2017-10-20,38023183.49316884
2017-10-21,37456959.0733912
2017-10-22,36769248.25977968
2017-10-23,35405641.80853272
2017-10-24,36742511.85913671
2017-10-25,36638798.37411373
2017-10-26,36544935.56303619
2017-10-27,36577324.95777069
2017-10-28,36195942.86150397
2017-10-29,37195039.70466913
2017-10-30,37591335.56018292
2017-10-31,37185900.89786334
2017-11-01,35426385.47508961
2017-11-02,34761395.24225186
2017-11-03,37228511.846812315
2017-11-04,36538111.18204994
2017-11-05,35960772.9034237
2017-11-06,35852719.372223884
2017-11-07,35108710.030887775
2017-11-08,36401981.96111756
2017-11-09,37789155.10221715
2017-11-10,35075929.48478508
2017-11-11,36922994.013325416
2017-11-12,35968997.52244932
2017-11-13,36738676.813475244
2017-11-14,38844714.75245612
2017-11-15,38375354.90969189
2017-11-16,38166581.39448382
2017-11-17,38248813.03138154
2017-11-18,39939171.96241543
2017-11-19,40836148.20704862
2017-11-20,42043408.14233747
2017-11-21,40763221.404578425
2017-11-22,42607704.46923823
2017-11-23,45594173.838804945
2017-11-24,52321505.30293089
2017-11-25,51545998.054688916
2017-11-26,51835194.60683002
2017-11-27,52099501.859717615
2017-11-28,51005730.95438387
2017-11-29,47170304.0803894
2017-11-30,47260787.73406234
2017-12-01,50041893.81745662
2017-12-02,49301272.352240376
2017-12-03,49982750.220915526
2017-12-04,50134532.13502881
2017-12-05,48901693.538640514
2017-12-06,44565556.196888685
2017-12-07,43658494.08417938
2017-12-08,45663218.50177684
2017-12-09,47501816.22303389
2017-12-10,43592346.02892662
2017-12-11,50509255.67847827
2017-12-12,64984991.63209762
2017-12-13,66981954.18985897
2017-12-14,65174966.103250474
2017-12-15,63893452.22954018
2017-12-16,62610410.57994264
2017-12-17,63756320.00363613
2017-12-18,68811885.73927909
2017-12-19,70787749.06209004
2017-12-20,68877354.6626636
2017-12-21,67435655.83741114
2017-12-22,56735446.52678052
2017-12-23,60076775.638444
2017-12-24,57018866.094962515
2017-12-25,59096304.310089506
2017-12-26,60500468.45453713
2017-12-27,59068166.22169243
2017-12-28,57352471.46271542
2017-12-29,58954882.66307352
2017-12-30,55281726.80489847
2017-12-31,56412120.815824114
2018-01-01,56948119.25276808
2018-01-02,64646465.44646652
2018-01-03,70345519.54960997
2018-01-04,70009234.16958202
2018-01-05,71122633.78912832
2018-01-06,72482206.74470733
2018-01-07,79533926.7275323
2018-01-08,79911261.57493845
2018-01-09,90105780.60552935
2018-01-10,85487228.22135508
2018-01-11,77061889.21636611
2018-01-12,82827835.13855468
2018-01-13,89316962.4532831
2018-01-14,87372112.73755273
2018-01-15,80009321.4461545
2018-01-16,66589318.24014529
2018-01-17,63242185.684473366
2018-01-18,63321712.319665216
2018-01-19,63543349.19942502
2018-01-20,69727768.61760607
2018-01-21,62908747.01216582
2018-01-22,58975772.29140183
2018-01-23,57214226.10122336
2018-01-24,60149035.86179785
2018-01-25,57427965.16978953
2018-01-26,57339715.05727434
2018-01-27,60046040.634736225
2018-01-28,65788496.75385527
2018-01-29,61515677.31072497
2018-01-30,54999046.719160885
2018-01-31,56778090.45416106
2018-02-01,52417365.38375629
2018-02-02,46466063.213930696
2018-02-03,48898878.127818346
2018-02-04,41286569.827505596
2018-02-05,34574883.25793219
2018-02-06,39111298.2732383
2018-02-07,36531497.34134117
2018-02-08,38977677.850537084
2018-02-09,41925048.4077409
2018-02-10,40408114.06662452
2018-02-11,38293694.69456449
2018-02-12,40009312.63400413
2018-02-13,38630230.989502236
2018-02-14,42024901.53798429
2018-02-15,42058405.05483481
2018-02-16,42603915.237370245
2018-02-17,43671191.81185337
2018-02-18,40984812.41931057
2018-02-19,40179364.25051236
2018-02-20,37888211.91202098
2018-02-21,35415695.95941767
2018-02-22,28475100.300520673
2018-02-23,30079204.734258976
2018-02-24,29116666.415704057
2018-02-25,29133620.422716815
2018-02-26,29505565.023548335
2018-02-27,29526318.83338655
2018-02-28,28436696.741855692
2018-03-01,28658509.630578365
2018-03-02,27668244.988451973
2018-03-03,27292623.70807468
2018-03-04,27211534.105464548
2018-03-05,26438970.71363891
2018-03-06,24966627.27369549
2018-03-07,22683733.009058673
2018-03-08,20869604.992817804
2018-03-09,21387871.412931163
2018-03-10,19974848.546215173
2018-03-11,20812304.4696644
2018-03-12,19901502.097197607
2018-03-13,19405991.749217004
2018-03-14,17025564.76662628
2018-03-15,16773964.838773623
2018-03-16,16389008.72675584
2018-03-17,14946228.58337351
2018-03-18,14364397.663457021
2018-03-19,14690838.211303424
2018-03-20,14632904.134729557
2018-03-21,14663982.336502148
2018-03-22,13924451.074504936
2018-03-23,13799872.698366897
2018-03-24,13437523.515816564
2018-03-25,13292810.202468414
2018-03-26,12307380.620283665
2018-03-27,11229958.756928913
2018-03-28,11051475.768976498
2018-03-29,9363689.473162444
2018-03-30,9530931.248357808
2018-03-31,9544668.241098424
2018-04-01,9101384.961419662
2018-04-02,9225933.820210401
2018-04-03,9915424.235557927
2018-04-04,9020585.744037082
2018-04-05,9009327.182451855
2018-04-06,8675701.277748844
2018-04-07,9014778.299828092
2018-04-08,9308566.076866865
2018-04-09,9205773.499248208
2018-04-10,9574262.198880907
2018-04-11,9910962.232785963
2018-04-12,11300374.223943135
2018-04-13,11298214.730150962
2018-04-14,11422540.619243175
2018-04-15,12068168.531299347
2018-04-16,11499214.533448474
2018-04-17,11280992.461883476
2018-04-18,11706736.593639433
2018-04-19,12602081.861791408
2018-04-20,13358600.332943462
2018-04-21,13003973.01965305
2018-04-22,13348181.855730973
2018-04-23,13590348.101594498
2018-04-24,14866729.361526556
2018-04-25,12804529.82610545
2018-04-26,13743866.215287367
2018-04-27,13349387.777374739
2018-04-28,13986525.53776352
2018-04-29,14034030.411731306
2018-04-30,13550447.162015779
2018-05-01,13581830.188380731
2018-05-02,13742414.725286622
2018-05-03,15350436.136946285
2018-05-04,15322418.347181065
2018-05-05,15816433.733941989
2018-05-06,15275401.924854305
2018-05-07,14395509.56172537
2018-05-08,14379342.593167491
2018-05-09,14192599.682528542
2018-05-10,13651805.617331523
2018-05-11,12725570.297871776
2018-05-12,12763847.143397229
2018-05-13,13619161.707635758
2018-05-14,13518275.832941566
2018-05-15,13065978.674888069
2018-05-16,12951830.416849157
2018-05-17,12274155.596852714
2018-05-18,12600931.025686704
2018-05-19,12590008.965615783
2018-05-20,12885888.248050096
2018-05-21,12487705.106625007
2018-05-22,11495845.555468747
2018-05-23,10332871.706717273
2018-05-24,10615460.679307219
2018-05-25,10269654.831191668
2018-05-26,10274075.85026509
2018-05-27,9716027.577393005
2018-05-28,8642080.320689876
2018-05-29,9394961.05039529
2018-05-30,9276597.755807567
2018-05-31,9525718.285812238
2018-06-01,9566117.271672988
2018-06-02,9696744.882976774
2018-06-03,10109342.38100976
2018-06-04,9653675.248855334
2018-06-05,9902460.603627376
2018-06-06,9845023.378760206
2018-06-07,9780467.05687967
2018-06-08,9695440.592687149
2018-06-09,9645880.739313327
2018-06-10,8420275.64706188
2018-06-11,8499783.40477227
2018-06-12,7902215.162547453
2018-06-13,7595064.838412688
2018-06-14,8281733.559931804
2018-06-15,7818005.79599363
2018-06-16,7948759.5133346375
2018-06-17,7957214.31595201
2018-06-18,8233352.450491768
2018-06-19,8528342.727175934
2018-06-20,8486165.033055643
2018-06-21,8339810.657942126
2018-06-22,7355758.24405082
2018-06-23,7490993.974139524
2018-06-24,7198389.283522811
2018-06-25,7234781.162457752
2018-06-26,6800886.403843565
2018-06-27,6912705.869539559
2018-06-28,6589882.775162466
2018-06-29,6829211.596665756
2018-06-30,7111583.2564812545
2018-07-01,7081145.501486838
2018-07-02,7402573.245480774
2018-07-03,7187634.48328946
2018-07-04,7213985.426734824
2018-07-05,7312488.64991427
2018-07-06,7284563.894145568
2018-07-07,7522630.448904657
2018-07-08,7469818.831423138
2018-07-09,7263839.910249256
2018-07-10,6606514.125474872
2018-07-11,6773919.2721350435
2018-07-12,6515804.133252448
2018-07-13,6557019.483461719
2018-07-14,6578812.8677588515
2018-07-15,6748659.607997705
2018-07-16,7181524.589633586
2018-07-17,7464708.150030951
2018-07-18,7136740.651622533
2018-07-19,6962722.194071918
2018-07-20,6653902.329008514
2018-07-21,6816649.32457458
2018-07-22,6770121.258298366
2018-07-23,6620999.274908379
2018-07-24,7016638.886957335
2018-07-25,6892100.967431296
2018-07-26,6744156.022826569
2018-07-27,6798095.207127933
2018-07-28,6744296.0338360965
2018-07-29,6728145.756319038
2018-07-30,6546060.979170647
2018-07-31,6199647.350559767
2018-08-01,5985013.210081992
2018-08-02,5855706.2888816185
2018-08-03,5928939.953739979
2018-08-04,5754538.3740242785
2018-08-05,5782353.38076583
2018-08-06,5712691.556729104
2018-08-07,5326522.445010531
2018-08-08,4976345.544261797
2018-08-09,5096943.907602767
2018-08-10,4646863.503147951
2018-08-11,4461034.13599823
2018-08-12,4416849.807820239
2018-08-13,3915819.403540332
2018-08-14,3801977.2439033836
2018-08-15,3844024.709053648
2018-08-16,3908696.537087855
2018-08-17,4289964.542524806
2018-08-18,4013735.8232155535
2018-08-19,4081083.217696738
2018-08-20,3718221.5144600184
2018-08-21,3813121.970509654
2018-08-22,3665599.1795071713
2018-08-23,3738153.979732719
2018-08-24,3815327.8058939553
2018-08-25,3723376.0454213517
2018-08-26,3645996.38290316
2018-08-27,3790075.279633067
2018-08-28,3928014.3783099223
2018-08-29,3829126.394220613
2018-08-30,3755984.3651388315
2018-08-31,3736099.8788603437
2018-09-01,3901140.528097876
2018-09-02,3879496.5492292796
2018-09-03,3807450.855290905
2018-09-04,3706551.766820613
2018-09-05,3014846.67097327
2018-09-06,2976170.6093206923
2018-09-07,2809115.411695988
2018-09-08,2547196.5987809394
2018-09-09,2532980.0557200722
2018-09-10,2528000.6005508397
2018-09-11,2370968.2309450433
2018-09-12,2345205.7144536315
2018-09-13,2708085.6242326247
2018-09-14,2703424.001057143
2018-09-15,2847150.693013727
2018-09-16,2811275.0539959227
2018-09-17,2521532.937623569
2018-09-18,2672301.0732171265
2018-09-19,2657095.6475351104
2018-09-20,2833736.193162796
2018-09-21,3114347.951655735
2018-09-22,3039538.513036353
2018-09-23,3087368.8369542155
2018-09-24,2884904.906248822
2018-09-25,2753010.7864980646
2018-09-26,2719721.8404733315
2018-09-27,2877638.922691562
2018-09-28,2799820.485778739
2018-09-29,2911773.6495734556
2018-09-30,2924741.88592365
2018-10-01,2908773.8671865496
2018-10-02,2865625.8873171024
2018-10-03,2777832.8579741446
2018-10-04,2787531.937675923
2018-10-05,2841664.899104185
2018-10-06,2808755.453808754
2018-10-07,2820056.310323612
2018-10-08,2857555.965749151
2018-10-09,2840175.3792119403
2018-10-10,2807636.52573207
2018-10-11,2353774.7523959656
2018-10-12,2445986.3320082743
2018-10-13,2476324.789333097
2018-10-14,2423989.6271309177
2018-10-15,2601904.3022452905
2018-10-16,2579224.0797966807
2018-10-17,2543785.082669908
2018-10-18,2492625.8311539404
2018-10-19,2500522.416885624
2018-10-20,2517691.438194842
2018-10-21,2498892.680697204
2018-10-22,2483723.930891552
2018-10-23,2486615.960463738
2018-10-24,2480334.1216902756
2018-10-25,2464228.7261832473
2018-10-26,2469766.152792289
2018-10-27,2480874.377031506
2018-10-28,2489194.035690241
2018-10-29,2389910.1425042474
2018-10-30,2396210.4971777555
2018-10-31,2388674.764404169
2018-11-01,2403420.5533328103
2018-11-02,2404240.990552451
2018-11-03,2396237.8755916893
2018-11-04,2489538.202454476
2018-11-05,2503420.086869528
2018-11-06,2606588.61068604
2018-11-07,2594424.149706395
2018-11-08,2535744.383377494
2018-11-09,2509728.414348951
2018-11-10,2536817.622909178
2018-11-11,2524935.096906769
2018-11-12,2508813.921304065
2018-11-13,2470017.752775952
2018-11-14,2161624.184919245
2018-11-15,2154283.900617766
2018-11-16,2086764.6396097057
2018-11-17,2071503.2253157885
2018-11-18,2097840.0589062735
2018-11-19,1762100.9811164793
2018-11-20,1529992.6810612658
2018-11-21,1611764.1266411177
2018-11-22,1497249.341467173
2018-11-23,1452836.995670419
2018-11-24,1335810.4023034389
2018-11-25,1370908.5501158277
2018-11-26,1273182.5960665343
2018-11-27,1291985.756880531
2018-11-28,1437791.8947958173
2018-11-29,1378720.0711373575
2018-11-30,1320751.57081975
2018-12-01,1377986.866484074
2018-12-02,1349875.7658781903
2018-12-03,1263807.185021759
2018-12-04,1290059.7755522702
2018-12-05,1185229.2338694772
2018-12-06,1060952.8014261387
2018-12-07,1081330.7354271966
2018-12-08,1070238.0067497168
2018-12-09,1105779.443057606
2018-12-10,1065862.4657889553
2018-12-11,1033652.9559352627
2018-12-12,1053347.5716020968
2018-12-13,1007764.6133067127
2018-12-14,985211.952045818
2018-12-15,987392.5982628665
2018-12-16,1001008.1157763386
2018-12-17,1117818.210823185
2018-12-18,1188960.4691803071
2018-12-19,1191734.229912585
2018-12-20,1366840.44978042
2018-12-21,1290053.6601595096
2018-12-22,1377021.1041391043
2018-12-23,1541679.7028146205
2018-12-24,1651193.0272057948
2018-12-25,1535826.406207039
2018-12-26,1559228.3874436957
2018-12-27,1380610.6180812814
2018-12-28,1615835.7270232756
2018-12-29,1633163.3832899253
2018-12-30,1657155.651100763
2018-12-31,1585921.119354181
2019-01-01,1675325.5751236405
2019-01-02,1857898.2692201438
2019-01-03,1777221.6197161186
2019-01-04,1843309.666101659
2019-01-05,1858044.226043396
2019-01-06,1884437.6170716586
2019-01-07,1812165.2993164218
2019-01-08,1801159.2120731426
2019-01-09,1807194.049023958
2019-01-10,1549338.4600427293
2019-01-11,1527312.0854272044
2019-01-12,1515880.1861301893
2019-01-13,1398203.8871500131
2019-01-14,1544808.5222611441
2019-01-15,1464055.5066455302
2019-01-16,1485087.3388181294
2019-01-17,1488916.3115579002
2019-01-18,1455449.307480758
2019-01-19,1499859.3360464603
2019-01-20,1441163.9611720287
2019-01-21,1414850.4820857
2019-01-22,1439124.6493776345
2019-01-23,1426769.5832411628
2019-01-24,1433279.5518419403
2019-01-25,1429495.6534546874
2019-01-26,1431107.892650234
2019-01-27,1398004.379571354
2019-01-28,1313790.5396204237
2019-01-29,1306769.7606871307
2019-01-30,1347615.685901194
2019-01-31,1327507.1148441609
2019-02-01,1337886.5358417553
2019-02-02,1374553.4186960247
2019-02-03,1339488.6622656323
2019-02-04,1342419.8885740796
2019-02-05,1334157.5767245186
2019-02-06,1305251.0428436827
2019-02-07,1305377.32688834
2019-02-08,1492446.699985235
2019-02-09,1496903.4897043584
2019-02-10,1565643.923461495
2019-02-11,1521756.806495698
2019-02-12,1544170.5611915195
2019-02-13,1545651.8252612876
2019-02-14,1535750.1963901627
2019-02-15,1545859.9864646716
2019-02-16,1562048.2908638006
2019-02-17,1697582.395597732
2019-02-18,1857471.7351958742
2019-02-19,1865039.5745323568
2019-02-20,1921765.9222286365
2019-02-21,1857724.987933215
2019-02-22,2002429.7280938465
2019-02-23,2135603.9345663907
2019-02-24,1841453.3995993629
2019-02-25,1882716.517834189
2019-02-26,1868259.1178339086
2019-02-27,1849584.4704895865
2019-02-28,1864491.292304345
2019-03-01,1865349.4872248766
2019-03-02,1848780.1034641876
2019-03-03,1831289.7056351483
2019-03-04,1772172.7649003915
2019-03-05,1924931.325393383
2019-03-06,1952500.690027538
2019-03-07,1951427.101350661
2019-03-08,1918204.7389731235
2019-03-09,1965121.9633935043
2019-03-10,1958453.6052127595
2019-03-11,1922357.9728488545
2019-03-12,1941202.1444712086
2019-03-13,1934163.997479891
2019-03-14,1952107.8900724319
2019-03-15,2018519.8475923399
2019-03-16,2098197.7530385708
2019-03-17,2069332.7707790306
2019-03-18,2074679.5199997886
2019-03-19,2094269.7426854132
2019-03-20,2106683.0573413344
2019-03-21,2049920.884419913
2019-03-22,2070859.6818117374
2019-03-23,2090729.3302604354
2019-03-24,2078752.6563028172
2019-03-25,2055455.837812309
2019-03-26,2071841.0605866676
2019-03-27,2163555.279525176
2019-03-28,2150740.023967422
2019-03-29,2217311.938696661
2019-03-30,2232845.356507536
2019-03-31,2227198.36515719
2019-04-01,2218205.05858566
2019-04-02,2570852.9080254035
2019-04-03,2531451.265260937
2019-04-04,2485866.076080637
2019-04-05,2613704.5039669313
2019-04-06,2623305.9107785337
2019-04-07,2759130.2943301764
2019-04-08,2856151.7987837517
2019-04-09,2794637.5688630473
2019-04-10,2819240.8723446904
2019-04-11,2634151.590027062
2019-04-12,2630755.5293083494
2019-04-13,2634953.994183777
2019-04-14,2694084.5366394147
2019-04-15,2601581.50858649
2019-04-16,2705747.7536485502
2019-04-17,2699953.4080701666
2019-04-18,2817031.3634872246
2019-04-19,2821600.109174445
2019-04-20,2866267.338171228
2019-04-21,2818162.6734237857
2019-04-22,2855185.1525609465
2019-04-23,2879409.333917072
2019-04-24,2794514.471772871
2019-04-25,2611108.7080861423
2019-04-26,2656712.530641719
2019-04-27,2700533.0803985624
2019-04-28,2696058.6212463723
2019-04-29,2670000.3572927755
2019-04-30,2802375.210552922
2019-05-01,2786843.725792026
2019-05-02,2823009.7347634067
2019-05-03,2969383.526583637
2019-05-04,2913811.4578029676
2019-05-05,2921245.105832561
2019-05-06,3101625.3064184166
2019-05-07,3062752.300023622
2019-05-08,3094928.5302275466
2019-05-09,3108247.5012118905
2019-05-10,3173585.1736749294
2019-05-11,3562919.581898699
2019-05-12,3445112.2320898557
2019-05-13,3627456.649978804
2019-05-14,4005011.030032219
2019-05-15,4569961.358898501
2019-05-16,4875292.189304631
2019-05-17,4515921.419496823
2019-05-18,4364179.5330776
2019-05-19,4871630.087093526
2019-05-20,4704906.489741577
2019-05-21,4805234.13662786
2019-05-22,4633449.655716444
2019-05-23,4675751.501844478
2019-05-24,4756512.685264132
2019-05-25,4805732.377213992
2019-05-26,5124034.864550672
2019-05-27,5413412.376667468
2019-05-28,5462288.4564139955
2019-05-29,5429307.6430273075
2019-05-30,5173137.499592469
2019-05-31,5428414.791440632
2019-06-01,5388421.701624272
2019-06-02,5519065.95159283
2019-06-03,5155212.555709142
2019-06-04,4929485.266305608
2019-06-05,5066394.5983564835
2019-06-06,5117047.422505489
2019-06-07,5169142.473085531
2019-06-08,5053339.912684593
2019-06-09,4801621.083019684
2019-06-10,5113998.758175034
2019-06-11,5087734.124141552
2019-06-12,5397679.251902805
2019-06-13,5308604.000646615
2019-06-14,5462636.104770785
2019-06-15,5527144.686803318
2019-06-16,5543919.923055688
2019-06-17,5643684.507754098
2019-06-18,5441664.298093375
2019-06-19,5515247.445066448
2019-06-20,5575812.7387355985
2019-06-21,6042737.466995119
2019-06-22,6395054.191155032
2019-06-23,6353909.088791157
2019-06-24,6435233.718011131
2019-06-25,6595402.116190293
2019-06-26,6979569.053578657
2019-06-27,6085842.859764395
2019-06-28,6390122.407120896
2019-06-29,6634024.63598751
2019-06-30,6017113.804672206
2019-07-01,6070378.99170377
2019-07-02,6028597.689006346
2019-07-03,6296599.302703226
2019-07-04,5901450.949007944
2019-07-05,5997347.342280439
2019-07-06,5992872.7339325715
2019-07-07,6396248.069772739
2019-07-08,6554162.778490682
2019-07-09,6408639.284594706
2019-07-10,5995254.121104229
2019-07-11,5544673.275915348
2019-07-12,5719521.807098694
2019-07-13,5590519.087631015
2019-07-14,4738896.19371169
2019-07-15,4791802.238991921
2019-07-16,4165829.0621723076
2019-07-17,4427185.198095326
2019-07-18,4759951.945298742
2019-07-19,4652162.417894278
2019-07-20,4807671.899096512
2019-07-21,4747254.443536984
2019-07-22,4582575.267243854
2019-07-23,4494714.698967456
2019-07-24,4603595.658691829
2019-07-25,4679200.411517843
2019-07-26,4687760.035635375
2019-07-27,4438911.147623775
2019-07-28,4530608.462683969
2019-07-29,4536448.572960265
2019-07-30,4553499.453383134
2019-07-31,4742290.0468235845
2019-08-01,4682169.912683454
2019-08-02,4696627.671228134
2019-08-03,4795039.994381628
2019-08-04,4811933.150226881
2019-08-05,5062856.625614859
2019-08-06,4900590.56075314
2019-08-07,4936067.063218072
2019-08-08,4828537.9986313945
2019-08-09,4609558.297589084
2019-08-10,4541080.728697266
2019-08-11,4771497.42098984
2019-08-12,4658990.179938809
2019-08-13,4597847.238856433
2019-08-14,4125189.594597869
2019-08-15,4156413.476901839
2019-08-16,4075151.103589191
2019-08-17,4087948.1020363513
2019-08-18,4282513.981632769
2019-08-19,4465694.31854944
2019-08-20,4330701.536106577
2019-08-21,4119642.3407158554
2019-08-22,4212614.281299798
2019-08-23,4286493.591876466
2019-08-24,4225369.293547452
2019-08-25,4188336.1777781495
2019-08-26,4258958.040784914
2019-08-27,4219522.857786782
2019-08-28,3915252.8739919793
2019-08-29,3818932.1178573593
2019-08-30,3806510.864830901
2019-08-31,3887253.1401959653
2019-09-01,3870211.3077784297
2019-09-02,4028628.4793047844
2019-09-03,4049117.474334643
2019-09-04,4067517.264481846
2019-09-05,4033089.425081439
2019-09-06,3944232.7444211002
2019-09-07,4146998.035275563
2019-09-08,4240689.375399002
2019-09-09,4246240.870770931
2019-09-10,4191064.5987770767
2019-09-11,4172907.010800986
2019-09-12,4228900.286810402
2019-09-13,4240161.218315626
2019-09-14,4402964.864054659
2019-09-15,4445245.412223181
2019-09-16,4619771.66463763
2019-09-17,4878503.674808453
2019-09-18,4965857.4777232455
2019-09-19,5236652.843686319
2019-09-20,5163929.399308978
2019-09-21,5104724.464935899
2019-09-22,5007558.236019329
2019-09-23,4774500.047703355
2019-09-24,3976746.558737976
2019-09-25,4017630.032878946
2019-09-26,3929307.044907684
2019-09-27,4123602.098374137
2019-09-28,4125608.4796585785
2019-09-29,4028582.4327118113
2019-09-30,4255523.752397042
2019-10-01,4180999.9398761345
2019-10-02,4255079.633213283
2019-10-03,4130928.230643478
2019-10-04,4152495.8962236326
2019-10-05,4164717.9083163557
2019-10-06,4086842.8305096184
2019-10-07,4271313.82668529
2019-10-08,4262623.853870929
2019-10-09,4527295.601741235
2019-10-10,4492050.566601966
2019-10-11,4273104.01398808
2019-10-12,4237870.658735837
2019-10-13,4264224.667011558
2019-10-14,4291918.889313408
2019-10-15,4168334.9337846623
2019-10-16,4112621.6270933063
2019-10-17,4147490.3970658667
2019-10-18,4027351.054656247
2019-10-19,3996999.6166362166
2019-10-20,4046903.570730386
2019-10-21,4072628.4564730884
2019-10-22,3989565.914829801
2019-10-23,3748457.6247398965
2019-10-24,3746205.532652164
2019-10-25,4198448.338221348
2019-10-26,4153822.5762536707
2019-10-27,4268843.48837245
2019-10-28,4209525.345004521
2019-10-29,4370845.059444212
2019-10-30,4241512.637132819
2019-10-31,4224864.961803778
2019-11-01,4214853.389373139
2019-11-02,4250748.136267605
2019-11-03,4203822.43388992
2019-11-04,4293599.654216099
2019-11-05,4271745.761507981
2019-11-06,4315354.737326091
2019-11-07,4217494.503872541
2019-11-08,4104342.90976872
2019-11-09,4118278.285006952
2019-11-10,4207785.542775811
2019-11-11,4102649.491259173
2019-11-12,4090115.7908908557
2019-11-13,4119259.9150114646
2019-11-14,4044799.279498795
2019-11-15,3924533.433294827
2019-11-16,3958442.4159643613
2019-11-17,3991720.2864776463
2019-11-18,3903893.8721303167
2019-11-19,3871071.370694586
2019-11-20,3837839.5777034615
2019-11-21,3533912.2405290776
2019-11-22,3286647.5251281722
2019-11-23,3330440.8261076547
2019-11-24,3115347.715295846
2019-11-25,3156388.71973111
2019-11-26,3211660.813194957
2019-11-27,3300684.574904458
2019-11-28,3278580.3166639195
2019-11-29,3360041.3990549855
2019-11-30,3326527.5987442606
2019-12-01,3337541.5500607425
2019-12-02,3279257.5326236314
2019-12-03,3255261.6812737794
2019-12-04,3225965.08903402
2019-12-05,3293190.53700836
2019-12-06,3277580.6185248476
2019-12-07,3271221.0099221305
2019-12-08,3324502.318745092
2019-12-09,3259717.3531053863
2019-12-10,3210336.6580690523
2019-12-11,3144405.4648445644
2019-12-12,3149444.323526758
2019-12-13,3130472.0854512956
2019-12-14,3078738.9694812573
2019-12-15,3077307.1840721704
2019-12-16,2872019.6052383743
2019-12-17,2613094.744922727
2019-12-18,2847340.881717709
2019-12-19,2766721.6383163347
2019-12-20,2754566.982266464
2019-12-21,2731253.0396078243
2019-12-22,2822855.1861877744
2019-12-23,2736679.3078885814
2019-12-24,2742664.408549001
2019-12-25,2673227.7930003856
2019-12-26,2661703.9603202813
2019-12-27,2679214.1598244486
2019-12-28,2691542.3676001905
2019-12-29,2824101.2939636377
2019-12-30,2778991.3308902206
2019-12-31,2708136.1675159433
2020-01-01,2728329.0567924385
2020-01-02,2661236.301456428
2020-01-03,2803248.989057746
2020-01-04,2822173.8720897087
2020-01-05,2851509.1767241773
2020-01-06,3010732.57572055
2020-01-07,3004259.1203465723
2020-01-08,2943203.8765597404
2020-01-09,2893751.689507361
2020-01-10,2996973.3195231375
2020-01-11,2989731.9999465668
2020-01-12,3016614.7490218035
2020-01-13,3038328.1576040844
2020-01-14,3489245.0549842166
2020-01-15,3495515.3739335593
2020-01-16,3451932.340419724
2020-01-17,3582745.621597165
2020-01-18,3674972.0399288917
2020-01-19,3496718.6876996704
2020-01-20,3496515.637991696
2020-01-21,3545769.0900165867
2020-01-22,3512591.740791538
2020-01-23,3387493.9939757707
2020-01-24,3350602.5652749697
2020-01-25,3306520.0045399056
2020-01-26,3441087.2909555677
2020-01-27,3495336.123818033
2020-01-28,3601254.87076295
2020-01-29,3568769.56382378
2020-01-30,3757235.589166334
2020-01-31,3656657.571875334
2020-02-01,3716105.4110192833
2020-02-02,3809474.833061446
2020-02-03,3825795.4916957715
2020-02-04,3807318.0110950293
2020-02-05,4123480.7990469662
2020-02-06,4275614.110610526
2020-02-07,4468971.336188359
2020-02-08,4475594.927648382
2020-02-09,4534264.933367263
2020-02-10,4431680.206720069
2020-02-11,4675350.1138836285
2020-02-12,5236100.474524928
2020-02-13,5267669.26196694
2020-02-14,5576149.7228056295
2020-02-15,5160362.80115523
2020-02-16,5085918.173829596
2020-02-17,5186432.516312691
2020-02-18,5468172.902680235
2020-02-19,5026976.081413729
2020-02-20,4972710.237000563
2020-02-21,5200347.34094767
2020-02-22,5108459.126344868
2020-02-23,5296826.956697838
2020-02-24,5124946.693899117
2020-02-25,4815089.354871501
2020-02-26,4370027.346380285
2020-02-27,4348106.154219246
2020-02-28,4373784.432421984
2020-02-29,4241523.334125597
2020-03-01,4207334.506987443
2020-03-02,4412595.571461818
2020-03-03,4294128.360176147
2020-03-04,4271956.640576997
2020-03-05,4349303.07057709
2020-03-06,4604360.804140158
2020-03-07,4471353.192324459
2020-03-08,3792284.730165068
2020-03-09,3777232.0989263826
2020-03-10,3759300.0969633963
2020-03-11,3637554.476672172
2020-03-12,2068414.9247350395
2020-03-13,2467144.9018397476
2020-03-14,2288670.0377728506
2020-03-15,2319258.8976749545
2020-03-16,2047715.4209706446
2020-03-17,2112210.0430554682
2020-03-18,2116803.8311605505
2020-03-19,2528833.698424493
2020-03-20,2445058.64206942
2020-03-21,2453682.958239268
2020-03-22,2281827.663134204
2020-03-23,2486727.169460091
2020-03-24,2554080.8447491922
2020-03-25,2504088.714336344
2020-03-26,2546330.640707873
2020-03-27,2472352.500619897
2020-03-28,2415120.656630985
2020-03-29,2317693.0225073593
2020-03-30,2453958.0974042155
2020-03-31,2466792.4434503783
2020-04-01,2489963.478182951
2020-04-02,2612408.020680665
2020-04-03,2616142.0427963976
2020-04-04,2675561.1424700757
2020-04-05,2637671.612474716
2020-04-06,3100466.0786749115
2020-04-07,3035621.0262387767
2020-04-08,3174735.476027422
2020-04-09,3138760.7326492374
2020-04-10,2907687.4747513784
2020-04-11,2903583.494314747
2020-04-12,2962595.2844605357
2020-04-13,2860992.7663861155
2020-04-14,2877676.7230300955
2020-04-15,2800742.4839506308
2020-04-16,3141609.9744230076
2020-04-17,3132389.764625606
2020-04-18,3409150.0290258117
2020-04-19,3313148.108050176
2020-04-20,3124552.090732451
2020-04-21,3130136.6345249442
2020-04-22,3310029.312535042
2020-04-23,3352553.8288197448
2020-04-24,3428475.0459288354
2020-04-25,3542200.331471493
2020-04-26,3563462.6034866343
2020-04-27,3556729.264739135
2020-04-28,3574645.7446494545
2020-04-29,3904998.4891617694
2020-04-30,3728744.498557511
2020-05-01,3842268.237810967
2020-05-02,3854548.4932847656
2020-05-03,3771270.4838940324
2020-05-04,3719466.5650789533
2020-05-05,3686422.1805565674
2020-05-06,3636723.805060945
2020-05-07,3791864.8049623687
2020-05-08,3788637.367323466
2020-05-09,3754915.4037053455
2020-05-10,3355625.8444615
2020-05-11,3307673.949212325
2020-05-12,3357742.9866940556
2020-05-13,3539907.927320899
2020-05-14,3604530.9469153197
2020-05-15,3486997.310445227
2020-05-16,3569049.732863696
2020-05-17,3683329.0182460733
2020-05-18,3817454.747704498
2020-05-19,3795804.62493613
2020-05-20,3729729.907750719
2020-05-21,3550168.2567169494
2020-05-22,3671742.762653132
2020-05-23,3698975.3884796742
2020-05-24,3589095.175833468
2020-05-25,3637220.65748614
2020-05-26,3562949.855552318
2020-05-27,3685028.212206343
2020-05-28,3886448.00569449
2020-05-29,3902150.9760654108
2020-05-30,4281465.503808343
2020-05-31,4076012.706418786
2020-06-01,4354549.866903653
2020-06-02,4167210.38339478
2020-06-03,4285816.386130864
2020-06-04,4289503.88002259
2020-06-05,4236103.236954794
2020-06-06,4248751.221993337
2020-06-07,4311537.048608015
2020-06-08,4329809.102191099
2020-06-09,4298480.86810097
2020-06-10,4326752.778872049
2020-06-11,4052279.7786089624
2020-06-12,4154324.2976479186
2020-06-13,4196793.884039985
2020-06-14,4129216.436111406
2020-06-15,4057401.709398339
2020-06-16,4126867.491832855
2020-06-17,4105883.0798076517
2020-06-18,4096223.59520619
2020-06-19,4012847.1979829115
2020-06-20,4047454.7616518186
2020-06-21,4038638.448158253
2020-06-22,4266918.193268735
2020-06-23,4288838.213144153
2020-06-24,4130516.446556304
2020-06-25,4087122.208112134
2020-06-26,3998995.205967076
2020-06-27,3904565.7371607916
2020-06-28,3939307.7930533704
2020-06-29,3985959.0118808597
2020-06-30,3945290.615542217
2020-07-01,4028588.209743427
2020-07-02,3999121.17559424
2020-07-03,3936738.5332836434
2020-07-04,3995101.125538639
2020-07-05,3980891.6386473654
2020-07-06,4221218.288217702
2020-07-07,4175812.154788498
2020-07-08,4338615.243862825
2020-07-09,4289629.758618973
2020-07-10,4251619.224408297
2020-07-11,4213733.565419065
2020-07-12,4251536.855761079
2020-07-13,4202375.646074856
2020-07-14,4207484.337039888
2020-07-15,4177912.166898483
2020-07-16,4099115.923896936
2020-07-17,4075990.0138517427
2020-07-18,4121354.752724164
2020-07-19,4192705.7909722747
2020-07-20,4153720.6427536025
2020-07-21,4304236.966028155
2020-07-22,4593210.663160832
2020-07-23,4794841.617974321
2020-07-24,4860331.278343859
2020-07-25,5284705.947474667
2020-07-26,5367630.8437413955
2020-07-27,5551630.0199819915
2020-07-28,5440608.373709567
2020-07-29,5451493.876546833
2020-07-30,5737927.412255428
2020-07-31,5969470.174946195
2020-08-01,6616890.0445276145
2020-08-02,6346324.865000492
2020-08-03,6603140.401800666
2020-08-04,6649810.176640822
2020-08-05,6848727.855518407
2020-08-06,6718666.635254097
2020-08-07,6445677.456662131
2020-08-08,6644251.120822828
2020-08-09,6609321.685813358
2020-08-10,6634084.653488605
2020-08-11,6365198.279413205
2020-08-12,6592254.9748721365
2020-08-13,7231700.672738029
2020-08-14,7331075.857883404
2020-08-15,7214352.097277173
2020-08-16,7210184.100800976
2020-08-17,7121689.852449449
2020-08-18,7009365.846874807
2020-08-19,6713313.0699972985
2020-08-20,6854306.46607256
2020-08-21,6365672.645457776
2020-08-22,6492275.521021485
2020-08-23,6405063.110828927
2020-08-24,6668843.232724044
2020-08-25,6273990.3522053845
2020-08-26,6312794.301912842
2020-08-27,6233623.179612561
2020-08-28,6442903.454269191
2020-08-29,6515105.012697582
2020-08-30,6968251.456804003
2020-08-31,7072120.251598273
2020-09-01,7706184.670055159
2020-09-02,7055890.486142494
2020-09-03,6178730.990326322
2020-09-04,6188126.398198119
2020-09-05,5330272.569506701
2020-09-06,5605188.938090563
2020-09-07,5590859.509799529
2020-09-08,5339453.431617095
2020-09-09,5564155.413303159
2020-09-10,5832284.755606831
2020-09-11,5937319.070246578
2020-09-12,6094922.965664764
2020-09-13,5752818.899020716
2020-09-14,5934970.408611935
2020-09-15,5740064.332627955
2020-09-16,5725720.133217883
2020-09-17,6086136.4254108975
2020-09-18,5996054.327029579
2020-09-19,6009067.139994028
2020-09-20,5771294.394687981
2020-09-21,5304694.197504047
2020-09-22,5339157.392069256
2020-09-23,4926886.994473301
2020-09-24,5380640.991368811
2020-09-25,5424080.845502248
2020-09-26,5450700.46404034
2020-09-27,5468791.616672781
2020-09-28,5419508.2574110525
2020-09-29,5468265.668489482
2020-09-30,5466562.07207489
2020-10-01,5363928.374241705
2020-10-02,5256682.048872347
2020-10-03,5294625.893952326
2020-10-04,5389867.290209642
2020-10-05,5407303.571359979
2020-10-06,5206665.1268024
2020-10-07,5222662.568960245
2020-10-08,5358776.305907291
2020-10-09,5594432.530666851
2020-10-10,5677047.927585766
2020-10-11,5736332.430741682
2020-10-12,5923481.648738325
2020-10-13,5887738.007548695
2020-10-14,5814664.139115104
2020-10-15,5772979.99127501
2020-10-16,5597472.533086162
2020-10-17,5653076.8550646305
2020-10-18,5806823.810080876
2020-10-19,5837097.6180095095
2020-10-20,5657289.551331107
2020-10-21,6022173.34387247
2020-10-22,6337268.339263077
2020-10-23,6244833.267891374
2020-10-24,6265339.585392658
2020-10-25,6166433.745531567
2020-10-26,5937545.511446926
2020-10-27,6093237.908349988
2020-10-28,5870672.76577499
2020-10-29,5832495.494093826
2020-10-30,5779315.019536825
2020-10-31,5834948.353908049
2020-11-01,5986287.174907894
2020-11-02,5823208.460175011
2020-11-03,5860727.854894872
2020-11-04,6163592.606578782
2020-11-05,6334839.9022834
2020-11-06,6957783.80583064
2020-11-07,6686052.240018135
2020-11-08,6922066.8834667895
2020-11-09,6781487.815046679
2020-11-10,6856397.448900271
2020-11-11,7083761.075797969
2020-11-12,6995802.106172483
2020-11-13,7137819.366007533
2020-11-14,6915923.632098497
2020-11-15,6741062.178880888
2020-11-16,6914270.265776279
2020-11-17,7227738.392182078
2020-11-18,7142302.448503559
2020-11-19,7003412.984594943
2020-11-20,7533720.991848723
2020-11-21,8069964.901213925
2020-11-22,8270258.581560109
2020-11-23,8826691.889345573
2020-11-24,8679263.898723219
2020-11-25,8203360.567840978
2020-11-26,7409787.243696735
2020-11-27,7346775.706562562
2020-11-28,7626888.367860662
2020-11-29,8032169.931929845
2020-11-30,8558304.585619677
2020-12-01,8145804.502733192
2020-12-02,8188864.98903943
2020-12-03,8380232.413693899
2020-12-04,7729545.279853569
2020-12-05,8026592.636557573
2020-12-06,8062392.985385527
2020-12-07,7794691.449589725
2020-12-08,7254357.301176119
2020-12-09,7472943.851142773
2020-12-10,7284381.437348324
2020-12-11,7125348.142168506
2020-12-12,7396574.523676696
2020-12-13,7649426.31179727
2020-12-14,7485744.34849946
2020-12-15,7468665.588907389
2020-12-16,8044652.2026479915
2020-12-17,8019048.5511157615
2020-12-18,8114714.536066494
2020-12-19,7382355.764926314
2020-12-20,7135429.37577813
2020-12-21,6780054.224292719
2020-12-22,6974824.206820045
2020-12-23,6421402.2609688295
2020-12-24,6712819.900774216
2020-12-25,6843608.904333127
2020-12-26,6931748.1491137855
2020-12-27,7443917.820673522
2020-12-28,7875296.486923449
2020-12-29,7822654.142560369
2020-12-30,7998974.173031017
2020-12-31,7778910.0333463475
2021-01-01,7662430.761572694
2021-01-02,8095283.1042048205
2021-01-03,10197879.267884845
2021-01-04,10551582.683490582
2021-01-05,11007142.890540222
2021-01-06,11817510.910864457
2021-01-07,11808808.665688485
2021-01-08,11660123.084139
2021-01-09,12156785.25596308
2021-01-10,11819243.791226879
2021-01-11,10071560.358845968
2021-01-12,9553030.15148426
2021-01-13,10196007.640741725
2021-01-14,10739734.952195344
2021-01-15,10196776.760568889
2021-01-16,10705074.0618346
2021-01-17,10573418.27705443
2021-01-18,10714579.64789881
2021-01-19,11585842.033612635
2021-01-20,11476072.339036502
2021-01-21,9246057.991640715
2021-01-22,10057305.097973749
2021-01-23,9990068.049573924
2021-01-24,11249290.250422075
2021-01-25,10626712.13236753
2021-01-26,10811306.632074824
2021-01-27,9889725.200805906
2021-01-28,10477248.55768523
2021-01-29,10827113.562761597
2021-01-30,10747800.432820445
2021-01-31,10237283.019958945
2021-02-01,10605029.67170856
2021-02-02,11655896.814852526
2021-02-03,12656100.743677754
2021-02-04,12060165.697886204
2021-02-05,12907434.966079526
2021-02-06,12535316.078588381
2021-02-07,11986531.212880064
2021-02-08,12819752.8464242
2021-02-09,12862169.664055547
2021-02-10,12604916.150436731
2021-02-11,12798905.248086061
2021-02-12,13114486.654483486
2021-02-13,12773654.153750077
2021-02-14,12547217.008418161
2021-02-15,12188261.087071314
2021-02-16,12101870.433985393
2021-02-17,12391489.983153913
2021-02-18,12904883.338163797
2021-02-19,12942462.504068354
2021-02-20,12567609.738943765
2021-02-21,12527140.461097464
2021-02-22,11413573.256009119
2021-02-23,9861005.133867204
2021-02-24,10196037.124997577
2021-02-25,9184496.077115953
2021-02-26,8951312.12171121
2021-02-27,9071049.215335121
2021-02-28,8693452.429125957
2021-03-01,9609587.70512633
2021-03-02,9108771.608363476
2021-03-03,9576193.206560807
2021-03-04,9197715.51328185
2021-03-05,9102813.571117904
2021-03-06,9825415.10090796
2021-03-07,10225603.846491724
2021-03-08,10808110.252029004
2021-03-09,10935229.574887944
2021-03-10,10516157.691215508
2021-03-11,10588568.779328112
2021-03-12,10201972.253893306
2021-03-13,11040712.575054154
2021-03-14,10553396.427568445
2021-03-15,10015834.525133638
2021-03-16,9995381.270699972
2021-03-17,10084518.152270366
2021-03-18,9835288.719755955
2021-03-19,9953675.507162478
2021-03-20,9856110.120312653
2021-03-21,9655017.345064761
2021-03-22,9088318.030708307
2021-03-23,8991298.627093548
2021-03-24,8455756.269320115
2021-03-25,8316590.630122641
2021-03-26,8788349.640748594
2021-03-27,8819655.521534637
2021-03-28,8635668.221435305
2021-03-29,9260317.634838156
2021-03-30,9316193.126561293
2021-03-31,9609914.654917175
2021-04-01,9850382.746055922
2021-04-02,10593930.52282746
2021-04-03,9995425.281545252
2021-04-04,9997249.067486618
2021-04-05,9893558.949724747
2021-04-06,9919888.414213797
2021-04-07,9177823.472103141
