t,v
2015-07-30,5363
2015-07-31,5368
2015-08-01,5370
2015-08-02,5381
2015-08-03,5382
2015-08-04,5385
2015-08-05,5394
2015-08-06,5398
2015-08-07,5240
2015-08-08,5169
2015-08-09,5122
2015-08-10,5092
2015-08-11,5077
2015-08-12,5061
2015-08-13,5041
2015-08-14,4968
2015-08-15,4995
2015-08-16,4989
2015-08-17,4992
2015-08-18,4978
2015-08-19,4976
2015-08-20,4987
2015-08-21,4976
2015-08-22,4975
2015-08-23,4973
2015-08-24,4982
2015-08-25,4990
2015-08-26,4996
2015-08-27,4990
2015-08-28,4988
2015-08-29,4990
2015-08-30,4985
2015-08-31,4983
2015-09-01,4991
2015-09-02,4999
2015-09-03,5001
2015-09-04,4999
2015-09-05,5002
2015-09-06,5001
2015-09-07,4996
2015-09-08,4990
2015-09-09,4987
2015-09-10,4991
2015-09-11,5005
2015-09-12,5007
2015-09-13,5029
2015-09-14,5029
2015-09-15,5054
2015-09-16,5051
2015-09-17,5052
2015-09-18,5052
2015-09-19,5053
2015-09-20,5056
2015-09-21,5055
2015-09-22,5060
2015-09-23,5062
2015-09-24,5053
2015-09-25,5054
2015-09-26,5048
2015-09-27,5051
2015-09-28,5045
2015-09-29,5036
2015-09-30,5027
2015-10-01,5030
2015-10-02,5029
2015-10-03,5031
2015-10-04,5041
2015-10-05,5049
2015-10-06,5053
2015-10-07,5052
2015-10-08,5054
2015-10-09,5054
2015-10-10,5057
2015-10-11,5060
2015-10-12,5058
2015-10-13,5058
2015-10-14,5054
2015-10-15,5049
2015-10-16,5047
2015-10-17,5046
2015-10-18,5045
2015-10-19,5045
2015-10-20,5038
2015-10-21,5034
2015-10-22,5032
2015-10-23,5035
2015-10-24,5043
2015-10-25,5051
2015-10-26,5055
2015-10-27,5044
2015-10-28,5028
2015-10-29,5023
2015-10-30,5016
2015-10-31,5016
2015-11-01,5021
2015-11-02,5021
2015-11-03,5026
2015-11-04,5022
2015-11-05,5023
2015-11-06,5020
2015-11-07,5025
2015-11-08,5031
2015-11-09,5015
2015-11-10,5019
2015-11-11,5026
2015-11-12,5028
2015-11-13,5036
2015-11-14,5043
2015-11-15,5044
2015-11-16,5047
2015-11-17,5064
2015-11-18,5069
2015-11-19,5075
2015-11-20,5083
2015-11-21,5083
2015-11-22,5086
2015-11-23,5100
2015-11-24,5111
2015-11-25,5108
2015-11-26,5111
2015-11-27,5117
2015-11-28,5123
2015-11-29,5128
2015-11-30,5118
2015-12-01,5125
2015-12-02,5126
2015-12-03,5131
2015-12-04,5130
2015-12-05,5132
2015-12-06,5132
2015-12-07,5131
2015-12-08,5131
2015-12-09,5135
2015-12-10,5145
2015-12-11,5140
2015-12-12,5134
2015-12-13,5137
2015-12-14,5135
2015-12-15,5132
2015-12-16,5128
2015-12-17,5131
2015-12-18,5128
2015-12-19,5133
2015-12-20,5136
2015-12-21,5136
2015-12-22,5143
2015-12-23,5145
2015-12-24,5155
2015-12-25,5158
2015-12-26,5161
2015-12-27,5161
2015-12-28,5168
2015-12-29,5178
2015-12-30,5182
2015-12-31,5184
2016-01-01,5188
2016-01-02,5192
2016-01-03,5197
2016-01-04,5204
2016-01-05,5203
2016-01-06,5212
2016-01-07,5209
2016-01-08,5216
2016-01-09,5205
2016-01-10,5208
2016-01-11,5212
2016-01-12,5219
2016-01-13,5232
2016-01-14,5238
2016-01-15,5241
2016-01-16,5247
2016-01-17,5256
2016-01-18,5298
2016-01-19,5328
2016-01-20,5342
2016-01-21,5359
2016-01-22,5374
2016-01-23,5386
2016-01-24,5399
2016-01-25,5401
2016-01-26,5400
2016-01-27,5410
2016-01-28,5422
2016-01-29,5452
2016-01-30,5471
2016-01-31,5485
2016-02-01,5486
2016-02-02,5490
2016-02-03,5495
2016-02-04,5514
2016-02-05,5525
2016-02-06,5531
2016-02-07,5541
2016-02-08,5574
2016-02-09,5594
2016-02-10,5604
2016-02-11,5619
2016-02-12,5631
2016-02-13,5627
2016-02-14,5646
2016-02-15,5646
2016-02-16,5652
2016-02-17,5651
2016-02-18,5663
2016-02-19,5679
2016-02-20,5697
2016-02-21,5708
2016-02-22,5720
2016-02-23,5701
2016-02-24,5707
2016-02-25,5709
2016-02-26,5702
2016-02-27,5701
2016-02-28,5707
2016-02-29,5717
2016-03-01,5721
2016-03-02,5700
2016-03-03,5709
2016-03-04,5732
2016-03-05,5758
2016-03-06,5745
2016-03-07,5759
2016-03-08,5768
2016-03-09,5774
2016-03-10,5789
2016-03-11,5801
2016-03-12,5821
2016-03-13,5852
2016-03-14,5861
2016-03-15,5872
2016-03-16,5898
2016-03-17,5921
2016-03-18,5921
2016-03-19,5938
2016-03-20,5949
2016-03-21,5976
2016-03-22,6001
2016-03-23,6016
2016-03-24,6028
2016-03-25,6025
2016-03-26,6038
2016-03-27,6040
2016-03-28,6058
2016-03-29,6060
2016-03-30,6047
2016-03-31,6075
2016-04-01,6088
2016-04-02,6093
2016-04-03,6100
2016-04-04,6107
2016-04-05,6105
2016-04-06,6104
2016-04-07,6098
2016-04-08,6090
2016-04-09,6069
2016-04-10,6077
2016-04-11,6086
2016-04-12,6087
2016-04-13,6112
2016-04-14,6092
2016-04-15,6113
2016-04-16,6115
2016-04-17,6126
2016-04-18,6135
2016-04-19,6142
2016-04-20,6152
2016-04-21,6148
2016-04-22,6134
2016-04-23,6116
2016-04-24,6117
2016-04-25,6130
2016-04-26,6136
2016-04-27,6131
2016-04-28,6137
2016-04-29,6142
2016-04-30,6122
2016-05-01,6092
2016-05-02,6084
2016-05-03,6081
2016-05-04,6083
2016-05-05,6082
2016-05-06,6089
2016-05-07,6074
2016-05-08,6048
2016-05-09,6024
2016-05-10,5998
2016-05-11,5922
2016-05-12,5875
2016-05-13,5755
2016-05-14,5611
2016-05-15,5605
2016-05-16,5598
2016-05-17,5604
2016-05-18,5597
2016-05-19,5576
2016-05-20,5575
2016-05-21,5585
2016-05-22,5603
2016-05-23,5601
2016-05-24,5617
2016-05-25,5640
2016-05-26,5643
2016-05-27,5613
2016-05-28,5599
2016-05-29,5616
2016-05-30,5619
2016-05-31,5620
2016-06-01,5616
2016-06-02,5618
2016-06-03,5630
2016-06-04,5640
2016-06-05,5651
2016-06-06,5659
2016-06-07,5686
2016-06-08,5655
2016-06-09,5668
2016-06-10,5669
2016-06-11,5669
2016-06-12,5689
2016-06-13,5687
2016-06-14,5705
2016-06-15,5724
2016-06-16,5697
2016-06-17,5688
2016-06-18,5574
2016-06-19,5585
2016-06-20,5559
2016-06-21,5585
2016-06-22,5609
2016-06-23,5623
2016-06-24,5651
2016-06-25,5620
2016-06-26,5619
2016-06-27,5633
2016-06-28,5642
2016-06-29,5645
2016-06-30,5647
2016-07-01,5651
2016-07-02,5647
2016-07-03,5647
2016-07-04,5607
2016-07-05,5637
2016-07-06,5625
2016-07-07,5638
2016-07-08,5654
2016-07-09,5678
2016-07-10,5696
2016-07-11,5717
2016-07-12,5726
2016-07-13,5694
2016-07-14,5699
2016-07-15,5681
2016-07-16,5695
2016-07-17,5717
2016-07-18,5710
2016-07-19,4774
2016-07-20,5000
2016-07-21,5134
2016-07-22,5159
2016-07-23,5194
2016-07-24,5123
2016-07-25,5072
2016-07-26,4903
2016-07-27,4929
2016-07-28,4885
2016-07-29,4900
2016-07-30,4918
2016-07-31,4916
2016-08-01,4934
2016-08-02,4906
2016-08-03,4949
2016-08-04,4992
2016-08-05,5005
2016-08-06,5039
2016-08-07,5045
2016-08-08,5070
2016-08-09,5091
2016-08-10,5132
2016-08-11,5151
2016-08-12,5189
2016-08-13,5218
2016-08-14,5235
2016-08-15,5271
2016-08-16,5286
2016-08-17,5291
2016-08-18,5307
2016-08-19,5307
2016-08-20,5312
2016-08-21,5311
2016-08-22,5327
2016-08-23,5325
2016-08-24,5341
2016-08-25,5360
2016-08-26,5356
2016-08-27,5337
2016-08-28,5348
2016-08-29,5342
2016-08-30,5342
2016-08-31,5351
2016-09-01,5366
2016-09-02,5354
2016-09-03,5376
2016-09-04,5380
2016-09-05,5395
2016-09-06,5404
2016-09-07,5402
2016-09-08,5407
2016-09-09,5413
2016-09-10,5426
2016-09-11,5426
2016-09-12,5441
2016-09-13,5456
2016-09-14,5464
2016-09-15,5477
2016-09-16,5468
2016-09-17,5499
2016-09-18,5526
2016-09-19,5530
2016-09-20,5525
2016-09-21,5502
2016-09-22,5517
2016-09-23,5519
2016-09-24,5524
2016-09-25,5535
2016-09-26,5543
2016-09-27,5555
2016-09-28,5554
2016-09-29,5551
2016-09-30,5570
2016-10-01,5579
2016-10-02,5554
2016-10-03,5565
2016-10-04,5563
2016-10-05,5573
2016-10-06,5582
2016-10-07,5586
2016-10-08,5579
2016-10-09,5548
2016-10-10,5537
2016-10-11,5530
2016-10-12,5544
2016-10-13,5541
2016-10-14,5535
2016-10-15,5540
2016-10-16,5567
2016-10-17,5557
2016-10-18,5562
2016-10-19,5579
2016-10-20,5607
2016-10-21,5616
2016-10-22,5608
2016-10-23,5619
2016-10-24,5613
2016-10-25,5616
2016-10-26,5618
2016-10-27,5610
2016-10-28,5608
2016-10-29,5586
2016-10-30,5589
2016-10-31,5577
2016-11-01,5519
2016-11-02,5525
2016-11-03,5533
2016-11-04,5555
2016-11-05,5545
2016-11-06,5557
2016-11-07,5558
2016-11-08,5561
2016-11-09,5559
2016-11-10,5566
2016-11-11,5520
2016-11-12,5514
2016-11-13,5508
2016-11-14,5517
2016-11-15,5513
2016-11-16,5499
2016-11-17,5500
2016-11-18,5502
2016-11-19,5512
2016-11-20,5522
2016-11-21,5513
2016-11-22,5476
2016-11-23,5502
2016-11-24,5515
2016-11-25,5511
2016-11-26,5506
2016-11-27,5512
2016-11-28,5512
2016-11-29,5512
2016-11-30,5519
2016-12-01,5530
2016-12-02,5515
2016-12-03,5499
2016-12-04,5503
2016-12-05,5475
2016-12-06,5460
2016-12-07,5496
2016-12-08,5515
2016-12-09,5483
2016-12-10,5497
2016-12-11,5484
2016-12-12,5494
2016-12-13,5498
2016-12-14,5506
2016-12-15,5498
2016-12-16,5506
2016-12-17,5489
2016-12-18,5504
2016-12-19,5516
2016-12-20,5516
2016-12-21,5511
2016-12-22,5502
2016-12-23,5504
2016-12-24,5507
2016-12-25,5518
2016-12-26,5522
2016-12-27,5527
2016-12-28,5522
2016-12-29,5524
2016-12-30,5544
2016-12-31,5527
2017-01-01,5546
2017-01-02,5555
2017-01-03,5581
2017-01-04,5564
2017-01-05,5569
2017-01-06,5565
2017-01-07,5581
2017-01-08,5599
2017-01-09,5607
2017-01-10,5614
2017-01-11,5615
2017-01-12,5617
2017-01-13,5619
2017-01-14,5626
2017-01-15,5645
2017-01-16,5647
2017-01-17,5649
2017-01-18,5672
2017-01-19,5676
2017-01-20,5690
2017-01-21,5676
2017-01-22,5699
2017-01-23,5707
2017-01-24,5718
2017-01-25,5736
2017-01-26,5755
2017-01-27,5757
2017-01-28,5769
2017-01-29,5773
2017-01-30,5773
2017-01-31,5795
2017-02-01,5811
2017-02-02,5812
2017-02-03,5826
2017-02-04,5819
2017-02-05,5823
2017-02-06,5826
2017-02-07,5852
2017-02-08,5860
2017-02-09,5883
2017-02-10,5883
2017-02-11,5896
2017-02-12,5896
2017-02-13,5873
2017-02-14,5819
2017-02-15,5803
2017-02-16,5793
2017-02-17,5778
2017-02-18,5784
2017-02-19,5790
2017-02-20,5792
2017-02-21,5795
2017-02-22,5802
2017-02-23,5817
2017-02-24,5830
2017-02-25,5839
2017-02-26,5843
2017-02-27,5833
2017-02-28,5836
2017-03-01,5858
2017-03-02,5843
2017-03-03,5850
2017-03-04,5858
2017-03-05,5867
2017-03-06,5882
2017-03-07,5886
2017-03-08,5900
2017-03-09,5906
2017-03-10,5836
2017-03-11,5856
2017-03-12,5858
2017-03-13,5889
2017-03-14,5946
2017-03-15,5974
2017-03-16,5886
2017-03-17,5840
2017-03-18,5869
2017-03-19,5911
2017-03-20,5971
2017-03-21,5930
2017-03-22,5962
2017-03-23,5989
2017-03-24,5976
2017-03-25,6003
2017-03-26,6030
2017-03-27,6032
2017-03-28,6050
2017-03-29,6074
2017-03-30,6156
2017-03-31,6111
2017-04-01,6116
2017-04-02,6115
2017-04-03,6170
2017-04-04,6130
2017-04-05,6120
2017-04-06,6154
2017-04-07,6188
2017-04-08,6152
2017-04-09,6163
2017-04-10,6165
2017-04-11,6180
2017-04-12,6204
2017-04-13,6214
2017-04-14,6220
2017-04-15,6207
2017-04-16,6211
2017-04-17,6241
2017-04-18,6306
2017-04-19,6301
2017-04-20,6316
2017-04-21,6323
2017-04-22,6321
2017-04-23,6343
2017-04-24,6325
2017-04-25,6344
2017-04-26,6368
2017-04-27,6382
2017-04-28,6410
2017-04-29,6417
2017-04-30,6395
2017-05-01,6403
2017-05-02,6401
2017-05-03,6444
2017-05-04,6455
2017-05-05,6459
2017-05-06,6474
2017-05-07,6486
2017-05-08,6518
2017-05-09,6509
2017-05-10,6526
2017-05-11,6546
2017-05-12,6545
2017-05-13,6579
2017-05-14,6575
2017-05-15,6606
2017-05-16,6625
2017-05-17,6652
2017-05-18,6659
2017-05-19,6710
2017-05-20,6741
2017-05-21,6700
2017-05-22,6694
2017-05-23,6765
2017-05-24,6742
2017-05-25,6754
2017-05-26,6741
2017-05-27,6739
2017-05-28,6743
2017-05-29,6765
2017-05-30,6775
2017-05-31,6703
2017-06-01,6869
2017-06-02,6894
2017-06-03,6872
2017-06-04,6869
2017-06-05,6877
2017-06-06,6876
2017-06-07,6881
2017-06-08,6920
2017-06-09,6985
2017-06-10,7021
2017-06-11,6949
2017-06-12,6888
2017-06-13,6953
2017-06-14,6905
2017-06-15,6904
2017-06-16,6903
2017-06-17,6886
2017-06-18,6869
2017-06-19,6810
2017-06-20,6929
2017-06-21,6823
2017-06-22,6820
2017-06-23,6816
2017-06-24,7201
2017-06-25,7013
2017-06-26,6850
2017-06-27,6773
2017-06-28,6720
2017-06-29,6720
2017-06-30,6685
2017-07-01,6676
2017-07-02,6893
2017-07-03,6664
2017-07-04,6706
2017-07-05,6694
2017-07-06,6729
2017-07-07,6751
2017-07-08,6760
2017-07-09,6680
2017-07-10,6787
2017-07-11,6764
2017-07-12,6637
2017-07-13,6615
2017-07-14,6630
2017-07-15,6624
2017-07-16,6611
2017-07-17,6623
2017-07-18,6639
2017-07-19,6648
2017-07-20,6651
2017-07-21,6633
2017-07-22,6634
2017-07-23,6711
2017-07-24,6715
2017-07-25,6752
2017-07-26,6767
2017-07-27,6762
2017-07-28,6798
2017-07-29,6779
2017-07-30,6882
2017-07-31,6836
2017-08-01,6860
2017-08-02,6842
2017-08-03,6801
2017-08-04,6821
2017-08-05,6776
2017-08-06,6912
2017-08-07,6947
2017-08-08,6973
2017-08-09,6834
2017-08-10,6907
2017-08-11,6878
2017-08-12,6881
2017-08-13,6901
2017-08-14,6879
2017-08-15,6874
2017-08-16,6958
2017-08-17,6955
2017-08-18,6945
2017-08-19,6959
2017-08-20,6981
2017-08-21,7049
2017-08-22,7026
2017-08-23,7038
2017-08-24,7036
2017-08-25,6989
2017-08-26,6997
2017-08-27,7038
2017-08-28,7087
2017-08-29,7074
2017-08-30,7181
2017-08-31,7199
2017-09-01,7200
2017-09-02,7198
2017-09-03,7215
2017-09-04,7242
2017-09-05,7227
2017-09-06,7227
2017-09-07,7125
2017-09-08,7196
2017-09-09,7184
2017-09-10,7179
2017-09-11,7188
2017-09-12,7106
2017-09-13,7149
2017-09-14,7121
2017-09-15,7166
2017-09-16,7155
2017-09-17,7119
2017-09-18,7104
2017-09-19,7053
2017-09-20,7139
2017-09-21,7110
2017-09-22,7144
2017-09-23,7145
2017-09-24,7170
2017-09-25,7162
2017-09-26,7137
2017-09-27,7146
2017-09-28,7155
2017-09-29,7165
2017-09-30,7145
2017-10-01,7160
2017-10-02,7212
2017-10-03,7209
2017-10-04,7242
2017-10-05,7224
2017-10-06,7229
2017-10-07,7221
2017-10-08,7208
2017-10-09,7219
2017-10-10,7228
2017-10-11,7226
2017-10-12,7226
2017-10-13,7179
2017-10-14,7178
2017-10-15,7128
2017-10-16,7128
2017-10-17,7143
2017-10-18,7201
2017-10-19,7240
2017-10-20,7270
2017-10-21,7273
2017-10-22,7267
2017-10-23,7245
2017-10-24,7243
2017-10-25,7238
2017-10-26,7258
2017-10-27,7225
2017-10-28,7229
2017-10-29,7245
2017-10-30,7232
2017-10-31,7223
2017-11-01,7225
2017-11-02,7230
2017-11-03,7208
2017-11-04,7214
2017-11-05,7226
2017-11-06,7202
2017-11-07,7244
2017-11-08,7191
2017-11-09,7302
2017-11-10,7301
2017-11-11,7278
2017-11-12,7278
2017-11-13,7224
2017-11-14,7241
2017-11-15,7360
2017-11-16,7357
2017-11-17,7380
2017-11-18,7374
2017-11-19,7387
2017-11-20,7382
2017-11-21,7411
2017-11-22,7424
2017-11-23,7430
2017-11-24,7429
2017-11-25,7436
2017-11-26,7428
2017-11-27,7461
2017-11-28,7450
2017-11-29,7516
2017-11-30,7405
2017-12-01,7417
2017-12-02,7520
2017-12-03,7550
2017-12-04,7439
2017-12-05,7427
2017-12-06,7426
2017-12-07,7422
2017-12-08,7417
2017-12-09,7429
2017-12-10,7448
2017-12-11,7463
2017-12-12,7417
2017-12-13,7393
2017-12-14,7348
2017-12-15,7381
2017-12-16,7368
2017-12-17,7374
2017-12-18,7374
2017-12-19,7370
2017-12-20,7376
2017-12-21,7373
2017-12-22,7379
2017-12-23,7398
2017-12-24,7391
2017-12-25,7403
2017-12-26,7401
2017-12-27,7423
2017-12-28,7435
2017-12-29,7460
2017-12-30,7458
2017-12-31,7476
2018-01-01,7486
2018-01-02,7487
2018-01-03,7510
2018-01-04,7515
2018-01-05,7519
2018-01-06,7574
2018-01-07,7583
2018-01-08,7599
2018-01-09,7621
2018-01-10,7618
2018-01-11,7608
2018-01-12,7606
2018-01-13,7606
2018-01-14,7607
2018-01-15,7643
2018-01-16,7647
2018-01-17,7625
2018-01-18,7637
2018-01-19,7686
2018-01-20,7719
2018-01-21,7689
2018-01-22,7719
2018-01-23,7734
2018-01-24,7740
2018-01-25,7764
2018-01-26,7770
2018-01-27,7801
2018-01-28,7823
2018-01-29,7845
2018-01-30,7847
2018-01-31,7877
2018-02-01,7871
2018-02-02,7842
2018-02-03,7850
2018-02-04,7856
2018-02-05,7831
2018-02-06,7813
2018-02-07,7848
2018-02-08,7847
2018-02-09,7871
2018-02-10,7875
2018-02-11,7845
2018-02-12,7874
2018-02-13,7887
2018-02-14,7884
2018-02-15,7880
2018-02-16,7875
2018-02-17,7876
2018-02-18,7899
2018-02-19,7890
2018-02-20,7902
2018-02-21,7907
2018-02-22,7947
2018-02-23,7959
2018-02-24,7957
2018-02-25,7977
2018-02-26,7986
2018-02-27,7991
2018-02-28,8024
2018-03-01,8029
2018-03-02,8050
2018-03-03,8063
2018-03-04,8063
2018-03-05,8067
2018-03-06,8049
2018-03-07,8037
2018-03-08,8021
2018-03-09,8020
2018-03-10,8030
2018-03-11,8030
2018-03-12,8024
2018-03-13,8013
2018-03-14,8011
2018-03-15,8014
2018-03-16,8010
2018-03-17,8002
2018-03-18,7962
2018-03-19,7975
2018-03-20,7986
2018-03-21,7979
2018-03-22,7984
2018-03-23,7998
2018-03-24,8015
2018-03-25,8026
2018-03-26,8021
2018-03-27,7996
2018-03-28,7988
2018-03-29,7957
2018-03-30,7950
2018-03-31,7948
2018-04-01,7958
2018-04-02,7961
2018-04-03,7956
2018-04-04,7965
2018-04-05,7975
2018-04-06,7961
2018-04-07,7970
2018-04-08,7957
2018-04-09,7939
2018-04-10,7935
2018-04-11,7954
2018-04-12,7973
2018-04-13,7962
2018-04-14,7967
2018-04-15,7953
2018-04-16,7934
2018-04-17,7950
2018-04-18,7945
2018-04-19,7953
2018-04-20,7963
2018-04-21,7950
2018-04-22,7961
2018-04-23,7958
2018-04-24,7985
2018-04-25,8000
2018-04-26,7958
2018-04-27,8005
2018-04-28,8002
2018-04-29,8010
2018-04-30,8009
2018-05-01,7980
2018-05-02,7993
2018-05-03,8003
2018-05-04,7997
2018-05-05,7997
2018-05-06,8013
2018-05-07,8022
2018-05-08,8029
2018-05-09,8039
2018-05-10,8049
2018-05-11,8072
2018-05-12,8062
2018-05-13,8067
2018-05-14,8072
2018-05-15,8068
2018-05-16,8085
2018-05-17,8107
2018-05-18,8116
2018-05-19,8108
2018-05-20,8115
2018-05-21,8115
2018-05-22,8129
2018-05-23,8132
2018-05-24,8152
2018-05-25,8162
2018-05-26,8169
2018-05-27,8178
2018-05-28,8170
2018-05-29,8184
2018-05-30,8191
2018-05-31,8190
2018-06-01,8187
2018-06-02,8186
2018-06-03,8191
2018-06-04,8194
2018-06-05,8204
2018-06-06,8217
2018-06-07,8201
2018-06-08,8194
2018-06-09,8201
2018-06-10,8194
2018-06-11,8218
2018-06-12,8214
2018-06-13,8204
2018-06-14,8232
2018-06-15,8224
2018-06-16,8234
2018-06-17,8234
2018-06-18,8221
2018-06-19,8234
2018-06-20,8255
2018-06-21,8249
2018-06-22,8249
2018-06-23,8268
2018-06-24,8244
2018-06-25,8257
2018-06-26,8259
2018-06-27,8263
2018-06-28,8260
2018-06-29,8251
2018-06-30,8251
2018-07-01,8248
2018-07-02,8263
2018-07-03,8278
2018-07-04,8285
2018-07-05,8307
2018-07-06,8320
2018-07-07,8310
2018-07-08,8298
2018-07-09,8284
2018-07-10,8288
2018-07-11,8276
2018-07-12,8258
2018-07-13,8262
2018-07-14,8275
2018-07-15,8274
2018-07-16,8300
2018-07-17,8287
2018-07-18,8271
2018-07-19,8276
2018-07-20,8268
2018-07-21,8282
2018-07-22,8276
2018-07-23,8281
2018-07-24,8290
2018-07-25,8272
2018-07-26,8275
2018-07-27,8273
2018-07-28,8293
2018-07-29,8279
2018-07-30,8261
2018-07-31,8262
2018-08-01,8283
2018-08-02,8269
2018-08-03,8257
2018-08-04,8260
2018-08-05,8258
2018-08-06,8265
2018-08-07,8273
2018-08-08,8258
2018-08-09,8262
2018-08-10,8245
2018-08-11,8245
2018-08-12,8231
2018-08-13,8211
2018-08-14,8172
2018-08-15,8144
2018-08-16,8128
2018-08-17,8139
2018-08-18,8137
2018-08-19,8139
2018-08-20,8158
2018-08-21,8149
2018-08-22,8158
2018-08-23,8170
2018-08-24,8168
2018-08-25,8166
2018-08-26,8172
2018-08-27,8135
2018-08-28,8129
2018-08-29,8115
2018-08-30,8107
2018-08-31,8121
2018-09-01,8117
2018-09-02,8129
2018-09-03,8111
2018-09-04,8098
2018-09-05,8125
2018-09-06,8099
2018-09-07,8058
2018-09-08,8033
2018-09-09,8013
2018-09-10,7947
2018-09-11,7915
2018-09-12,7841
2018-09-13,7810
2018-09-14,7793
2018-09-15,7792
2018-09-16,7799
2018-09-17,7799
2018-09-18,7794
2018-09-19,7801
2018-09-20,7794
2018-09-21,7788
2018-09-22,7745
2018-09-23,7741
2018-09-24,7747
2018-09-25,7760
2018-09-26,7767
2018-09-27,7772
2018-09-28,7788
2018-09-29,7793
2018-09-30,7769
2018-10-01,7796
2018-10-02,7804
2018-10-03,7815
2018-10-04,7803
2018-10-05,7836
2018-10-06,7839
2018-10-07,7852
2018-10-08,7845
2018-10-09,7863
2018-10-10,7866
2018-10-11,7832
2018-10-12,7830
2018-10-13,7839
2018-10-14,7840
2018-10-15,7844
2018-10-16,7844
2018-10-17,7862
2018-10-18,7866
2018-10-19,7870
2018-10-20,7842
2018-10-21,7851
2018-10-22,7841
2018-10-23,7847
2018-10-24,7856
2018-10-25,7825
2018-10-26,7834
2018-10-27,7843
2018-10-28,7849
2018-10-29,7841
2018-10-30,7840
2018-10-31,7836
2018-11-01,7857
2018-11-02,7839
2018-11-03,7838
2018-11-04,7841
2018-11-05,7849
2018-11-06,7849
2018-11-07,7844
2018-11-08,7855
2018-11-09,7851
2018-11-10,7843
2018-11-11,7842
2018-11-12,7812
2018-11-13,7827
2018-11-14,7848
2018-11-15,7794
2018-11-16,7799
2018-11-17,7787
2018-11-18,7772
2018-11-19,7750
2018-11-20,7715
2018-11-21,7703
2018-11-22,7679
2018-11-23,7679
2018-11-24,7676
2018-11-25,7668
2018-11-26,7622
2018-11-27,7628
2018-11-28,7641
2018-11-29,7639
2018-11-30,7677
2018-12-01,7696
2018-12-02,7679
2018-12-03,7665
2018-12-04,7673
2018-12-05,7656
2018-12-06,7631
2018-12-07,7593
2018-12-08,7581
2018-12-09,7590
2018-12-10,7599
2018-12-11,7583
2018-12-12,7599
2018-12-13,7615
2018-12-14,7616
2018-12-15,7618
2018-12-16,7623
2018-12-17,7612
2018-12-18,7611
2018-12-19,7613
2018-12-20,7587
2018-12-21,7576
2018-12-22,7578
2018-12-23,7583
2018-12-24,7550
2018-12-25,7562
2018-12-26,7573
2018-12-27,7537
2018-12-28,7525
2018-12-29,7505
2018-12-30,7514
2018-12-31,7509
2019-01-01,7510
2019-01-02,7498
2019-01-03,7507
2019-01-04,7520
2019-01-05,7509
2019-01-06,7506
2019-01-07,7497
2019-01-08,7486
2019-01-09,7494
2019-01-10,7485
2019-01-11,7479
2019-01-12,7488
2019-01-13,7499
2019-01-14,7520
2019-01-15,7521
2019-01-16,7510
2019-01-17,7514
2019-01-18,7502
2019-01-19,7514
2019-01-20,7526
2019-01-21,7526
2019-01-22,7537
2019-01-23,7523
2019-01-24,7526
2019-01-25,7525
2019-01-26,7520
2019-01-27,7515
2019-01-28,7517
2019-01-29,7544
2019-01-30,7553
2019-01-31,7533
2019-02-01,7525
2019-02-02,7526
2019-02-03,7531
2019-02-04,7546
2019-02-05,7546
2019-02-06,7546
2019-02-07,7541
2019-02-08,7524
2019-02-09,7511
2019-02-10,7516
2019-02-11,7507
2019-02-12,7515
2019-02-13,7519
2019-02-14,7519
2019-02-15,7521
2019-02-16,7522
2019-02-17,7520
2019-02-18,7494
2019-02-19,7478
2019-02-20,7489
2019-02-21,7486
2019-02-22,7490
2019-02-23,7495
2019-02-24,7503
2019-02-25,7495
2019-02-26,7477
2019-02-27,7471
2019-02-28,7467
2019-03-01,7501
2019-03-02,7489
2019-03-03,7499
2019-03-04,7490
2019-03-05,7488
2019-03-06,7494
2019-03-07,7512
2019-03-08,7527
2019-03-09,7502
2019-03-10,7506
2019-03-11,7485
2019-03-12,7488
2019-03-13,7491
2019-03-14,7494
2019-03-15,7500
2019-03-16,7497
2019-03-17,7495
2019-03-18,7508
2019-03-19,7522
2019-03-20,7535
2019-03-21,7531
2019-03-22,7509
2019-03-23,7508
2019-03-24,7517
2019-03-25,7517
2019-03-26,7512
2019-03-27,7498
2019-03-28,7527
2019-03-29,7520
2019-03-30,7525
2019-03-31,7534
2019-04-01,7545
2019-04-02,7535
2019-04-03,7530
2019-04-04,7508
2019-04-05,7504
2019-04-06,7503
2019-04-07,7501
2019-04-08,7495
2019-04-09,7490
2019-04-10,7496
2019-04-11,7509
2019-04-12,7513
2019-04-13,7528
2019-04-14,7537
2019-04-15,7544
2019-04-16,7545
2019-04-17,7557
2019-04-18,7532
2019-04-19,7537
2019-04-20,7543
2019-04-21,7549
2019-04-22,7557
2019-04-23,7550
2019-04-24,7557
2019-04-25,7572
2019-04-26,7595
2019-04-27,7612
2019-04-28,7610
2019-04-29,7633
2019-04-30,7623
2019-05-01,7636
2019-05-02,7646
2019-05-03,7650
2019-05-04,7669
2019-05-05,7662
2019-05-06,7661
2019-05-07,7665
2019-05-08,7664
2019-05-09,7671
2019-05-10,7688
2019-05-11,7669
2019-05-12,7661
2019-05-13,7650
2019-05-14,7681
2019-05-15,7685
2019-05-16,7680
2019-05-17,7604
2019-05-18,7615
2019-05-19,7618
2019-05-20,7608
2019-05-21,7629
2019-05-22,7632
2019-05-23,7630
2019-05-24,7624
2019-05-25,7630
2019-05-26,7631
2019-05-27,7623
2019-05-28,7639
2019-05-29,7634
2019-05-30,7632
2019-05-31,7632
2019-06-01,7630
2019-06-02,7611
2019-06-03,7618
2019-06-04,7625
2019-06-05,7608
2019-06-06,7608
2019-06-07,7603
2019-06-08,7595
2019-06-09,7615
2019-06-10,7616
2019-06-11,7620
2019-06-12,7592
2019-06-13,7583
2019-06-14,7579
2019-06-15,7550
2019-06-16,7547
2019-06-17,7566
2019-06-18,7562
2019-06-19,7541
2019-06-20,7532
2019-06-21,7520
2019-06-22,7515
2019-06-23,7504
2019-06-24,7510
2019-06-25,7514
2019-06-26,7505
2019-06-27,7480
2019-06-28,7489
2019-06-29,7494
2019-06-30,7498
2019-07-01,7520
2019-07-02,7521
2019-07-03,7510
2019-07-04,7513
2019-07-05,7514
2019-07-06,7512
2019-07-07,7508
2019-07-08,7498
2019-07-09,7497
2019-07-10,7509
2019-07-11,7516
2019-07-12,7519
2019-07-13,7527
2019-07-14,7516
2019-07-15,7527
2019-07-16,7530
2019-07-17,7519
2019-07-18,7513
2019-07-19,7505
2019-07-20,7515
2019-07-21,7516
2019-07-22,7524
2019-07-23,7525
2019-07-24,7523
2019-07-25,7519
2019-07-26,7516
2019-07-27,7524
2019-07-28,7513
2019-07-29,7537
2019-07-30,7540
2019-07-31,7548
2019-08-01,7557
2019-08-02,7562
2019-08-03,7576
2019-08-04,7590
2019-08-05,7549
2019-08-06,7540
2019-08-07,7527
2019-08-08,7500
2019-08-09,7512
2019-08-10,7500
2019-08-11,7502
2019-08-12,7510
2019-08-13,7514
2019-08-14,7508
2019-08-15,7523
2019-08-16,7532
2019-08-17,7539
2019-08-18,7530
2019-08-19,7521
2019-08-20,7513
2019-08-21,7505
2019-08-22,7510
2019-08-23,7509
2019-08-24,7508
2019-08-25,7519
2019-08-26,7529
2019-08-27,7561
2019-08-28,7568
2019-08-29,7566
2019-08-30,7544
2019-08-31,7555
2019-09-01,7554
2019-09-02,7559
2019-09-03,7546
2019-09-04,7546
2019-09-05,7559
2019-09-06,7548
2019-09-07,7558
2019-09-08,7551
2019-09-09,7541
2019-09-10,7574
2019-09-11,7572
2019-09-12,7580
2019-09-13,7570
2019-09-14,7556
2019-09-15,7556
2019-09-16,7556
2019-09-17,7551
2019-09-18,7536
2019-09-19,7537
2019-09-20,7551
2019-09-21,7563
2019-09-22,7565
2019-09-23,7579
2019-09-24,7565
2019-09-25,7563
2019-09-26,7568
2019-09-27,7573
2019-09-28,7576
2019-09-29,7576
2019-09-30,7585
2019-10-01,7598
2019-10-02,7606
2019-10-03,7608
2019-10-04,7600
2019-10-05,7603
2019-10-06,7593
2019-10-07,7619
2019-10-08,7641
2019-10-09,7647
2019-10-10,7656
2019-10-11,7661
2019-10-12,7663
2019-10-13,7662
2019-10-14,7671
2019-10-15,7666
2019-10-16,7660
2019-10-17,7672
2019-10-18,7674
2019-10-19,7673
2019-10-20,7691
2019-10-21,7690
2019-10-22,7688
2019-10-23,7705
2019-10-24,7690
2019-10-25,7681
2019-10-26,7672
2019-10-27,7660
2019-10-28,7658
2019-10-29,7663
2019-10-30,7664
2019-10-31,7656
2019-11-01,7661
2019-11-02,7677
2019-11-03,7679
2019-11-04,7687
2019-11-05,7677
2019-11-06,7675
2019-11-07,7680
2019-11-08,7692
2019-11-09,7695
2019-11-10,7682
2019-11-11,7696
2019-11-12,7696
2019-11-13,7682
2019-11-14,7688
2019-11-15,7682
2019-11-16,7691
2019-11-17,7687
2019-11-18,7702
2019-11-19,7702
2019-11-20,7699
2019-11-21,7701
2019-11-22,7683
2019-11-23,7687
2019-11-24,7675
2019-11-25,7675
2019-11-26,7669
2019-11-27,7669
2019-11-28,7686
2019-11-29,7684
2019-11-30,7676
2019-12-01,7674
2019-12-02,7668
2019-12-03,7676
2019-12-04,7688
2019-12-05,7690
2019-12-06,7694
2019-12-07,7693
2019-12-08,7698
2019-12-09,7696
2019-12-10,7693
2019-12-11,7696
2019-12-12,7689
2019-12-13,7692
2019-12-14,7691
2019-12-15,7702
2019-12-16,7706
2019-12-17,7695
2019-12-18,7664
2019-12-19,7683
2019-12-20,7674
2019-12-21,7665
2019-12-22,7657
2019-12-23,7676
2019-12-24,7677
2019-12-25,7669
2019-12-26,7672
2019-12-27,7672
2019-12-28,7674
2019-12-29,7666
2019-12-30,7663
2019-12-31,7668
2020-01-01,7671
2020-01-02,7667
2020-01-03,7663
2020-01-04,7652
2020-01-05,7654
2020-01-06,7676
2020-01-07,7680
2020-01-08,7677
2020-01-09,7679
2020-01-10,7669
2020-01-11,7670
2020-01-12,7675
2020-01-13,7686
2020-01-14,7670
2020-01-15,7686
2020-01-16,7669
2020-01-17,7688
2020-01-18,7702
2020-01-19,7715
2020-01-20,7712
2020-01-21,7712
2020-01-22,7710
2020-01-23,7719
2020-01-24,7720
2020-01-25,7721
2020-01-26,7722
2020-01-27,7723
2020-01-28,7710
2020-01-29,7725
2020-01-30,7696
2020-01-31,7696
2020-02-01,7693
2020-02-02,7684
2020-02-03,7690
2020-02-04,7692
2020-02-05,7673
2020-02-06,7675
2020-02-07,7685
2020-02-08,7682
2020-02-09,7673
2020-02-10,7678
2020-02-11,7671
2020-02-12,7676
2020-02-13,7657
2020-02-14,7675
2020-02-15,7694
2020-02-16,7693
2020-02-17,7690
2020-02-18,7684
2020-02-19,7693
2020-02-20,7696
2020-02-21,7678
2020-02-22,7690
2020-02-23,7712
2020-02-24,7690
2020-02-25,7692
2020-02-26,7681
2020-02-27,7684
2020-02-28,7682
2020-02-29,7686
2020-03-01,7698
2020-03-02,7678
2020-03-03,7699
2020-03-04,7702
2020-03-05,7702
2020-03-06,7690
2020-03-07,7688
2020-03-08,7701
2020-03-09,7649
2020-03-10,7663
2020-03-11,7663
2020-03-12,7656
2020-03-13,7681
2020-03-14,7646
2020-03-15,7623
2020-03-16,7612
2020-03-17,7538
2020-03-18,7540
2020-03-19,7520
2020-03-20,7499
2020-03-21,7484
2020-03-22,7493
2020-03-23,7490
2020-03-24,7491
2020-03-25,7508
2020-03-26,7504
2020-03-27,7516
2020-03-28,7510
2020-03-29,7515
2020-03-30,7501
2020-03-31,7499
2020-04-01,7510
2020-04-02,7510
2020-04-03,7512
2020-04-04,7517
2020-04-05,7524
2020-04-06,7516
2020-04-07,7506
2020-04-08,7493
2020-04-09,7495
2020-04-10,7495
2020-04-11,7496
2020-04-12,7499
2020-04-13,7493
2020-04-14,7483
2020-04-15,7498
2020-04-16,7498
2020-04-17,7486
2020-04-18,7498
2020-04-19,7511
2020-04-20,7507
2020-04-21,7495
2020-04-22,7485
2020-04-23,7481
2020-04-24,7498
2020-04-25,7489
2020-04-26,7495
2020-04-27,7480
2020-04-28,7492
2020-04-29,7491
2020-04-30,7465
2020-05-01,7473
2020-05-02,7483
2020-05-03,7486
2020-05-04,7491
2020-05-05,7483
2020-05-06,7473
2020-05-07,7466
2020-05-08,7471
2020-05-09,7462
2020-05-10,7465
2020-05-11,7479
2020-05-12,7488
2020-05-13,7483
2020-05-14,7475
2020-05-15,7479
2020-05-16,7477
2020-05-17,7473
2020-05-18,7468
2020-05-19,7473
2020-05-20,7451
2020-05-21,7460
2020-05-22,7465
2020-05-23,7468
2020-05-24,7486
2020-05-25,7496
2020-05-26,7504
2020-05-27,7504
2020-05-28,7503
2020-05-29,7528
2020-05-30,7518
2020-05-31,7519
2020-06-01,7505
2020-06-02,7505
2020-06-03,7509
2020-06-04,7521
2020-06-05,7487
2020-06-06,7498
2020-06-07,7505
2020-06-08,7499
2020-06-09,7504
2020-06-10,7504
2020-06-11,7502
2020-06-12,7488
2020-06-13,7500
2020-06-14,7511
2020-06-15,7506
2020-06-16,7492
2020-06-17,7515
2020-06-18,7482
2020-06-19,7481
2020-06-20,7478
2020-06-21,7482
2020-06-22,7453
2020-06-23,7460
2020-06-24,7472
2020-06-25,7492
2020-06-26,7499
2020-06-27,7494
2020-06-28,7508
2020-06-29,7495
2020-06-30,7508
2020-07-01,7507
2020-07-02,7477
2020-07-03,7461
2020-07-04,7472
2020-07-05,7464
2020-07-06,7472
2020-07-07,7461
2020-07-08,7457
2020-07-09,7480
2020-07-10,7470
2020-07-11,7472
2020-07-12,7464
2020-07-13,7454
2020-07-14,7482
2020-07-15,7477
2020-07-16,7475
2020-07-17,7489
2020-07-18,7482
2020-07-19,7492
2020-07-20,7473
2020-07-21,7454
2020-07-22,7442
2020-07-23,7431
2020-07-24,7434
2020-07-25,7435
2020-07-26,7448
2020-07-27,7421
2020-07-28,7445
2020-07-29,7430
2020-07-30,7424
2020-07-31,7420
2020-08-01,7438
2020-08-02,7428
2020-08-03,7397
2020-08-04,7401
2020-08-05,7385
2020-08-06,7374
2020-08-07,7390
2020-08-08,7403
2020-08-09,7411
2020-08-10,7413
2020-08-11,7421
2020-08-12,7407
2020-08-13,7410
2020-08-14,7372
2020-08-15,7374
2020-08-16,7361
2020-08-17,7358
2020-08-18,7327
2020-08-19,7343
2020-08-20,7349
2020-08-21,7338
2020-08-22,7340
2020-08-23,7344
2020-08-24,7332
2020-08-25,7336
2020-08-26,7315
2020-08-27,7330
2020-08-28,7314
2020-08-29,7317
2020-08-30,7314
2020-08-31,7303
2020-09-01,7291
2020-09-02,7302
2020-09-03,7318
2020-09-04,7302
2020-09-05,7367
2020-09-06,7345
2020-09-07,7301
2020-09-08,7290
2020-09-09,7282
2020-09-10,7263
2020-09-11,7251
2020-09-12,7256
2020-09-13,7271
2020-09-14,7274
2020-09-15,7263
2020-09-16,7267
2020-09-17,7251
2020-09-18,7245
2020-09-19,7231
2020-09-20,7220
2020-09-21,7228
2020-09-22,7207
2020-09-23,7214
2020-09-24,7201
2020-09-25,7185
2020-09-26,7164
2020-09-27,7162
2020-09-28,7164
2020-09-29,7180
2020-09-30,7178
2020-10-01,7188
2020-10-02,7207
2020-10-03,7200
2020-10-04,7211
2020-10-05,7229
2020-10-06,7220
2020-10-07,7209
2020-10-08,7203
2020-10-09,7197
2020-10-10,7183
2020-10-11,7168
2020-10-12,7142
2020-10-13,7161
2020-10-14,7171
2020-10-15,7175
2020-10-16,7190
2020-10-17,7201
2020-10-18,7214
2020-10-19,7212
2020-10-20,7222
2020-10-21,7224
2020-10-22,7208
2020-10-23,7186
2020-10-24,7195
2020-10-25,7195
2020-10-26,7231
2020-10-27,7218
2020-10-28,7231
2020-10-29,7251
2020-10-30,7256
2020-10-31,7263
2020-11-01,7270
2020-11-02,7280
2020-11-03,7317
2020-11-04,7361
2020-11-05,7355
2020-11-06,7325
2020-11-07,7330
2020-11-08,7333
2020-11-09,7307
2020-11-10,7307
2020-11-11,7300
2020-11-12,7336
2020-11-13,7318
2020-11-14,7315
2020-11-15,7336
2020-11-16,7305
2020-11-17,7346
2020-11-18,7355
2020-11-19,7350
2020-11-20,7362
2020-11-21,7369
2020-11-22,7369
2020-11-23,7330
2020-11-24,7309
2020-11-25,7283
2020-11-26,7292
2020-11-27,7287
2020-11-28,7289
2020-11-29,7303
2020-11-30,7295
2020-12-01,7288
2020-12-02,7270
2020-12-03,7261
2020-12-04,7249
2020-12-05,7247
2020-12-06,7247
2020-12-07,7250
2020-12-08,7248
2020-12-09,7249
2020-12-10,7260
2020-12-11,7252
2020-12-12,7251
2020-12-13,7230
2020-12-14,7209
2020-12-15,7222
2020-12-16,7229
2020-12-17,7204
2020-12-18,7201
2020-12-19,7211
2020-12-20,7201
2020-12-21,7208
2020-12-22,7209
2020-12-23,7203
2020-12-24,7202
2020-12-25,7207
2020-12-26,7200
2020-12-27,7176
2020-12-28,7216
2020-12-29,7231
2020-12-30,7213
2020-12-31,7233
2021-01-01,7239
2021-01-02,7237
2021-01-03,7190
2021-01-04,7112
2021-01-05,7084
2021-01-06,7095
2021-01-07,7100
2021-01-08,7087
2021-01-09,7035
2021-01-10,7039
2021-01-11,7015
2021-01-12,7030
2021-01-13,7007
2021-01-14,7007
2021-01-15,6985
2021-01-16,6988
2021-01-17,6971
2021-01-18,6940
2021-01-19,6892
2021-01-20,6905
2021-01-21,6888
2021-01-22,6853
2021-01-23,6862
2021-01-24,6858
2021-01-25,6833
2021-01-26,6830
2021-01-27,6857
2021-01-28,6856
2021-01-29,6826
2021-01-30,6815
2021-01-31,6823
2021-02-01,6818
2021-02-02,6832
2021-02-03,6810
2021-02-04,6813
2021-02-05,6785
2021-02-06,6792
2021-02-07,6788
2021-02-08,6765
2021-02-09,6753
2021-02-10,6768
2021-02-11,6749
2021-02-12,6734
2021-02-13,6746
2021-02-14,6738
2021-02-15,6726
2021-02-16,6732
2021-02-17,6705
2021-02-18,6694
2021-02-19,6682
2021-02-20,6690
2021-02-21,6669
2021-02-22,6684
2021-02-23,6679
2021-02-24,6694
2021-02-25,6681
2021-02-26,6657
2021-02-27,6653
2021-02-28,6645
2021-03-01,6637
2021-03-02,6599
2021-03-03,6608
2021-03-04,6612
2021-03-05,6591
2021-03-06,6598
2021-03-07,6590
2021-03-08,6601
2021-03-09,6605
2021-03-10,6585
2021-03-11,6592
2021-03-12,6600
2021-03-13,6592
2021-03-14,6579
2021-03-15,6574
2021-03-16,6549
2021-03-17,6551
2021-03-18,6547
2021-03-19,6555
2021-03-20,6561
2021-03-21,6567
2021-03-22,6567
2021-03-23,6571
2021-03-24,6569
2021-03-25,6552
2021-03-26,6565
2021-03-27,6561
2021-03-28,6551
2021-03-29,6568
2021-03-30,6570
2021-03-31,6563
2021-04-01,6573
2021-04-02,6532
2021-04-03,6513
2021-04-04,6517
2021-04-05,6530
2021-04-06,6544
2021-04-07,6571
