t,v
2015-07-30,0.0
2015-07-31,0.0
2015-08-01,0.0
2015-08-02,0.0
2015-08-03,0.0
2015-08-04,0.0
2015-08-05,0.0
2015-08-06,0.0
2015-08-07,0.0
2015-08-08,60406183.217628
2015-08-09,60424543.884181
2015-08-10,60366154.309762
2015-08-11,58886656.737466
2015-08-12,58678590.86329
2015-08-13,55402591.669787
2015-08-14,54894683.143897
2015-08-15,60860324.1984
2015-08-16,60279642.119563
2015-08-17,64327632.486516
2015-08-18,64487897.256911
2015-08-19,63218468.611719
2015-08-20,58797886.695751
2015-08-21,59181150.075807
2015-08-22,59174570.111802
2015-08-23,60059453.35742
2015-08-24,64467250.790776
2015-08-25,64666003.385164
2015-08-26,64633402.652258
2015-08-27,64665875.080378
2015-08-28,64484979.735725
2015-08-29,64317287.433942
2015-08-30,59149817.147163
2015-08-31,58638019.01233
2015-09-01,59681311.019224
2015-09-02,60342471.911927
2015-09-03,64613002.857495
2015-09-04,64526887.893384
2015-09-05,59521792.560303
2015-09-06,60081661.391705
2015-09-07,64994009.247043
2015-09-08,64777125.016118
2015-09-09,65405029.558388
2015-09-10,65673613.312081
2015-09-11,66095161.285713
2015-09-12,65976250.478021
2015-09-13,66222692.286407
2015-09-14,66261060.87895
2015-09-15,66065802.649393
2015-09-16,66875958.166787
2015-09-17,66886362.944882
2015-09-18,66942570.682839
2015-09-19,66841090.147169
2015-09-20,66080079.108601
2015-09-21,65984953.303384
2015-09-22,66215472.938843
2015-09-23,66461447.179803
2015-09-24,67130914.665986
2015-09-25,67181158.115464
2015-09-26,66940763.520912
2015-09-27,67244120.231785
2015-09-28,67347238.220146
2015-09-29,67297509.416803
2015-09-30,67029583.585564
2015-10-01,67347642.032015
2015-10-02,67203925.194172
2015-10-03,67232550.414583
2015-10-04,67579334.536614
2015-10-05,67655466.890795
2015-10-06,67424709.204081
2015-10-07,67650464.760014
2015-10-08,67381417.870885
2015-10-09,67387693.13489
2015-10-10,67662582.528755
2015-10-11,67448138.748138
2015-10-12,67733359.617735
2015-10-13,67697014.611512
2015-10-14,67905227.958519
2015-10-15,67902534.259448
2015-10-16,67920855.011723
2015-10-17,67921148.978587
2015-10-18,67972199.595125
2015-10-19,68013276.980742
2015-10-20,68040501.373741
2015-10-21,68046221.458389
2015-10-22,66649877.319356
2015-10-23,67535563.980239
2015-10-24,67512611.941072
2015-10-25,66078830.543952
2015-10-26,64626921.388817
2015-10-27,62360221.112801
2015-10-28,61036230.81759
2015-10-29,54653357.876272
2015-10-30,61147717.215819
2015-10-31,62614896.880983
2015-11-01,60864587.361289
2015-11-02,61519973.754377
2015-11-03,61239851.56207
2015-11-04,62799401.561795
2015-11-05,62737116.938518
2015-11-06,61593119.63628
2015-11-07,61676449.191611
2015-11-08,59896349.889016
2015-11-09,61513800.392452
2015-11-10,62993735.645236
2015-11-11,66675715.294445
2015-11-12,63378161.490084
2015-11-13,62975251.265001
2015-11-14,63199262.757937
2015-11-15,62830259.666867
2015-11-16,62183912.994187
2015-11-17,60264392.633816
2015-11-18,61217019.196237
2015-11-19,62569125.033102
2015-11-20,63260965.151415
2015-11-21,61518264.437272
2015-11-22,61711150.34227
2015-11-23,62533549.701581
2015-11-24,64212125.991033
2015-11-25,65778521.896638
2015-11-26,64401965.271308
2015-11-27,65068010.56632
2015-11-28,63685922.342786
2015-11-29,65130415.78996
2015-11-30,65155152.560233
2015-12-01,65169445.983278
2015-12-02,68124340.21031
2015-12-03,68150619.550379
2015-12-04,67248575.037873
2015-12-05,66463253.275643
2015-12-06,68096439.461442
2015-12-07,68457318.528552
2015-12-08,67875909.607892
2015-12-09,68559771.396812
2015-12-10,66790963.505193
2015-12-11,61955915.432793
2015-12-12,60790175.59352
2015-12-13,61540895.753367
2015-12-14,60550138.210181
2015-12-15,59679136.010204
2015-12-16,60143336.184773
2015-12-17,62202449.381899
2015-12-18,63410685.229938
2015-12-19,64087034.296884
2015-12-20,64161120.675248
2015-12-21,64145121.63898
2015-12-22,66818261.990747
2015-12-23,67414556.072228
2015-12-24,66865485.376335
2015-12-25,65315692.272222
2015-12-26,66957626.319823
2015-12-27,67426587.745315
2015-12-28,67387606.606325
2015-12-29,64789373.94722
2015-12-30,62987576.563799
2015-12-31,62091995.559882
2016-01-01,61810906.999937
2016-01-02,62047014.988684
2016-01-03,60519056.858129
2016-01-04,61518532.79672
2016-01-05,61108344.962581
2016-01-06,61337646.9628
2016-01-07,62200425.708221
2016-01-08,59796134.807047
2016-01-09,59892516.60024
2016-01-10,59293770.110967
2016-01-11,52380341.021192
2016-01-12,47591401.926597
2016-01-13,48429235.470967
2016-01-14,47406243.671754
2016-01-15,47279520.436974
2016-01-16,47048802.668361
2016-01-17,45569201.349747
2016-01-18,44424501.116152
2016-01-19,45610605.812264
2016-01-20,43614342.380636
2016-01-21,43599015.638658
2016-01-22,43791988.10814
2016-01-23,42043130.088889
2016-01-24,42000387.178772
2016-01-25,41540538.97007
2016-01-26,42135685.403076
2016-01-27,41927415.887057
2016-01-28,41430494.401551
2016-01-29,41501211.857077
2016-01-30,42427221.429057
2016-01-31,42859100.596354
2016-02-01,43196423.364472
2016-02-02,41605299.489248
2016-02-03,41073107.730616
2016-02-04,40619884.025208
2016-02-05,41025308.377207
2016-02-06,40989475.016967
2016-02-07,26193.541765
2016-02-08,115426.112103
2016-02-09,0.0
2016-02-10,449793.471557
2016-02-11,104842.747816
2016-02-12,998130.473881
2016-02-13,817461.297908
2016-02-14,1025258.618297
2016-02-15,1224640.211791
2016-02-16,3013767.399322
2016-02-17,3940616.460859
2016-02-18,3150068.194038
2016-02-19,2420318.299563
2016-02-20,3221036.780237
2016-02-21,2216596.129785
2016-02-22,366120.764073
2016-02-23,461972.524977
2016-02-24,69164.757659
2016-02-25,226852.152882
2016-02-26,1983889.295639
2016-02-27,56642.57552
2016-02-28,255370.20854
2016-02-29,551092.145136
2016-03-01,5662.010984
2016-03-02,106522.027982
2016-03-03,301910.173005
2016-03-04,349.930533
2016-03-05,1009762.598399
2016-03-06,829903.589846
2016-03-07,2068627.889282
2016-03-08,2911971.456131
2016-03-09,652668.534165
2016-03-10,339639.29488
2016-03-11,318490.960876
2016-03-12,155151.328924
2016-03-13,417721.495435
2016-03-14,1396877.995715
2016-03-15,1159609.972459
2016-03-16,1943559.781241
2016-03-17,3999262.748445
2016-03-18,3981261.959243
2016-03-19,4480968.97513
2016-03-20,4920495.76684
2016-03-21,2183589.893378
2016-03-22,3945305.783108
2016-03-23,1625979.819466
2016-03-24,4557763.024513
2016-03-25,5648172.479983
2016-03-26,4782564.307052
2016-03-27,6529359.698302
2016-03-28,2698423.164615
2016-03-29,2727721.210188
2016-03-30,2579728.860412
2016-03-31,4247063.80226
2016-04-01,3358425.715844
2016-04-02,3365640.809957
2016-04-03,3514090.165122
2016-04-04,5815910.873926
2016-04-05,6536178.974374
2016-04-06,7389377.93801
2016-04-07,8463962.501438
2016-04-08,10232266.043452
2016-04-09,11527371.578195
2016-04-10,11558414.97801
2016-04-11,11759330.505923
2016-04-12,13310060.775959
2016-04-13,12640197.709665
2016-04-14,12195166.783273
2016-04-15,12545662.44517
2016-04-16,11383799.163754
2016-04-17,9955159.131672
2016-04-18,10888281.962601
2016-04-19,11735808.16093
2016-04-20,12072891.917461
2016-04-21,13217608.322901
2016-04-22,13692564.507611
2016-04-23,12512132.034416
2016-04-24,13307054.009021
2016-04-25,14545304.523819
2016-04-26,14719810.13204
2016-04-27,13893335.476739
2016-04-28,15121513.807194
2016-04-29,14988308.945234
2016-04-30,11543516.195524
2016-05-01,11417786.066902
2016-05-02,5838074.330189
2016-05-03,9526739.501327
2016-05-04,9609932.348167
2016-05-05,7615881.510152
2016-05-06,9641879.96445
2016-05-07,9748600.376025
2016-05-08,9111406.112194
2016-05-09,10374910.398085
2016-05-10,8103274.44363
2016-05-11,4811190.746333
2016-05-12,5419704.018691
2016-05-13,3425933.405694
2016-05-14,6232820.955796
2016-05-15,7202918.481902
2016-05-16,2700515.445479
2016-05-17,950020.212013
2016-05-18,227568.417075
2016-05-19,31139.808703
2016-05-20,1519037.889231
2016-05-21,441290.168508
2016-05-22,326987.248039
2016-05-23,1926292.573997
2016-05-24,2452464.020212
2016-05-25,2670340.503121
2016-05-26,2743174.545623
2016-05-27,6621109.956865
2016-05-28,3899166.016925
2016-05-29,2395409.692157
2016-05-30,2411865.398192
2016-05-31,170328.872626
2016-06-01,711802.156219
2016-06-02,823121.405898
2016-06-03,287605.494546
2016-06-04,832104.600029
2016-06-05,750175.744778
2016-06-06,592716.853575
2016-06-07,49777.718294
2016-06-08,168955.474013
2016-06-09,343337.091354
2016-06-10,1729459.293604
2016-06-11,1182796.675624
2016-06-12,158.51649
2016-06-13,176.720767
2016-06-14,1417.961102
2016-06-15,97050.136651
2016-06-16,30624.612173
2016-06-17,2521920.778164
2016-06-18,10963217.730122
2016-06-19,6705793.970596
2016-06-20,9929234.345498
2016-06-21,3611304.439582
2016-06-22,5196448.506711
2016-06-23,3508311.115733
2016-06-24,2152309.047835
2016-06-25,1658416.498571
2016-06-26,4265272.581267
2016-06-27,960692.094001
2016-06-28,10062518.564693
2016-06-29,8263624.591014
2016-06-30,9675634.035618
2016-07-01,10393768.240795
2016-07-02,10738806.553618
2016-07-03,12191889.218529
2016-07-04,13580999.021094
2016-07-05,13276125.29828
2016-07-06,15404664.434998
2016-07-07,18443223.144129
2016-07-08,12489907.639385
2016-07-09,15365918.610881
2016-07-10,14598733.01442
2016-07-11,16165236.258991
2016-07-12,15891289.380227
2016-07-13,16549754.423489
2016-07-14,12189117.456752
2016-07-15,9849072.103154
2016-07-16,12402929.88084
2016-07-17,15876239.174761
2016-07-18,17042176.121799
2016-07-19,7243131.737035
2016-07-20,7627135.121725
2016-07-21,4546150.686092
2016-07-22,305876.913441
2016-07-23,1055227.606636
2016-07-24,21600273.325968
2016-07-25,2912016.329164
2016-07-26,25098236.281538
2016-07-27,5268588.262606
2016-07-28,5997336.383423
2016-07-29,7943916.152861
2016-07-30,16305165.488334
2016-07-31,29922761.930626
2016-08-01,32404595.833741
2016-08-02,34932267.803373
2016-08-03,32997112.838642
2016-08-04,29124235.838923
2016-08-05,32834218.203904
2016-08-06,32945608.254836
2016-08-07,33270969.714177
2016-08-08,30581555.127691
2016-08-09,22442523.48687
2016-08-10,23454917.254923
2016-08-11,29725780.605228
2016-08-12,28022298.229368
2016-08-13,30631150.709131
2016-08-14,35229215.028454
2016-08-15,33890415.700438
2016-08-16,35335783.212205
2016-08-17,37242583.328517
2016-08-18,38096815.67642
2016-08-19,38302918.330664
2016-08-20,37082786.344023
2016-08-21,33795947.159403
2016-08-22,32482291.016694
2016-08-23,37675706.409455
2016-08-24,38207718.994101
2016-08-25,34504708.964001
2016-08-26,33857985.18443
2016-08-27,34127599.540992
2016-08-28,38099520.091752
2016-08-29,38231752.7976
2016-08-30,33273130.021067
2016-08-31,28067639.419875
2016-09-01,22487760.970879
2016-09-02,10328451.362668
2016-09-03,26033335.056634
2016-09-04,28409687.157224
2016-09-05,25992218.195197
2016-09-06,25762035.616718
2016-09-07,29883473.274486
2016-09-08,33517757.336376
2016-09-09,28464540.827568
2016-09-10,25400681.610851
2016-09-11,29302259.399659
2016-09-12,26774036.170479
2016-09-13,24647731.037463
2016-09-14,25356983.056435
2016-09-15,25427933.141834
2016-09-16,10026174.288036
2016-09-17,7379533.648488
2016-09-18,18291940.959899
2016-09-19,3338569.358925
2016-09-20,574342.711154
2016-09-21,964397.868266
2016-09-22,4223473.85015
2016-09-23,3403498.757
2016-09-24,7317144.93153
2016-09-25,6374667.182488
2016-09-26,6719748.533367
2016-09-27,6675263.999362
2016-09-28,3486149.819216
2016-09-29,5778721.03456
2016-09-30,6179376.063313
2016-10-01,5349821.718691
2016-10-02,5208313.439156
2016-10-03,2772416.292799
2016-10-04,3448339.414285
2016-10-05,9000455.151228
2016-10-06,10170076.525331
2016-10-07,11656909.237529
2016-10-08,29296815.870088
2016-10-09,25907372.812816
2016-10-10,36026349.340194
2016-10-11,36703738.59894
2016-10-12,35256024.390408
2016-10-13,28972981.369101
2016-10-14,33214437.301168
2016-10-15,29825765.606716
2016-10-16,30223754.162012
2016-10-17,26751135.931094
2016-10-18,14580728.110374
2016-10-19,33331612.683999
2016-10-20,27920479.136106
2016-10-21,30584764.710692
2016-10-22,29639283.13922
2016-10-23,29517527.579986
2016-10-24,31481284.134334
2016-10-25,42201941.467724
2016-10-26,39756596.917608
2016-10-27,41734442.223854
2016-10-28,45385703.449426
2016-10-29,47435316.251728
2016-10-30,41821679.222051
2016-10-31,45189973.159115
2016-11-01,46965112.769922
2016-11-02,46924353.896686
2016-11-03,46694558.961776
2016-11-04,42146520.483696
2016-11-05,44589266.85871
2016-11-06,46044264.299632
2016-11-07,45404153.255495
2016-11-08,46043870.721103
2016-11-09,47037946.133893
2016-11-10,47674358.237938
2016-11-11,47735953.223602
2016-11-12,48688523.653262
2016-11-13,47761615.352263
2016-11-14,48114457.874373
2016-11-15,46555312.767143
2016-11-16,48269668.552924
2016-11-17,47687224.103308
2016-11-18,48241314.790398
2016-11-19,47684262.380349
2016-11-20,48415609.928893
2016-11-21,48189509.048916
2016-11-22,46962194.316851
2016-11-23,47911272.728384
2016-11-24,48735859.5348
2016-11-25,48401848.858319
2016-11-26,48334640.342805
2016-11-27,48329281.117185
2016-11-28,56394991.164081
2016-11-29,56447357.791537
2016-11-30,56362872.942012
2016-12-01,56524369.092439
2016-12-02,56792836.906088
2016-12-03,55243343.44058
2016-12-04,56488469.26847
2016-12-05,56806699.589004
2016-12-06,54191828.154009
2016-12-07,53464274.544256
2016-12-08,53925306.195017
2016-12-09,52920711.45069
2016-12-10,54190205.011441
2016-12-11,53556410.42569
2016-12-12,52869778.858152
2016-12-13,53664134.196441
2016-12-14,53697956.000941
2016-12-15,56140041.243447
2016-12-16,55983315.679541
2016-12-17,56335855.375869
2016-12-18,55019461.163971
2016-12-19,56558618.103202
2016-12-20,56708252.537309
2016-12-21,53968206.004448
2016-12-22,55499443.458521
2016-12-23,57505973.078948
2016-12-24,57544637.356942
2016-12-25,57600176.131499
2016-12-26,57442069.112484
2016-12-27,57676658.824584
2016-12-28,51993813.818748
2016-12-29,52698009.199765
2016-12-30,52453726.419839
2016-12-31,53256890.502594
2017-01-01,53760697.219771
2017-01-02,51748952.648537
2017-01-03,41961679.079
2017-01-04,32021384.739991
2017-01-05,40226093.813402
2017-01-06,40279883.681818
2017-01-07,41002802.155368
2017-01-08,39285856.73752
2017-01-09,39958530.676966
2017-01-10,36016614.992786
2017-01-11,42455392.682047
2017-01-12,44629409.345588
2017-01-13,40038411.928451
2017-01-14,43330015.061804
2017-01-15,44244388.458826
2017-01-16,45685728.357446
2017-01-17,40250687.792967
2017-01-18,39391984.879661
2017-01-19,38858497.384864
2017-01-20,34370763.358793
2017-01-21,33900518.021342
2017-01-22,34597567.315038
2017-01-23,34448902.258778
2017-01-24,36922625.039424
2017-01-25,35833502.070635
2017-01-26,34780089.014922
2017-01-27,34929389.50284
2017-01-28,37149566.852838
2017-01-29,37478948.487302
2017-01-30,34561575.356632
2017-01-31,34363731.024231
2017-02-01,34618207.858847
2017-02-02,34143061.216235
2017-02-03,32926051.533709
2017-02-04,28714781.533711
2017-02-05,30492953.25919
2017-02-06,29370174.981479
2017-02-07,27218279.220881
2017-02-08,27632504.848255
2017-02-09,33894469.788509
2017-02-10,29636994.441408
2017-02-11,28774349.644292
2017-02-12,28622789.8209
2017-02-13,30103071.37836
2017-02-14,4074779.008514
2017-02-15,5028930.493068
2017-02-16,5565845.838136
2017-02-17,7532311.849603
2017-02-18,6842155.671609
2017-02-19,7314040.157477
2017-02-20,8884180.096966
2017-02-21,6246934.470353
2017-02-22,8621694.460834
2017-02-23,3652451.984395
2017-02-24,3995445.268558
2017-02-25,726844.487442
2017-02-26,96163.485817
2017-02-27,95094.078198
2017-02-28,99276.721574
2017-03-01,15404.492124
2017-03-02,254121.287896
2017-03-03,498854.833141
2017-03-04,1363604.350046
2017-03-05,802565.30411
2017-03-06,452681.513578
2017-03-07,1804625.413361
2017-03-08,4163038.037763
2017-03-09,2901725.329112
2017-03-10,1051688.961798
2017-03-11,434.69525
2017-03-12,89979.965805
2017-03-13,269608.589854
2017-03-14,242822.104852
2017-03-15,0.0
2017-03-16,101478.257724
2017-03-17,722088.080986
2017-03-18,4007510.422872
2017-03-19,990874.849881
2017-03-20,2012887.361252
2017-03-21,1984258.9766
2017-03-22,2407631.281696
2017-03-23,1003516.321702
2017-03-24,60843.250146
2017-03-25,168764.281408
2017-03-26,955901.723878
2017-03-27,1805851.655674
2017-03-28,1119295.356002
2017-03-29,107497.353116
2017-03-30,687145.52496
2017-03-31,4149752.621621
2017-04-01,1750010.270235
2017-04-02,4793956.927811
2017-04-03,7235504.249982
2017-04-04,6369026.111271
2017-04-05,6421731.332262
2017-04-06,7820801.936657
2017-04-07,9492841.111748
2017-04-08,6780001.0394
2017-04-09,7825309.426736
2017-04-10,7577699.842471
2017-04-11,8075422.976249
2017-04-12,4006665.484969
2017-04-13,1418537.396911
2017-04-14,3605322.729815
2017-04-15,2766710.944231
2017-04-16,3073751.958101
2017-04-17,3032941.946835
2017-04-18,1470571.13983
2017-04-19,4658874.269382
2017-04-20,2119782.061468
2017-04-21,3668576.251441
2017-04-22,3681027.641135
2017-04-23,3359859.530644
2017-04-24,1238135.163918
2017-04-25,1439704.170212
2017-04-26,327784.337826
2017-04-27,456.073595
2017-04-28,52144.286708
2017-04-29,680233.230969
2017-04-30,71385.478972
2017-05-01,1027123.378208
2017-05-02,1088929.187386
2017-05-03,835008.053893
2017-05-04,36747.904822
2017-05-05,660308.243787
2017-05-06,154238.982802
2017-05-07,1514286.29002
2017-05-08,2185872.440124
2017-05-09,2200206.084012
2017-05-10,2045380.264334
2017-05-11,2566103.693184
2017-05-12,3977495.901899
2017-05-13,2607144.077499
2017-05-14,2299912.104869
2017-05-15,1902209.639709
2017-05-16,4535523.729749
2017-05-17,5021108.496832
2017-05-18,108412.270287
2017-05-19,38838.7125
2017-05-20,304948.412824
2017-05-21,41553.760611
2017-05-22,178893.519372
2017-05-23,94309.639555
2017-05-24,145643.589056
2017-05-25,1378697.613598
2017-05-26,2986057.543724
2017-05-27,3173239.365467
2017-05-28,1724037.658793
2017-05-29,206665.124683
2017-05-30,8681.864795
2017-05-31,30311.689105
2017-06-01,1503662.638105
2017-06-02,962328.371102
2017-06-03,497942.447267
2017-06-04,266092.602656
2017-06-05,52393.042905
2017-06-06,2729.947691
2017-06-07,1039274.252351
2017-06-08,650775.100805
2017-06-09,0.0
2017-06-10,77507.679521
2017-06-11,238790.62769
2017-06-12,58130.015242
2017-06-13,208350.131014
2017-06-14,3087264.885658
2017-06-15,2409317.939337
2017-06-16,2046331.295338
2017-06-17,1121223.002603
2017-06-18,2447523.08922
2017-06-19,1720969.431441
2017-06-20,3759389.457543
2017-06-21,5200497.193836
2017-06-22,5486042.601771
2017-06-23,4280970.475982
2017-06-24,8409786.590966
2017-06-25,9757509.340078
2017-06-26,11415513.908183
2017-06-27,7716919.54225
2017-06-28,3945557.663533
2017-06-29,8959917.138999
2017-06-30,10285455.921831
2017-07-01,12709110.907958
2017-07-02,9314827.560314
2017-07-03,10813459.563065
2017-07-04,12509544.065017
2017-07-05,12443029.349648
2017-07-06,12568431.808432
2017-07-07,15241363.616874
2017-07-08,14865125.075711
2017-07-09,15696335.432356
2017-07-10,16951648.092206
2017-07-11,17862409.465678
2017-07-12,15349784.832385
2017-07-13,17453056.148198
2017-07-14,18240332.442563
2017-07-15,20662603.395947
2017-07-16,21238608.1288
2017-07-17,17326514.606557
2017-07-18,14038539.547311
2017-07-19,19262788.828139
2017-07-20,13950721.175897
2017-07-21,16102922.470252
2017-07-22,13771352.207263
2017-07-23,14091989.474467
2017-07-24,15190906.525568
2017-07-25,18920096.44523
2017-07-26,18837710.188734
2017-07-27,18482153.133743
2017-07-28,20874589.015712
2017-07-29,16347538.174313
2017-07-30,19189211.230818
2017-07-31,17733792.422197
2017-08-01,13132261.39893
2017-08-02,14617960.164233
2017-08-03,13676726.510668
2017-08-04,14943882.14208
2017-08-05,8587571.423799
2017-08-06,7695731.391896
2017-08-07,6402696.152168
2017-08-08,4813125.219233
2017-08-09,5169460.445249
2017-08-10,3833663.063069
2017-08-11,2598511.525351
2017-08-12,3096612.761777
2017-08-13,5936090.110539
2017-08-14,4484740.395964
2017-08-15,7684220.837867
2017-08-16,3386982.013865
2017-08-17,3889933.800185
2017-08-18,7973508.929529
2017-08-19,7691588.158341
2017-08-20,5781296.381239
2017-08-21,2339154.851501
2017-08-22,2828848.309704
2017-08-23,2687790.235762
2017-08-24,1653731.19109
2017-08-25,1579018.683838
2017-08-26,1574687.165134
2017-08-27,907763.29231
2017-08-28,894593.379853
2017-08-29,337988.715051
2017-08-30,443743.757038
2017-08-31,203249.374429
2017-09-01,267795.107704
2017-09-02,4439339.282203
2017-09-03,4393254.547315
2017-09-04,12178721.798767
2017-09-05,8260802.927137
2017-09-06,3759884.510836
2017-09-07,4752968.889112
2017-09-08,12026679.158189
2017-09-09,12667508.31117
2017-09-10,12910818.614517
2017-09-11,12921869.159575
2017-09-12,15678519.26807
2017-09-13,17599871.809578
2017-09-14,23772485.627266
2017-09-15,19501169.197493
2017-09-16,20351343.048651
2017-09-17,19142121.508493
2017-09-18,9066013.317953
2017-09-19,15093835.296833
2017-09-20,15023640.554387
2017-09-21,20599889.263602
2017-09-22,19572508.826441
2017-09-23,13573640.726514
2017-09-24,14520542.388228
2017-09-25,10402410.282946
2017-09-26,13477586.291432
2017-09-27,6022142.255034
2017-09-28,7495493.064001
2017-09-29,11621042.925559
2017-09-30,7712744.637687
2017-10-01,7332061.575422
2017-10-02,11407783.356546
2017-10-03,13498283.891076
2017-10-04,13670811.692679
2017-10-05,12160068.519035
2017-10-06,6531262.330327
2017-10-07,5222466.924794
2017-10-08,6219803.058661
2017-10-09,12006609.977339
2017-10-10,9474027.470864
2017-10-11,7458102.422158
2017-10-12,7757159.328374
2017-10-13,2565637.753857
2017-10-14,2590682.525872
2017-10-15,2705738.504896
2017-10-16,3417548.059879
2017-10-17,6255648.541156
2017-10-18,6415111.692969
2017-10-19,8502465.228495
2017-10-20,10165012.906954
2017-10-21,13139577.368816
2017-10-22,17374933.63338
2017-10-23,19933166.672293
2017-10-24,15625926.745884
2017-10-25,15020447.637452
2017-10-26,15750650.074473
2017-10-27,15422730.934487
2017-10-28,16980780.770288
2017-10-29,8595840.89006
2017-10-30,7249274.758108
2017-10-31,9065898.297801
2017-11-01,19780098.926898
2017-11-02,21073363.492025
2017-11-03,7544213.252396
2017-11-04,10867924.32472
2017-11-05,16097480.52179
2017-11-06,14562416.36276
2017-11-07,19279098.878237
2017-11-08,6286221.066698
2017-11-09,4392274.572574
2017-11-10,15364227.577232
2017-11-11,5378781.919542
2017-11-12,8197230.071621
2017-11-13,5141198.634563
2017-11-14,2432175.802796
2017-11-15,3091944.441857
2017-11-16,3288122.78277
2017-11-17,3172233.106689
2017-11-18,1554482.320913
2017-11-19,1396680.844681
2017-11-20,822235.05645
2017-11-21,2176129.685165
2017-11-22,542021.059827
2017-11-23,229836.931905
2017-11-24,7560.41894
2017-11-25,340684.473156
2017-11-26,137804.143099
2017-11-27,111007.087117
2017-11-28,720685.521171
2017-11-29,2961361.836535
2017-11-30,3210855.25098
2017-12-01,1209113.202365
2017-12-02,1752012.660301
2017-12-03,1571976.668006
2017-12-04,1151258.510155
2017-12-05,2693304.63982
2017-12-06,5964430.362508
2017-12-07,5578332.801958
2017-12-08,2352722.543332
2017-12-09,945402.375808
2017-12-10,5182411.121494
2017-12-11,13813.918938
2017-12-12,13462.884898
2017-12-13,122539.589317
2017-12-14,648178.900171
2017-12-15,585817.765891
2017-12-16,619609.268611
2017-12-17,425557.599809
2017-12-18,117785.839802
2017-12-19,448670.579619
2017-12-20,775775.431899
2017-12-21,1268882.63139
2017-12-22,4421910.381337
2017-12-23,3054495.997296
2017-12-24,4183966.02281
2017-12-25,2285662.018303
2017-12-26,1332225.313051
2017-12-27,2378696.434888
2017-12-28,3722248.295151
2017-12-29,1793052.579065
2017-12-30,6585037.091433
2017-12-31,2035862.360909
2018-01-01,1255150.291471
2018-01-02,175126.453959
2018-01-03,104234.622186
2018-01-04,988630.489364
2018-01-05,874109.052303
2018-01-06,29294.594478
2018-01-07,0.0
2018-01-08,471447.946792
2018-01-09,26269.777451
2018-01-10,1408111.650908
2018-01-11,3904537.423885
2018-01-12,638730.075785
2018-01-13,122097.852976
2018-01-14,295733.44412
2018-01-15,3588092.324488
2018-01-16,7607607.50199
2018-01-17,7131182.92514
2018-01-18,7610379.143417
2018-01-19,7236584.724133
2018-01-20,3333541.715914
2018-01-21,8250561.626176
2018-01-22,9070710.960006
2018-01-23,9463201.102871
2018-01-24,5844595.847785
2018-01-25,7207144.174735
2018-01-26,6805142.468649
2018-01-27,3207156.022302
2018-01-28,1292522.944856
2018-01-29,2776722.237333
2018-01-30,9280911.835864
2018-01-31,5058656.219011
2018-02-01,10580960.131016
2018-02-02,12515180.423099
2018-02-03,10706051.345428
2018-02-04,13932869.529016
2018-02-05,18278515.759613
2018-02-06,13415966.720021
2018-02-07,15000919.250837
2018-02-08,12760204.331073
2018-02-09,10477715.270106
2018-02-10,11526736.701391
2018-02-11,13691859.907038
2018-02-12,10475070.433392
2018-02-13,12498311.157936
2018-02-14,8968336.977305
2018-02-15,9062981.004453
2018-02-16,8347133.943204
2018-02-17,7476304.182016
2018-02-18,9991087.599287
2018-02-19,8988872.961404
2018-02-20,12458517.920028
2018-02-21,13975895.649909
2018-02-22,17822902.199287
2018-02-23,13016809.455451
2018-02-24,14534093.829946
2018-02-25,14101403.126717
2018-02-26,11998113.92797
2018-02-27,11252463.556837
2018-02-28,13750166.597746
2018-03-01,11807676.830991
2018-03-02,13842006.004359
2018-03-03,13938802.647688
2018-03-04,12173295.746391
2018-03-05,14387615.914403
2018-03-06,18951962.361901
2018-03-07,20651103.329502
2018-03-08,23817165.031696
2018-03-09,21528774.392904
2018-03-10,24364878.603979
2018-03-11,21509744.685614
2018-03-12,23828301.842159
2018-03-13,23766931.055964
2018-03-14,25835804.37834
2018-03-15,25688548.774736
2018-03-16,25998836.171149
2018-03-17,26623159.820085
2018-03-18,26279647.371925
2018-03-19,25637522.131971
2018-03-20,25542913.561612
2018-03-21,25763446.154744
2018-03-22,26582972.50611
2018-03-23,26189627.152841
2018-03-24,27001033.481772
2018-03-25,26944936.393861
2018-03-26,27705189.329564
2018-03-27,29540554.589079
2018-03-28,30356703.504602
2018-03-29,32506580.742586
2018-03-30,31953488.722799
2018-03-31,32083957.707475
2018-04-01,32712638.371487
2018-04-02,32406959.738899
2018-04-03,30435850.358693
2018-04-04,32874656.031959
2018-04-05,32556613.843157
2018-04-06,33304291.949489
2018-04-07,31927044.424511
2018-04-08,30710852.746352
2018-04-09,31246287.151854
2018-04-10,29951326.506255
2018-04-11,29569984.890054
2018-04-12,29536687.525841
2018-04-13,29521684.126943
2018-04-14,29493432.470763
2018-04-15,29489100.379038
2018-04-16,23877264.991814
2018-04-17,24364363.261434
2018-04-18,23084375.404591
2018-04-19,21220021.807575
2018-04-20,19223338.088487
2018-04-21,20117012.463846
2018-04-22,18260102.896661
2018-04-23,17352847.666699
2018-04-24,14587533.215513
2018-04-25,20565511.267304
2018-04-26,16773995.707234
2018-04-27,18331601.853436
2018-04-28,15696432.774949
2018-04-29,15364138.349337
2018-04-30,17128258.895146
2018-05-01,16239070.167692
2018-05-02,15331218.887624
2018-05-03,11427856.619902
2018-05-04,11428052.042588
2018-05-05,10406438.675521
2018-05-06,11478371.098041
2018-05-07,13045475.195918
2018-05-08,12875093.912715
2018-05-09,12833877.589355
2018-05-10,15993177.016312
2018-05-11,19476835.24046
2018-05-12,18815265.251409
2018-05-13,14093031.239351
2018-05-14,14284363.068977
2018-05-15,17215033.652181
2018-05-16,17095163.962276
2018-05-17,20833717.501117
2018-05-18,18370855.693643
2018-05-19,18212269.929414
2018-05-20,15316548.203685
2018-05-21,18228820.611432
2018-05-22,23841436.44464
2018-05-23,26293419.442406
2018-05-24,25266177.243427
2018-05-25,26528581.495553
2018-05-26,26323922.745425
2018-05-27,26735919.624763
2018-05-28,29738689.770449
2018-05-29,26492097.020224
2018-05-30,27387758.739319
2018-05-31,25036256.456657
2018-06-01,25121051.111331
2018-06-02,23961122.537998
2018-06-03,22002096.278165
2018-06-04,24618938.548196
2018-06-05,22334183.276679
2018-06-06,22821522.421324
2018-06-07,23558761.049419
2018-06-08,24368514.468533
2018-06-09,24957890.63484
2018-06-10,30613567.971214
2018-06-11,30052958.414755
2018-06-12,31605149.795741
2018-06-13,32032472.115495
2018-06-14,29531120.889734
2018-06-15,31601204.736781
2018-06-16,30595537.418739
2018-06-17,30608144.550878
2018-06-18,28851209.690151
2018-06-19,27329434.574509
2018-06-20,27375360.259223
2018-06-21,28869716.415635
2018-06-22,33907426.646132
2018-06-23,32596095.191351
2018-06-24,34019295.797354
2018-06-25,33947461.601485
2018-06-26,36085050.70596
2018-06-27,35464924.15915
2018-06-28,36358077.107307
2018-06-29,35001436.645448
2018-06-30,32970204.026822
2018-07-01,33074776.104985
2018-07-02,30407265.214133
2018-07-03,32867676.165563
2018-07-04,31992053.446658
2018-07-05,30504809.312997
2018-07-06,30389757.554284
2018-07-07,28451097.21516
2018-07-08,28839123.195992
2018-07-09,30804881.047679
2018-07-10,36531674.665026
2018-07-11,35607268.586667
2018-07-12,36744453.353032
2018-07-13,36629573.252135
2018-07-14,36292686.920415
2018-07-15,33865827.542295
2018-07-16,28793456.693425
2018-07-17,26981782.576997
2018-07-18,29421964.452544
2018-07-19,31762499.325009
2018-07-20,34984830.912751
2018-07-21,33385317.285422
2018-07-22,33909729.069851
2018-07-23,35021759.240671
2018-07-24,28555313.755321
2018-07-25,29524033.331839
2018-07-26,33555291.676235
2018-07-27,31040510.099327
2018-07-28,32389418.649838
2018-07-29,32175848.975558
2018-07-30,34790450.54406
2018-07-31,37255831.482429
2018-08-01,37724174.007078
2018-08-02,37942288.439092
2018-08-03,37152855.443862
2018-08-04,38118497.196415
2018-08-05,37837108.759566
2018-08-06,38135969.44324
2018-08-07,39213648.519694
2018-08-08,40180986.655281
2018-08-09,39347345.146373
2018-08-10,41689368.553997
2018-08-11,42476978.917508
2018-08-12,42751926.781372
2018-08-13,48475795.850428
2018-08-14,48411236.264139
2018-08-15,48462078.114546
2018-08-16,48041268.28933
2018-08-17,41124519.098237
2018-08-18,46416097.071867
2018-08-19,43517344.795152
2018-08-20,49056780.722737
2018-08-21,48622237.089518
2018-08-22,49203833.466033
2018-08-23,48711452.586915
2018-08-24,47820348.660711
2018-08-25,48505506.672515
2018-08-26,49267540.956694
2018-08-27,47160320.26373
2018-08-28,44323517.494153
2018-08-29,46318556.05564
2018-08-30,47994314.033475
2018-08-31,48061272.940204
2018-09-01,44540514.363425
2018-09-02,44943119.126129
2018-09-03,46455604.316327
2018-09-04,48338451.59516
2018-09-05,52489388.586636
2018-09-06,52211450.925994
2018-09-07,53195095.421281
2018-09-08,54222923.035634
2018-09-09,54164717.338277
2018-09-10,53970559.402807
2018-09-11,54655787.96543
2018-09-12,54036895.565606
2018-09-13,51246956.429731
2018-09-14,51283559.957154
2018-09-15,50382296.437907
2018-09-16,50541462.311842
2018-09-17,54243108.070043
2018-09-18,51475590.276118
2018-09-19,51805205.08753
2018-09-20,49338874.592046
2018-09-21,47473218.956719
2018-09-22,48079248.355877
2018-09-23,47696470.779647
2018-09-24,50179338.951743
2018-09-25,51869413.28672
2018-09-26,52194623.002356
2018-09-27,49148907.482206
2018-09-28,51071682.294123
2018-09-29,48622523.653138
2018-09-30,48546447.740661
2018-10-01,49020670.102676
2018-10-02,50013150.473514
2018-10-03,52175931.022274
2018-10-04,52005530.931567
2018-10-05,48882706.901166
2018-10-06,50207783.437244
2018-10-07,49153955.98061
2018-10-08,48177745.000591
2018-10-09,48646899.551167
2018-10-10,50074096.553191
2018-10-11,55816188.367338
2018-10-12,55389320.869176
2018-10-13,54873369.356848
2018-10-14,55629609.200784
2018-10-15,52486938.826475
2018-10-16,52777192.053775
2018-10-17,54389714.40662
2018-10-18,54998854.619407
2018-10-19,54786879.820113
2018-10-20,54258925.239322
2018-10-21,54574054.66066
2018-10-22,55021318.91135
2018-10-23,54576523.009264
2018-10-24,54884083.211975
2018-10-25,54703698.291285
2018-10-26,54422992.729022
2018-10-27,53226151.929795
2018-10-28,52515523.138486
2018-10-29,56211999.701175
2018-10-30,55905242.666217
2018-10-31,56038959.934321
2018-11-01,55524787.923274
2018-11-02,54392698.996543
2018-11-03,54980551.467055
2018-11-04,49884016.45222
2018-11-05,49681783.335173
2018-11-06,47409119.343639
2018-11-07,47789262.859276
2018-11-08,49043798.941839
2018-11-09,51041598.010287
2018-11-10,49067754.607171
2018-11-11,49774466.768908
2018-11-12,51301372.72206
2018-11-13,53881596.22265
2018-11-14,57349575.611728
2018-11-15,56949274.564262
2018-11-16,57651485.874603
2018-11-17,57650463.018049
2018-11-18,57102892.916121
2018-11-19,58988973.106776
2018-11-20,59637553.700187
2018-11-21,58388697.085479
2018-11-22,59839481.24923
2018-11-23,59792609.329147
2018-11-24,60413874.911316
2018-11-25,59765476.45636
2018-11-26,60424041.893463
2018-11-27,59900815.26652
2018-11-28,58277134.811546
2018-11-29,59517407.426778
2018-11-30,60931550.513201
2018-12-01,54524423.191008
2018-12-02,57681980.903554
2018-12-03,67283162.439794
2018-12-04,66975800.875824
2018-12-05,67940165.158031
2018-12-06,68740105.475751
2018-12-07,67780424.242596
2018-12-08,67822645.138865
2018-12-09,67010346.537632
2018-12-10,68489426.559935
2018-12-11,68702111.431724
2018-12-12,68406175.439172
2018-12-13,69031545.259584
2018-12-14,69165920.47826
2018-12-15,68981002.114144
2018-12-16,68994587.693404
2018-12-17,64965839.852831
2018-12-18,63647930.650078
2018-12-19,64284761.233737
2018-12-20,51547232.032194
2018-12-21,63863899.56823
2018-12-22,51691720.644044
2018-12-23,49214615.075034
2018-12-24,48725403.722481
2018-12-25,50239323.716247
2018-12-26,49872832.101988
2018-12-27,53930431.660922
2018-12-28,48525629.142313
2018-12-29,48933778.957723
2018-12-30,48175515.980107
2018-12-31,50396367.203621
2019-01-01,48004903.767086
2019-01-02,47132047.435316
2019-01-03,48146422.127525
2019-01-04,46631410.76271
2019-01-05,46902221.989787
2019-01-06,45196004.155528
2019-01-07,48907876.055188
2019-01-08,49029093.699403
2019-01-09,49131803.038458
2019-01-10,53921686.516706
2019-01-11,54598168.844689
2019-01-12,54869110.266785
2019-01-13,58726119.354936
2019-01-14,52001542.280951
2019-01-15,56118762.012208
2019-01-16,55300690.494591
2019-01-17,54985046.405138
2019-01-18,56552982.557246
2019-01-19,54416228.634203
2019-01-20,56887252.209821
2019-01-21,58841491.39477
2019-01-22,56647503.987808
2019-01-23,58788656.739076
2019-01-24,58513028.800597
2019-01-25,59073811.365705
2019-01-26,59087913.772297
2019-01-27,61841123.269953
2019-01-28,68732732.313501
2019-01-29,68954307.704425
2019-01-30,67559939.824581
2019-01-31,68702503.551819
2019-02-01,67792982.382842
2019-02-02,66753399.520366
2019-02-03,68644969.661395
2019-02-04,68556019.126343
2019-02-05,68891086.582879
2019-02-06,69282397.261262
2019-02-07,69541920.66567
2019-02-08,52758014.521025
2019-02-09,52694653.680973
2019-02-10,50529751.627084
2019-02-11,51493857.530737
2019-02-12,51077652.02372
2019-02-13,51279604.861079
2019-02-14,52144825.754137
2019-02-15,51763503.624409
2019-02-16,50574964.379495
2019-02-17,46814825.575399
2019-02-18,44705711.881479
2019-02-19,45245684.062508
2019-02-20,43954614.499995
2019-02-21,46262338.7398
2019-02-22,43810236.392124
2019-02-23,41537969.806011
2019-02-24,50274304.265502
2019-02-25,47811227.522548
2019-02-26,49100665.398285
2019-02-27,49862001.118712
2019-02-28,49971563.790453
2019-03-01,50154050.89659
2019-03-02,50725069.282353
2019-03-03,51254567.854251
2019-03-04,54367944.768191
2019-03-05,47159279.221598
2019-03-06,46531306.282225
2019-03-07,47667885.7159
2019-03-08,50523913.742397
2019-03-09,47623851.920905
2019-03-10,49034218.288646
2019-03-11,51320245.226023
2019-03-12,50663267.823597
2019-03-13,51812553.321576
2019-03-14,51243303.877436
2019-03-15,46737174.907344
2019-03-16,44651790.639144
2019-03-17,45318601.88102
2019-03-18,45820756.9252
2019-03-19,45060113.382309
2019-03-20,44853469.257323
2019-03-21,50092865.235489
2019-03-22,49520976.014472
2019-03-23,47200540.375466
2019-03-24,50198029.512838
2019-03-25,51710521.594842
2019-03-26,50972018.249801
2019-03-27,44487965.461942
2019-03-28,45725420.835544
2019-03-29,44023626.723461
2019-03-30,43934963.052278
2019-03-31,44007309.907078
2019-04-01,45427033.698805
2019-04-02,38895381.341609
2019-04-03,39809891.703002
2019-04-04,40570666.261104
2019-04-05,38720224.62902
2019-04-06,38720378.151261
2019-04-07,38080223.41651
2019-04-08,37974407.690975
2019-04-09,39062672.131377
2019-04-10,38883171.439898
2019-04-11,40855219.083107
2019-04-12,41137680.420871
2019-04-13,41076858.482653
2019-04-14,39375994.091388
2019-04-15,42151489.235978
2019-04-16,39057603.676999
2019-04-17,39265925.524784
2019-04-18,38241553.698719
2019-04-19,38154935.135513
2019-04-20,38325281.10867
2019-04-21,39592726.763092
2019-04-22,38588747.425061
2019-04-23,39824454.290648
2019-04-24,41694607.173375
2019-04-25,45948497.712904
2019-04-26,44899481.411131
2019-04-27,43469876.760461
2019-04-28,44198513.018206
2019-04-29,45590648.591099
2019-04-30,40843674.145717
2019-05-01,41820811.206781
2019-05-02,40645803.452319
2019-05-03,37856943.22463
2019-05-04,40465526.234108
2019-05-05,40926468.549963
2019-05-06,37055341.629957
2019-05-07,38480819.682954
2019-05-08,37631812.142771
2019-05-09,38214174.124626
2019-05-10,37321071.331083
2019-05-11,33844010.038841
2019-05-12,34531136.822597
2019-05-13,33709455.095333
2019-05-14,31320119.26825
2019-05-15,28098777.099864
2019-05-16,28019574.564917
2019-05-17,29553029.101542
2019-05-18,32636583.20454
2019-05-19,27904878.875938
2019-05-20,28807259.515713
2019-05-21,28479124.708457
2019-05-22,30943635.549701
2019-05-23,30185132.424806
2019-05-24,29452396.129404
2019-05-25,29048044.224245
2019-05-26,26906707.587795
2019-05-27,25641510.263368
2019-05-28,25823187.868238
2019-05-29,26453995.86382
2019-05-30,31450301.140552
2019-05-31,26379886.647487
2019-06-01,28800047.626639
2019-06-02,26068458.474292
2019-06-03,32754490.822985
2019-06-04,35138167.629018
2019-06-05,33019813.350851
2019-06-06,32300114.180261
2019-06-07,31743596.214332
2019-06-08,33879157.155795
2019-06-09,37702845.697825
2019-06-10,32254852.886493
2019-06-11,32586360.764136
2019-06-12,28706583.051557
2019-06-13,29762678.373692
2019-06-14,27554993.046452
2019-06-15,25740899.114312
2019-06-16,25999936.818066
2019-06-17,25125386.934007
2019-06-18,28494473.634879
2019-06-19,25956871.477512
2019-06-20,25405644.513523
2019-06-21,23352899.844106
2019-06-22,20639391.468158
2019-06-23,21200586.37598
2019-06-24,20682753.015049
2019-06-25,20041676.93944
2019-06-26,18297158.656259
2019-06-27,26543566.82252
2019-06-28,21502487.110788
2019-06-29,20103482.754812
2019-06-30,27453310.137079
2019-07-01,26964066.635315
2019-07-02,27118162.675862
2019-07-03,22308555.422943
2019-07-04,30012566.920305
2019-07-05,28215011.288777
2019-07-06,28407915.776914
2019-07-07,21754427.765004
2019-07-08,20648730.479079
2019-07-09,23910337.231532
2019-07-10,30902071.285461
2019-07-11,35508908.016533
2019-07-12,33562152.75983
2019-07-13,35222634.156952
2019-07-14,43289024.959594
2019-07-15,42913416.082374
2019-07-16,48660538.569892
2019-07-17,46579178.141322
2019-07-18,42469466.219861
2019-07-19,45015338.130707
2019-07-20,41934914.825135
2019-07-21,42586140.683255
2019-07-22,46141203.770929
2019-07-23,46969679.693352
2019-07-24,45794689.90101
2019-07-25,45371061.265747
2019-07-26,44723732.323038
2019-07-27,48012668.485318
2019-07-28,47345685.048636
2019-07-29,46953059.971719
2019-07-30,47285505.878099
2019-07-31,44083119.046768
2019-08-01,43605022.207938
2019-08-02,43785167.739662
2019-08-03,40733109.842217
2019-08-04,40494203.991074
2019-08-05,37926758.380195
2019-08-06,40514660.541685
2019-08-07,40357134.525666
2019-08-08,44701731.272357
2019-08-09,48209726.374036
2019-08-10,48825754.247054
2019-08-11,45894382.198849
2019-08-12,48140841.236759
2019-08-13,48695386.789985
2019-08-14,51498665.228692
2019-08-15,50896651.621935
2019-08-16,51206114.646809
2019-08-17,50983343.12058
2019-08-18,49995391.775934
2019-08-19,47354047.825349
2019-08-20,49837623.420394
2019-08-21,51169362.593131
2019-08-22,50292319.597069
2019-08-23,49643676.293783
2019-08-24,50222865.917204
2019-08-25,51467145.302343
2019-08-26,50808082.107088
2019-08-27,51360253.741874
2019-08-28,53213158.404015
2019-08-29,53597529.592032
2019-08-30,53631781.318456
2019-08-31,52186095.167241
2019-09-01,52505636.885143
2019-09-02,51161065.612723
2019-09-03,51051963.950321
2019-09-04,52203336.060452
2019-09-05,52412161.250648
2019-09-06,53497384.967319
2019-09-07,50573315.498499
2019-09-08,49759311.94585
2019-09-09,49804885.716713
2019-09-10,50537828.675054
2019-09-11,51352467.689844
2019-09-12,49530116.820782
2019-09-13,48763531.113239
2019-09-14,46447969.110777
2019-09-15,46159655.096103
2019-09-16,44144940.852317
2019-09-17,42068772.560532
2019-09-18,41790953.742465
2019-09-19,36486045.580135
2019-09-20,37235396.85961
2019-09-21,40418416.052372
2019-09-22,42035168.948311
2019-09-23,45184600.226699
2019-09-24,54780359.557241
2019-09-25,54022426.121093
2019-09-26,54559731.978667
2019-09-27,51933875.912153
2019-09-28,51899957.728701
2019-09-29,53618064.8217
2019-09-30,49625944.439403
2019-10-01,51426831.103013
2019-10-02,49225641.739499
2019-10-03,52685260.16882
2019-10-04,51432721.940651
2019-10-05,51989139.016153
2019-10-06,53821879.187997
2019-10-07,48547840.333393
2019-10-08,47863319.356202
2019-10-09,44689660.775052
2019-10-10,45057422.778271
2019-10-11,48815188.462116
2019-10-12,50296392.009226
2019-10-13,49204501.414884
2019-10-14,45542091.98257
2019-10-15,49548414.619654
2019-10-16,52480104.544293
2019-10-17,51609927.609527
2019-10-18,53323389.667232
2019-10-19,53680513.643287
2019-10-20,52272867.277471
2019-10-21,52593175.824496
2019-10-22,53899484.451547
2019-10-23,55920769.363942
2019-10-24,55883392.832036
2019-10-25,46240357.403757
2019-10-26,47310708.238152
2019-10-27,44730719.018771
2019-10-28,45237658.88996
2019-10-29,42540723.787461
2019-10-30,44800419.008699
2019-10-31,45655720.760349
2019-11-01,45401531.928997
2019-11-02,45551638.196223
2019-11-03,46776279.413823
2019-11-04,43757118.897727
2019-11-05,42021353.077834
2019-11-06,41363613.624998
2019-11-07,43314566.429901
2019-11-08,46138995.979862
2019-11-09,45316729.193486
2019-11-10,42037390.506829
2019-11-11,45222050.311904
2019-11-12,43896256.877536
2019-11-13,42899653.443997
2019-11-14,44997228.654611
2019-11-15,51362918.699232
2019-11-16,48032494.154839
2019-11-17,45544251.855605
2019-11-18,51508934.385689
2019-11-19,53082913.480233
2019-11-20,53916412.098476
2019-11-21,57759291.522409
2019-11-22,61488972.609211
2019-11-23,59715079.100024
2019-11-24,63944655.564172
2019-11-25,63207743.092456
2019-11-26,61036033.654694
2019-11-27,58421497.972246
2019-11-28,60139015.582359
2019-11-29,57259667.416497
2019-11-30,58969865.354859
2019-12-01,60531961.007028
2019-12-02,61158114.375104
2019-12-03,62240241.486003
2019-12-04,63420326.963784
2019-12-05,60540118.988421
2019-12-06,60701988.338678
2019-12-07,60966703.316704
2019-12-08,58857432.940349
2019-12-09,61707276.954931
2019-12-10,63293177.601816
2019-12-11,63700764.867331
2019-12-12,63195510.817
2019-12-13,63402995.559933
2019-12-14,63928084.990661
2019-12-15,63779336.919884
2019-12-16,66714950.675232
2019-12-17,68357488.285678
2019-12-18,65727713.583227
2019-12-19,66244126.492345
2019-12-20,66026767.651292
2019-12-21,66920852.74336
2019-12-22,65355638.1267
2019-12-23,66707763.806477
2019-12-24,66392819.177465
2019-12-25,67338431.560589
2019-12-26,67314886.346105
2019-12-27,67015373.1813
2019-12-28,66385770.253652
2019-12-29,62909117.667524
2019-12-30,64371933.93687
2019-12-31,66129130.068165
2020-01-01,65724798.760695
2020-01-02,67278874.276165
2020-01-03,62138632.164434
2020-01-04,61993955.509521
2020-01-05,61784927.52176
2020-01-06,57701162.351982
2020-01-07,57808585.204232
2020-01-08,59624699.751869
2020-01-09,60609213.444975
2020-01-10,57739251.166004
2020-01-11,58078481.475847
2020-01-12,56920494.900916
2020-01-13,57609667.511126
2020-01-14,46960234.199557
2020-01-15,46900751.044635
2020-01-16,47376149.41961
2020-01-17,45729549.780372
2020-01-18,44381481.774124
2020-01-19,47471192.061005
2020-01-20,47307635.159134
2020-01-21,45837358.166257
2020-01-22,46408440.40952
2020-01-23,48854397.239315
2020-01-24,48516222.494335
2020-01-25,49888308.713038
2020-01-26,45860849.409043
2020-01-27,45268051.404991
2020-01-28,43823655.495895
2020-01-29,44418724.595131
2020-01-30,39861260.823917
2020-01-31,42419540.95339
2020-02-01,40402809.849298
2020-02-02,38731964.876683
2020-02-03,37912495.651365
2020-02-04,38568398.330961
2020-02-05,34838655.982722
2020-02-06,31267313.43988
2020-02-07,29624026.779235
2020-02-08,29613993.696022
2020-02-09,28778424.35446
2020-02-10,29828084.346381
2020-02-11,27932527.241702
2020-02-12,22305952.990736
2020-02-13,21010417.427956
2020-02-14,19453248.234552
2020-02-15,23321069.316935
2020-02-16,23578558.95292
2020-02-17,22422956.061505
2020-02-18,19669148.523422
2020-02-19,24379718.895322
2020-02-20,24386349.95308
2020-02-21,22901850.340635
2020-02-22,23719748.327483
2020-02-23,20505918.746985
2020-02-24,23367557.584075
2020-02-25,27258290.619614
2020-02-26,33987952.99956
2020-02-27,34020963.830934
2020-02-28,33327702.300356
2020-02-29,35320440.031166
2020-03-01,35947412.244297
2020-03-02,31723205.967237
2020-03-03,34446440.149851
2020-03-04,34532897.712966
2020-03-05,32458460.694823
2020-03-06,28083932.704212
2020-03-07,29726294.881068
2020-03-08,42945293.05795
2020-03-09,42850518.164921
2020-03-10,43087395.014201
2020-03-11,45174350.545669
2020-03-12,78919076.456099
2020-03-13,67282012.85505
2020-03-14,71079419.581763
2020-03-15,70083996.443351
2020-03-16,78994292.240092
2020-03-17,72301961.665889
2020-03-18,71584368.812839
2020-03-19,64422552.801007
2020-03-20,66922473.254148
2020-03-21,66818324.520349
2020-03-22,70855533.676299
2020-03-23,65048612.982356
2020-03-24,63123676.529321
2020-03-25,65033383.432334
2020-03-26,63155691.732513
2020-03-27,66742762.001631
2020-03-28,68470425.521332
2020-03-29,70764186.546771
2020-03-30,66752317.739925
2020-03-31,65383783.421472
2020-04-01,64640402.137461
2020-04-02,59872661.051185
2020-04-03,60073036.42412
2020-04-04,58381876.445729
2020-04-05,59163915.246249
2020-04-06,47298728.888404
2020-04-07,49114102.09051
2020-04-08,46146062.352201
2020-04-09,47169122.704274
2020-04-10,53051251.950922
2020-04-11,53241180.633637
2020-04-12,51116084.692744
2020-04-13,54319486.061771
2020-04-14,53637176.866355
2020-04-15,56281635.916329
2020-04-16,46308250.712607
2020-04-17,46799298.855038
2020-04-18,41017895.531749
2020-04-19,43272474.342599
2020-04-20,47667485.641428
2020-04-21,47685030.344659
2020-04-22,43052322.418941
2020-04-23,41909206.63627
2020-04-24,41025576.635562
2020-04-25,34647262.202967
2020-04-26,34098770.622862
2020-04-27,34087693.650918
2020-04-28,33838757.201223
2020-04-29,30655409.928171
2020-04-30,33373371.049125
2020-05-01,31156530.781533
2020-05-02,30885919.232578
2020-05-03,32499490.416977
2020-05-04,33429776.78705
2020-05-05,33866096.902793
2020-05-06,34729428.415531
2020-05-07,31408805.965786
2020-05-08,31595908.381311
2020-05-09,32542337.737034
2020-05-10,44835721.988317
2020-05-11,45971232.958225
2020-05-12,44584300.398973
2020-05-13,35060759.1605509
2020-05-14,33693711.5770623
2020-05-15,37475727.2363923
2020-05-16,34433321.288603
2020-05-17,32713231.4372493
2020-05-18,30550110.310455
2020-05-19,31038536.5105652
2020-05-20,32488552.6754733
2020-05-21,36740179.707097
2020-05-22,33053326.2149552
2020-05-23,32613684.1966059
2020-05-24,35927642.7532619
2020-05-25,34198083.8979229
2020-05-26,36323282.8188949
2020-05-27,32372988.1487847
2020-05-28,29665497.1418201
2020-05-29,29547214.0572849
2020-05-30,20094229.5458183
2020-05-31,26269296.4287288
2020-06-01,19661564.3471651
2020-06-02,22947454.253714
2020-06-03,20834663.9816656
2020-06-04,20793843.5929646
2020-06-05,21943191.8003903
2020-06-06,21847479.0589476
2020-06-07,20728669.1536368
2020-06-08,20425431.4132419
2020-06-09,20686558.603236
2020-06-10,20229102.0152829
2020-06-11,29248155.3606398
2020-06-12,24013820.598616
2020-06-13,23480295.9117298
2020-06-14,25387674.2905848
2020-06-15,29544300.5545641
2020-06-16,24529159.4853172
2020-06-17,25414154.3706396
2020-06-18,29005656.1714585
2020-06-19,33338698.0500999
2020-06-20,29789727.6119505
2020-06-21,30040559.8129175
2020-06-22,21135086.9932058
2020-06-23,20502480.6177231
2020-06-24,25335558.9803983
2020-06-25,26556995.2060023
2020-06-26,32175027.0764342
2020-06-27,36946187.5046178
2020-06-28,35921551.6958764
2020-06-29,34207443.1375765
2020-06-30,35787900.0595167
2020-07-01,30070901.7102417
2020-07-02,31025610.866049
2020-07-03,36577879.3832856
2020-07-04,31009297.3981764
2020-07-05,34299185.8517409
2020-07-06,21165944.7748363
2020-07-07,22290073.6988713
2020-07-08,20072657.158708
2020-07-09,20905209.0559569
2020-07-10,21750192.7574816
2020-07-11,23101390.4251421
2020-07-12,21165792.4381934
2020-07-13,23163152.7086124
2020-07-14,22176807.4612056
2020-07-15,24204999.4111646
2020-07-16,26690251.6726375
2020-07-17,27868527.7083639
2020-07-18,25273596.2796465
2020-07-19,22974986.7498436
2020-07-20,25036846.4881095
2020-07-21,20054232.0975136
2020-07-22,17450751.1854053
2020-07-23,15690617.3783484
2020-07-24,15389725.3001992
2020-07-25,12375035.4919989
2020-07-26,12080172.8091264
2020-07-27,11618891.7946225
2020-07-28,12677187.7447113
2020-07-29,12643732.6815674
2020-07-30,10517997.0056139
2020-07-31,10034142.8379883
2020-08-01,8619059.2074463
2020-08-02,9667403.63931498
2020-08-03,8883346.42014686
2020-08-04,9048319.97700053
2020-08-05,8256246.31108763
2020-08-06,9025448.55465672
2020-08-07,10316289.2341027
2020-08-08,8860897.01210593
2020-08-09,9387343.75228043
2020-08-10,8646754.68241837
2020-08-11,10948079.7597428
2020-08-12,8939777.91474015
2020-08-13,7546365.3267001
2020-08-14,7596309.99808843
2020-08-15,8162371.05254391
2020-08-16,7865794.52967786
2020-08-17,8991784.65990528
2020-08-18,9824976.13224199
2020-08-19,11139128.1824607
2020-08-20,9345538.97742852
2020-08-21,13607760.5919715
2020-08-22,12497976.026284
2020-08-23,13161036.1322535
2020-08-24,9749442.71015744
2020-08-25,14119562.6394461
2020-08-26,13774949.4099085
2020-08-27,14333629.1154834
2020-08-28,10988419.512656
2020-08-29,10281650.6002456
2020-08-30,7891439.6612164
2020-08-31,7498353.09608706
2020-09-01,6649821.65109788
2020-09-02,9080954.80561582
2020-09-03,14939773.2583457
2020-09-04,14499363.2999213
2020-09-05,19299932.5420366
2020-09-06,16810580.4206675
2020-09-07,16474485.3151781
2020-09-08,19107080.7325802
2020-09-09,16395531.82448
2020-09-10,14115921.9852329
2020-09-11,12414273.7904454
2020-09-12,11001592.1836206
2020-09-13,15971483.4698475
2020-09-14,12140046.9441312
2020-09-15,16584043.9509797
2020-09-16,16477343.0882134
2020-09-17,10335970.2706466
2020-09-18,11197306.139612
2020-09-19,10982809.5199407
2020-09-20,15464992.7902816
2020-09-21,19907713.417585
2020-09-22,19158431.8200194
2020-09-23,22384259.728455
2020-09-24,17298308.1918774
2020-09-25,16278069.9437263
2020-09-26,15642557.5709612
2020-09-27,15103928.0824989
2020-09-28,16174910.5949543
2020-09-29,14271898.680217
2020-09-30,14189326.9306106
2020-10-01,18405004.2697789
2020-10-02,19589378.920746
2020-10-03,19713551.8741334
2020-10-04,17286693.0848321
2020-10-05,16722113.1304466
2020-10-06,21418974.599923
2020-10-07,20726912.3020061
2020-10-08,16749103.5589629
2020-10-09,11829518.5218048
2020-10-10,11258625.6879682
2020-10-11,10666724.8486142
2020-10-12,9329375.02734344
2020-10-13,10252233.5115793
2020-10-14,10852493.2150734
2020-10-15,11587452.7713395
2020-10-16,14931185.3682549
2020-10-17,14179702.7586481
2020-10-18,10753451.8094041
2020-10-19,10348918.5198608
2020-10-20,14694753.8106512
2020-10-21,9142076.62248695
2020-10-22,7850549.73250575
2020-10-23,8494141.53670828
2020-10-24,8115163.41262729
2020-10-25,9346321.3712668
2020-10-26,11003024.0289149
2020-10-27,9154830.81157174
2020-10-28,12152734.304475
2020-10-29,13094055.1919438
2020-10-30,13551121.9919935
2020-10-31,12411009.5683235
2020-11-01,9747978.59038731
2020-11-02,13989445.9109625
2020-11-03,11774795.7142751
2020-11-04,9040378.5304392
2020-11-05,7835758.58333242
2020-11-06,6276806.65582581
2020-11-07,7581648.43882442
2020-11-08,6432003.26467443
2020-11-09,7177193.53118108
2020-11-10,6671808.85208389
2020-11-11,6014400.33869528
2020-11-12,6769321.04761727
2020-11-13,5415471.4171443
2020-11-14,7609911.34278945
2020-11-15,9409297.67446617
2020-11-16,7093014.04226168
2020-11-17,5242595.33280228
2020-11-18,5367947.24820171
2020-11-19,7146683.48109855
2020-11-20,4821149.32252863
2020-11-21,4296759.26175564
2020-11-22,4287602.73833437
2020-11-23,3689205.31053747
2020-11-24,4774124.2331489
2020-11-25,6285334.9353337
2020-11-26,9364215.67764748
2020-11-27,9282598.70006004
2020-11-28,7041501.60764128
2020-11-29,4972238.43687828
2020-11-30,3581721.56415236
2020-12-01,5749468.11664286
2020-12-02,4672211.83788719
2020-12-03,3545688.31998743
2020-12-04,7845123.60226451
2020-12-05,5032522.01964346
2020-12-06,4624543.20387609
2020-12-07,6182135.59139401
2020-12-08,9703431.64529357
2020-12-09,7466618.93815166
2020-12-10,9159455.83823791
2020-12-11,10486600.0551626
2020-12-12,7482258.29622944
2020-12-13,5412657.00276519
2020-12-14,5876499.9683884
2020-12-15,5468651.85515343
2020-12-16,3275106.8918281
2020-12-17,4313856.38684807
2020-12-18,3352498.10398012
2020-12-19,3318390.62898029
2020-12-20,5445818.5210001
2020-12-21,6996402.72101687
2020-12-22,4701756.2124293
2020-12-23,10581312.1868306
2020-12-24,6062915.09066487
2020-12-25,4787755.52451752
2020-12-26,4581179.12709501
2020-12-27,3046049.43253873
2020-12-28,2499867.35595859
2020-12-29,2381316.85979126
2020-12-30,2241045.24195914
2020-12-31,2833531.66195996
2021-01-01,3874825.61615396
2021-01-02,2062821.23365165
2021-01-03,804143.917355066
2021-01-04,678526.20324675
2021-01-05,458902.665919279
2021-01-06,201148.821965143
2021-01-07,666373.910991409
2021-01-08,748119.503817206
2021-01-09,102348.034081729
2021-01-10,1092384.42719002
2021-01-11,5481281.50994637
2021-01-12,7021534.62138103
2021-01-13,4053980.64020548
2021-01-14,794176.64048506
2021-01-15,4330428.81978193
2021-01-16,665420.665983964
2021-01-17,977675.578547072
2021-01-18,296890.861391938
2021-01-19,537850.849227963
2021-01-20,127296.322646641
2021-01-21,9564381.0498129
2021-01-22,2736702.37492826
2021-01-23,4012407.6856711
2021-01-24,48857.8680203551
2021-01-25,1986377.22699994
2021-01-26,809464.411100104
2021-01-27,4746015.81021654
2021-01-28,1215449.46862403
2021-01-29,455348.088936098
2021-01-30,423717.525568749
2021-01-31,3117265.80864331
2021-02-01,492157.862013891
2021-02-02,185374.568282735
2021-02-03,0.0
2021-02-04,1821260.27449149
2021-02-05,149185.926744893
2021-02-06,1575145.31151359
2021-02-07,3155419.46093762
2021-02-08,30470.7080314993
2021-02-09,181829.801893159
2021-02-10,996638.549976201
2021-02-11,512182.324241112
2021-02-12,58182.6554586901
2021-02-13,534793.424749798
2021-02-14,947281.197817082
2021-02-15,2428526.58201142
2021-02-16,2288407.42697057
2021-02-17,87637.7160639869
2021-02-18,49501.6201748598
2021-02-19,34805.0344722537
2021-02-20,1551538.2166979
2021-02-21,972342.484916192
2021-02-22,5016143.02442074
2021-02-23,9115478.1783675
2021-02-24,8382024.26392543
2021-02-25,10849453.4609786
2021-02-26,11432449.3744283
2021-02-27,11220303.5577522
2021-02-28,11538981.9198211
2021-03-01,6970745.87080728
2021-03-02,10352737.4751435
2021-03-03,6812164.49856332
2021-03-04,9619009.0770498
2021-03-05,9028094.46026509
2021-03-06,4303879.21355499
2021-03-07,2361014.32547881
2021-03-08,1222875.42849464
2021-03-09,987115.883953818
2021-03-10,2469808.87462122
2021-03-11,1545569.58923637
2021-03-12,4077015.03040727
2021-03-13,296889.418817342
2021-03-14,1365532.041628
2021-03-15,3963675.74095086
2021-03-16,3454046.11475498
2021-03-17,2037771.05021724
2021-03-18,5062548.71858817
2021-03-19,2506812.76004208
2021-03-20,2884962.21662199
2021-03-21,4989105.45573746
2021-03-22,9329076.12479434
2021-03-23,9506510.24985143
2021-03-24,11720944.7534701
2021-03-25,11823053.6219203
2021-03-26,7015621.16191477
2021-03-27,5579818.52350873
2021-03-28,8634462.91935784
2021-03-29,1651173.89370817
2021-03-30,844305.163577257
2021-03-31,323397.407216007
2021-04-01,151988.520576093
2021-04-02,10751.1266993336
2021-04-03,1245732.5465561
2021-04-04,272235.930771497
2021-04-05,418007.471220135
2021-04-06,188429.748888275
2021-04-07,3761380.06597014
