t,v
2015-07-30,9202
2015-07-31,9358
2015-08-01,9473
2015-08-02,9560
2015-08-03,9636
2015-08-04,9693
2015-08-05,9746
2015-08-06,9787
2015-08-07,10248
2015-08-08,10583
2015-08-09,10816
2015-08-10,11064
2015-08-11,11327
2015-08-12,11620
2015-08-13,12085
2015-08-14,12598
2015-08-15,12952
2015-08-16,13222
2015-08-17,13469
2015-08-18,13724
2015-08-19,13976
2015-08-20,14150
2015-08-21,14382
2015-08-22,14605
2015-08-23,14876
2015-08-24,15027
2015-08-25,15231
2015-08-26,15387
2015-08-27,15563
2015-08-28,15698
2015-08-29,15793
2015-08-30,15955
2015-08-31,16067
2015-09-01,16203
2015-09-02,16317
2015-09-03,16419
2015-09-04,16512
2015-09-05,16609
2015-09-06,16683
2015-09-07,16808
2015-09-08,16888
2015-09-09,17017
2015-09-10,17092
2015-09-11,17241
2015-09-12,17326
2015-09-13,17483
2015-09-14,17594
2015-09-15,17725
2015-09-16,17826
2015-09-17,17903
2015-09-18,17994
2015-09-19,18039
2015-09-20,18086
2015-09-21,18133
2015-09-22,18184
2015-09-23,18287
2015-09-24,18369
2015-09-25,18429
2015-09-26,18481
2015-09-27,18523
2015-09-28,18606
2015-09-29,18668
2015-09-30,18729
2015-10-01,18768
2015-10-02,18827
2015-10-03,18927
2015-10-04,19001
2015-10-05,19083
2015-10-06,19152
2015-10-07,19219
2015-10-08,19260
2015-10-09,19318
2015-10-10,19360
2015-10-11,19391
2015-10-12,19442
2015-10-13,19587
2015-10-14,19744
2015-10-15,19900
2015-10-16,19940
2015-10-17,19984
2015-10-18,20076
2015-10-19,20256
2015-10-20,20305
2015-10-21,20539
2015-10-22,20617
2015-10-23,20684
2015-10-24,20992
2015-10-25,21155
2015-10-26,21419
2015-10-27,21522
2015-10-28,21628
2015-10-29,21832
2015-10-30,22291
2015-10-31,22620
2015-11-01,23101
2015-11-02,23351
2015-11-03,23646
2015-11-04,23871
2015-11-05,24014
2015-11-06,24097
2015-11-07,24490
2015-11-08,25047
2015-11-09,25280
2015-11-10,25355
2015-11-11,25475
2015-11-12,25541
2015-11-13,25628
2015-11-14,25690
2015-11-15,25747
2015-11-16,25825
2015-11-17,25914
2015-11-18,25976
2015-11-19,26056
2015-11-20,26162
2015-11-21,26223
2015-11-22,26644
2015-11-23,26728
2015-11-24,26898
2015-11-25,26970
2015-11-26,27110
2015-11-27,27166
2015-11-28,27211
2015-11-29,27263
2015-11-30,27356
2015-12-01,27419
2015-12-02,27481
2015-12-03,27542
2015-12-04,27633
2015-12-05,27709
2015-12-06,27791
2015-12-07,27742
2015-12-08,27795
2015-12-09,27853
2015-12-10,27932
2015-12-11,27991
2015-12-12,28370
2015-12-13,28463
2015-12-14,28549
2015-12-15,28616
2015-12-16,28690
2015-12-17,28936
2015-12-18,29102
2015-12-19,29175
2015-12-20,29283
2015-12-21,29402
2015-12-22,29500
2015-12-23,29551
2015-12-24,29630
2015-12-25,29702
2015-12-26,29777
2015-12-27,29897
2015-12-28,29997
2015-12-29,30062
2015-12-30,30159
2015-12-31,30301
2016-01-01,30383
2016-01-02,30497
2016-01-03,30619
2016-01-04,30734
2016-01-05,30844
2016-01-06,31011
2016-01-07,31166
2016-01-08,31314
2016-01-09,31513
2016-01-10,31670
2016-01-11,31886
2016-01-12,32126
2016-01-13,32288
2016-01-14,32441
2016-01-15,32739
2016-01-16,32942
2016-01-17,33163
2016-01-18,33496
2016-01-19,33726
2016-01-20,33954
2016-01-21,34236
2016-01-22,34515
2016-01-23,34977
2016-01-24,35546
2016-01-25,36155
2016-01-26,36895
2016-01-27,37502
2016-01-28,38365
2016-01-29,39166
2016-01-30,40019
2016-01-31,40736
2016-02-01,41241
2016-02-02,41730
2016-02-03,42305
2016-02-04,42765
2016-02-05,43425
2016-02-06,43863
2016-02-07,44294
2016-02-08,44750
2016-02-09,45361
2016-02-10,46425
2016-02-11,48233
2016-02-12,49493
2016-02-13,50680
2016-02-14,51637
2016-02-15,52458
2016-02-16,53205
2016-02-17,54008
2016-02-18,54619
2016-02-19,55275
2016-02-20,55791
2016-02-21,57295
2016-02-22,58003
2016-02-23,58815
2016-02-24,59483
2016-02-25,60260
2016-02-26,60852
2016-02-27,61479
2016-02-28,62658
2016-02-29,64195
2016-03-01,65826
2016-03-02,67711
2016-03-03,69677
2016-03-04,71773
2016-03-05,74459
2016-03-06,77031
2016-03-07,78623
2016-03-08,80638
2016-03-09,82715
2016-03-10,84810
2016-03-11,85677
2016-03-12,86784
2016-03-13,87996
2016-03-14,89364
2016-03-15,90523
2016-03-16,91558
2016-03-17,92599
2016-03-18,93537
2016-03-19,94252
2016-03-20,95075
2016-03-21,95738
2016-03-22,96492
2016-03-23,97302
2016-03-24,98080
2016-03-25,98842
2016-03-26,99568
2016-03-27,100192
2016-03-28,101210
2016-03-29,102279
2016-03-30,103579
2016-03-31,104416
2016-04-01,105063
2016-04-02,105749
2016-04-03,106470
2016-04-04,107144
2016-04-05,107850
2016-04-06,108478
2016-04-07,109131
2016-04-08,109636
2016-04-09,110006
2016-04-10,110628
2016-04-11,111206
2016-04-12,111916
2016-04-13,112444
2016-04-14,112843
2016-04-15,113396
2016-04-16,113930
2016-04-17,114472
2016-04-18,115039
2016-04-19,115500
2016-04-20,115986
2016-04-21,116656
2016-04-22,117209
2016-04-23,117653
2016-04-24,118133
2016-04-25,118689
2016-04-26,119223
2016-04-27,119799
2016-04-28,120343
2016-04-29,120892
2016-04-30,122083
2016-05-01,122933
2016-05-02,125981
2016-05-03,126544
2016-05-04,127652
2016-05-05,128594
2016-05-06,129434
2016-05-07,130193
2016-05-08,131242
2016-05-09,132326
2016-05-10,133151
2016-05-11,134829
2016-05-12,137146
2016-05-13,138477
2016-05-14,139927
2016-05-15,141931
2016-05-16,142627
2016-05-17,144081
2016-05-18,147879
2016-05-19,150585
2016-05-20,154689
2016-05-21,156565
2016-05-22,157930
2016-05-23,159233
2016-05-24,160536
2016-05-25,162674
2016-05-26,164363
2016-05-27,166983
2016-05-28,172902
2016-05-29,174787
2016-05-30,176091
2016-05-31,177542
2016-06-01,179089
2016-06-02,180228
2016-06-03,181402
2016-06-04,182488
2016-06-05,183486
2016-06-06,184578
2016-06-07,190007
2016-06-08,191173
2016-06-09,192401
2016-06-10,193401
2016-06-11,194535
2016-06-12,195724
2016-06-13,197346
2016-06-14,199326
2016-06-15,200903
2016-06-16,202423
2016-06-17,208282
2016-06-18,211363
2016-06-19,213550
2016-06-20,215060
2016-06-21,216623
2016-06-22,218014
2016-06-23,219235
2016-06-24,220241
2016-06-25,221016
2016-06-26,224143
2016-06-27,225098
2016-06-28,226217
2016-06-29,227321
2016-06-30,228175
2016-07-01,229206
2016-07-02,230501
2016-07-03,231815
2016-07-04,233111
2016-07-05,234800
2016-07-06,236177
2016-07-07,237628
2016-07-08,239103
2016-07-09,240638
2016-07-10,242027
2016-07-11,243408
2016-07-12,244938
2016-07-13,246016
2016-07-14,247462
2016-07-15,248704
2016-07-16,249889
2016-07-17,250463
2016-07-18,251755
2016-07-19,242614
2016-07-20,244396
2016-07-21,245582
2016-07-22,246712
2016-07-23,248399
2016-07-24,250397
2016-07-25,252606
2016-07-26,253678
2016-07-27,256198
2016-07-28,257037
2016-07-29,260718
2016-07-30,261964
2016-07-31,263390
2016-08-01,265783
2016-08-02,268655
2016-08-03,271327
2016-08-04,273465
2016-08-05,275219
2016-08-06,276528
2016-08-07,277687
2016-08-08,278989
2016-08-09,281505
2016-08-10,283344
2016-08-11,285252
2016-08-12,286687
2016-08-13,287911
2016-08-14,289254
2016-08-15,290589
2016-08-16,291565
2016-08-17,292759
2016-08-18,294161
2016-08-19,295477
2016-08-20,296703
2016-08-21,298143
2016-08-22,299289
2016-08-23,300939
2016-08-24,302333
2016-08-25,303756
2016-08-26,305388
2016-08-27,306484
2016-08-28,307717
2016-08-29,309081
2016-08-30,310488
2016-08-31,312048
2016-09-01,313658
2016-09-02,315271
2016-09-03,316640
2016-09-04,317997
2016-09-05,319107
2016-09-06,320474
2016-09-07,321689
2016-09-08,323442
2016-09-09,324820
2016-09-10,326213
2016-09-11,327572
2016-09-12,328961
2016-09-13,330466
2016-09-14,331823
2016-09-15,333224
2016-09-16,334334
2016-09-17,335664
2016-09-18,336851
2016-09-19,338596
2016-09-20,339612
2016-09-21,341734
2016-09-22,343155
2016-09-23,344503
2016-09-24,345612
2016-09-25,347254
2016-09-26,348730
2016-09-27,350210
2016-09-28,351602
2016-09-29,354793
2016-09-30,356047
2016-10-01,357723
2016-10-02,359272
2016-10-03,360647
2016-10-04,362052
2016-10-05,363591
2016-10-06,364939
2016-10-07,367053
2016-10-08,368958
2016-10-09,370657
2016-10-10,388078
2016-10-11,389230
2016-10-12,390358
2016-10-13,391110
2016-10-14,392108
2016-10-15,393164
2016-10-16,394463
2016-10-17,395678
2016-10-18,396990
2016-10-19,398181
2016-10-20,399550
2016-10-21,401248
2016-10-22,402470
2016-10-23,403548
2016-10-24,404770
2016-10-25,406557
2016-10-26,407860
2016-10-27,409151
2016-10-28,410658
2016-10-29,411948
2016-10-30,413132
2016-10-31,414478
2016-11-01,413607
2016-11-02,418131
2016-11-03,418155
2016-11-04,419095
2016-11-05,420252
2016-11-06,421267
2016-11-07,422147
2016-11-08,423702
2016-11-09,425613
2016-11-10,426844
2016-11-11,428512
2016-11-12,429904
2016-11-13,431682
2016-11-14,432854
2016-11-15,434383
2016-11-16,435653
2016-11-17,436726
2016-11-18,438149
2016-11-19,439349
2016-11-20,440511
2016-11-21,441735
2016-11-22,429954
2016-11-23,408320
2016-11-24,409846
2016-11-25,406469
2016-11-26,407242
2016-11-27,408359
2016-11-28,409237
2016-11-29,410135
2016-11-30,411177
2016-12-01,411838
2016-12-02,413376
2016-12-03,415107
2016-12-04,417172
2016-12-05,419600
2016-12-06,420794
2016-12-07,421776
2016-12-08,422625
2016-12-09,422307
2016-12-10,423708
2016-12-11,424414
2016-12-12,425012
2016-12-13,425800
2016-12-14,426635
2016-12-15,427509
2016-12-16,428351
2016-12-17,429141
2016-12-18,429754
2016-12-19,430614
2016-12-20,431961
2016-12-21,432988
2016-12-22,440281
2016-12-23,443381
2016-12-24,444166
2016-12-25,444863
2016-12-26,445619
2016-12-27,446265
2016-12-28,447024
2016-12-29,448277
2016-12-30,449496
2016-12-31,450085
2017-01-01,450757
2017-01-02,451608
2017-01-03,452895
2017-01-04,454636
2017-01-05,456279
2017-01-06,457343
2017-01-07,458508
2017-01-08,459563
2017-01-09,460763
2017-01-10,461883
2017-01-11,463093
2017-01-12,464060
2017-01-13,465167
2017-01-14,466479
2017-01-15,467877
2017-01-16,469423
2017-01-17,470955
2017-01-18,472412
2017-01-19,473878
2017-01-20,475285
2017-01-21,476738
2017-01-22,478521
2017-01-23,479987
2017-01-24,481388
2017-01-25,482899
2017-01-26,484404
2017-01-27,485705
2017-01-28,486929
2017-01-29,488153
2017-01-30,489286
2017-01-31,489999
2017-02-01,490858
2017-02-02,491739
2017-02-03,492559
2017-02-04,493500
2017-02-05,494282
2017-02-06,495140
2017-02-07,496046
2017-02-08,497094
2017-02-09,497982
2017-02-10,498958
2017-02-11,499704
2017-02-12,500673
2017-02-13,501710
2017-02-14,502886
2017-02-15,504126
2017-02-16,505057
2017-02-17,505541
2017-02-18,506573
2017-02-19,507393
2017-02-20,508767
2017-02-21,509715
2017-02-22,510635
2017-02-23,511660
2017-02-24,512779
2017-02-25,513815
2017-02-26,515191
2017-02-27,517016
2017-02-28,519191
2017-03-01,521616
2017-03-02,524482
2017-03-03,527583
2017-03-04,529877
2017-03-05,531669
2017-03-06,533649
2017-03-07,535759
2017-03-08,537993
2017-03-09,540454
2017-03-10,542564
2017-03-11,545223
2017-03-12,547955
2017-03-13,552802
2017-03-14,556837
2017-03-15,561607
2017-03-16,569471
2017-03-17,578659
2017-03-18,585678
2017-03-19,590421
2017-03-20,595661
2017-03-21,601513
2017-03-22,605899
2017-03-23,609958
2017-03-24,615344
2017-03-25,620457
2017-03-26,624873
2017-03-27,630246
2017-03-28,635512
2017-03-29,640319
2017-03-30,646612
2017-03-31,652661
2017-04-01,657068
2017-04-02,662692
2017-04-03,669524
2017-04-04,675051
2017-04-05,680501
2017-04-06,686200
2017-04-07,690750
2017-04-08,694233
2017-04-09,697509
2017-04-10,701151
2017-04-11,704153
2017-04-12,708377
2017-04-13,712831
2017-04-14,716732
2017-04-15,720302
2017-04-16,723249
2017-04-17,726662
2017-04-18,730984
2017-04-19,735927
2017-04-20,740355
2017-04-21,743313
2017-04-22,747058
2017-04-23,750837
2017-04-24,756297
2017-04-25,760846
2017-04-26,771675
2017-04-27,777585
2017-04-28,784360
2017-04-29,790587
2017-04-30,797243
2017-05-01,805324
2017-05-02,811885
2017-05-03,818274
2017-05-04,826754
2017-05-05,833815
2017-05-06,840933
2017-05-07,849119
2017-05-08,858091
2017-05-09,866861
2017-05-10,875838
2017-05-11,884308
2017-05-12,889921
2017-05-13,895876
2017-05-14,902169
2017-05-15,909878
2017-05-16,918143
2017-05-17,928514
2017-05-18,937401
2017-05-19,949705
2017-05-20,959774
2017-05-21,970927
2017-05-22,985924
2017-05-23,1007497
2017-05-24,1023308
2017-05-25,1040459
2017-05-26,1053480
2017-05-27,1064557
2017-05-28,1075023
2017-05-29,1088004
2017-05-30,1104606
2017-05-31,1128009
2017-06-01,1141216
2017-06-02,1156605
2017-06-03,1171958
2017-06-04,1184139
2017-06-05,1201244
2017-06-06,1219345
2017-06-07,1237970
2017-06-08,1254782
2017-06-09,1273215
2017-06-10,1294055
2017-06-11,1318853
2017-06-12,1346653
2017-06-13,1376287
2017-06-14,1402651
2017-06-15,1427608
2017-06-16,1447768
2017-06-17,1468165
2017-06-18,1489122
2017-06-19,1517603
2017-06-20,1553003
2017-06-21,1569875
2017-06-22,1596268
2017-06-23,1623235
2017-06-24,1650563
2017-06-25,1674052
2017-06-26,1699425
2017-06-27,1720993
2017-06-28,1745027
2017-06-29,1768841
2017-06-30,1788261
2017-07-01,1803771
2017-07-02,1819539
2017-07-03,1846621
2017-07-04,1873816
2017-07-05,1894354
2017-07-06,1913379
2017-07-07,1927170
2017-07-08,1942496
2017-07-09,1957023
2017-07-10,1974353
2017-07-11,1996175
2017-07-12,2016334
2017-07-13,2035861
2017-07-14,2050967
2017-07-15,2064131
2017-07-16,2078896
2017-07-17,2094514
2017-07-18,2111834
2017-07-19,2130149
2017-07-20,2147528
2017-07-21,2163134
2017-07-22,2175876
2017-07-23,2182280
2017-07-24,2199711
2017-07-25,2216117
2017-07-26,2230949
2017-07-27,2244405
2017-07-28,2255851
2017-07-29,2267112
2017-07-30,2291116
2017-07-31,2302886
2017-08-01,2315195
2017-08-02,2329851
2017-08-03,2344341
2017-08-04,2363399
2017-08-05,2380402
2017-08-06,2394387
2017-08-07,2414643
2017-08-08,2439226
2017-08-09,2456512
2017-08-10,2484534
2017-08-11,2512778
2017-08-12,2529992
2017-08-13,2552647
2017-08-14,2581518
2017-08-15,2606628
2017-08-16,2633082
2017-08-17,2663021
2017-08-18,2694501
2017-08-19,2717066
2017-08-20,2735358
2017-08-21,2757974
2017-08-22,2789331
2017-08-23,2813446
2017-08-24,2841193
2017-08-25,2870010
2017-08-26,2892493
2017-08-27,2916063
2017-08-28,2941576
2017-08-29,2970397
2017-08-30,3003761
2017-08-31,3031571
2017-09-01,3060796
2017-09-02,3082349
2017-09-03,3103089
2017-09-04,3122716
2017-09-05,3147471
2017-09-06,3183207
2017-09-07,3212503
2017-09-08,3239191
2017-09-09,3269709
2017-09-10,3290859
2017-09-11,3313958
2017-09-12,3342490
2017-09-13,3358994
2017-09-14,3369041
2017-09-15,3402587
2017-09-16,3421990
2017-09-17,3441659
2017-09-18,3468031
2017-09-19,3499932
2017-09-20,3520223
2017-09-21,3541161
2017-09-22,3558023
2017-09-23,3575281
2017-09-24,3591109
2017-09-25,3606827
2017-09-26,3625544
2017-09-27,3645110
2017-09-28,3664252
2017-09-29,3664118
2017-09-30,3678387
2017-10-01,3695390
2017-10-02,3718030
2017-10-03,3738900
2017-10-04,3758059
2017-10-05,3776495
2017-10-06,3796483
2017-10-07,3813268
2017-10-08,3832183
2017-10-09,3853378
2017-10-10,3880572
2017-10-11,3898204
2017-10-12,3917063
2017-10-13,3943172
2017-10-14,3964064
2017-10-15,3983264
2017-10-16,4004829
2017-10-17,4029149
2017-10-18,4042563
2017-10-19,4067250
2017-10-20,4088924
2017-10-21,4117388
2017-10-22,4125799
2017-10-23,4145714
2017-10-24,4168676
2017-10-25,4191092
2017-10-26,4215286
2017-10-27,4238751
2017-10-28,4259093
2017-10-29,4280682
2017-10-30,4306804
2017-10-31,4337282
2017-11-01,4366822
2017-11-02,4407707
2017-11-03,4440873
2017-11-04,4462848
2017-11-05,4484648
2017-11-06,4515747
2017-11-07,4538294
2017-11-08,4567764
2017-11-09,4600302
2017-11-10,4630895
2017-11-11,4655702
2017-11-12,4689077
2017-11-13,4720883
2017-11-14,4755827
2017-11-15,4800005
2017-11-16,4836302
2017-11-17,4868531
2017-11-18,4900061
2017-11-19,4927229
2017-11-20,4964908
2017-11-21,5000788
2017-11-22,5041424
2017-11-23,5079288
2017-11-24,5119145
2017-11-25,5156069
2017-11-26,5197172
2017-11-27,5250955
2017-11-28,5306084
2017-11-29,5368380
2017-11-30,5419978
2017-12-01,5469744
2017-12-02,5512148
2017-12-03,5563370
2017-12-04,5618487
2017-12-05,5672081
2017-12-06,5757132
2017-12-07,5817353
2017-12-08,5882312
2017-12-09,5938861
2017-12-10,5982785
2017-12-11,6031317
2017-12-12,6091574
2017-12-13,6164462
2017-12-14,6238572
2017-12-15,6311284
2017-12-16,6370062
2017-12-17,6434574
2017-12-18,6514307
2017-12-19,6605173
2017-12-20,6680788
2017-12-21,6772670
2017-12-22,6852967
2017-12-23,6919094
2017-12-24,6975868
2017-12-25,7030654
2017-12-26,7069672
2017-12-27,7149662
2017-12-28,7228662
2017-12-29,7319731
2017-12-30,7407774
2017-12-31,7462448
2018-01-01,7502483
2018-01-02,7574660
2018-01-03,7699335
2018-01-04,7844286
2018-01-05,7990805
2018-01-06,8119043
2018-01-07,8218761
2018-01-08,8333044
2018-01-09,8430607
2018-01-10,8549944
2018-01-11,8661333
2018-01-12,8756884
2018-01-13,8835197
2018-01-14,8865345
2018-01-15,8971991
2018-01-16,9059933
2018-01-17,9135373
2018-01-18,9223923
2018-01-19,9299804
2018-01-20,9359661
2018-01-21,9415761
2018-01-22,9469359
2018-01-23,9530448
2018-01-24,9603642
2018-01-25,9654754
2018-01-26,9715284
2018-01-27,9765632
2018-01-28,9829511
2018-01-29,9887101
2018-01-30,9941978
2018-01-31,10003585
2018-02-01,10066360
2018-02-02,10122464
2018-02-03,10162767
2018-02-04,10196583
2018-02-05,10229379
2018-02-06,10261476
2018-02-07,10284929
2018-02-08,10314290
2018-02-09,10360804
2018-02-10,10424753
2018-02-11,10478982
2018-02-12,10551095
2018-02-13,10591870
2018-02-14,10613259
2018-02-15,10641674
2018-02-16,10671703
2018-02-17,10707072
2018-02-18,10742337
2018-02-19,10788481
2018-02-20,10850185
2018-02-21,10896316
2018-02-22,10937307
2018-02-23,10977340
2018-02-24,11010820
2018-02-25,11042349
2018-02-26,11080035
2018-02-27,11136444
2018-02-28,11180363
2018-03-01,11223317
2018-03-02,11265303
2018-03-03,11308587
2018-03-04,11340987
2018-03-05,11376913
2018-03-06,11417710
2018-03-07,11459640
2018-03-08,11494877
2018-03-09,11532286
2018-03-10,11576821
2018-03-11,11607782
2018-03-12,11646904
2018-03-13,11696841
2018-03-14,11740396
2018-03-15,11783902
2018-03-16,11830180
2018-03-17,11864257
2018-03-18,11914437
2018-03-19,11953688
2018-03-20,11989309
2018-03-21,12028895
2018-03-22,12063750
2018-03-23,12071399
2018-03-24,12040514
2018-03-25,12063844
2018-03-26,12097649
2018-03-27,12123969
2018-03-28,12146610
2018-03-29,12173327
2018-03-30,12201793
2018-03-31,12223996
2018-04-01,12245914
2018-04-02,12272025
2018-04-03,12304372
2018-04-04,12341615
2018-04-05,12397822
2018-04-06,12440429
2018-04-07,12480283
2018-04-08,12537067
2018-04-09,12579358
2018-04-10,12613853
2018-04-11,12645962
2018-04-12,12687749
2018-04-13,12733756
2018-04-14,12769540
2018-04-15,12814392
2018-04-16,12846063
2018-04-17,12902230
2018-04-18,12951068
2018-04-19,13014291
2018-04-20,13076041
2018-04-21,13156085
2018-04-22,13221519
2018-04-23,13271141
2018-04-24,13332272
2018-04-25,13380725
2018-04-26,13428166
2018-04-27,13473396
2018-04-28,13515634
2018-04-29,13554227
2018-04-30,13595195
2018-05-01,13639620
2018-05-02,13682044
2018-05-03,13734412
2018-05-04,13778220
2018-05-05,13829672
2018-05-06,13900135
2018-05-07,13959389
2018-05-08,14023235
2018-05-09,14098095
2018-05-10,14159809
2018-05-11,14217051
2018-05-12,14281355
2018-05-13,14345116
2018-05-14,14396657
2018-05-15,14452159
2018-05-16,14518636
2018-05-17,14594931
2018-05-18,14675742
2018-05-19,14763493
2018-05-20,14824208
2018-05-21,14888406
2018-05-22,14934367
2018-05-23,14999735
2018-05-24,15053929
2018-05-25,15113033
2018-05-26,15162597
2018-05-27,15232257
2018-05-28,15298500
2018-05-29,15362744
2018-05-30,15435741
2018-05-31,15490730
2018-06-01,15542882
2018-06-02,15594060
2018-06-03,15663835
2018-06-04,15723068
2018-06-05,15787695
2018-06-06,15855064
2018-06-07,15921098
2018-06-08,15968422
2018-06-09,16005388
2018-06-10,16022508
2018-06-11,16040975
2018-06-12,16086676
2018-06-13,16154214
2018-06-14,16209136
2018-06-15,16242040
2018-06-16,16282924
2018-06-17,16327686
2018-06-18,16383361
2018-06-19,16417853
2018-06-20,16463569
2018-06-21,16515306
2018-06-22,16545444
2018-06-23,16598981
2018-06-24,16644126
2018-06-25,16638008
2018-06-26,16608514
2018-06-27,16670644
2018-06-28,16712833
2018-06-29,16739469
2018-06-30,16778243
2018-07-01,16792895
2018-07-02,16811212
2018-07-03,16828330
2018-07-04,16844236
2018-07-05,16864823
2018-07-06,16888365
2018-07-07,16906996
2018-07-08,16933155
2018-07-09,16965593
2018-07-10,16997684
2018-07-11,17024010
2018-07-12,17055005
2018-07-13,17080584
2018-07-14,17096922
2018-07-15,17111611
2018-07-16,17153512
2018-07-17,17206630
2018-07-18,17259323
2018-07-19,17308178
2018-07-20,17362097
2018-07-21,17416999
2018-07-22,17472072
2018-07-23,17514892
2018-07-24,17539335
2018-07-25,17575234
2018-07-26,17619114
2018-07-27,17682890
2018-07-28,17753459
2018-07-29,17826801
2018-07-30,17881522
2018-07-31,17941064
2018-08-01,17987862
2018-08-02,18016731
2018-08-03,18046415
2018-08-04,18100397
2018-08-05,18150858
2018-08-06,18199798
2018-08-07,18241729
2018-08-08,18277140
2018-08-09,18309434
2018-08-10,18349720
2018-08-11,18396983
2018-08-12,18441039
2018-08-13,18477399
2018-08-14,18513918
2018-08-15,18544941
2018-08-16,18570993
2018-08-17,18579463
2018-08-18,18600193
2018-08-19,18616101
2018-08-20,18641688
2018-08-21,18675537
2018-08-22,18704700
2018-08-23,18725858
2018-08-24,18729824
2018-08-25,18730533
2018-08-26,18741931
2018-08-27,18747475
2018-08-28,18770217
2018-08-29,18788306
2018-08-30,18814930
2018-08-31,18827240
2018-09-01,18856850
2018-09-02,18901213
2018-09-03,18922275
2018-09-04,18937769
2018-09-05,18941275
2018-09-06,18944568
2018-09-07,18964822
2018-09-08,18984896
2018-09-09,18999575
2018-09-10,19020818
2018-09-11,19046469
2018-09-12,19072825
2018-09-13,19091350
2018-09-14,19114135
2018-09-15,19131439
2018-09-16,19152166
2018-09-17,19175461
2018-09-18,19197076
2018-09-19,19218094
2018-09-20,19238115
2018-09-21,19261092
2018-09-22,19285698
2018-09-23,19305816
2018-09-24,19323404
2018-09-25,19339745
2018-09-26,19363660
2018-09-27,19390393
2018-09-28,19415432
2018-09-29,19432692
2018-09-30,19457122
2018-10-01,19480276
2018-10-02,19501552
2018-10-03,19525240
2018-10-04,19544983
2018-10-05,19561479
2018-10-06,19575067
2018-10-07,19595684
2018-10-08,19616469
2018-10-09,19640145
2018-10-10,19650355
2018-10-11,19670639
2018-10-12,19702711
2018-10-13,19715998
2018-10-14,19738032
2018-10-15,19765545
2018-10-16,19787663
2018-10-17,19806563
2018-10-18,19821829
2018-10-19,19848469
2018-10-20,19883344
2018-10-21,19910434
2018-10-22,19934540
2018-10-23,19960397
2018-10-24,19994485
2018-10-25,20021223
2018-10-26,20035024
2018-10-27,20052498
2018-10-28,20083702
2018-10-29,20116692
2018-10-30,20159517
2018-10-31,20201445
2018-11-01,20237770
2018-11-02,20266083
2018-11-03,20290620
2018-11-04,20317955
2018-11-05,20345973
2018-11-06,20378503
2018-11-07,20409512
2018-11-08,20441032
2018-11-09,20466577
2018-11-10,20496074
2018-11-11,20526270
2018-11-12,20557202
2018-11-13,20584636
2018-11-14,20613358
2018-11-15,20644567
2018-11-16,20677416
2018-11-17,20706633
2018-11-18,20733885
2018-11-19,20736607
2018-11-20,20764795
2018-11-21,20790096
2018-11-22,20811805
2018-11-23,20839506
2018-11-24,20861904
2018-11-25,20887429
2018-11-26,20912967
2018-11-27,20927870
2018-11-28,20962899
2018-11-29,20984398
2018-11-30,21010767
2018-12-01,21032615
2018-12-02,21044183
2018-12-03,21065495
2018-12-04,21086272
2018-12-05,21108181
2018-12-06,21133228
2018-12-07,21144627
2018-12-08,21138704
2018-12-09,21153955
2018-12-10,21182717
2018-12-11,21205033
2018-12-12,21226415
2018-12-13,21250978
2018-12-14,21271186
2018-12-15,21282051
2018-12-16,21297037
2018-12-17,21318568
2018-12-18,21339837
2018-12-19,21355926
2018-12-20,21382415
2018-12-21,21408840
2018-12-22,21437368
2018-12-23,21459893
2018-12-24,21495445
2018-12-25,21509189
2018-12-26,21516954
2018-12-27,21523685
2018-12-28,21551658
2018-12-29,21560687
2018-12-30,21575232
2018-12-31,21595019
2019-01-01,21617125
2019-01-02,21640083
2019-01-03,21664679
2019-01-04,21689984
2019-01-05,21713621
2019-01-06,21744084
2019-01-07,21775748
2019-01-08,21807453
2019-01-09,21843018
2019-01-10,21873442
2019-01-11,21897479
2019-01-12,21913512
2019-01-13,21945063
2019-01-14,21927773
2019-01-15,21924511
2019-01-16,21950686
2019-01-17,21976658
2019-01-18,22011115
2019-01-19,22039132
2019-01-20,22065811
2019-01-21,22091898
2019-01-22,22119336
2019-01-23,22147777
2019-01-24,22173297
2019-01-25,22201799
2019-01-26,22223509
2019-01-27,22254967
2019-01-28,22262454
2019-01-29,22281292
2019-01-30,22307459
2019-01-31,22332522
2019-02-01,22355534
2019-02-02,22373384
2019-02-03,22388283
2019-02-04,22403148
2019-02-05,22416728
2019-02-06,22432882
2019-02-07,22445699
2019-02-08,22451186
2019-02-09,22467392
2019-02-10,22477353
2019-02-11,22491470
2019-02-12,22516170
2019-02-13,22542867
2019-02-14,22566913
2019-02-15,22590172
2019-02-16,22612198
2019-02-17,22631962
2019-02-18,22652979
2019-02-19,22680027
2019-02-20,22701369
2019-02-21,22723011
2019-02-22,22746519
2019-02-23,22758293
2019-02-24,22780160
2019-02-25,22807175
2019-02-26,22835866
2019-02-27,22856598
2019-02-28,22888511
2019-03-01,22911345
2019-03-02,22918317
2019-03-03,22925303
2019-03-04,22952286
2019-03-05,22971584
2019-03-06,22992852
2019-03-07,23013366
2019-03-08,23033872
2019-03-09,23048434
2019-03-10,23069046
2019-03-11,23090602
2019-03-12,23106818
2019-03-13,23125985
2019-03-14,23157023
2019-03-15,23174550
2019-03-16,23193130
2019-03-17,23220916
2019-03-18,23239140
2019-03-19,23272106
2019-03-20,23311493
2019-03-21,23341728
2019-03-22,23370189
2019-03-23,23387461
2019-03-24,23415409
2019-03-25,23450790
2019-03-26,23477809
2019-03-27,23510289
2019-03-28,23550009
2019-03-29,23590367
2019-03-30,23629784
2019-03-31,23656786
2019-04-01,23702450
2019-04-02,23720495
2019-04-03,23764669
2019-04-04,23804336
2019-04-05,23828982
2019-04-06,23842643
2019-04-07,23860858
2019-04-08,23887587
2019-04-09,23904368
2019-04-10,23942322
2019-04-11,23951688
2019-04-12,23906979
2019-04-13,23900062
2019-04-14,23920933
2019-04-15,23947346
2019-04-16,23983032
2019-04-17,24018877
2019-04-18,24041740
2019-04-19,24074252
2019-04-20,24063124
2019-04-21,24098973
2019-04-22,24160010
2019-04-23,24179134
2019-04-24,24202090
2019-04-25,24234013
2019-04-26,24268819
2019-04-27,24283292
2019-04-28,24305274
2019-04-29,24328859
2019-04-30,24358745
2019-05-01,24403737
2019-05-02,24443043
2019-05-03,24480946
2019-05-04,24507293
2019-05-05,24537728
2019-05-06,24576249
2019-05-07,24620762
2019-05-08,24666087
2019-05-09,24707293
2019-05-10,24756952
2019-05-11,24799259
2019-05-12,24840241
2019-05-13,24902264
2019-05-14,24965656
2019-05-15,25045364
2019-05-16,25127288
2019-05-17,25202473
2019-05-18,25268474
2019-05-19,25313479
2019-05-20,25371425
2019-05-21,25426093
2019-05-22,25479316
2019-05-23,25546270
2019-05-24,25603317
2019-05-25,25662474
2019-05-26,25712060
2019-05-27,25785375
2019-05-28,25868975
2019-05-29,25964040
2019-05-30,26033270
2019-05-31,26119004
2019-06-01,26236814
2019-06-02,26380768
2019-06-03,26491041
2019-06-04,26548407
2019-06-05,26589253
2019-06-06,26643029
2019-06-07,26675386
2019-06-08,26705772
2019-06-09,26698219
2019-06-10,26711509
2019-06-11,26690089
2019-06-12,26561539
2019-06-13,26598960
2019-06-14,26626790
2019-06-15,26706469
2019-06-16,26684949
2019-06-17,26729872
2019-06-18,26786197
2019-06-19,26827650
2019-06-20,26872285
2019-06-21,26911792
2019-06-22,26965644
2019-06-23,27009976
2019-06-24,27066196
2019-06-25,27117772
2019-06-26,27164513
2019-06-27,27223798
2019-06-28,27270991
2019-06-29,27322621
2019-06-30,27364302
2019-07-01,27410736
2019-07-02,27409869
2019-07-03,27450275
2019-07-04,27483692
2019-07-05,27511603
2019-07-06,27542874
2019-07-07,27570432
2019-07-08,27607889
2019-07-09,27636258
2019-07-10,27677162
2019-07-11,27702471
2019-07-12,27746838
2019-07-13,27769684
2019-07-14,27803301
2019-07-15,27841402
2019-07-16,27876103
2019-07-17,27908265
2019-07-18,27947535
2019-07-19,27965183
2019-07-20,27995819
2019-07-21,28018573
2019-07-22,28054095
2019-07-23,28092765
2019-07-24,28125355
2019-07-25,28158769
2019-07-26,28190470
2019-07-27,28228450
2019-07-28,28268332
2019-07-29,28303604
2019-07-30,28323899
2019-07-31,28366632
2019-08-01,28405864
2019-08-02,28444487
2019-08-03,28493017
2019-08-04,28547190
2019-08-05,28574660
2019-08-06,28623686
2019-08-07,28667863
2019-08-08,28711859
2019-08-09,28736707
2019-08-10,28776104
2019-08-11,28809195
2019-08-12,28830647
2019-08-13,28893644
2019-08-14,28936301
2019-08-15,28976118
2019-08-16,28999235
2019-08-17,29031527
2019-08-18,29060751
2019-08-19,29102141
2019-08-20,29154678
2019-08-21,29213208
2019-08-22,29261109
2019-08-23,29313850
2019-08-24,29360204
2019-08-25,29402493
2019-08-26,29450019
2019-08-27,29489083
2019-08-28,29536734
2019-08-29,29578959
2019-08-30,29613294
2019-08-31,29650369
2019-09-01,29682114
2019-09-02,29714957
2019-09-03,29755192
2019-09-04,29785532
2019-09-05,29816409
2019-09-06,29859786
2019-09-07,29897019
2019-09-08,29934363
2019-09-09,29976632
2019-09-10,30012344
2019-09-11,30053203
2019-09-12,30093375
2019-09-13,30128043
2019-09-14,30160734
2019-09-15,30194360
2019-09-16,30233083
2019-09-17,30268805
2019-09-18,30304200
2019-09-19,30327481
2019-09-20,30368361
2019-09-21,30403382
2019-09-22,30433923
2019-09-23,30465462
2019-09-24,30512778
2019-09-25,30558298
2019-09-26,30592289
2019-09-27,30626098
2019-09-28,30654495
2019-09-29,30688300
2019-09-30,30724020
2019-10-01,30757248
2019-10-02,30774876
2019-10-03,30804402
2019-10-04,30832747
2019-10-05,30863844
2019-10-06,30892742
2019-10-07,30933943
2019-10-08,30976167
2019-10-09,31018392
2019-10-10,31054974
2019-10-11,31086227
2019-10-12,31122033
2019-10-13,31156985
2019-10-14,31194641
2019-10-15,31241760
2019-10-16,31281911
2019-10-17,31327652
2019-10-18,31390179
2019-10-19,31433917
2019-10-20,31465464
2019-10-21,31508905
2019-10-22,31547395
2019-10-23,31585072
2019-10-24,31623426
2019-10-25,31648582
2019-10-26,31680181
2019-10-27,31711742
2019-10-28,31744274
2019-10-29,31779355
2019-10-30,31817951
2019-10-31,31854618
2019-11-01,31880029
2019-11-02,31908308
2019-11-03,31935439
2019-11-04,31963866
2019-11-05,31998524
2019-11-06,32040790
2019-11-07,32092836
2019-11-08,32129967
2019-11-09,32158435
2019-11-10,32192854
2019-11-11,32240513
2019-11-12,32278158
2019-11-13,32324205
2019-11-14,32368186
2019-11-15,32401141
2019-11-16,32432590
2019-11-17,32464349
2019-11-18,32502161
2019-11-19,32544632
2019-11-20,32571353
2019-11-21,32616815
2019-11-22,32640066
2019-11-23,32669410
2019-11-24,32695458
2019-11-25,32732927
2019-11-26,32759171
2019-11-27,32792023
2019-11-28,32822388
2019-11-29,32839659
2019-11-30,32865402
2019-12-01,32906875
2019-12-02,32945857
2019-12-03,32985378
2019-12-04,33018165
2019-12-05,33045020
2019-12-06,33075032
2019-12-07,33097751
2019-12-08,33116214
2019-12-09,33153669
2019-12-10,33187668
2019-12-11,33213877
2019-12-12,33315232
2019-12-13,33440517
2019-12-14,33574689
2019-12-15,33700028
2019-12-16,33780510
2019-12-17,33837204
2019-12-18,33900762
2019-12-19,33955856
2019-12-20,34027412
2019-12-21,34137129
2019-12-22,34250214
2019-12-23,34316186
2019-12-24,34412700
2019-12-25,34524494
2019-12-26,34624639
2019-12-27,34651596
2019-12-28,34667016
2019-12-29,34683394
2019-12-30,34694451
2019-12-31,34720259
2020-01-01,34737528
2020-01-02,34756493
2020-01-03,34783556
2020-01-04,34809952
2020-01-05,34829798
2020-01-06,34849606
2020-01-07,34866874
2020-01-08,34880217
2020-01-09,34898083
2020-01-10,34919066
2020-01-11,34941494
2020-01-12,34958947
2020-01-13,34992037
2020-01-14,35004605
2020-01-15,35038130
2020-01-16,35068042
2020-01-17,35096266
2020-01-18,35117976
2020-01-19,35138872
2020-01-20,35154822
2020-01-21,35168805
2020-01-22,35189662
2020-01-23,35199770
2020-01-24,35209943
2020-01-25,35233127
2020-01-26,35248339
2020-01-27,35269014
2020-01-28,35281050
2020-01-29,35301019
2020-01-30,35322863
2020-01-31,35345928
2020-02-01,35371139
2020-02-02,35394109
2020-02-03,35414875
2020-02-04,35437394
2020-02-05,35466593
2020-02-06,35495508
2020-02-07,35534524
2020-02-08,35568787
2020-02-09,35597471
2020-02-10,35632596
2020-02-11,35662531
2020-02-12,35705312
2020-02-13,35747005
2020-02-14,35768331
2020-02-15,35785196
2020-02-16,35796116
2020-02-17,35803826
2020-02-18,35822120
2020-02-19,35843225
2020-02-20,35862870
2020-02-21,35877042
2020-02-22,35885726
2020-02-23,35913022
2020-02-24,35944682
2020-02-25,35979429
2020-02-26,36014053
2020-02-27,36033295
2020-02-28,36077676
2020-02-29,36097106
2020-03-01,36137511
2020-03-02,36161315
2020-03-03,36195410
2020-03-04,36225461
2020-03-05,36262943
2020-03-06,36297699
2020-03-07,36329232
2020-03-08,36358730
2020-03-09,36388291
2020-03-10,36423317
2020-03-11,36454958
2020-03-12,36483688
2020-03-13,36527961
2020-03-14,36557712
2020-03-15,36585899
2020-03-16,36618949
2020-03-17,36659344
2020-03-18,36698196
2020-03-19,36742513
2020-03-20,36788462
2020-03-21,36854893
2020-03-22,36909163
2020-03-23,36965859
2020-03-24,37001847
2020-03-25,37029407
2020-03-26,37041394
2020-03-27,37053775
2020-03-28,37078738
2020-03-29,37100498
2020-03-30,37140010
2020-03-31,37189061
2020-04-01,37226748
2020-04-02,37269567
2020-04-03,37316026
2020-04-04,37355188
2020-04-05,37394237
2020-04-06,37453584
2020-04-07,37495911
2020-04-08,37463559
2020-04-09,37499778
2020-04-10,37536938
2020-04-11,37566483
2020-04-12,37590625
2020-04-13,37616426
2020-04-14,37646691
2020-04-15,37687071
2020-04-16,37733655
2020-04-17,37781813
2020-04-18,37834398
2020-04-19,37878391
2020-04-20,37937665
2020-04-21,38001036
2020-04-22,38067192
2020-04-23,38138223
2020-04-24,38202327
2020-04-25,38262728
2020-04-26,38324008
2020-04-27,38392186
2020-04-28,38456054
2020-04-29,38529434
2020-04-30,38597119
2020-05-01,38652321
2020-05-02,38684816
2020-05-03,38699377
2020-05-04,38758437
2020-05-05,38811209
2020-05-06,38855475
2020-05-07,38918642
2020-05-08,38985269
2020-05-09,39042860
2020-05-10,39112036
2020-05-11,39176562
2020-05-12,39240553
2020-05-13,39298390
2020-05-14,39359365
2020-05-15,39419447
2020-05-16,39479184
2020-05-17,39537259
2020-05-18,39602968
2020-05-19,39671138
2020-05-20,39739513
2020-05-21,39812177
2020-05-22,39889960
2020-05-23,39952022
2020-05-24,40011579
2020-05-25,40082997
2020-05-26,40163344
2020-05-27,40244884
2020-05-28,40318078
2020-05-29,40389057
2020-05-30,40461552
2020-05-31,40530181
2020-06-01,40613258
2020-06-02,40694823
2020-06-03,40768840
2020-06-04,40845926
2020-06-05,40921090
2020-06-06,40981950
2020-06-07,41044892
2020-06-08,41115971
2020-06-09,41178921
2020-06-10,41242072
2020-06-11,41308854
2020-06-12,41372025
2020-06-13,41420255
2020-06-14,41474260
2020-06-15,41540959
2020-06-16,41610906
2020-06-17,41681776
2020-06-18,41750685
2020-06-19,41822353
2020-06-20,41897126
2020-06-21,41967546
2020-06-22,42043847
2020-06-23,42125413
2020-06-24,42208991
2020-06-25,42293660
2020-06-26,42380599
2020-06-27,42463640
2020-06-28,42503531
2020-06-29,42495450
2020-06-30,42563089
2020-07-01,42624655
2020-07-02,42684137
2020-07-03,42747516
2020-07-04,42794316
2020-07-05,42836322
2020-07-06,42896751
2020-07-07,42962639
2020-07-08,43039918
2020-07-09,43115295
2020-07-10,43172711
2020-07-11,43223598
2020-07-12,43279015
2020-07-13,43347347
2020-07-14,43429188
2020-07-15,43479385
2020-07-16,43552872
2020-07-17,43623299
2020-07-18,43688500
2020-07-19,43712209
2020-07-20,43766185
2020-07-21,43827682
2020-07-22,43888443
2020-07-23,43953359
2020-07-24,44021815
2020-07-25,44085388
2020-07-26,44152699
2020-07-27,44223840
2020-07-28,44285754
2020-07-29,44356098
2020-07-30,44426819
2020-07-31,44500962
2020-08-01,44555269
2020-08-02,44628726
2020-08-03,44691897
2020-08-04,44750372
2020-08-05,44818936
2020-08-06,44883486
2020-08-07,44961133
2020-08-08,45022990
2020-08-09,45080286
2020-08-10,45155569
2020-08-11,45224327
2020-08-12,45287226
2020-08-13,45348106
2020-08-14,45408695
2020-08-15,45467530
2020-08-16,45529888
2020-08-17,45594008
2020-08-18,45653780
2020-08-19,45693333
2020-08-20,45740178
2020-08-21,45834327
2020-08-22,45888527
2020-08-23,45945089
2020-08-24,46002451
2020-08-25,46058196
2020-08-26,46109662
2020-08-27,46155852
2020-08-28,46211599
2020-08-29,46260540
2020-08-30,46307702
2020-08-31,46361437
2020-09-01,46411315
2020-09-02,46457883
2020-09-03,46501091
2020-09-04,46536362
2020-09-05,46578347
2020-09-06,46614673
2020-09-07,46655339
2020-09-08,46692279
2020-09-09,46739934
2020-09-10,46782481
2020-09-11,46829450
2020-09-12,46873129
2020-09-13,46911188
2020-09-14,46948486
2020-09-15,46982110
2020-09-16,47023997
2020-09-17,47080416
2020-09-18,47130717
2020-09-19,47172550
2020-09-20,47189904
2020-09-21,47213094
2020-09-22,47240404
2020-09-23,47252384
2020-09-24,47273164
2020-09-25,47308391
2020-09-26,47310524
2020-09-27,47308756
2020-09-28,47344146
2020-09-29,47380063
2020-09-30,47429267
2020-10-01,47447835
2020-10-02,47470197
2020-10-03,47491472
2020-10-04,47490545
2020-10-05,47526548
2020-10-06,47556805
2020-10-07,47567698
2020-10-08,47586814
2020-10-09,47609137
2020-10-10,47645739
2020-10-11,47703216
2020-10-12,47747186
2020-10-13,47771593
2020-10-14,47798102
2020-10-15,47797135
2020-10-16,47802838
2020-10-17,47855812
2020-10-18,47908630
2020-10-19,47967527
2020-10-20,48031634
2020-10-21,48101222
2020-10-22,48177423
2020-10-23,48264270
2020-10-24,48308803
2020-10-25,48364816
2020-10-26,48419158
2020-10-27,48474721
2020-10-28,48534381
2020-10-29,48596429
2020-10-30,48661543
2020-10-31,48726958
2020-11-01,48785438
2020-11-02,48843853
2020-11-03,48907007
2020-11-04,48902726
2020-11-05,48941022
2020-11-06,48995825
2020-11-07,49030791
2020-11-08,49088949
2020-11-09,49137211
2020-11-10,49191321
2020-11-11,49243554
2020-11-12,49292117
2020-11-13,49338653
2020-11-14,49370455
2020-11-15,49409118
2020-11-16,49450093
2020-11-17,49519256
2020-11-18,49585227
2020-11-19,49658299
2020-11-20,49726755
2020-11-21,49781378
2020-11-22,49820230
2020-11-23,49872160
2020-11-24,49937212
2020-11-25,49991148
2020-11-26,50032735
2020-11-27,50043272
2020-11-28,50061669
2020-11-29,50036629
2020-11-30,50074583
2020-12-01,50138796
2020-12-02,50178002
2020-12-03,50197680
2020-12-04,50233622
2020-12-05,50270556
2020-12-06,50286945
2020-12-07,50313414
2020-12-08,50346481
2020-12-09,50378632
2020-12-10,50411295
2020-12-11,50450682
2020-12-12,50524529
2020-12-13,50616123
2020-12-14,50699383
2020-12-15,50778644
2020-12-16,50852958
2020-12-17,50863259
2020-12-18,50933160
2020-12-19,50979894
2020-12-20,51031174
2020-12-21,51072487
2020-12-22,51107908
2020-12-23,51149669
2020-12-24,51213594
2020-12-25,51249841
2020-12-26,51303000
2020-12-27,51355871
2020-12-28,51413190
2020-12-29,51466756
2020-12-30,51511571
2020-12-31,51563708
2021-01-01,51590976
2021-01-02,51659279
2021-01-03,51730944
2021-01-04,51813270
2021-01-05,51885527
2021-01-06,51961072
2021-01-07,52016251
2021-01-08,52076881
2021-01-09,52107766
2021-01-10,52159317
2021-01-11,52194535
2021-01-12,52260756
2021-01-13,52327441
2021-01-14,52391185
2021-01-15,52435165
2021-01-16,52475715
2021-01-17,52508793
2021-01-18,52551968
2021-01-19,52587691
2021-01-20,52618510
2021-01-21,52649815
2021-01-22,52688743
2021-01-23,52723708
2021-01-24,52749008
2021-01-25,52797009
2021-01-26,52827963
2021-01-27,52880377
2021-01-28,52963915
2021-01-29,53063798
2021-01-30,53117517
2021-01-31,53175465
2021-02-01,53238017
2021-02-02,53302250
2021-02-03,53365087
2021-02-04,53432174
2021-02-05,53496908
2021-02-06,53548869
2021-02-07,53593224
2021-02-08,53644122
2021-02-09,53712617
2021-02-10,53798577
2021-02-11,53856958
2021-02-12,53923524
2021-02-13,53990809
2021-02-14,54049080
2021-02-15,54116210
2021-02-16,54195232
2021-02-17,54233342
2021-02-18,54309081
2021-02-19,54389481
2021-02-20,54478839
2021-02-21,54549271
2021-02-22,54628059
2021-02-23,54699558
2021-02-24,54756425
2021-02-25,54798780
2021-02-26,54833582
2021-02-27,54873036
2021-02-28,54916425
2021-03-01,54952782
2021-03-02,54979299
2021-03-03,55026355
2021-03-04,55079211
2021-03-05,55119958
2021-03-06,55155070
2021-03-07,55192919
2021-03-08,55230364
2021-03-09,55279356
2021-03-10,55316349
2021-03-11,55353318
2021-03-12,55403494
2021-03-13,55448882
2021-03-14,55496732
2021-03-15,55544290
2021-03-16,55601336
2021-03-17,55658239
2021-03-18,55727750
2021-03-19,55785631
2021-03-20,55837192
2021-03-21,55880457
2021-03-22,55943262
2021-03-23,55991421
2021-03-24,56054887
2021-03-25,56114408
2021-03-26,56166460
2021-03-27,56211862
2021-03-28,56254948
2021-03-29,56303863
2021-03-30,56360889
2021-03-31,56436574
2021-04-01,56515709
2021-04-02,56584538
2021-04-03,56635363
2021-04-04,56672930
2021-04-05,56720339
2021-04-06,56781504
2021-04-07,56835433
