t,v
2015-08-07,1432994.819273896
2015-08-08,848571.1187779789
2015-08-09,440430.1934565256
2015-08-10,702909.8526695302
2015-08-11,273769.42808165005
2015-08-12,219861.7790677037
2015-08-13,417751.9319154609
2015-08-14,934487.904763343
2015-08-15,263046.5998331312
2015-08-16,491970.158091221
2015-08-17,83484.21485384434
2015-08-18,201502.6410600472
2015-08-19,-80738.01457576873
2015-08-20,-32555.442663080554
2015-08-21,-19980.2541542291
2015-08-22,-4727.137435836092
2015-08-23,-38890.35774248479
2015-08-24,-14522.540549314945
2015-08-25,42251.43949994569
2015-08-26,25386.087929094036
2015-08-27,16110.905173281819
2015-08-28,17713.42786988779
2015-08-29,2007.268758944083
2015-08-30,51121.35691366084
2015-08-31,23125.349131065537
2015-09-01,128007.15425745407
2015-09-02,-37971.863651184045
2015-09-03,52511.36436363676
2015-09-04,53430.69744168181
2015-09-05,-16249.297069143817
2015-09-06,32988.84433517151
2015-09-07,51100.59729877432
2015-09-08,60872.00001177197
2015-09-09,944632.2611671643
2015-09-10,8280.211801265417
2015-09-11,-81304.98417403814
2015-09-12,-14614.276483709153
2015-09-13,-19301.936183334794
2015-09-14,30025.297530570133
2015-09-15,14146.06505663952
2015-09-16,39819.83609461464
2015-09-17,-7958.8460532173995
2015-09-18,38028.06698543245
2015-09-19,12962.753052908782
2015-09-20,-7223.450607935065
2015-09-21,42434.50311038862
2015-09-22,8479.628956339657
2015-09-23,12561.060664632794
2015-09-24,51063.81497925852
2015-09-25,-5485.407507056283
2015-09-26,4539.455480994089
2015-09-27,-17709.474031693288
2015-09-28,142339.73658044418
2015-09-29,-46081.4641898657
2015-09-30,76748.18738373446
2015-10-01,-28534.4306923846
2015-10-02,27123.609727160296
2015-10-03,4472.2947140512915
2015-10-04,10061.812002659812
2015-10-05,-22971.912821248814
2015-10-06,-169239.6218078011
2015-10-07,2000.412467030299
2015-10-08,66868.29401478179
2015-10-09,-5804.081807655559
2015-10-10,-3259.2467596497954
2015-10-11,-42551.30980746164
2015-10-12,-4980.690587051373
2015-10-13,1635.1101378720487
2015-10-14,46915.387513534224
2015-10-15,-5669.81719410076
2015-10-16,-16516.019926139634
2015-10-17,32704.561969499766
2015-10-18,3459.672978078517
2015-10-19,-44430.50013207231
2015-10-20,-29964.727526791132
2015-10-21,220443.21646525926
2015-10-22,18832.154638671433
2015-10-23,136826.89063052446
2015-10-24,674.3511552419914
2015-10-25,-4652.798449597569
2015-10-26,-89685.84077839978
2015-10-27,29018.994368446
2015-10-28,27554.95695929276
2015-10-29,111110.01085151015
2015-10-30,324744.1930804123
2015-10-31,-17354.57965682185
2015-11-01,-15727.879505761317
2015-11-02,-6458.735025211907
2015-11-03,-35524.81404399926
2015-11-04,-7654.655427345075
2015-11-05,28390.39173914268
2015-11-06,39303.81287391831
2015-11-07,57808.83521312372
2015-11-08,41733.88680273555
2015-11-09,256783.99150214202
2015-11-10,15833.9565320685
2015-11-11,-93379.73214222686
2015-11-12,-43886.78889016888
2015-11-13,201.72021972263974
2015-11-14,-56748.264596433364
2015-11-15,-21622.883182318204
2015-11-16,-39097.47316083497
2015-11-17,40796.32564861201
2015-11-18,-23737.450075848494
2015-11-19,-1409.1469111126207
2015-11-20,-6044.444661899997
2015-11-21,-5683.8334191135
2015-11-22,-22787.348886260334
2015-11-23,299226.19573930785
2015-11-24,-7523.235561324756
2015-11-25,-13415.984881253935
2015-11-26,653445.364633878
2015-11-27,-30048.65288490248
2015-11-28,15432.385427142166
2015-11-29,-60373.71407373969
2015-11-30,10970.666065628524
2015-12-01,8530.214401539604
2015-12-02,7430.084875026267
2015-12-03,-53230.93261915509
2015-12-04,-7485.52535935714
2015-12-05,31277.493947152303
2015-12-06,17844.584465840853
2015-12-07,-52081.97932108531
2015-12-08,51057.16907929175
2015-12-09,13291.812110550556
2015-12-10,-101111.65335701172
2015-12-11,-4168.460085117316
2015-12-12,23366.608776372625
2015-12-13,10772.659680469005
2015-12-14,-86927.08843832793
2015-12-15,112636.72124438632
2015-12-16,947132.8553045748
2015-12-17,80172.40671999408
2015-12-18,68442.24457975022
2015-12-19,743.5746968907115
2015-12-20,-18152.862032580786
2015-12-21,-16664.838012097483
2015-12-22,17962.17122295707
2015-12-23,-17525.57717895251
2015-12-24,-28364.294068961673
2015-12-25,5273.114364715104
2015-12-26,-14556.952645470083
2015-12-27,11631.811161281848
2015-12-28,-27181.465401033944
2015-12-29,-218.27111862552556
2015-12-30,-71721.23087168823
2015-12-31,37522.67476305252
2016-01-01,-34023.739225842335
2016-01-02,-23120.890703350327
2016-01-03,-44732.33808750991
2016-01-04,-30057.103583642045
2016-01-05,318007.6250927546
2016-01-06,2652.704214635298
2016-01-07,-75877.0599170834
2016-01-08,-63020.75543444994
2016-01-09,-312.4615452024045
2016-01-10,509.3922163402822
2016-01-11,-26571.879381553386
2016-01-12,98077.75369305498
2016-01-13,-58933.03533168669
2016-01-14,-36366.86005576141
2016-01-15,-11530.66374499345
2016-01-16,-53755.396503968805
2016-01-17,-71207.53644898965
2016-01-18,307150.712929795
2016-01-19,115009.8349029193
2016-01-20,-23127.362976920413
2016-01-21,-107014.1763979151
2016-01-22,-49638.84463056346
2016-01-23,-196636.43939350703
2016-01-24,182128.897325504
2016-01-25,137096.88832993072
2016-01-26,68282.46883773536
2016-01-27,-175078.24768279746
2016-01-28,28297.275294886756
2016-01-29,-89388.93870348152
2016-01-30,321983.3553027848
2016-01-31,15143.108752436878
2016-02-01,-27085.586725073415
2016-02-02,-79778.13536731215
2016-02-03,-42817.0149242296
2016-02-04,-97132.63883774844
2016-02-05,-148093.76519927802
2016-02-06,-72645.07262015402
2016-02-07,278703.41801533615
2016-02-08,-42814.73012318055
2016-02-09,133370.4090706468
2016-02-10,-25347.94446900807
2016-02-11,-235046.3530461914
2016-02-12,334148.8790279662
2016-02-13,-6954.581995741406
2016-02-14,-185334.16144220793
2016-02-15,-57417.52448329597
2016-02-16,-412136.3109139389
2016-02-17,-16236.59722585036
2016-02-18,-92969.16163388564
2016-02-19,-149556.4084018268
2016-02-20,163929.06503119497
2016-02-21,-36094.65258175119
2016-02-22,-21283.021991413465
2016-02-23,-57979.81479790603
2016-02-24,-26488.31805624225
2016-02-25,-38864.0149179438
2016-02-26,1427102.2373663331
2016-02-27,68832.85782796858
2016-02-28,-78613.2564447662
2016-02-29,-180264.7132827607
2016-03-01,-64470.603975298465
2016-03-02,1826418.7477541314
2016-03-03,28814.605567643885
2016-03-04,64476.41086576757
2016-03-05,240643.37911383493
2016-03-06,125812.80877639132
2016-03-07,79962.99437274435
2016-03-08,-119584.26327335881
2016-03-09,-7459.6534344045795
2016-03-10,71664.80750276084
2016-03-11,-36804.61650015222
2016-03-12,-18671.44025993126
2016-03-13,125430.01985198236
2016-03-14,-16302.115154231666
2016-03-15,-110586.73577677726
2016-03-16,-28167.897276947682
2016-03-17,12114.531471607217
2016-03-18,77079.0346214876
2016-03-19,-11747.302372212609
2016-03-20,-61807.02405797751
2016-03-21,5344.505588332948
2016-03-22,-222296.9238521716
2016-03-23,-56225.97433653832
2016-03-24,-13276.43381005153
2016-03-25,-75227.3645327532
2016-03-26,6533.727501951151
2016-03-27,49108.02860717432
2016-03-28,-25421.86347075636
2016-03-29,439424.3445825956
2016-03-30,-201852.70841064554
2016-03-31,-61274.13385524915
2016-04-01,-27037.682245513948
2016-04-02,-12819.932626751965
2016-04-03,-11086.318483569805
2016-04-04,-34619.71820551643
2016-04-05,12498.928438325645
2016-04-06,-42524.31646134706
2016-04-07,-58859.336476591445
2016-04-08,30157.653040271194
2016-04-09,318602.88401852746
2016-04-10,-21601.466571571887
2016-04-11,-63287.13714126361
2016-04-12,-137819.13692406076
2016-04-13,-51754.10944282409
2016-04-14,259961.13141780533
2016-04-15,-114409.96366532712
2016-04-16,-122233.40908160363
2016-04-17,-37288.742934829206
2016-04-18,-57143.72753487769
2016-04-19,-56181.7907076128
2016-04-20,-22672.050345149444
2016-04-21,-22591.82404534491
2016-04-22,21497.83647709011
2016-04-23,450995.97113705764
2016-04-24,6707.394031419302
2016-04-25,-27823.91170080859
2016-04-26,-47904.158332620515
2016-04-27,-79857.20423100438
2016-04-28,-143409.98891975905
2016-04-29,-85951.8831818793
2016-04-30,515832.83051812905
2016-05-01,-67796.12170416248
2016-05-02,-6121.44968944171
2016-05-03,-91437.20362087997
2016-05-04,-77070.25216855181
2016-05-05,-82346.98333776157
2016-05-06,-154175.329262025
2016-05-07,-202294.73283764743
2016-05-08,-54636.57004294198
2016-05-09,-9366.16716619092
2016-05-10,-212107.9972363588
2016-05-11,77000.37398011005
2016-05-12,-461718.77970938134
2016-05-13,-837859.4862031755
2016-05-14,-766518.5264961213
2016-05-15,-350032.53211548494
2016-05-16,-214380.6024126198
2016-05-17,-134581.39886833093
2016-05-18,-218948.2548719988
2016-05-19,702138.4609930955
2016-05-20,-150136.37850760354
2016-05-21,-20452.548359531327
2016-05-22,-50551.683776342674
2016-05-23,-79765.54388390566
2016-05-24,-109742.00953906885
2016-05-25,-123986.52265834861
2016-05-26,21763.4939414548
2016-05-27,-254571.89669240377
2016-05-28,310822.68931790633
2016-05-29,14894.184927713533
2016-05-30,128137.6997924592
2016-05-31,-57159.453004993964
2016-06-01,-6573.961537837109
2016-06-02,-6701.202944333505
2016-06-03,-86068.62492783983
2016-06-04,-23696.882847767847
2016-06-05,-54817.27468419853
2016-06-06,-57605.704599662364
2016-06-07,132712.37997004113
2016-06-08,437330.2358027061
2016-06-09,-41003.54331616785
2016-06-10,-69718.54755848122
2016-06-11,-16687.607357722867
2016-06-12,2199.605578803108
2016-06-13,-43483.0894688773
2016-06-14,-9499.067827980674
2016-06-15,-98445.26478795569
2016-06-16,238932.7607360544
2016-06-17,295207.0424025727
2016-06-18,775527.3819710857
2016-06-19,-230131.436228015
2016-06-20,-39186.78415667167
2016-06-21,-102027.81739368074
2016-06-22,-208047.74719283695
2016-06-23,-185872.60524603367
2016-06-24,-99317.8613903099
2016-06-25,374698.12121989636
2016-06-26,-46022.7755121106
2016-06-27,-114220.74899651748
2016-06-28,-172380.6590397169
2016-06-29,-124035.8333585753
2016-06-30,-30112.628302050696
2016-07-01,-21187.901489777374
2016-07-02,29249.815452360635
2016-07-03,-77108.69091360735
2016-07-04,521623.14646317717
2016-07-05,-210827.2881741387
2016-07-06,-64605.603870597435
2016-07-07,-114356.35558147011
2016-07-08,-9768.71860460192
2016-07-09,-92983.5132702846
2016-07-10,-187175.9525152848
2016-07-11,-180459.02072219312
2016-07-12,-44473.09018424546
2016-07-13,295306.72451013525
2016-07-14,45761.04028204529
2016-07-15,-261290.641971122
2016-07-16,-63469.37912139017
2016-07-17,-159920.29864942015
2016-07-18,673775.3726350217
2016-07-19,7847333.554117478
2016-07-20,303456.32737646997
2016-07-21,47059.904159679456
2016-07-22,217865.00008461124
2016-07-23,189175.02610973112
2016-07-24,1683353.5600600573
2016-07-25,563372.0173279583
2016-07-26,2281938.0019827136
2016-07-27,185152.42588334926
2016-07-28,661260.0983843214
2016-07-29,75362.60333060089
2016-07-30,-158112.1811748377
2016-07-31,18452.969281426806
2016-08-01,-118983.48682432703
2016-08-02,565550.2237652859
2016-08-03,-1287914.1062632394
2016-08-04,-337354.3351906418
2016-08-05,-400108.5493395843
2016-08-06,-213509.77413412224
2016-08-07,-53361.60153398622
2016-08-08,-245421.41767140254
2016-08-09,-164734.90486388333
2016-08-10,-345239.9104810087
2016-08-11,-154939.72424465884
2016-08-12,-150526.78718980844
2016-08-13,-706479.1772122496
2016-08-14,-17209.957353309088
2016-08-15,-212936.2346028732
2016-08-16,-41856.04739204048
2016-08-17,-92578.73444620852
2016-08-18,-29280.014351839112
2016-08-19,-13008.684551826067
2016-08-20,-58087.41032186957
2016-08-21,18918.047001864106
2016-08-22,-40134.96249228832
2016-08-23,46852.53122025094
2016-08-24,-21358.00365838979
2016-08-25,15174.724282733805
2016-08-26,-47880.44843449406
2016-08-27,74993.8322473215
2016-08-28,-3126.0778634224844
2016-08-29,-8342.209123106964
2016-08-30,-61094.21420006652
2016-08-31,-43964.55191617491
2016-09-01,36120.779057401814
2016-09-02,11859.270187740098
2016-09-03,-25667.6225307103
2016-09-04,-153741.99208450248
2016-09-05,-23849.0709841403
2016-09-06,-47511.17333942898
2016-09-07,-26365.730738774582
2016-09-08,-74095.98276225495
2016-09-09,-10703.758715888282
2016-09-10,-43840.64588961845
2016-09-11,-34498.76541813294
2016-09-12,-249296.3597212036
2016-09-13,7518.220198534196
2016-09-14,15277.059619600608
2016-09-15,34038.49553140988
2016-09-16,957694.0815589488
2016-09-17,78528.72888688424
2016-09-18,-73088.0946182814
2016-09-19,5139.881470413122
2016-09-20,-40245.906222931866
2016-09-21,28200.846285905864
2016-09-22,-44262.279132628755
2016-09-23,-41546.263386788574
2016-09-24,42021.426594872464
2016-09-25,-43555.55143294437
2016-09-26,23417.353103116053
2016-09-27,18160.295216194456
2016-09-28,71450.94280580452
2016-09-29,-100173.68030744295
2016-09-30,-32118.474528702412
2016-10-01,-84939.46682307357
2016-10-02,57981.22302433223
2016-10-03,6930.559337463288
2016-10-04,6801.196575277019
2016-10-05,15174.712534307124
2016-10-06,-32332.969061537442
2016-10-07,13691.547217130486
2016-10-08,132097.93394227844
2016-10-09,111378.48697418059
2016-10-10,69748.55228454637
2016-10-11,99869.79560268062
2016-10-12,120682.4136851643
2016-10-13,197901.72942876536
2016-10-14,-2508.7042524185963
2016-10-15,-41042.55098211933
2016-10-16,-27391.760961478125
2016-10-17,-40901.968993794595
2016-10-18,4030.4080045939772
2016-10-19,-74171.05885828055
2016-10-20,28726.632877655764
2016-10-21,5497.583178974513
2016-10-22,112815.62388322983
2016-10-23,-6513.855931685583
2016-10-24,74693.19725981161
2016-10-25,74870.78030894525
2016-10-26,94284.76347812676
2016-10-27,75911.90533902234
2016-10-28,21382.5553767909
2016-10-29,111730.50408923678
2016-10-30,-633185.1507063131
2016-10-31,21550.068787919008
2016-11-01,125714.67544859799
2016-11-02,25335.624972320657
2016-11-03,48511.13067905247
2016-11-04,-42802.78819434157
2016-11-05,9598.818807243573
2016-11-06,2277.745359017121
2016-11-07,40776.1035893286
2016-11-08,24781.212568654257
2016-11-09,-54077.59568464119
2016-11-10,12850.559766961145
2016-11-11,-56819.831968984334
2016-11-12,122715.18263945042
2016-11-13,23988.106673754228
2016-11-14,-2626.5645786402165
2016-11-15,61941.08850622733
2016-11-16,25321.60130006884
2016-11-17,486897.0293225401
2016-11-18,18528.8833005481
2016-11-19,51177.300690252596
2016-11-20,62517.55735102498
2016-11-21,14499.800686061615
2016-11-22,136002.24833220724
2016-11-23,-873.6174520767818
2016-11-24,65617.02506966576
2016-11-25,-9855.494016877725
2016-11-26,59008.79494884488
2016-11-27,82829.56520905781
2016-11-28,18680.17727569242
2016-11-29,83271.23741629848
2016-11-30,137371.83933209264
2016-12-01,-85404.21811111897
2016-12-02,-91757.46872170322
2016-12-03,214169.85478806827
2016-12-04,-9698.776225233974
2016-12-05,194597.89803282975
2016-12-06,5486.517433774774
2016-12-07,-102094.81503182987
2016-12-08,-86364.7477404591
2016-12-09,41646.93926685557
2016-12-10,-45518.95138121283
2016-12-11,6065.394877540501
2016-12-12,-64485.003766028676
2016-12-13,-7949.287598486815
2016-12-14,-5854.550990965756
2016-12-15,46537.55470807536
2016-12-16,116951.68375662097
2016-12-17,14922.617764896626
2016-12-18,43303.15287537816
2016-12-19,53716.23905798746
2016-12-20,731.6367765118775
2016-12-21,174426.76275394706
2016-12-22,136468.0130650784
2016-12-23,816350.68112525
2016-12-24,-26573.562746461917
2016-12-25,24219.77651710325
2016-12-26,-6366.985775156281
2016-12-27,99610.24071619235
2016-12-28,-13339.892828356416
2016-12-29,170837.34706300567
2016-12-30,-27824.084998092265
2016-12-31,8080.715813122573
2017-01-01,-73767.68378977518
2017-01-02,-2534.0543961040385
2017-01-03,57112.70755480719
2017-01-04,195787.831389494
2017-01-05,127444.48933587258
2017-01-06,-141280.57800392463
2017-01-07,-107971.75884534937
2017-01-08,22097.257786255155
2017-01-09,105549.38964268996
2017-01-10,5418.98416608799
2017-01-11,-120658.2284584285
2017-01-12,-54842.976576950576
2017-01-13,70784.26623474718
2017-01-14,82430.89945607731
2017-01-15,-36025.02262202068
2017-01-16,-44247.637200155994
2017-01-17,164389.93551635815
2017-01-18,-27711.538419946795
2017-01-19,30000.260769998276
2017-01-20,-698445.389365284
2017-01-21,-39936.86355551757
2017-01-22,-16190.138710468163
2017-01-23,-14800.029151948285
2017-01-24,2376.8976056845277
2017-01-25,-22930.221843608044
2017-01-26,3331.888892663148
2017-01-27,1746.239038371743
2017-01-28,-13758.931657596477
2017-01-29,74748.04234056006
2017-01-30,20537.45690338235
2017-01-31,21252.454014460032
2017-02-01,32366.346571956936
2017-02-02,9250.661344324413
2017-02-03,211407.08518553944
2017-02-04,-59842.6448367344
2017-02-05,13010.998321896259
2017-02-06,-40311.37588174781
2017-02-07,38521.47895945262
2017-02-08,28385.567465350992
2017-02-09,5975.012675358274
2017-02-10,-60351.07246751446
2017-02-11,-24948.113954638568
2017-02-12,-9385.33148739599
2017-02-13,-104151.02964179985
2017-02-14,45847.505261151004
2017-02-15,119723.92383771553
2017-02-16,-38590.26614439394
2017-02-17,-2371.312477840751
2017-02-18,-13303.923356240499
2017-02-19,58653.716071032046
2017-02-20,48608.67209063817
2017-02-21,34152.67265020532
2017-02-22,7799.206625265419
2017-02-23,-35336.782368112355
2017-02-24,63964.750058542006
2017-02-25,-40826.98388477453
2017-02-26,4929.879350075702
2017-02-27,549564.5224244033
2017-02-28,177350.4116849117
2017-03-01,-249427.12499227363
2017-03-02,125972.74096124386
2017-03-03,93565.70537314576
2017-03-04,-58266.24333115967
2017-03-05,-62157.60975340722
2017-03-06,-35204.07639004098
2017-03-07,19138.107637267443
2017-03-08,-64420.56572786765
2017-03-09,-61794.38000061578
2017-03-10,218975.4189803301
2017-03-11,106882.64795128454
2017-03-12,296.27783954364713
2017-03-13,581163.5034948569
2017-03-14,-160535.1745832932
2017-03-15,126173.61076643982
2017-03-16,746110.4268566167
2017-03-17,237361.5579957147
2017-03-18,103195.50566123321
2017-03-19,-71396.36449588824
2017-03-20,-202797.644879465
2017-03-21,-167469.6723081331
2017-03-22,-113641.66540605196
2017-03-23,3531.9274876656127
2017-03-24,60414.35168994055
2017-03-25,-114199.01979217259
2017-03-26,-66188.83287092968
2017-03-27,-57608.8142546601
2017-03-28,-50745.623046525056
2017-03-29,-198861.61699500313
2017-03-30,-38564.80617124727
2017-03-31,89699.87773952325
2017-04-01,-11312.822415412928
2017-04-02,51115.00153998152
2017-04-03,-469945.07321126654
2017-04-04,-58332.568172457046
2017-04-05,-109441.26475531992
2017-04-06,-125223.15305313747
2017-04-07,-91494.38519167854
2017-04-08,-14571.56435054366
2017-04-09,-42714.47794390307
2017-04-10,-208828.65773863893
2017-04-11,-119879.01229538105
2017-04-12,-35730.636868319154
2017-04-13,-45681.233603290864
2017-04-14,7430.83966346737
2017-04-15,-101997.8868730946
2017-04-16,-38239.20019597553
2017-04-17,-120480.08419362988
2017-04-18,-261068.76172711514
2017-04-19,61808.650256380904
2017-04-20,-85816.4362493215
2017-04-21,-54907.8529727383
2017-04-22,-11884.9373322241
2017-04-23,-23920.08976144716
2017-04-24,4220.644675832067
2017-04-25,-8269.009165769734
2017-04-26,55726.0865851526
2017-04-27,-6735.949551567377
2017-04-28,82726.28074535553
2017-04-29,19126.359756270598
2017-04-30,17740.031962761423
2017-05-01,-1075251.8546275094
2017-05-02,-163009.06665900454
2017-05-03,5640.67679690395
2017-05-04,109396.26561632613
2017-05-05,-420356.20604939305
2017-05-06,-9700.702125854441
2017-05-07,-7218.679665925738
2017-05-08,-181068.69789556984
2017-05-09,28791.22635464091
2017-05-10,-97185.00634686672
2017-05-11,-93726.13472829305
2017-05-12,-34955.9081921624
2017-05-13,-81760.45298109089
2017-05-14,-308458.5158669575
2017-05-15,-116501.32633238955
2017-05-16,-45445.125210620754
2017-05-17,-87167.22463272093
2017-05-18,-13459.899570465204
2017-05-19,-137145.76411347883
2017-05-20,-130092.3257007993
2017-05-21,51514.571360730915
2017-05-22,-5381.772622101824
2017-05-23,-150284.37288610236
2017-05-24,74760.00193094113
2017-05-25,62699.07873393688
2017-05-26,-307769.37017175846
2017-05-27,-27563.986311420333
2017-05-28,-23955.237072649732
2017-05-29,-82018.5289657443
2017-05-30,-22243.704642545432
2017-05-31,75247.39572604338
2017-06-01,-74722.81864668551
2017-06-02,-297333.90989768144
2017-06-03,-5570.785235234769
2017-06-04,-18121.475216681953
2017-06-05,59231.771217631234
2017-06-06,-4183.868398135004
2017-06-07,32459.475585951295
2017-06-08,-57322.152114606
2017-06-09,-68653.71978230827
2017-06-10,-19932.679824395687
2017-06-11,-84490.5337258816
2017-06-12,-10851.574715368042
2017-06-13,39976.11863224278
2017-06-14,181076.20389129012
2017-06-15,23145.94576909847
2017-06-16,-55621.735232300096
2017-06-17,12021.228256578586
2017-06-18,18958.667307091935
2017-06-19,66525.11154709762
2017-06-20,74742.51147367264
2017-06-21,-83077.62312312913
2017-06-22,-142937.75957379997
2017-06-23,-272652.44501328195
2017-06-24,-76460.44931424025
2017-06-25,-41518.4295654
2017-06-26,351045.6207691083
2017-06-27,49935.58684201341
2017-06-28,-31339.018185943365
2017-06-29,-11949.324520114576
2017-06-30,-54675.56795915007
2017-07-01,-3265.400673251919
2017-07-02,-70705.28896790283
2017-07-03,101648.13927730796
2017-07-04,16196.38905185688
2017-07-05,6064.243285865174
2017-07-06,-7910.300758499303
2017-07-07,-77511.86302936493
2017-07-08,-18481.284929479734
2017-07-09,-44070.73583902139
2017-07-10,40320.65086718096
2017-07-11,97205.08562766435
2017-07-12,-3182.5054479377577
2017-07-13,92636.84237155545
2017-07-14,-77991.79280027346
2017-07-15,96096.03334075486
2017-07-16,246312.4473896186
2017-07-17,-102472.89707682515
2017-07-18,-45444.34923784656
2017-07-19,-13669.183775661164
2017-07-20,142078.24733760738
2017-07-21,53422.42277059989
2017-07-22,-22827.453565478703
2017-07-23,-46791.78511611573
2017-07-24,24514.24740060573
2017-07-25,-48157.81477890909
2017-07-26,-96363.38700774428
2017-07-27,3175.371160429786
2017-07-28,-48462.56138872274
2017-07-29,-7878.274784062349
2017-07-30,6585.208871690382
2017-07-31,-66086.72339898598
2017-08-01,-48335.05514594127
2017-08-02,9146.987251006765
2017-08-03,-107512.55344233947
2017-08-04,-53129.97577141525
2017-08-05,-39400.451584932394
2017-08-06,-81748.31441253977
2017-08-07,-65636.50025205855
2017-08-08,-89931.54351487523
2017-08-09,-54690.65444652381
2017-08-10,-44424.37793121353
2017-08-11,-12334.837252484227
2017-08-12,-38496.77024109071
2017-08-13,-15795.816113000794
2017-08-14,-52740.57455345563
2017-08-15,-74109.05684116279
2017-08-16,-327573.96392903203
2017-08-17,-73614.9545855273
2017-08-18,-55133.9967826549
2017-08-19,23906.487714461982
2017-08-20,-24689.026470320125
2017-08-21,87095.9143677837
2017-08-22,12604.128787234426
2017-08-23,-33703.394823940296
2017-08-24,-51195.381160723045
2017-08-25,-1606.7456851261086
2017-08-26,-13110.149005101732
2017-08-27,-1585.1799450592953
2017-08-28,61825.68277503352
2017-08-29,38061.99255325948
2017-08-30,-39283.30260897253
2017-08-31,-138312.03719182857
2017-09-01,18949.90775473893
2017-09-02,-6556.7823447682895
2017-09-03,29948.589417269803
2017-09-04,126200.99299527484
2017-09-05,24298.77349103731
2017-09-06,11851.5093210786
2017-09-07,-162.35683964198688
2017-09-08,19562.96742845635
2017-09-09,-420659.414989276
2017-09-10,32832.71379741898
2017-09-11,-26827.165961428545
2017-09-12,-26742.256090565294
2017-09-13,28039.105523946055
2017-09-14,22645.10140019725
2017-09-15,63284.129579482484
2017-09-16,-111059.70858299377
2017-09-17,197701.23468495335
2017-09-18,32600.268178859667
2017-09-19,3295.1741273201187
2017-09-20,-41189.180992057314
2017-09-21,-37875.02902442694
2017-09-22,-20738.4321300101
2017-09-23,-24026.346039841825
2017-09-24,-39670.12495630665
2017-09-25,43672.5303938748
2017-09-26,-13498.151622642326
2017-09-27,6304.650967075897
2017-09-28,20869.073753038363
2017-09-29,-20607.959344832256
2017-09-30,-49844.53529340416
2017-10-01,12802.37831992039
2017-10-02,20122.454627201892
2017-10-03,12616.891954503662
2017-10-04,-10553.56854720303
2017-10-05,-48559.30114308017
2017-10-06,-11615.771571586665
2017-10-07,-23083.751051851315
2017-10-08,-113.46902454845258
2017-10-09,-116478.03304211894
2017-10-10,-23921.16248835338
2017-10-11,-15328.087499453599
2017-10-12,-50279.76250508765
2017-10-13,5146.576023003552
2017-10-14,-34404.91757044784
2017-10-15,10690.488894271897
2017-10-16,-26619.873927825538
2017-10-17,-19056.171200548706
2017-10-18,-8594.047361237754
2017-10-19,-54642.620489566005
2017-10-20,-11431.365022480546
2017-10-21,-25033.355846234044
2017-10-22,-14628.88685117173
2017-10-23,-38400.68635898398
2017-10-24,67860.78502440482
2017-10-25,7405.55714858562
2017-10-26,-11167.200606045924
2017-10-27,-8488.518908918486
2017-10-28,-29276.277592671962
2017-10-29,-11636.841775603913
2017-10-30,-23046.321463641856
2017-10-31,-38446.7013895977
2017-11-01,-30458.480868893646
2017-11-02,1066.786402091966
2017-11-03,-2535.4361025374965
2017-11-04,-23561.937421684852
2017-11-05,-23126.40804566664
2017-11-06,-14436.955131889845
2017-11-07,-34183.259449714504
2017-11-08,70458.61189837311
2017-11-09,28046.267134705733
2017-11-10,-22212.78482434689
2017-11-11,41389.974951710086
2017-11-12,21650.131617195206
2017-11-13,17279.486821360944
2017-11-14,31267.61728101701
2017-11-15,-35145.636992693355
2017-11-16,-71289.80560465832
2017-11-17,-31973.003000327677
2017-11-18,11166.01124807453
2017-11-19,-27265.744725977886
2017-11-20,-11672.891607551603
2017-11-21,-51050.64230133733
2017-11-22,-11328.763537608262
2017-11-23,52347.57064799126
2017-11-24,11918.986721614783
2017-11-25,-11325.75790097256
2017-11-26,-2040.3715920131654
2017-11-27,-58487.78889315127
2017-11-28,-61242.79475370463
2017-11-29,-38934.11549366126
2017-11-30,-16750.53239955922
2017-12-01,-78205.4982307328
2017-12-02,-14061.633927723917
2017-12-03,46729.69930670835
2017-12-04,-51447.55824974965
2017-12-05,228069.37340236676
2017-12-06,-286467.395668561
2017-12-07,-33727.118983731954
2017-12-08,-97803.60349911067
2017-12-09,24201.807340522297
2017-12-10,-18921.490858794947
2017-12-11,-121483.33569779969
2017-12-12,177092.41408989136
2017-12-13,-24283.885578620364
2017-12-14,-76491.63616246183
2017-12-15,-81146.7788467689
2017-12-16,-64193.54228692263
2017-12-17,-9764.029688081238
2017-12-18,7849.28385650774
2017-12-19,-53279.3520880359
2017-12-20,16935.760340900626
2017-12-21,-41170.79252489854
2017-12-22,124185.08010571927
2017-12-23,-102065.22024341102
2017-12-24,-4157.688289399201
2017-12-25,-123224.1720807951
2017-12-26,-89379.34965764661
2017-12-27,-7284.164840535668
2017-12-28,-25048.523975821096
2017-12-29,-41402.96810498519
2017-12-30,161493.18745821912
2017-12-31,-33788.584875371074
2018-01-01,47150.35608608276
2018-01-02,27621.039693765575
2018-01-03,-100481.29837823473
2018-01-04,213180.8212440072
2018-01-05,-38614.66353957064
2018-01-06,-61975.40221134288
2018-01-07,-59712.25576522888
2018-01-08,76050.1380326082
2018-01-09,155595.533875993
2018-01-10,56177.15994078817
2018-01-11,3600.044030465535
2018-01-12,-142056.53385322116
2018-01-13,-96159.65926013951
2018-01-14,-108972.14062890952
2018-01-15,37611.5524641847
2018-01-16,-46463.37330413121
2018-01-17,225517.2788980212
2018-01-18,713.5790942664025
2018-01-19,-96157.02789747604
2018-01-20,-160785.5920983294
2018-01-21,372439.17503057886
2018-01-22,-79811.42927473015
2018-01-23,-35377.76375340775
2018-01-24,69890.61028772063
2018-01-25,-45815.684452007874
2018-01-26,159891.88306396932
2018-01-27,-70006.15729990607
2018-01-28,-61794.53792837926
2018-01-29,110944.32969370118
2018-01-30,-42195.36211506248
2018-01-31,-21970.748269360047
2018-02-01,51016.57003735087
2018-02-02,75961.80027030315
2018-02-03,-54853.506646140886
2018-02-04,-20937.14936763153
2018-02-05,-46657.17773931555
2018-02-06,60739.249484953005
2018-02-07,-64196.71687963966
2018-02-08,-4929.177489224559
2018-02-09,-57189.148169716325
2018-02-10,-73025.52211575166
2018-02-11,150986.35854116586
2018-02-12,15309.128186452086
2018-02-13,-50605.109792927746
2018-02-14,-34996.57277364313
2018-02-15,23511.561039152846
2018-02-16,-30489.338511645823
2018-02-17,-15464.280592279712
2018-02-18,53334.46945685893
2018-02-19,-33042.783349971956
2018-02-20,-27149.58229870902
2018-02-21,-23020.591355568962
2018-02-22,-43544.62854472009
2018-02-23,-18495.567302384326
2018-02-24,-19253.272594581475
2018-02-25,-40429.53072570295
2018-02-26,49716.18549482591
2018-02-27,-19398.667139061552
2018-02-28,-47019.6108609144
2018-03-01,-27490.991943985457
2018-03-02,-12442.621664564824
2018-03-03,13357.602822428307
2018-03-04,-24070.66156174263
2018-03-05,12748.917740675563
2018-03-06,85147.52639654555
2018-03-07,42645.65234666312
2018-03-08,-9065.911464239354
2018-03-09,-51593.16841986118
2018-03-10,55092.010079711006
2018-03-11,-46788.31574069029
2018-03-12,-54651.31698285995
2018-03-13,337101.5412016772
2018-03-14,66494.17885080885
2018-03-15,12891.532438281109
2018-03-16,51702.37782484744
2018-03-17,-3535.9518244809587
2018-03-18,119619.97311772354
2018-03-19,73456.61391858855
2018-03-20,-55075.08790476009
2018-03-21,69761.6879506819
2018-03-22,18125.129186144855
2018-03-23,74771.31229059532
2018-03-24,-60210.92032958756
2018-03-25,-21159.752415436204
2018-03-26,19611.54615077778
2018-03-27,54908.892640185135
2018-03-28,31092.862073031254
2018-03-29,60107.33028863737
2018-03-30,-4831.69095822837
2018-03-31,-19619.623926627886
2018-04-01,-1452.040253088955
2018-04-02,35283.25502942645
2018-04-03,-33067.617678151844
2018-04-04,20501.98799768393
2018-04-05,-37785.49069473267
2018-04-06,10295.515237710351
2018-04-07,-11887.891648479737
2018-04-08,166786.55726291428
2018-04-09,8197.982247619686
2018-04-10,-12890.921543511504
2018-04-11,28548.399587204098
2018-04-12,21350.63308932347
2018-04-13,-31908.566201632435
2018-04-14,7730.501288815838
2018-04-15,-21422.55792805308
2018-04-16,-15878.872228071588
2018-04-17,-45233.24941713325
2018-04-18,-9154.003284331819
2018-04-19,-19284.800012246735
2018-04-20,17236.199548002856
2018-04-21,-16485.198778241815
2018-04-22,-26898.31421246729
2018-04-23,-39439.73713124555
2018-04-24,33244.07301920361
2018-04-25,32323.031310340622
2018-04-26,92551.45684631082
2018-04-27,37829.08491000894
2018-04-28,-91807.21409287618
2018-04-29,-50767.773547167075
2018-04-30,-101142.95951151778
2018-05-01,57350.47529500065
2018-05-02,51768.79965574504
2018-05-03,3749.6861546858563
2018-05-04,137833.9944121329
2018-05-05,60887.13016617164
2018-05-06,-43074.67133110145
2018-05-07,163389.9737033937
2018-05-08,-23444.715390152647
2018-05-09,-17049.582896332955
2018-05-10,-75778.30331450817
2018-05-11,-984.1004837740911
2018-05-12,36885.34762502735
2018-05-13,-88061.90319056262
2018-05-14,-38767.86370825616
2018-05-15,8001.273386174056
2018-05-16,-43135.86603770967
2018-05-17,-8655.041973719839
2018-05-18,45595.154414955934
2018-05-19,12463.997240276862
2018-05-20,-15786.654312868282
2018-05-21,24427.158689229982
2018-05-22,17423.94847722107
2018-05-23,79156.63194175664
2018-05-24,-10503.499331298459
2018-05-25,-66035.81148365518
2018-05-26,-73796.24959283185
2018-05-27,2891.400030038203
2018-05-28,-1317.26803171559
2018-05-29,58266.98339149816
2018-05-30,-27026.120257773902
2018-05-31,-55122.85083545954
2018-06-01,269874.03858441266
2018-06-02,49364.108816717635
2018-06-03,24914.644763806486
2018-06-04,32868.31818404485
2018-06-05,19066.483530490368
2018-06-06,27589.457674111647
2018-06-07,60312.092067912454
2018-06-08,25725.492153575236
2018-06-09,-4259.702587561478
2018-06-10,47516.55665513396
2018-06-11,796.0116358110099
2018-06-12,131043.79251787526
2018-06-13,100876.1745762974
2018-06-14,-45405.63343070517
2018-06-15,-27608.412080366514
2018-06-16,-48278.633326334326
2018-06-17,-38889.17049260871
2018-06-18,49938.98018342664
2018-06-19,31486.707844149932
2018-06-20,-63344.46091756201
2018-06-21,72329.38779882848
2018-06-22,67447.08959613065
2018-06-23,-34288.72496112625
2018-06-24,133848.71217827813
2018-06-25,133843.5731706035
2018-06-26,35174.80287661828
2018-06-27,-2012.4210556367761
2018-06-28,23936.921172612638
2018-06-29,45988.28689473483
2018-06-30,7232.339155408641
2018-07-01,-4557.030961964134
2018-07-02,-4378.706961479213
2018-07-03,3398.697270746168
2018-07-04,-10577.90990433059
2018-07-05,-54624.560508519586
2018-07-06,-17301.201618701598
2018-07-07,55416.92361603229
2018-07-08,55602.0948720813
2018-07-09,11699.000942800834
2018-07-10,137599.31552207842
2018-07-11,-20431.94310331691
2018-07-12,15389.602128343977
2018-07-13,-18444.736796457233
2018-07-14,-23664.427243320766
2018-07-15,14703.597552675841
2018-07-16,89915.44118566578
2018-07-17,24947.800210769754
2018-07-18,83965.87514711579
2018-07-19,53880.24302146182
2018-07-20,14661.288227767276
2018-07-21,22872.582488767715
2018-07-22,-14677.768711508368
2018-07-23,72561.06983581505
2018-07-24,55294.60131966608
2018-07-25,68064.47303887978
2018-07-26,39096.004301942245
2018-07-27,-13216.225205888884
2018-07-28,24514.558720181114
2018-07-29,13552.62807654703
2018-07-30,63964.41178230225
2018-07-31,59437.57802616886
2018-08-01,8387.271622079948
2018-08-02,83266.47300072695
2018-08-03,487.9456188926124
2018-08-04,-34300.18610009164
2018-08-05,23429.925233520713
2018-08-06,-9573.187675555266
2018-08-07,56762.79066689173
2018-08-08,46918.17139086046
2018-08-09,21622.90446628799
2018-08-10,140654.92395685805
2018-08-11,75202.76148380007
2018-08-12,46226.245708776056
2018-08-13,99246.83185847994
2018-08-14,151002.3734011025
2018-08-15,206970.69416924432
2018-08-16,47435.590106665215
2018-08-17,49110.73083234386
2018-08-18,9711.633513246023
2018-08-19,9058.4744853132
2018-08-20,-41835.68000134945
2018-08-21,83448.07207390244
2018-08-22,58121.24756639585
2018-08-23,2050.088933182822
2018-08-24,31084.135820567986
2018-08-25,29649.622800198296
2018-08-26,-9498.711675895524
2018-08-27,100402.46197446238
2018-08-28,38083.59247942807
2018-08-29,61438.66940729524
2018-08-30,39008.653464371484
2018-08-31,-14551.214970061148
2018-09-01,32332.611824546853
2018-09-02,-2526.2542867524025
2018-09-03,195342.71083843862
2018-09-04,52819.52010956389
2018-09-05,-167395.13723364094
2018-09-06,145713.94142561115
2018-09-07,208846.99520329386
2018-09-08,27826.852507449512
2018-09-09,153843.1700274201
2018-09-10,255249.64143613784
2018-09-11,110403.44335535646
2018-09-12,354751.6659595277
2018-09-13,88846.49545106682
2018-09-14,39881.73562544136
2018-09-15,27455.585897384793
2018-09-16,-48294.182040174
2018-09-17,-66503.38582443702
2018-09-18,5205.239073585253
2018-09-19,-2641.226439809194
2018-09-20,14110.94869766949
2018-09-21,101722.11429688509
2018-09-22,322778.6219024928
2018-09-23,30183.74665079557
2018-09-24,-293968.1452841859
2018-09-25,-52268.551667763444
2018-09-26,-2769.735947381647
2018-09-27,-50179.10982755222
2018-09-28,-103308.61984481185
2018-09-29,7491.906423346605
2018-09-30,175075.13672334226
2018-10-01,-18371.31562796858
2018-10-02,-15967.697494526452
2018-10-03,-20865.70769325178
2018-10-04,78720.72370817041
2018-10-05,-32304.109561409074
2018-10-06,-36964.457973532626
2018-10-07,-8177.88608001417
2018-10-08,70399.1843265334
2018-10-09,31206.0492712555
2018-10-10,-42228.99401558272
2018-10-11,12520.777434427757
2018-10-12,-73683.44858086988
2018-10-13,-24809.488296016032
2018-10-14,-46083.15303774265
2018-10-15,-61063.552964004804
2018-10-16,95303.1406012383
2018-10-17,-29362.23733709153
2018-10-18,1961.0014588672202
2018-10-19,-71584.7134848497
2018-10-20,139271.90523802498
2018-10-21,-51833.499092525075
2018-10-22,-36555.97816396141
2018-10-23,3566.7505176228588
2018-10-24,8336.012901591661
2018-10-25,147225.57971015002
2018-10-26,8249.877890414966
2018-10-27,-64438.886169851816
2018-10-28,-54886.88647363949
2018-10-29,90332.233312228
2018-10-30,-13141.009515748796
2018-10-31,-111866.46250495093
2018-11-01,-15916.040254806343
2018-11-02,70584.15904028073
2018-11-03,-11358.987166490755
2018-11-04,-31434.492777309177
2018-11-05,202908.40900900366
2018-11-06,-17051.83710014983
2018-11-07,104155.1632429033
2018-11-08,22581.714748670696
2018-11-09,-105704.15586828956
2018-11-10,8337.875393687398
2018-11-11,-54101.42053251606
2018-11-12,144817.2278387994
2018-11-13,-40986.37059087877
2018-11-14,-12236.300762103172
2018-11-15,88600.12612898357
2018-11-16,-19639.30807490088
2018-11-17,7690.165726634645
2018-11-18,169404.91064690417
2018-11-19,330206.8776648425
2018-11-20,300931.19081247924
2018-11-21,1946.8621775507927
2018-11-22,192342.6952654695
2018-11-23,99011.00254243508
2018-11-24,58799.69501512882
2018-11-25,115250.23135708948
2018-11-26,200134.22807686462
2018-11-27,29666.8342236788
2018-11-28,-61300.48628991493
2018-11-29,-73711.28494909633
2018-11-30,163468.39491066057
2018-12-01,25235.909383623162
2018-12-02,-8010.133980492043
2018-12-03,59023.7075398289
2018-12-04,-26919.880807108595
2018-12-05,83077.95948080643
2018-12-06,232508.6681938083
2018-12-07,180456.20441731566
2018-12-08,171622.14109893912
2018-12-09,133830.2751885368
2018-12-10,22250.820377269585
2018-12-11,59780.49898628716
2018-12-12,22632.84833304782
2018-12-13,-58469.86069816601
2018-12-14,-51950.84197926597
2018-12-15,-33518.47979631252
2018-12-16,-81283.25856059097
2018-12-17,210996.67370976915
2018-12-18,65888.29822368443
2018-12-19,-31163.431732401717
2018-12-20,60270.354557215
2018-12-21,241607.99899070652
2018-12-22,-15205.638031763257
2018-12-23,62404.863569248
2018-12-24,-17355.089144830476
2018-12-25,-15702.671251088497
2018-12-26,-18100.699844632472
2018-12-27,63309.05861600838
2018-12-28,74450.95297120942
2018-12-29,68970.86618317326
2018-12-30,72529.97594104783
2018-12-31,-63238.91914065054
2019-01-01,-34186.44401888241
2019-01-02,103206.96177914657
2019-01-03,31124.19536630425
2019-01-04,-88863.13792387478
2019-01-05,-726930.0011521884
2019-01-06,174204.90585285443
2019-01-07,140870.14934180083
2019-01-08,53978.92434869282
2019-01-09,11470.615490890224
2019-01-10,-45824.72543844569
2019-01-11,298769.14937638177
2019-01-12,21446.610106247797
2019-01-13,83914.92056324263
2019-01-14,455965.9272216746
2019-01-15,-71231.24218195432
2019-01-16,32597.261353897513
2019-01-17,29888.221629125066
2019-01-18,38522.20440919831
2019-01-19,-9243.969561376434
2019-01-20,55109.769574330654
2019-01-21,-8988.17186973471
2019-01-22,38676.1307561486
2019-01-23,7609.673531694047
2019-01-24,42539.04045299464
2019-01-25,-25861.412436124985
2019-01-26,-19711.939368766907
2019-01-27,82538.91549036722
2019-01-28,76246.64929967979
2019-01-29,-75852.4476802756
2019-01-30,136316.74025323137
2019-01-31,50119.897743150184
2019-02-01,13675.642521352333
2019-02-02,-4570.359671398648
2019-02-03,24628.452959591174
2019-02-04,-8482.788858451124
2019-02-05,-11515.875441990298
2019-02-06,-35171.41688778979
2019-02-07,60061.43346704269
2019-02-08,122713.2270617861
2019-02-09,31059.54844652515
2019-02-10,27518.01968526066
2019-02-11,43216.95172283938
2019-02-12,22025.77066083724
2019-02-13,72050.28604575439
2019-02-14,79896.05757059675
2019-02-15,-3336.4591900911764
2019-02-16,-24021.18981057612
2019-02-17,45492.11208507343
2019-02-18,81375.47640488262
2019-02-19,54611.56235921348
2019-02-20,28097.62049486453
2019-02-21,-263213.6391283664
2019-02-22,48705.631134694384
2019-02-23,-21502.718381212326
2019-02-24,29453.775800449774
2019-02-25,3870.975212471094
2019-02-26,-88655.48616363725
2019-02-27,-95504.75048666832
2019-02-28,-32668.127376243414
2019-03-01,-4696.824284620758
2019-03-02,-79164.48322593694
2019-03-03,29558.04575737001
2019-03-04,-21343.133229604573
2019-03-05,-26946.20057805319
2019-03-06,-97530.59541602316
2019-03-07,-226127.25175915088
2019-03-08,-98859.93630172609
2019-03-09,163320.65884339868
2019-03-10,38732.66433482495
2019-03-11,17721.073045082972
2019-03-12,96375.73701045068
2019-03-13,-9362.687031451147
2019-03-14,-33305.4007794488
2019-03-15,-4946.055136403535
2019-03-16,-7990.987720359175
2019-03-17,108647.57686088415
2019-03-18,76185.05355233134
2019-03-19,-25158.65831921308
2019-03-20,33564.32834450208
2019-03-21,-49512.74761868914
2019-03-22,19087.720899294247
2019-03-23,-30360.596832345444
2019-03-24,49018.623863548215
2019-03-25,-30398.647613179928
2019-03-26,-30848.28368829505
2019-03-27,-3362.349754801835
2019-03-28,13641.50457944133
2019-03-29,14166.974567691504
2019-03-30,22314.114946001268
2019-03-31,32344.69591660885
2019-04-01,-23154.326606930234
2019-04-02,180319.48925581947
2019-04-03,136821.26862807164
2019-04-04,-21072.344729096396
2019-04-05,-3931.89819158474
2019-04-06,-99731.8998066865
2019-04-07,117152.54018100898
2019-04-08,114957.17956749082
2019-04-09,-28888.691146489582
2019-04-10,-43535.27922791371
2019-04-11,-80355.12096508674
2019-04-12,-47924.26324046904
2019-04-13,-66266.77548311214
2019-04-14,-24549.12951967487
2019-04-15,-678.2797262044041
2019-04-16,-79939.2430382183
2019-04-17,-13224.572132860601
2019-04-18,-48590.562323012855
2019-04-19,-14454.38847542589
2019-04-20,-688.2789783587796
2019-04-21,64070.28041770868
2019-04-22,-42854.154859384405
2019-04-23,-36318.342574270384
2019-04-24,29746.593300688313
2019-04-25,-46255.30725741072
2019-04-26,-652097.856924842
2019-04-27,-56897.74338206358
2019-04-28,66243.57851521124
2019-04-29,-66015.89952604123
2019-04-30,-17224.921602905088
2019-05-01,-163240.6043638062
2019-05-02,-59716.932931516145
2019-05-03,-83655.5361240838
2019-05-04,-39119.161515181826
2019-05-05,-11389.164199626364
2019-05-06,141522.3344800088
2019-05-07,73012.93517472048
2019-05-08,-53989.8565828767
2019-05-09,9128.622504926694
2019-05-10,61841.59099355724
2019-05-11,346627.6647446925
2019-05-12,79806.44025135972
2019-05-13,269130.63817504677
2019-05-14,-94194.13517745351
2019-05-15,-76951.6675961503
2019-05-16,231249.5218486488
2019-05-17,305105.029795651
2019-05-18,-26438.543875035422
2019-05-19,66364.41720143118
2019-05-20,-43153.271900531836
2019-05-21,-18748.62431667518
2019-05-22,-55161.93300124485
2019-05-23,-122604.76058125572
2019-05-24,-75352.88105984079
2019-05-25,-35158.33755706274
2019-05-26,29783.453614976548
2019-05-27,25140.888230094453
2019-05-28,25858.129361739557
2019-05-29,365631.9301792322
2019-05-30,-99087.52361489169
2019-05-31,-158185.9422631974
2019-06-01,-48749.06002938491
2019-06-02,-54840.52676984263
2019-06-03,-31872.254653327225
2019-06-04,-92197.86064892495
2019-06-05,4190.058649135928
2019-06-06,32896.575904018944
2019-06-07,-40218.93030974362
2019-06-08,-82786.69384335587
2019-06-09,-103360.93669723556
2019-06-10,80483.60407968989
2019-06-11,-51423.100132163905
2019-06-12,-1099.0146118431585
2019-06-13,117789.63337941613
2019-06-14,-85831.29616207822
2019-06-15,-39923.77729495475
2019-06-16,1261.5880257594981
2019-06-17,-73683.66149428295
2019-06-18,-30868.81980641029
2019-06-19,-11166.067883579992
2019-06-20,-31110.40604065731
2019-06-21,79406.62658666272
2019-06-22,238222.3527105417
2019-06-23,76220.76399727387
2019-06-24,7006.735565843701
2019-06-25,-10033.40144897491
2019-06-26,62725.63257991092
2019-06-27,-92470.23616477032
2019-06-28,-147949.6775085345
2019-06-29,336128.1272363801
2019-06-30,-3483.4437680417905
2019-07-01,16003.568069164583
2019-07-02,23250.02297367371
2019-07-03,21752.02815738553
2019-07-04,-19260.382126265555
2019-07-05,-56700.21547353821
2019-07-06,-17125.249776581128
2019-07-07,46186.960072459886
2019-07-08,16032.859156884893
2019-07-09,-6957.6911738765775
2019-07-10,-55099.60811767349
2019-07-11,53845.94394517457
2019-07-12,-162134.98026590393
2019-07-13,-13033.196929240803
2019-07-14,-23126.13670517929
2019-07-15,-10699.773883289308
2019-07-16,-113632.50040116656
2019-07-17,3205.2340688249096
2019-07-18,25452.6914520259
2019-07-19,-80004.86959074956
2019-07-20,-55759.35226022301
2019-07-21,9676.948692274455
2019-07-22,3476.6798404594592
2019-07-23,-271.0890176849789
2019-07-24,-24788.902508102125
2019-07-25,8053.005587579624
2019-07-26,472539.25035946287
2019-07-27,-18108.55694378665
2019-07-28,-12606.427240594523
2019-07-29,-53900.80379411945
2019-07-30,43416.87764609873
2019-07-31,-12572.875337903854
2019-08-01,538901.7124618955
2019-08-02,-69116.50707256701
2019-08-03,-99648.42260019071
2019-08-04,-95366.80675228167
2019-08-05,384646.3264279468
2019-08-06,83413.76601228962
2019-08-07,35121.79001180729
2019-08-08,166239.73508879513
2019-08-09,6000.653020123311
2019-08-10,16075.877004261827
2019-08-11,-31739.253069130064
2019-08-12,7175.259662177239
2019-08-13,-11736.061441521975
2019-08-14,-560.9483948022826
2019-08-15,-111385.75261517474
2019-08-16,-38881.64187441103
2019-08-17,-7155.094450873352
2019-08-18,-22451.053574630118
2019-08-19,28984.650742308993
2019-08-20,24691.73343252347
2019-08-21,-2458.1834775180323
2019-08-22,19596.465855950722
2019-08-23,27914.46072978998
2019-08-24,24211.639438371203
2019-08-25,-12020.621155311266
2019-08-26,6345.628024409583
2019-08-27,29947.302597518486
2019-08-28,-68325.98138177174
2019-08-29,-10392.799236057734
2019-08-30,27521.80519109749
2019-08-31,-35807.02894143996
2019-09-01,26077.726586444478
2019-09-02,21218.609182375134
2019-09-03,245089.84202086914
2019-09-04,-83532.01018553815
2019-09-05,-15215.550463103747
2019-09-06,-7619.614411653369
2019-09-07,6724.031881553819
2019-09-08,36420.00782711984
2019-09-09,11210.022016101808
2019-09-10,-137384.9295424772
2019-09-11,-73491.87828626166
2019-09-12,-30396.216494668188
2019-09-13,-36525.21911285966
2019-09-14,35932.32197387444
2019-09-15,185635.39885263136
2019-09-16,7323.945578321349
2019-09-17,-79864.31916251121
2019-09-18,-44051.863084927376
2019-09-19,44363.339686805906
2019-09-20,8483.905899686506
2019-09-21,-12378.160442840017
2019-09-22,19764.265970077686
2019-09-23,599.4303033552133
2019-09-24,104042.60166001786
2019-09-25,-13077.841928226175
2019-09-26,-177514.2947747821
2019-09-27,-47751.198329309176
2019-09-28,-3051.4161404406186
2019-09-29,3892.122992966237
2019-09-30,35750.035088135104
2019-10-01,-17477.085597220634
2019-10-02,34662.60587215063
2019-10-03,-7055.250543727656
2019-10-04,3434.2051049746806
2019-10-05,18023.11087317932
2019-10-06,21349.32207900568
2019-10-07,48697.20052371564
2019-10-08,-47374.774777058105
2019-10-09,41121.52079681278
2019-10-10,31736.63278657975
2019-10-11,-23521.885243182594
2019-10-12,23864.654255285015
2019-10-13,-476.89356281777145
2019-10-14,16533.5788243392
2019-10-15,18482.71680629824
2019-10-16,10666.734585761675
2019-10-17,-36261.33647746639
2019-10-18,157262.52123183763
2019-10-19,17908.4271712529
2019-10-20,65893.99556049265
2019-10-21,-18994.18962111583
2019-10-22,-26417.632473699574
2019-10-23,52397.3607444223
2019-10-24,14715.065227122395
2019-10-25,74035.80040645623
2019-10-26,126967.06176091445
2019-10-27,-13877.920534752135
2019-10-28,8060.706519305939
2019-10-29,13543.796843876888
2019-10-30,-199.1681057618116
2019-10-31,22225.348275835742
2019-11-01,-9116.294201756915
2019-11-02,-25339.657199436988
2019-11-03,35766.59985839322
2019-11-04,-440.8526636119932
2019-11-05,64595.338114381826
2019-11-06,23847.494780574867
2019-11-07,25455.952232758747
2019-11-08,4133.146482593031
2019-11-09,9315.606632620591
2019-11-10,51128.402465034174
2019-11-11,19901.986081304785
2019-11-12,-25917.26909541886
2019-11-13,73367.60333329838
2019-11-14,3857.680862993613
2019-11-15,-49167.19651654933
2019-11-16,14032.48403718663
2019-11-17,11000.478922133596
2019-11-18,15156.1934595083
2019-11-19,5681.638839510182
2019-11-20,-16626.548570733896
2019-11-21,-8365.585132063134
2019-11-22,175.02050472493283
2019-11-23,-38383.587682447134
2019-11-24,1090.5520875320653
2019-11-25,21359.600718887872
2019-11-26,-1176.811903256632
2019-11-27,-889.3073686386342
2019-11-28,13912.99063563018
2019-11-29,46897.7441372945
2019-11-30,11906.919703632011
2019-12-01,16171.7892057664
2019-12-02,34640.45117070738
2019-12-03,-34082.37353913294
2019-12-04,-21531.96634989741
2019-12-05,51015.834732811956
2019-12-06,-37693.19590629364
2019-12-07,-6641.297672346089
2019-12-08,932.1556970809906
2019-12-09,33826.781969097065
2019-12-10,41421.16649921838
2019-12-11,11147.138922956336
2019-12-12,29320.45734362866
2019-12-13,23548.21355412845
2019-12-14,28855.1428544596
2019-12-15,9033.605427141942
2019-12-16,-20685.749732064316
2019-12-17,220810.65044184087
2019-12-18,49117.188218801515
2019-12-19,-11701.190588295809
2019-12-20,-1702.3198228975234
2019-12-21,54495.74468851113
2019-12-22,48505.463643397205
2019-12-23,47404.3910868704
2019-12-24,22266.502208162507
2019-12-25,126309.85546254902
2019-12-26,23150.00331872105
2019-12-27,17465.633208710555
2019-12-28,4715.2397794786375
2019-12-29,-21971.217720842484
2019-12-30,35215.40917712188
2019-12-31,24216.75205026465
2020-01-01,-5860.17223865875
2020-01-02,1255.1868789469881
2020-01-03,19048.110492784705
2020-01-04,39898.64429647382
2020-01-05,-4828.245872786589
2020-01-06,65425.6068595644
2020-01-07,2595.574120701058
2020-01-08,85888.7801541991
2020-01-09,-19074.241904421768
2020-01-10,24228.353436601406
2020-01-11,25790.746020333958
2020-01-12,29715.12431800802
2020-01-13,-17882.79237276205
2020-01-14,86767.41774562892
2020-01-15,21071.385919808352
2020-01-16,52599.121270556934
2020-01-17,-17174.67087159882
2020-01-18,-274588.01969049475
2020-01-19,-1298.3119091703556
2020-01-20,15553.853358027496
2020-01-21,41429.129076092824
2020-01-22,-5402.634931995126
2020-01-23,-26806.606519486668
2020-01-24,4733.096157055057
2020-01-25,1128.7774305117491
2020-01-26,6607.349003437499
2020-01-27,-19068.147551811504
2020-01-28,-19671.067648498632
2020-01-29,6288.6451952633215
2020-01-30,34651.40388693486
2020-01-31,-17098.017132755253
2020-02-01,104516.50529289737
2020-02-02,28385.770835750067
2020-02-03,5083.516939452442
2020-02-04,-38498.473332098976
2020-02-05,23565.693104869802
2020-02-06,-58514.27625743963
2020-02-07,44801.795662401826
2020-02-08,30498.004348511226
2020-02-09,-19419.91198901611
2020-02-10,63588.62781249557
2020-02-11,27138.99714853632
2020-02-12,54054.51921551558
2020-02-13,7837.2175606411765
2020-02-14,14321.893439527426
2020-02-15,20995.85315090831
2020-02-16,18250.37803140568
2020-02-17,93948.84384934814
2020-02-18,10375.948303929763
2020-02-19,-1704.9383979293634
2020-02-20,19632.242301485618
2020-02-21,-58931.03577606421
2020-02-22,-12146.04106825171
2020-02-23,-19591.192102268105
2020-02-24,-5873.598510293756
2020-02-25,41752.77908836369
2020-02-26,52389.258719732636
2020-02-27,61711.908631265454
2020-02-28,36768.46693730552
2020-02-29,-4921.663029475603
2020-03-01,10208.027541868505
2020-03-02,34466.76827541157
2020-03-03,-28279.953414743242
2020-03-04,-38605.148195388436
2020-03-05,2461.497411782504
2020-03-06,-11395.402719050122
2020-03-07,3047.6092953737825
2020-03-08,-28675.107176494843
2020-03-09,80292.90647492721
2020-03-10,13909.499743442982
2020-03-11,89769.94408405334
2020-03-12,511780.2246602699
2020-03-13,26608.14932652074
2020-03-14,94350.88874178182
2020-03-15,88558.52285168949
2020-03-16,201882.25341607095
2020-03-17,134583.43140130385
2020-03-18,37366.55242817348
2020-03-19,-77198.35317640973
2020-03-20,-78381.18613549741
2020-03-21,746.3223517112201
2020-03-22,-11996.762846356316
2020-03-23,52347.46808576706
2020-03-24,38050.6138533348
2020-03-25,-96836.29862533574
2020-03-26,-59965.08191589627
2020-03-27,-83228.13691835146
2020-03-28,-800.78169094841
2020-03-29,9035.318084568164
2020-03-30,-8789.858774777036
2020-03-31,-29642.38560071774
2020-04-01,25098.096489909803
2020-04-02,27515.947727634397
2020-04-03,-40197.0454058359
2020-04-04,-5871.038528512901
2020-04-05,27128.05623652367
2020-04-06,-12855.16731248668
2020-04-07,49898.6613278857
2020-04-08,63759.24904438335
2020-04-09,-10555.951767921739
2020-04-10,35762.1563780671
2020-04-11,-42154.98121006807
2020-04-12,-68921.6367782355
2020-04-13,44116.06376360747
2020-04-14,-21821.476658570464
2020-04-15,-9053.55223584571
2020-04-16,79127.75498276774
2020-04-17,-19098.409311730706
2020-04-18,-67655.87211001391
2020-04-19,5108.250794686144
2020-04-20,-34513.66643600183
2020-04-21,173869.08125055674
2020-04-22,11256.840996719024
2020-04-23,3418.041184419708
2020-04-24,-161982.58286854782
2020-04-25,-10699.252170677995
2020-04-26,-6263.751835601346
2020-04-27,30493.500605204958
2020-04-28,-10305.963219802012
2020-04-29,-25865.679211905343
2020-04-30,106249.40491412964
2020-05-01,-19530.120688171417
2020-05-02,2699.365168168937
2020-05-03,-17551.525360940665
2020-05-04,-25196.894297738385
2020-05-05,-40298.71387026232
2020-05-06,2587.656341746042
2020-05-07,173972.03100345528
2020-05-08,10383.788866119983
2020-05-09,29587.394014716236
2020-05-10,605.7093688803725
2020-05-11,-14826.977217107662
2020-05-12,7823.405674519192
2020-05-13,-59615.80894499429
2020-05-14,-32308.485253250983
2020-05-15,-2358.9400239137467
2020-05-16,31683.57136662805
2020-05-17,-6993.666724547424
2020-05-18,2336.776951750624
2020-05-19,-56545.67341042313
2020-05-20,3290.1595528280595
2020-05-21,-45671.16478674853
2020-05-22,-25966.285070147424
2020-05-23,-53008.31826909387
2020-05-24,-7358.570704103127
2020-05-25,-17530.278167225857
2020-05-26,-14908.660897823167
2020-05-27,-31046.027907319047
2020-05-28,3978.2393239359953
2020-05-29,53758.665114799165
2020-05-30,230268.38057320024
2020-05-31,12648.448608494655
2020-06-01,40862.505563091836
2020-06-02,113412.30383807339
2020-06-03,-42977.292207121965
2020-06-04,-20016.17445528414
2020-06-05,112098.89951273659
2020-06-06,-24565.095282405877
2020-06-07,-2208.821812780545
2020-06-08,-1226.9157096256095
2020-06-09,-49826.15883060399
2020-06-10,-34589.25801891321
2020-06-11,24514.805394187337
2020-06-12,-79972.49683352315
2020-06-13,-3028.0960469473503
2020-06-14,26340.954046383238
2020-06-15,6147.250453856366
2020-06-16,-63595.61381579653
2020-06-17,-660.9000049814349
2020-06-18,-125889.09122768877
2020-06-19,-30545.937532490352
2020-06-20,-23368.174265839276
2020-06-21,-25543.095984615386
2020-06-22,-10758.172254740552
2020-06-23,24547.406190480804
2020-06-24,81477.37220900162
2020-06-25,-45098.00941320957
2020-06-26,1294.5351157735568
2020-06-27,28639.62246136868
2020-06-28,-34432.81895662926
2020-06-29,24545.546792537643
2020-06-30,-26804.854604621796
2020-07-01,-14671.318533576268
2020-07-02,65306.486312623485
2020-07-03,-64552.096494171594
2020-07-04,2794.011115227273
2020-07-05,6192.907080534758
2020-07-06,50089.771699819365
2020-07-07,-17420.9642584197
2020-07-08,101871.98349588353
2020-07-09,22764.288805360848
2020-07-10,-11455.467938458227
2020-07-11,3308.1762085047376
2020-07-12,5050.525641419605
2020-07-13,-53600.74851782055
2020-07-14,5653.486645840807
2020-07-15,-38509.152572740684
2020-07-16,-9949.360688503948
2020-07-17,-18135.609127914155
2020-07-18,-27290.913583752816
2020-07-19,-22446.884388508246
2020-07-20,73788.53841490851
2020-07-21,-41918.31452738814
2020-07-22,-12948.2901802595
2020-07-23,13735.77238152281
2020-07-24,48220.48633132421
2020-07-25,-23604.222291268
2020-07-26,53393.542807770544
2020-07-27,-48781.02705459972
2020-07-28,26682.281991379103
2020-07-29,-25477.176693787216
2020-07-30,-17644.52540706267
2020-07-31,46974.873421492055
2020-08-01,21652.52934478293
2020-08-02,100721.40495627222
2020-08-03,161781.3303299765
2020-08-04,-46905.91237195046
2020-08-05,-14021.332523392979
2020-08-06,-77616.82808955858
2020-08-07,45870.757060436474
2020-08-08,-25314.867551584786
2020-08-09,-20702.045991636754
2020-08-10,-129449.67561143823
2020-08-11,-3892.2185973597225
2020-08-12,-147428.62978384888
2020-08-13,104708.97631797846
2020-08-14,79496.87481151638
2020-08-15,57294.12619666051
2020-08-16,-14487.875842373585
2020-08-17,-35029.16029540973
2020-08-18,-12345.029732841125
2020-08-19,-42070.46328705852
2020-08-20,-91660.08271507715
2020-08-21,-11008.046688097005
2020-08-22,39371.76357101428
2020-08-23,-18580.31401298335
2020-08-24,-71069.54826025438
2020-08-25,-74062.02537557826
2020-08-26,-18126.249816744414
2020-08-27,-2843.6041160306195
2020-08-28,-97813.65181310131
2020-08-29,-38500.024688832345
2020-08-30,-197618.0306107303
2020-08-31,-310973.18138098996
2020-09-01,-277079.10618417384
2020-09-02,-249767.933812452
2020-09-03,-47785.334601653856
2020-09-04,-213120.8485555012
2020-09-05,28534.310422990005
2020-09-06,-199288.5805803825
2020-09-07,65945.23141129757
2020-09-08,-51057.084887909354
2020-09-09,-47319.755451955134
2020-09-10,-224764.21892473404
2020-09-11,-32661.29178585508
2020-09-12,-110220.25650655746
2020-09-13,67501.14027291222
2020-09-14,-6976.010283891228
2020-09-15,89047.78388630028
2020-09-16,15216.898028711323
2020-09-17,-184443.02041742357
2020-09-18,-147370.09925013117
2020-09-19,-72144.77619030658
2020-09-20,-27729.62460160401
2020-09-21,87637.14989071246
2020-09-22,3932.483345767134
2020-09-23,-10728.586403921829
2020-09-24,98711.97024878295
2020-09-25,-49547.35450235527
2020-09-26,-50606.32310742891
2020-09-27,-71517.9968446783
2020-09-28,-113191.19463076873
2020-09-29,-45375.618454174604
2020-09-30,-52741.35505552904
2020-10-01,-26956.827116247325
2020-10-02,-56700.18333198945
2020-10-03,19499.915610226337
2020-10-04,-15026.525251611281
2020-10-05,14081.894289919845
2020-10-06,48263.445504704316
2020-10-07,112670.03303950763
2020-10-08,4603.8621266348055
2020-10-09,9372.983200509218
2020-10-10,38403.115401063114
2020-10-11,-3814.409610440198
2020-10-12,8524.32946462417
2020-10-13,-97499.05484900082
2020-10-14,-217055.3674546951
2020-10-15,-68742.85312004245
2020-10-16,-122119.40709104214
2020-10-17,261.69942321407143
2020-10-18,-17576.983640134888
2020-10-19,-26089.41207295278
2020-10-20,-31887.557181169163
2020-10-21,-87384.37101033679
2020-10-22,38004.37779715273
2020-10-23,47971.58736230864
2020-10-24,-113858.36891917206
2020-10-25,-23036.535300046875
2020-10-26,-26434.0462940532
2020-10-27,-42233.933462722634
2020-10-28,31050.717118360742
2020-10-29,-36508.294150311325
2020-10-30,-125769.27003166015
2020-10-31,-64616.18324686639
2020-11-01,1985.981494580541
2020-11-02,-249327.37468287972
2020-11-03,-29380.27811620623
2020-11-04,-54451.08556822658
2020-11-05,-34246.611781219486
2020-11-06,128927.67452904314
2020-11-07,122325.85091900115
2020-11-08,4359.510838228307
2020-11-09,-76822.7987294459
2020-11-10,-51247.677573982975
2020-11-11,9598.462681449659
2020-11-12,-138166.0907113523
2020-11-13,75019.05280923547
2020-11-14,18161.14151331561
2020-11-15,40808.94893834577
2020-11-16,5190.229042526102
2020-11-17,24642.60663089942
2020-11-18,-14641.693185885088
2020-11-19,-129638.62424126558
2020-11-20,189093.98022214876
2020-11-21,54207.52316488314
2020-11-22,78905.50971824292
2020-11-23,93325.0341331216
2020-11-24,46001.10025661148
2020-11-25,32101.409886252193
2020-11-26,-22130.31099986285
2020-11-27,-43599.5008596392
2020-11-28,-74337.72613668375
2020-11-29,33177.766158021
2020-11-30,58173.01305957406
2020-12-01,210750.9894804058
2020-12-02,-70261.95788714325
2020-12-03,6605.424908345623
2020-12-04,22913.264174768352
2020-12-05,-74175.5787222072
2020-12-06,-13790.505094833527
2020-12-07,-98480.30725485191
2020-12-08,-18283.921158144076
2020-12-09,3210.0039187149378
2020-12-10,-32397.05117683421
2020-12-11,24680.700075671368
2020-12-12,-73866.32336311531
2020-12-13,1530.5541637929855
2020-12-14,7093.468432679947
2020-12-15,-45759.48259082012
2020-12-16,22132.90975712746
2020-12-17,165857.13324382238
2020-12-18,15773.015352652641
2020-12-19,-40917.27996580477
2020-12-20,-94940.59360501205
2020-12-21,-54346.506897692336
2020-12-22,-144233.66077441204
2020-12-23,-60422.60162855673
2020-12-24,-111267.60792335891
2020-12-25,-37640.08449819486
2020-12-26,5258.536669563327
2020-12-27,143556.19214419439
2020-12-28,21645.22608054767
2020-12-29,-59474.096901869634
2020-12-30,-34775.02438909258
2020-12-31,-71556.97859339224
2021-01-01,-18326.455154504045
2021-01-02,24650.30491314974
2021-01-03,226986.94594652555
2021-01-04,281528.5932168511
2021-01-05,-29343.167560514412
2021-01-06,52336.912578578806
2021-01-07,-7919.040189173073
2021-01-08,-109843.1988746865
2021-01-09,20242.294629025855
2021-01-10,70995.13305884006
2021-01-11,-83011.04709526314
2021-01-12,-55653.59299344651
2021-01-13,-38340.41966696433
2021-01-14,-153413.79468687798
2021-01-15,49635.27358063741
2021-01-16,54336.51954342972
2021-01-17,-26166.156801043777
2021-01-18,-23852.663300152344
2021-01-19,263521.4690637905
2021-01-20,-579962.8923813323
2021-01-21,-209512.9424269508
2021-01-22,-241355.42518675886
2021-01-23,-37267.68116615625
2021-01-24,36095.95475054253
2021-01-25,-34578.43709381309
2021-01-26,-79227.57009781501
2021-01-27,45629.397782871616
2021-01-28,-7611.68708232278
2021-01-29,-55821.55333519832
2021-01-30,99969.65718289709
2021-01-31,-103845.55614744744
2021-02-01,-69860.05869979842
2021-02-02,113685.6396299369
2021-02-03,21265.79780861293
2021-02-04,-104361.39194078697
2021-02-05,-15022.260488440632
2021-02-06,15544.300733840559
2021-02-07,-90717.2015837733
2021-02-08,23972.51742000098
2021-02-09,-52707.86951378116
2021-02-10,60245.0017212769
2021-02-11,-31723.9735465548
2021-02-12,43434.312522893655
2021-02-13,-14755.476037711662
2021-02-14,-50247.07413327787
2021-02-15,-72623.53693768819
2021-02-16,14064.442742363375
2021-02-17,69509.1870484415
2021-02-18,74936.24101732764
2021-02-19,27980.177577104478
2021-02-20,44983.76792470564
2021-02-21,-51893.48070793977
2021-02-22,13427.053774411092
2021-02-23,354178.88273740443
2021-02-24,-89342.38957403006
2021-02-25,-113484.57611989323
2021-02-26,8399.488399223541
2021-02-27,-57220.7508294548
2021-02-28,-42229.2120149628
2021-03-01,153946.5091677662
2021-03-02,-23753.739298913744
2021-03-03,8226.064446060802
2021-03-04,-52858.544362022425
2021-03-05,-10499.391938457731
2021-03-06,-25036.169485010323
2021-03-07,-198100.889483036
2021-03-08,-32715.65697081713
2021-03-09,16058.989141744212
2021-03-10,-7176.919715453521
2021-03-11,133372.29412360158
2021-03-12,-49624.75643993053
2021-03-13,56430.0465750678
2021-03-14,-23161.71875434491
2021-03-15,22542.16469701496
2021-03-16,-19595.89722194709
2021-03-17,12823.280767005694
2021-03-18,-104735.66672531253
2021-03-19,-43275.74229456589
2021-03-20,28773.542759325006
2021-03-21,-49380.12862374098
2021-03-22,-68008.66216676432
2021-03-23,59371.51607881364
2021-03-24,43383.962928442925
2021-03-25,-147464.4441481392
2021-03-26,70330.82737394358
2021-03-27,-77466.0224143173
2021-03-28,11541.017919182486
2021-03-29,-15036.663295294915
2021-03-30,-29157.38420280395
2021-03-31,-105599.563821621
2021-04-01,-4199.966203578166
2021-04-02,21098.30673877755
2021-04-03,-272006.5346699894
2021-04-04,-2215.719720542722
2021-04-05,-320613.9937079595
2021-04-06,-57131.118809819454
2021-04-07,-1749.984013378853
