t,v
2015-07-30,72049301.59323
2015-07-31,72085493.31198
2015-08-01,72113195.49948
2015-08-02,72141422.68698
2015-08-03,72169399.40573
2015-08-04,72197877.84323
2015-08-05,72225406.43698
2015-08-06,72252481.90573
2015-08-07,72279919.56198
2015-08-08,72307862.99948
2015-08-09,72335041.28073
2015-08-10,72362858.62448
2015-08-11,72390886.43698
2015-08-12,72418257.37448
2015-08-13,72446525.49948
2015-08-14,72477632.21823
2015-08-15,72506144.87448
2015-08-16,72533239.40573
2015-08-17,72561358.31198
2015-08-18,72587521.12448
2015-08-19,72614803.15573
2015-08-20,72635860.18698
2015-08-21,72662551.12448
2015-08-22,72690101.59323
2015-08-23,72716357.21823
2015-08-24,72743690.49948
2015-08-25,72770426.59323
2015-08-26,72796564.56198
2015-08-27,72821097.37448
2015-08-28,72845322.53073
2015-08-29,72867847.53073
2015-08-30,72889301.12448
2015-08-31,72910594.56198
2015-09-01,72930933.78073
2015-09-02,72949324.87448
2015-09-03,72966705.81198
2015-09-04,72989787.68698
2015-09-05,73015416.74948
2015-09-06,73041585.03073
2015-09-07,73067045.49948
2015-09-08,73092934.24948
2015-09-09,73119365.65573
2015-09-10,73145809.87448
2015-09-11,73173048.46823
2015-09-12,73199450.81198
2015-09-13,73225622.21823
2015-09-14,73251210.34323
2015-09-15,73276825.65573
2015-09-16,73303143.78073
2015-09-17,73328579.40573
2015-09-18,73354473.62448
2015-09-19,73381660.81198
2015-09-20,73409643.46823
2015-09-21,73436295.34323
2015-09-22,73462665.65573
2015-09-23,73489745.96823
2015-09-24,73516131.74948
2015-09-25,73543135.18698
2015-09-26,73569045.49948
2015-09-27,73594056.59323
2015-09-28,73618770.81198
2015-09-29,73643135.49948
2015-09-30,73668232.99948
2015-10-01,73695655.03073
2015-10-02,73722568.15573
2015-10-03,73749021.90573
2015-10-04,73774502.06198
2015-10-05,73800638.93698
2015-10-06,73825675.49948
2015-10-07,73851809.09323
2015-10-08,73878587.53073
2015-10-09,73904038.93698
2015-10-10,73929538.62448
2015-10-11,73956045.65573
2015-10-12,73982849.40573
2015-10-13,74009517.68698
2015-10-14,74035393.31198
2015-10-15,74061003.78073
2015-10-16,74086445.18698
2015-10-17,74112895.81198
2015-10-18,74138744.09323
2015-10-19,74164710.81198
2015-10-20,74190903.31198
2015-10-21,74216949.71823
2015-10-22,74242280.49948
2015-10-23,74269835.34323
2015-10-24,74296954.09323
2015-10-25,74323768.31198
2015-10-26,74349680.49948
2015-10-27,74377209.87448
2015-10-28,74403554.56198
2015-10-29,74431065.34323
2015-10-30,74458785.49948
2015-10-31,74486537.06198
2015-11-01,74514717.21823
2015-11-02,74541851.43698
2015-11-03,74569457.21823
2015-11-04,74597173.62448
2015-11-05,74624465.03073
2015-11-06,74651887.21823
2015-11-07,74678602.53073
2015-11-08,74705891.59323
2015-11-09,74732951.12448
2015-11-10,74760395.18698
2015-11-11,74788214.24948
2015-11-12,74816246.28073
2015-11-13,74844431.43698
2015-11-14,74872789.09323
2015-11-15,74900909.24948
2015-11-16,74928304.40573
2015-11-17,74956097.99948
2015-11-18,74983350.03073
2015-11-19,75009913.46823
2015-11-20,75035043.93698
2015-11-21,75061826.12448
2015-11-22,75088814.71823
2015-11-23,75116087.06198
2015-11-24,75142935.18698
2015-11-25,75169407.06198
2015-11-26,75195945.49948
2015-11-27,75223832.37448
2015-11-28,75251033.46823
2015-11-29,75278384.40573
2015-11-30,75305744.40573
2015-12-01,75333287.21823
2015-12-02,75359294.24948
2015-12-03,75387357.53073
2015-12-04,75414036.90573
2015-12-05,75440618.78073
2015-12-06,75466874.56198
2015-12-07,75493593.46823
2015-12-08,75519905.96823
2015-12-09,75548230.03073
2015-12-10,75575707.37448
2015-12-11,75602730.18698
2015-12-12,75629936.74948
2015-12-13,75657844.09323
2015-12-14,75684552.68698
2015-12-15,75711567.21823
2015-12-16,75738024.56198
2015-12-17,75764907.68698
2015-12-18,75791579.24948
2015-12-19,75818273.78073
2015-12-20,75844709.87448
2015-12-21,75871167.68698
2015-12-22,75898542.06198
2015-12-23,75925941.43698
2015-12-24,75952627.99948
2015-12-25,75979431.59323
2015-12-26,76005991.74948
2015-12-27,76032845.49948
2015-12-28,76059903.46823
2015-12-29,76086564.56198
2015-12-30,76113300.81198
2015-12-31,76140209.09323
2016-01-01,76166279.40573
2016-01-02,76193663.31198
2016-01-03,76221339.09323
2016-01-04,76248759.71823
2016-01-05,76276598.93698
2016-01-06,76304224.40573
2016-01-07,76331246.59323
2016-01-08,76359243.31198
2016-01-09,76386839.09323
2016-01-10,76414127.06198
2016-01-11,76441132.21823
2016-01-12,76467032.99948
2016-01-13,76493568.31198
2016-01-14,76520487.53073
2016-01-15,76547284.87448
2016-01-16,76573807.99948
2016-01-17,76600407.84323
2016-01-18,76627027.99948
2016-01-19,76653120.81198
2016-01-20,76679663.31198
2016-01-21,76705582.53073
2016-01-22,76731837.53073
2016-01-23,76757607.21823
2016-01-24,76784846.43698
2016-01-25,76810547.21823
2016-01-26,76837532.68698
2016-01-27,76863637.21823
2016-01-28,76890198.15573
2016-01-29,76916362.37448
2016-01-30,76942555.49948
2016-01-31,76968237.37448
2016-02-01,76994668.62448
2016-02-02,77020533.31198
2016-02-03,77047835.03073
2016-02-04,77074397.37448
2016-02-05,77100955.96823
2016-02-06,77127301.74948
2016-02-07,77153986.43698
2016-02-08,77180638.31198
2016-02-09,77207112.53073
2016-02-10,77233273.78073
2016-02-11,77259751.59323
2016-02-12,77286250.49948
2016-02-13,77313135.18698
2016-02-14,77339464.24948
2016-02-15,77365689.56198
2016-02-16,77392135.34323
2016-02-17,77417807.37448
2016-02-18,77444022.21823
2016-02-19,77470677.68698
2016-02-20,77497238.46823
2016-02-21,77523775.03073
2016-02-22,77550532.84323
2016-02-23,77576702.84323
2016-02-24,77603129.71823
2016-02-25,77629953.46823
2016-02-26,77656607.53073
2016-02-27,77682803.62448
2016-02-28,77709229.40573
2016-02-29,77734458.93698
2016-03-01,77760940.03073
2016-03-02,77787584.24948
2016-03-03,77813695.49948
2016-03-04,77839577.06198
2016-03-05,77866162.99948
2016-03-06,77891562.68698
2016-03-07,77917548.15573
2016-03-08,77943371.28073
2016-03-09,77969112.06198
2016-03-10,77995742.06198
2016-03-11,78022044.56198
2016-03-12,78048414.71823
2016-03-13,78075665.18698
2016-03-14,78102073.15573
2016-03-15,78133296.74948
2016-03-16,78164786.90573
2016-03-17,78196811.43698
2016-03-18,78228094.24948
2016-03-19,78260173.31198
2016-03-20,78291760.96823
2016-03-21,78323155.18698
2016-03-22,78354867.06198
2016-03-23,78386161.12448
2016-03-24,78418232.21823
2016-03-25,78450122.06198
2016-03-26,78482050.49948
2016-03-27,78513681.28073
2016-03-28,78544994.71823
2016-03-29,78576432.53073
2016-03-30,78608132.99948
2016-03-31,78639521.90573
2016-04-01,78671406.59323
2016-04-02,78702487.84323
2016-04-03,78734217.53073
2016-04-04,78766170.65573
2016-04-05,78797745.49948
2016-04-06,78829008.15573
2016-04-07,78860175.49948
2016-04-08,78892089.87448
2016-04-09,78923003.46823
2016-04-10,78954777.68698
2016-04-11,78985748.62448
2016-04-12,79017134.56198
2016-04-13,79048620.65573
2016-04-14,79080021.74948
2016-04-15,79111755.18698
2016-04-16,79143286.43698
2016-04-17,79174785.81198
2016-04-18,79206649.09323
2016-04-19,79237975.65573
2016-04-20,79269807.06198
2016-04-21,79301180.96823
2016-04-22,79332757.68698
2016-04-23,79364451.28073
2016-04-24,79395945.03073
2016-04-25,79428083.31198
2016-04-26,79459371.12448
2016-04-27,79491246.12448
2016-04-28,79522928.62448
2016-04-29,79554612.21823
2016-04-30,79586503.93698
2016-05-01,79617512.99948
2016-05-02,79649425.18698
2016-05-03,79681219.56198
2016-05-04,79712678.31198
2016-05-05,79744454.56198
2016-05-06,79776195.96823
2016-05-07,79807769.09323
2016-05-08,79839618.31198
2016-05-09,79871419.71823
2016-05-10,79903120.65573
2016-05-11,79934373.78073
2016-05-12,79966630.81198
2016-05-13,79998827.53073
2016-05-14,80030495.34323
2016-05-15,80062300.81198
2016-05-16,80093815.49948
2016-05-17,80126007.68698
2016-05-18,80158412.06198
2016-05-19,80190315.65573
2016-05-20,80222405.34323
2016-05-21,80254241.12448
2016-05-22,80286501.12448
2016-05-23,80318581.74948
2016-05-24,80350585.03073
2016-05-25,80382942.06198
2016-05-26,80414986.43698
2016-05-27,80447308.15573
2016-05-28,80479626.74948
2016-05-29,80511595.96823
2016-05-30,80543603.15573
2016-05-31,80575132.37448
2016-06-01,80607280.34323
2016-06-02,80639462.53073
2016-06-03,80671734.71823
2016-06-04,80703876.28073
2016-06-05,80735459.40573
2016-06-06,80767831.28073
2016-06-07,80799777.21823
2016-06-08,80832080.18698
2016-06-09,80864306.12448
2016-06-10,80895470.34323
2016-06-11,80927842.06198
2016-06-12,80960062.68698
2016-06-13,80992286.90573
2016-06-14,81024432.37448
2016-06-15,81056299.40573
2016-06-16,81088177.06198
2016-06-17,81121589.71823
2016-06-18,81155980.65573
2016-06-19,81189176.12448
2016-06-20,81220890.96823
2016-06-21,81252879.40573
2016-06-22,81285550.03073
2016-06-23,81317398.15573
2016-06-24,81349570.03073
2016-06-25,81381255.96823
2016-06-26,81413570.65573
2016-06-27,81445665.49948
2016-06-28,81477826.90573
2016-06-29,81509696.90573
2016-06-30,81541679.87448
2016-07-01,81574301.28073
2016-07-02,81606217.84323
2016-07-03,81638257.53073
2016-07-04,81670394.71823
2016-07-05,81701976.28073
2016-07-06,81734331.12448
2016-07-07,81766227.06198
2016-07-08,81798176.59323
2016-07-09,81830974.71823
2016-07-10,81862940.18698
2016-07-11,81894925.49948
2016-07-12,81926682.84323
2016-07-13,81958840.81198
2016-07-14,81990655.96823
2016-07-15,82022540.65573
2016-07-16,82054706.74948
2016-07-17,82086488.46823
2016-07-18,82118986.59323
2016-07-19,82150760.49948
2016-07-20,82182671.59323
2016-07-21,82215459.09323
2016-07-22,82247149.71823
2016-07-23,82279540.96823
2016-07-24,82311020.96823
2016-07-25,82343012.53073
2016-07-26,82373782.53073
2016-07-27,82406727.84323
2016-07-28,82439082.06198
2016-07-29,82471021.43698
2016-07-30,82502663.15573
2016-07-31,82534882.68698
2016-08-01,82566477.06198
2016-08-02,82597832.21823
2016-08-03,82629536.12448
2016-08-04,82662392.68698
2016-08-05,82694624.71823
2016-08-06,82726210.81198
2016-08-07,82758505.65573
2016-08-08,82790681.59323
2016-08-09,82823347.99948
2016-08-10,82855510.96823
2016-08-11,82887707.06198
2016-08-12,82919819.09323
2016-08-13,82951817.99948
2016-08-14,82983783.15573
2016-08-15,83016115.81198
2016-08-16,83048152.99948
2016-08-17,83080147.53073
2016-08-18,83112936.59323
2016-08-19,83144777.99948
2016-08-20,83177006.12448
2016-08-21,83209705.96823
2016-08-22,83241995.65573
2016-08-23,83274182.68698
2016-08-24,83306456.12448
2016-08-25,83338591.74948
2016-08-26,83370463.15573
2016-08-27,83402769.56198
2016-08-28,83434793.78073
2016-08-29,83466723.93698
2016-08-30,83498595.03073
2016-08-31,83530733.31198
2016-09-01,83562477.99948
2016-09-02,83594862.06198
2016-09-03,83626357.99948
2016-09-04,83658217.68698
2016-09-05,83690411.74948
2016-09-06,83722093.15573
2016-09-07,83754360.96823
2016-09-08,83786269.56198
2016-09-09,83818486.43698
2016-09-10,83850317.06198
2016-09-11,83882670.03073
2016-09-12,83914907.06198
2016-09-13,83946811.90573
2016-09-14,83979340.65573
2016-09-15,84011523.46823
2016-09-16,84043762.53073
2016-09-17,84075917.53073
2016-09-18,84105491.43698
2016-09-19,84139768.31198
2016-09-20,84172260.81198
2016-09-21,84204344.56198
2016-09-22,84235950.18698
2016-09-23,84270227.06198
2016-09-24,84303551.28073
2016-09-25,84337945.49948
2016-09-26,84370073.15573
2016-09-27,84405360.65573
2016-09-28,84437764.09323
2016-09-29,84470077.53073
2016-09-30,84501700.81198
2016-10-01,84536179.40573
2016-10-02,84571928.93698
2016-10-03,84605211.59323
2016-10-04,84637266.12448
2016-10-05,84670347.68698
2016-10-06,84703170.18698
2016-10-07,84739741.43698
2016-10-08,84775836.12448
2016-10-09,84809261.74948
2016-10-10,84842392.68698
2016-10-11,84874872.21823
2016-10-12,84907964.87448
2016-10-13,84942791.12448
2016-10-14,84975704.87448
2016-10-15,85007912.06198
2016-10-16,85040842.37448
2016-10-17,85073216.43698
2016-10-18,85106540.49948
2016-10-19,85139682.68698
2016-10-20,85174219.24948
2016-10-21,85206346.12448
2016-10-22,85238048.78073
2016-10-23,85269380.65573
2016-10-24,85301442.53073
2016-10-25,85333107.06198
2016-10-26,85365063.93698
2016-10-27,85396508.93698
2016-10-28,85427587.99948
2016-10-29,85457213.78073
2016-10-30,85489177.99948
2016-10-31,85521199.24948
2016-11-01,85551697.68698
2016-11-02,85582839.71823
2016-11-03,85614055.65573
2016-11-04,85644979.24948
2016-11-05,85676403.78073
2016-11-06,85708203.93698
2016-11-07,85741462.99948
2016-11-08,85773790.18698
2016-11-09,85804792.53073
2016-11-10,85836003.31198
2016-11-11,85867342.68698
2016-11-12,85899292.68698
2016-11-13,85931716.90573
2016-11-14,85963601.12448
2016-11-15,85995038.15573
2016-11-16,86026619.56198
2016-11-17,86057428.15573
2016-11-18,86090528.93698
2016-11-19,86122860.03073
2016-11-20,86155316.43698
2016-11-21,86187131.74948
2016-11-22,86218309.24948
2016-11-23,86250931.12448
2016-11-24,86283332.53073
2016-11-25,86316764.24948
2016-11-26,86349260.81198
2016-11-27,86382967.53073
2016-11-28,86416907.37448
2016-11-29,86449885.34323
2016-11-30,86481725.34323
2016-12-01,86513473.62448
2016-12-02,86545270.03073
2016-12-03,86577386.43698
2016-12-04,86608558.93698
2016-12-05,86639790.49948
2016-12-06,86671769.24948
2016-12-07,86703479.87448
2016-12-08,86735573.93698
2016-12-09,86767234.56198
2016-12-10,86798910.96823
2016-12-11,86830689.87448
2016-12-12,86862032.37448
2016-12-13,86893842.37448
2016-12-14,86925692.84323
2016-12-15,86957060.65573
2016-12-16,86988817.06198
2016-12-17,87020779.40573
2016-12-18,87052668.78073
2016-12-19,87084142.37448
2016-12-20,87115811.28073
2016-12-21,87147404.24948
2016-12-22,87178478.31198
2016-12-23,87209595.65573
2016-12-24,87240922.53073
2016-12-25,87272930.96823
2016-12-26,87304575.65573
2016-12-27,87335798.46823
2016-12-28,87367373.62448
2016-12-29,87399192.37448
2016-12-30,87430873.93698
2016-12-31,87462102.06198
2017-01-01,87493850.34323
2017-01-02,87525377.37448
2017-01-03,87556904.40573
2017-01-04,87589003.93698
2017-01-05,87620820.96823
2017-01-06,87652180.49948
2017-01-07,87684075.49948
2017-01-08,87715759.87448
2017-01-09,87747510.18698
2017-01-10,87778859.56198
2017-01-11,87810382.53073
2017-01-12,87841939.24948
2017-01-13,87873669.56198
2017-01-14,87905147.68698
2017-01-15,87936849.71823
2017-01-16,87968390.03073
2017-01-17,87999686.12448
2017-01-18,88031291.59323
2017-01-19,88063415.18698
2017-01-20,88094536.28073
2017-01-21,88126060.03073
2017-01-22,88157637.84323
2017-01-23,88189136.28073
2017-01-24,88220556.74948
2017-01-25,88251980.34323
2017-01-26,88283765.03073
2017-01-27,88314879.87448
2017-01-28,88346407.84323
2017-01-29,88377527.84323
2017-01-30,88409456.28073
2017-01-31,88440870.18698
2017-02-01,88472202.37448
2017-02-02,88503617.21823
2017-02-03,88534890.49948
2017-02-04,88566651.28073
2017-02-05,88598249.71823
2017-02-06,88629876.43698
2017-02-07,88661367.84323
2017-02-08,88693072.06198
2017-02-09,88724502.99948
2017-02-10,88755999.40573
2017-02-11,88787589.24948
2017-02-12,88819158.93698
2017-02-13,88850892.99948
2017-02-14,88882357.06198
2017-02-15,88914085.34323
2017-02-16,88945625.18698
2017-02-17,88976952.99948
2017-02-18,89008164.71823
2017-02-19,89039431.90573
2017-02-20,89070819.71823
2017-02-21,89102230.34323
2017-02-22,89133223.93698
2017-02-23,89164453.46823
2017-02-24,89195717.06198
2017-02-25,89227270.96823
2017-02-26,89259091.12448
2017-02-27,89290337.53073
2017-02-28,89322193.62448
2017-03-01,89353338.46823
2017-03-02,89384966.90573
2017-03-03,89416268.31198
2017-03-04,89447440.96823
2017-03-05,89479002.84323
2017-03-06,89510155.96823
2017-03-07,89541224.71823
2017-03-08,89572550.65573
2017-03-09,89603360.18698
2017-03-10,89634387.21823
2017-03-11,89665622.68698
2017-03-12,89696472.21823
2017-03-13,89728084.71823
2017-03-14,89759300.81198
2017-03-15,89790674.71823
2017-03-16,89822106.43698
2017-03-17,89853948.31198
2017-03-18,89885430.65573
2017-03-19,89916425.18698
2017-03-20,89948095.49948
2017-03-21,89979108.78073
2017-03-22,90010484.24948
2017-03-23,90041465.18698
2017-03-24,90072306.12448
2017-03-25,90103368.93698
2017-03-26,90134541.28073
2017-03-27,90165546.59323
2017-03-28,90196102.06198
2017-03-29,90227370.34323
2017-03-30,90258190.18698
2017-03-31,90289398.46823
2017-04-01,90320249.40573
2017-04-02,90350690.18698
2017-04-03,90381876.43698
2017-04-04,90412931.74948
2017-04-05,90444167.06198
2017-04-06,90474891.43698
2017-04-07,90505965.96823
2017-04-08,90536880.34323
2017-04-09,90567123.62448
2017-04-10,90597160.81198
2017-04-11,90627611.28073
2017-04-12,90657825.18698
2017-04-13,90688168.15573
2017-04-14,90719157.84323
2017-04-15,90749155.96823
2017-04-16,90779659.40573
2017-04-17,90810307.53073
2017-04-18,90840827.37448
2017-04-19,90870439.56198
2017-04-20,90900861.74948
2017-04-21,90931339.09323
2017-04-22,90961329.40573
2017-04-23,90991820.65573
2017-04-24,91021603.62448
2017-04-25,91052363.93698
2017-04-26,91081696.12448
2017-04-27,91111026.12448
2017-04-28,91140708.15573
2017-04-29,91169925.81198
2017-04-30,91199294.40573
2017-05-01,91228651.90573
2017-05-02,91258088.31198
2017-05-03,91287640.96823
2017-05-04,91317064.40573
2017-05-05,91346766.43698
2017-05-06,91376469.87448
2017-05-07,91406350.03073
2017-05-08,91435775.96823
2017-05-09,91465530.96823
2017-05-10,91495145.81198
2017-05-11,91524880.34323
2017-05-12,91554770.03073
2017-05-13,91584023.31198
2017-05-14,91612240.81198
2017-05-15,91640703.15573
2017-05-16,91669421.12448
2017-05-17,91697320.03073
2017-05-18,91725800.81198
2017-05-19,91754182.06198
2017-05-20,91782834.09323
2017-05-21,91811488.15573
2017-05-22,91840257.37448
2017-05-23,91868833.46823
2017-05-24,91897474.09323
2017-05-25,91926312.99948
2017-05-26,91955276.74948
2017-05-27,91984052.21823
2017-05-28,92012875.49948
2017-05-29,92042412.84323
2017-05-30,92072232.21823
2017-05-31,92100980.65573
2017-06-01,92129050.03073
2017-06-02,92155870.65573
2017-06-03,92183397.06198
2017-06-04,92210629.56198
2017-06-05,92238419.40573
2017-06-06,92265903.15573
2017-06-07,92293673.93698
2017-06-08,92321305.18698
2017-06-09,92348955.18698
2017-06-10,92377113.93698
2017-06-11,92405040.65573
2017-06-12,92433141.28073
2017-06-13,92461417.37448
2017-06-14,92489686.12448
2017-06-15,92517884.87448
2017-06-16,92546255.81198
2017-06-17,92574554.87448
2017-06-18,92603142.37448
2017-06-19,92631775.34323
2017-06-20,92658480.96823
2017-06-21,92684635.49948
2017-06-22,92711168.78073
2017-06-23,92737271.28073
2017-06-24,92763766.28073
2017-06-25,92790149.40573
2017-06-26,92816848.46823
2017-06-27,92843430.81198
2017-06-28,92870070.34323
2017-06-29,92897082.37448
2017-06-30,92923938.62448
2017-07-01,92950618.62448
2017-07-02,92977334.09323
2017-07-03,93004465.34323
2017-07-04,93031831.12448
2017-07-05,93058591.43698
2017-07-06,93085517.99948
2017-07-07,93112805.96823
2017-07-08,93139869.24948
2017-07-09,93166813.15573
2017-07-10,93191246.74948
2017-07-11,93215214.87448
2017-07-12,93239149.09323
2017-07-13,93262924.40573
2017-07-14,93286695.65573
2017-07-15,93310844.24948
2017-07-16,93334853.93698
2017-07-17,93358372.21823
2017-07-18,93382326.28073
2017-07-19,93406809.87448
2017-07-20,93431302.68698
2017-07-21,93455144.87448
2017-07-22,93479452.21823
2017-07-23,93503935.49948
2017-07-24,93527994.40573
2017-07-25,93552687.06198
2017-07-26,93577198.93698
2017-07-27,93601554.71823
2017-07-28,93626239.87448
2017-07-29,93650732.37448
2017-07-30,93675450.03073
2017-07-31,93699508.62448
2017-08-01,93720925.34323
2017-08-02,93742064.40573
2017-08-03,93763027.68698
2017-08-04,93784332.06198
2017-08-05,93805523.62448
2017-08-06,93826789.24948
2017-08-07,93848410.81198
2017-08-08,93870046.12448
2017-08-09,93891771.12448
2017-08-10,93913239.24948
2017-08-11,93935141.28073
2017-08-12,93957058.46823
2017-08-13,93979096.90573
2017-08-14,94001135.03073
2017-08-15,94023355.65573
2017-08-16,94045925.18698
2017-08-17,94068458.15573
2017-08-18,94090768.62448
2017-08-19,94113332.99948
2017-08-20,94135465.49948
2017-08-21,94158211.28073
2017-08-22,94180730.81198
2017-08-23,94203343.93698
2017-08-24,94225872.53073
2017-08-25,94244696.43698
2017-08-26,94263259.09323
2017-08-27,94281897.68698
2017-08-28,94300323.15573
2017-08-29,94319403.31198
2017-08-30,94338347.21823
2017-08-31,94357109.56198
2017-09-01,94375942.68698
2017-09-02,94394790.81198
2017-09-03,94413432.84323
2017-09-04,94432353.93698
2017-09-05,94451455.18698
2017-09-06,94470343.46823
2017-09-07,94489472.37448
2017-09-08,94508739.56198
2017-09-09,94527779.09323
2017-09-10,94546767.84323
2017-09-11,94565613.93698
2017-09-12,94584926.43698
2017-09-13,94603824.71823
2017-09-14,94623114.40573
2017-09-15,94642650.81198
2017-09-16,94661988.78073
2017-09-17,94681208.31198
2017-09-18,94700275.81198
2017-09-19,94719648.78073
2017-09-20,94738827.06198
2017-09-21,94758167.21823
2017-09-22,94773910.81198
2017-09-23,94788916.59323
2017-09-24,94804377.99948
2017-09-25,94819252.37448
2017-09-26,94834459.24948
2017-09-27,94849870.34323
2017-09-28,94864868.31198
2017-09-29,94879720.81198
2017-09-30,94894652.21823
2017-10-01,94909784.87448
2017-10-02,94924874.09323
2017-10-03,94940052.53073
2017-10-04,94955370.96823
2017-10-05,94970847.99948
2017-10-06,94985872.06198
2017-10-07,95000887.21823
2017-10-08,95016086.74948
2017-10-09,95031295.49948
2017-10-10,95046779.87448
2017-10-11,95062279.71823
2017-10-12,95077671.28073
2017-10-13,95093104.71823
2017-10-14,95108426.28073
2017-10-15,95124003.31198
2017-10-16,95140175.99948
2017-10-17,95160320.99948
2017-10-18,95180700.65573
2017-10-19,95201124.18698
2017-10-20,95221601.81198
2017-10-21,95241745.03073
2017-10-22,95262127.03073
2017-10-23,95282599.68698
2017-10-24,95303129.15573
2017-10-25,95323347.37448
2017-10-26,95343543.28073
2017-10-27,95364016.78073
2017-10-28,95384459.53073
2017-10-29,95404750.96823
2017-10-30,95424849.56198
2017-10-31,95445483.74948
2017-11-01,95465714.34323
2017-11-02,95486011.12448
2017-11-03,95506320.56198
2017-11-04,95526508.87448
2017-11-05,95547099.09323
2017-11-06,95567340.46823
2017-11-07,95587753.87448
2017-11-08,95608008.65573
2017-11-09,95628319.12448
2017-11-10,95648845.96823
2017-11-11,95669265.74948
2017-11-12,95689477.59323
2017-11-13,95709898.78073
2017-11-14,95729946.93698
2017-11-15,95750442.37448
2017-11-16,95770663.78073
2017-11-17,95791028.90573
2017-11-18,95811360.84323
2017-11-19,95831783.62448
2017-11-20,95852191.96823
2017-11-21,95872585.96823
2017-11-22,95893088.53073
2017-11-23,95913435.56198
2017-11-24,95933850.93698
2017-11-25,95954161.49948
2017-11-26,95974526.81198
2017-11-27,95994798.56198
2017-11-28,96015108.18698
2017-11-29,96035533.21823
2017-11-30,96055949.34323
2017-12-01,96076426.03073
2017-12-02,96096631.21823
2017-12-03,96116967.74948
2017-12-04,96137394.09323
2017-12-05,96158030.53073
2017-12-06,96178671.37448
2017-12-07,96199580.24948
2017-12-08,96220011.09323
2017-12-09,96240577.21823
2017-12-10,96260969.53073
2017-12-11,96281299.03073
2017-12-12,96301868.43698
2017-12-13,96322476.65573
2017-12-14,96343264.31198
2017-12-15,96364094.15573
2017-12-16,96384476.53073
2017-12-17,96404823.46823
2017-12-18,96425385.18698
2017-12-19,96446016.56198
2017-12-20,96466647.93698
2017-12-21,96487062.74948
2017-12-22,96507634.03073
2017-12-23,96528469.31198
2017-12-24,96548973.46823
2017-12-25,96569420.34323
2017-12-26,96589804.03073
2017-12-27,96610337.15573
2017-12-28,96630771.28073
2017-12-29,96651232.49948
2017-12-30,96671779.96823
2017-12-31,96692234.71823
2018-01-01,96712858.68698
2018-01-02,96733419.74948
2018-01-03,96754018.96823
2018-01-04,96774982.21823
2018-01-05,96795899.71823
2018-01-06,96816848.62448
2018-01-07,96838028.81198
2018-01-08,96858632.24948
2018-01-09,96879368.06198
2018-01-10,96900449.99948
2018-01-11,96921481.40573
2018-01-12,96942398.53073
2018-01-13,96963077.62448
2018-01-14,96984103.49948
2018-01-15,97004517.37448
2018-01-16,97025404.96823
2018-01-17,97046248.21823
2018-01-18,97066797.28073
2018-01-19,97087435.96823
2018-01-20,97108196.90573
2018-01-21,97128471.56198
2018-01-22,97149036.18698
2018-01-23,97169524.49948
2018-01-24,97190099.90573
2018-01-25,97210437.46823
2018-01-26,97230838.49948
2018-01-27,97251261.56198
2018-01-28,97271824.87448
2018-01-29,97292381.62448
2018-01-30,97312686.56198
2018-01-31,97333220.43698
2018-02-01,97353767.06198
2018-02-02,97374406.03073
2018-02-03,97394727.74948
2018-02-04,97415043.18698
2018-02-05,97435676.99948
2018-02-06,97456058.62448
2018-02-07,97476492.37448
2018-02-08,97496874.46823
2018-02-09,97517146.21823
2018-02-10,97537836.56198
2018-02-11,97557955.96823
2018-02-12,97578446.81198
2018-02-13,97598891.24948
2018-02-14,97618943.81198
2018-02-15,97639547.34323
2018-02-16,97659924.46823
2018-02-17,97680472.96823
2018-02-18,97700819.06198
2018-02-19,97721246.43698
2018-02-20,97741653.74948
2018-02-21,97762324.31198
2018-02-22,97782727.40573
2018-02-23,97803388.40573
2018-02-24,97823870.53073
2018-02-25,97844089.68698
2018-02-26,97864424.99948
2018-02-27,97884837.74948
2018-02-28,97905406.87448
2018-03-01,97925794.03073
2018-03-02,97946468.99948
2018-03-03,97966904.81198
2018-03-04,97987125.09323
2018-03-05,98007442.59323
2018-03-06,98027888.62448
2018-03-07,98048505.56198
2018-03-08,98068805.15573
2018-03-09,98089180.21823
2018-03-10,98109641.24948
2018-03-11,98130173.81198
2018-03-12,98150534.24948
2018-03-13,98170915.87448
2018-03-14,98191325.90573
2018-03-15,98211821.71823
2018-03-16,98232355.12448
2018-03-17,98252768.99948
2018-03-18,98273102.06198
2018-03-19,98293411.96823
2018-03-20,98313822.28073
2018-03-21,98334114.56198
2018-03-22,98354601.84323
2018-03-23,98374835.53073
2018-03-24,98395360.21823
2018-03-25,98415690.28073
2018-03-26,98436122.81198
2018-03-27,98456390.71823
2018-03-28,98476744.03073
2018-03-29,98497146.09323
2018-03-30,98517639.46823
2018-03-31,98538100.31198
2018-04-01,98558305.31198
2018-04-02,98578770.56198
2018-04-03,98599160.15573
2018-04-04,98619459.84323
2018-04-05,98640059.24948
2018-04-06,98660492.24948
2018-04-07,98680745.24948
2018-04-08,98701103.34323
2018-04-09,98721400.21823
2018-04-10,98741932.68698
2018-04-11,98762171.71823
2018-04-12,98782370.43698
2018-04-13,98803003.59323
2018-04-14,98823389.99948
2018-04-15,98843786.81198
2018-04-16,98864372.15573
2018-04-17,98884758.28073
2018-04-18,98905009.78073
2018-04-19,98925668.43698
2018-04-20,98946021.18698
2018-04-21,98966560.78073
2018-04-22,98987011.40573
2018-04-23,99007490.15573
2018-04-24,99027860.90573
2018-04-25,99048447.28073
2018-04-26,99069249.93698
2018-04-27,99089619.84323
2018-04-28,99109887.84323
2018-04-29,99130618.59323
2018-04-30,99151166.43698
2018-05-01,99171615.65573
2018-05-02,99192481.68698
2018-05-03,99213097.78073
2018-05-04,99233690.34323
2018-05-05,99254405.62448
2018-05-06,99275029.96823
2018-05-07,99295750.78073
2018-05-08,99316126.96823
2018-05-09,99336656.34323
2018-05-10,99357119.24948
2018-05-11,99377783.15573
2018-05-12,99398394.09323
2018-05-13,99418836.65573
2018-05-14,99439231.12448
2018-05-15,99459796.49948
2018-05-16,99480231.46823
2018-05-17,99500881.12448
2018-05-18,99521576.71823
2018-05-19,99542286.09323
2018-05-20,99562943.90573
2018-05-21,99583652.81198
2018-05-22,99604180.49948
2018-05-23,99625069.68698
2018-05-24,99645420.09323
2018-05-25,99666066.56198
2018-05-26,99686779.59323
2018-05-27,99707202.28073
2018-05-28,99727874.81198
2018-05-29,99748524.18698
2018-05-30,99769203.84323
2018-05-31,99789947.90573
2018-06-01,99810507.56198
2018-06-02,99831219.56198
2018-06-03,99851704.21823
2018-06-04,99872509.40573
2018-06-05,99892853.24948
2018-06-06,99913479.09323
2018-06-07,99934282.59323
2018-06-08,99954974.15573
2018-06-09,99975789.93698
2018-06-10,99996245.62448
2018-06-11,100017060.28073
2018-06-12,100037651.53073
2018-06-13,100058182.68698
2018-06-14,100078675.49948
2018-06-15,100099202.81198
2018-06-16,100119780.18698
2018-06-17,100140202.59323
2018-06-18,100160820.46823
2018-06-19,100181296.40573
2018-06-20,100201885.96823
2018-06-21,100222343.71823
2018-06-22,100242991.96823
2018-06-23,100263641.15573
2018-06-24,100283997.93698
2018-06-25,100304533.68698
2018-06-26,100325174.24948
2018-06-27,100345760.34323
2018-06-28,100366144.78073
2018-06-29,100386520.21823
2018-06-30,100407160.31198
2018-07-01,100427587.59323
2018-07-02,100448254.40573
2018-07-03,100468746.74948
2018-07-04,100489218.84323
2018-07-05,100509636.84323
2018-07-06,100530058.21823
2018-07-07,100550579.62448
2018-07-08,100570994.62448
2018-07-09,100591644.65573
2018-07-10,100612003.59323
2018-07-11,100632678.28073
2018-07-12,100653188.71823
2018-07-13,100673482.21823
2018-07-14,100693933.78073
2018-07-15,100714546.40573
2018-07-16,100734925.21823
2018-07-17,100755664.03073
2018-07-18,100775993.34323
2018-07-19,100796423.90573
2018-07-20,100816608.65573
2018-07-21,100837178.43698
2018-07-22,100857948.65573
2018-07-23,100878384.09323
2018-07-24,100898948.62448
2018-07-25,100919718.18698
2018-07-26,100940142.09323
2018-07-27,100960655.81198
2018-07-28,100981096.87448
2018-07-29,101001590.15573
2018-07-30,101022005.06198
2018-07-31,101042599.68698
2018-08-01,101063027.53073
2018-08-02,101083578.28073
2018-08-03,101104095.09323
2018-08-04,101124697.40573
2018-08-05,101145226.87448
2018-08-06,101165637.18698
2018-08-07,101186035.49948
2018-08-08,101206594.49948
2018-08-09,101227121.24948
2018-08-10,101247565.87448
2018-08-11,101268202.49948
2018-08-12,101288554.87448
2018-08-13,101308953.65573
2018-08-14,101329287.28073
2018-08-15,101349634.59323
2018-08-16,101370062.24948
2018-08-17,101390564.90573
2018-08-18,101411036.24948
2018-08-19,101431491.93698
2018-08-20,101451938.15573
2018-08-21,101472431.43698
2018-08-22,101492732.81198
2018-08-23,101513076.65573
2018-08-24,101533810.68698
2018-08-25,101554233.93698
2018-08-26,101574654.56198
2018-08-27,101595197.99948
2018-08-28,101615586.09323
2018-08-29,101635856.34323
2018-08-30,101656344.74948
2018-08-31,101676775.68698
2018-09-01,101697161.62448
2018-09-02,101717661.56198
2018-09-03,101737989.09323
2018-09-04,101758533.37448
2018-09-05,101778862.87448
2018-09-06,101799428.62448
2018-09-07,101819646.93698
2018-09-08,101839936.68698
2018-09-09,101860203.56198
2018-09-10,101880640.31198
2018-09-11,101900885.43698
2018-09-12,101921288.62448
2018-09-13,101941711.40573
2018-09-14,101962143.37448
2018-09-15,101982580.40573
2018-09-16,102003089.53073
2018-09-17,102023565.84323
2018-09-18,102043747.49948
2018-09-19,102064296.37448
2018-09-20,102084720.65573
2018-09-21,102105440.06198
2018-09-22,102125761.59323
2018-09-23,102146083.87448
2018-09-24,102166426.12448
2018-09-25,102186844.12448
2018-09-26,102207447.28073
2018-09-27,102227961.65573
2018-09-28,102248376.65573
2018-09-29,102268616.34323
2018-09-30,102289127.43698
2018-10-01,102309429.84323
2018-10-02,102329944.03073
2018-10-03,102350237.24948
2018-10-04,102370609.12448
2018-10-05,102390786.18698
2018-10-06,102411278.15573
2018-10-07,102431799.46823
2018-10-08,102452224.40573
2018-10-09,102472577.34323
2018-10-10,102492939.09323
2018-10-11,102513424.40573
2018-10-12,102533808.46823
2018-10-13,102554245.59323
2018-10-14,102574706.90573
2018-10-15,102595024.03073
2018-10-16,102615404.99948
2018-10-17,102635802.28073
2018-10-18,102656241.74948
2018-10-19,102676535.34323
2018-10-20,102696985.31198
2018-10-21,102717340.03073
2018-10-22,102737590.68698
2018-10-23,102758166.56198
2018-10-24,102778549.59323
2018-10-25,102798796.21823
2018-10-26,102819296.06198
2018-10-27,102839541.09323
2018-10-28,102859850.15573
2018-10-29,102880246.21823
2018-10-30,102900417.46823
2018-10-31,102920922.56198
2018-11-01,102941161.78073
2018-11-02,102961301.43698
2018-11-03,102981481.78073
2018-11-04,103001764.87448
2018-11-05,103022158.96823
2018-11-06,103042410.74948
2018-11-07,103062892.21823
2018-11-08,103083125.62448
2018-11-09,103103372.90573
2018-11-10,103123789.03073
2018-11-11,103144099.12448
2018-11-12,103164409.40573
2018-11-13,103184681.71823
2018-11-14,103204800.84323
2018-11-15,103224808.03073
2018-11-16,103245086.90573
2018-11-17,103265107.31198
2018-11-18,103285316.53073
2018-11-19,103305230.06198
2018-11-20,103325245.68698
2018-11-21,103345472.62448
2018-11-22,103365408.65573
2018-11-23,103385530.03073
2018-11-24,103405536.28073
2018-11-25,103425554.99948
2018-11-26,103445602.03073
2018-11-27,103465351.40573
2018-11-28,103485244.68698
2018-11-29,103505344.68698
2018-11-30,103525266.46823
2018-12-01,103545029.53073
2018-12-02,103564659.74948
2018-12-03,103584257.99948
2018-12-04,103603918.49948
2018-12-05,103623626.81198
2018-12-06,103643369.06198
2018-12-07,103662859.87448
2018-12-08,103682399.62448
2018-12-09,103701976.87448
2018-12-10,103722004.96823
2018-12-11,103741364.53073
2018-12-12,103760970.84323
2018-12-13,103780735.21823
2018-12-14,103800147.93698
2018-12-15,103819961.71823
2018-12-16,103839487.96823
2018-12-17,103858553.53073
2018-12-18,103877422.12448
2018-12-19,103896218.24948
2018-12-20,103915024.68698
2018-12-21,103933854.28073
2018-12-22,103952892.74948
2018-12-23,103971762.18698
2018-12-24,103990807.21823
2018-12-25,104009886.65573
2018-12-26,104029131.09323
2018-12-27,104048066.90573
2018-12-28,104067047.06198
2018-12-29,104086202.43698
2018-12-30,104105049.84323
2018-12-31,104124050.71823
2019-01-01,104142768.46823
2019-01-02,104161888.12448
2019-01-03,104179821.37448
2019-01-04,104197653.28073
2019-01-05,104215675.40573
2019-01-06,104233482.74948
2019-01-07,104251524.37448
2019-01-08,104269302.28073
2019-01-09,104287324.78073
2019-01-10,104305171.59323
2019-01-11,104322969.18698
2019-01-12,104340667.68698
2019-01-13,104358625.03073
2019-01-14,104376633.93698
2019-01-15,104394554.34323
2019-01-16,104412158.15573
2019-01-17,104429862.28073
2019-01-18,104447654.99948
2019-01-19,104465664.56198
2019-01-20,104483428.78073
2019-01-21,104499569.90573
2019-01-22,104515654.68698
2019-01-23,104531413.03073
2019-01-24,104547493.49948
2019-01-25,104563573.59323
2019-01-26,104579578.12448
2019-01-27,104595424.31198
2019-01-28,104610841.03073
2019-01-29,104626304.81198
2019-01-30,104641860.18698
2019-01-31,104657513.62448
2019-02-01,104672814.28073
2019-02-02,104688425.90573
2019-02-03,104703652.03073
2019-02-04,104719046.71823
2019-02-05,104734465.49948
2019-02-06,104749767.84323
2019-02-07,104765166.46823
2019-02-08,104780637.74948
2019-02-09,104795984.81198
2019-02-10,104809355.15573
2019-02-11,104822486.24948
2019-02-12,104835850.03073
2019-02-13,104848904.90573
2019-02-14,104861988.37448
2019-02-15,104875052.34323
2019-02-16,104888333.81198
2019-02-17,104901323.15573
2019-02-18,104914620.93698
2019-02-19,104928151.40573
2019-02-20,104941570.87448
2019-02-21,104954910.56198
2019-02-22,104968202.62448
2019-02-23,104981854.59323
2019-02-24,104995212.74948
2019-02-25,105008584.40573
2019-02-26,105022102.87448
2019-02-27,105035616.56198
2019-02-28,105048571.40573
2019-03-01,105061441.03073
2019-03-02,105075075.90573
2019-03-03,105088673.59323
2019-03-04,105102318.84323
2019-03-05,105116071.71823
2019-03-06,105129637.53073
2019-03-07,105143309.53073
2019-03-08,105156930.53073
2019-03-09,105170461.03073
2019-03-10,105184305.65573
2019-03-11,105197819.96823
2019-03-12,105211479.21823
2019-03-13,105225067.03073
2019-03-14,105238690.34323
2019-03-15,105252247.40573
2019-03-16,105266061.21823
2019-03-17,105279633.71823
2019-03-18,105293114.15573
2019-03-19,105306734.90573
2019-03-20,105320490.90573
2019-03-21,105334073.40573
2019-03-22,105347683.40573
2019-03-23,105361399.40573
2019-03-24,105375024.90573
2019-03-25,105388658.03073
2019-03-26,105402211.84323
2019-03-27,105415947.90573
2019-03-28,105429546.28073
2019-03-29,105443085.21823
2019-03-30,105456676.53073
2019-03-31,105470335.71823
2019-04-01,105484031.28073
2019-04-02,105497650.59323
2019-04-03,105511202.53073
2019-04-04,105524933.71823
2019-04-05,105538575.78073
2019-04-06,105552184.59323
2019-04-07,105565861.28073
2019-04-08,105579580.03073
2019-04-09,105593212.78073
2019-04-10,105606943.84323
2019-04-11,105620509.34323
2019-04-12,105634095.34323
2019-04-13,105647795.03073
2019-04-14,105661432.59323
2019-04-15,105675141.78073
2019-04-16,105688801.09323
2019-04-17,105702375.03073
2019-04-18,105715972.96823
2019-04-19,105729673.28073
2019-04-20,105743285.84323
2019-04-21,105757007.71823
2019-04-22,105770660.78073
2019-04-23,105784200.65573
2019-04-24,105797801.90573
2019-04-25,105811485.53073
2019-04-26,105825242.96823
2019-04-27,105838930.34323
2019-04-28,105852531.65573
2019-04-29,105866212.78073
2019-04-30,105879861.53073
2019-05-01,105893550.65573
2019-05-02,105907195.21823
2019-05-03,105920677.65573
2019-05-04,105934506.90573
2019-05-05,105948142.28073
2019-05-06,105961710.09323
2019-05-07,105975331.65573
2019-05-08,105988904.78073
2019-05-09,106002516.90573
2019-05-10,106016244.21823
2019-05-11,106029838.84323
2019-05-12,106043527.65573
2019-05-13,106057082.09323
2019-05-14,106070801.40573
2019-05-15,106084542.34323
2019-05-16,106098122.15573
2019-05-17,106111904.46823
2019-05-18,106125475.59323
2019-05-19,106139067.15573
2019-05-20,106152571.40573
2019-05-21,106166086.59323
2019-05-22,106179746.65573
2019-05-23,106193281.96823
2019-05-24,106206881.65573
2019-05-25,106220650.03073
2019-05-26,106234302.59323
2019-05-27,106247887.03073
2019-05-28,106261396.59323
2019-05-29,106275239.15573
2019-05-30,106288632.65573
2019-05-31,106302384.96823
2019-06-01,106316018.84323
2019-06-02,106329552.09323
2019-06-03,106343050.78073
2019-06-04,106356619.40573
2019-06-05,106370285.40573
2019-06-06,106383985.34323
2019-06-07,106397498.71823
2019-06-08,106410980.03073
2019-06-09,106424475.09323
2019-06-10,106438231.28073
2019-06-11,106451789.28073
2019-06-12,106465361.28073
2019-06-13,106478933.21823
2019-06-14,106492556.84323
2019-06-15,106506153.21823
2019-06-16,106519848.96823
2019-06-17,106533488.09323
2019-06-18,106546962.09323
2019-06-19,106560528.34323
2019-06-20,106574156.09323
2019-06-21,106587625.59323
2019-06-22,106601328.09323
2019-06-23,106614985.21823
2019-06-24,106628668.40573
2019-06-25,106642309.15573
2019-06-26,106655977.96823
2019-06-27,106669570.46823
2019-06-28,106683210.15573
2019-06-29,106696841.53073
2019-06-30,106710476.59323
2019-07-01,106724089.46823
2019-07-02,106737728.46823
2019-07-03,106751276.46823
2019-07-04,106764907.03073
2019-07-05,106778434.90573
2019-07-06,106792219.28073
2019-07-07,106805911.34323
2019-07-08,106819573.15573
2019-07-09,106833245.78073
2019-07-10,106846860.90573
2019-07-11,106860543.03073
2019-07-12,106874040.65573
2019-07-13,106887692.09323
2019-07-14,106901471.78073
2019-07-15,106914975.53073
2019-07-16,106928521.15573
2019-07-17,106942169.21823
2019-07-18,106955873.96823
2019-07-19,106969358.15573
2019-07-20,106983064.53073
2019-07-21,106996551.03073
2019-07-22,107010219.28073
2019-07-23,107023884.34323
2019-07-24,107037548.03073
2019-07-25,107051108.84323
2019-07-26,107064779.40573
2019-07-27,107078460.46823
2019-07-28,107092025.03073
2019-07-29,107105514.65573
2019-07-30,107119257.59323
2019-07-31,107132781.40573
2019-08-01,107146313.28073
2019-08-02,107160090.46823
2019-08-03,107173765.53073
2019-08-04,107187363.34323
2019-08-05,107201011.90573
2019-08-06,107214614.40573
2019-08-07,107228304.71823
2019-08-08,107241825.65573
2019-08-09,107255365.78073
2019-08-10,107269096.59323
2019-08-11,107282630.28073
2019-08-12,107296309.40573
2019-08-13,107309873.34323
2019-08-14,107323549.28073
2019-08-15,107337058.96823
2019-08-16,107350730.53073
2019-08-17,107364376.15573
2019-08-18,107377934.65573
2019-08-19,107391415.71823
2019-08-20,107405038.46823
2019-08-21,107418668.90573
2019-08-22,107432126.65573
2019-08-23,107445842.09323
2019-08-24,107459130.53073
2019-08-25,107472943.46823
2019-08-26,107486439.71823
2019-08-27,107499979.90573
2019-08-28,107513598.03073
2019-08-29,107527351.46823
2019-08-30,107540974.09323
2019-08-31,107554554.84323
2019-09-01,107568118.46823
2019-09-02,107581748.65573
2019-09-03,107595232.34323
2019-09-04,107608696.65573
2019-09-05,107622328.46823
2019-09-06,107635890.21823
2019-09-07,107649491.78073
2019-09-08,107663009.40573
2019-09-09,107676531.09323
2019-09-10,107690027.65573
2019-09-11,107703574.96823
2019-09-12,107717215.34323
2019-09-13,107730587.34323
2019-09-14,107744211.09323
2019-09-15,107757733.71823
2019-09-16,107771456.03073
2019-09-17,107785017.15573
2019-09-18,107798713.53073
2019-09-19,107812126.59323
2019-09-20,107825784.34323
2019-09-21,107839353.09323
2019-09-22,107852819.34323
2019-09-23,107866491.46823
2019-09-24,107879817.59323
2019-09-25,107893414.46823
2019-09-26,107906894.78073
2019-09-27,107920293.90573
2019-09-28,107933824.59323
2019-09-29,107947400.28073
2019-09-30,107960845.84323
2019-10-01,107974416.90573
2019-10-02,107987784.78073
2019-10-03,108001273.15573
2019-10-04,108014799.71823
2019-10-05,108028348.09323
2019-10-06,108041928.03073
2019-10-07,108055323.46823
2019-10-08,108068687.71823
2019-10-09,108082111.53073
2019-10-10,108095480.71823
2019-10-11,108108902.90573
2019-10-12,108122216.34323
2019-10-13,108135648.21823
2019-10-14,108149060.34323
2019-10-15,108162651.09323
2019-10-16,108175986.84323
2019-10-17,108189291.90573
2019-10-18,108202601.71823
2019-10-19,108215936.78073
2019-10-20,108229314.90573
2019-10-21,108242513.59323
2019-10-22,108255960.09323
2019-10-23,108269380.46823
2019-10-24,108282581.71823
2019-10-25,108295505.46823
2019-10-26,108308697.15573
2019-10-27,108321625.96823
2019-10-28,108334773.53073
2019-10-29,108347873.78073
2019-10-30,108361056.53073
2019-10-31,108374175.40573
2019-11-01,108387409.84323
2019-11-02,108400442.71823
2019-11-03,108413604.65573
2019-11-04,108426645.78073
2019-11-05,108439774.28073
2019-11-06,108452860.78073
2019-11-07,108465892.15573
2019-11-08,108478946.59323
2019-11-09,108491828.21823
2019-11-10,108504456.15573
2019-11-11,108517090.90573
2019-11-12,108529797.40573
2019-11-13,108542472.21823
2019-11-14,108555120.34323
2019-11-15,108567730.78073
2019-11-16,108580347.03073
2019-11-17,108593043.21823
2019-11-18,108605629.09323
2019-11-19,108618080.90573
2019-11-20,108630709.53073
2019-11-21,108643479.78073
2019-11-22,108656018.09323
2019-11-23,108668698.09323
2019-11-24,108681323.71823
2019-11-25,108693750.21823
2019-11-26,108705564.78073
2019-11-27,108717448.59323
2019-11-28,108729225.28073
2019-11-29,108740981.59323
2019-11-30,108752920.09323
2019-12-01,108764605.34323
2019-12-02,108776487.96823
2019-12-03,108788341.96823
2019-12-04,108800061.59323
2019-12-05,108811850.28073
2019-12-06,108823629.65573
2019-12-07,108835463.40573
2019-12-08,108847153.84323
2019-12-09,108858956.78073
2019-12-10,108870920.78073
2019-12-11,108882598.71823
2019-12-12,108894516.21823
2019-12-13,108905941.03073
2019-12-14,108916556.65573
2019-12-15,108927236.21823
2019-12-16,108937830.09323
2019-12-17,108948347.28073
2019-12-18,108958762.78073
2019-12-19,108969176.09323
2019-12-20,108979520.59323
2019-12-21,108990036.34323
2019-12-22,109000375.46823
2019-12-23,109010723.46823
2019-12-24,109021209.09323
2019-12-25,109031538.21823
2019-12-26,109041898.84323
2019-12-27,109052324.84323
2019-12-28,109062818.71823
2019-12-29,109073220.28073
2019-12-30,109083644.34323
2019-12-31,109094014.21823
2020-01-01,109104318.84323
2020-01-02,109116174.53073
2020-01-03,109129828.21823
2020-01-04,109143552.71823
2020-01-05,109157078.71823
2020-01-06,109170874.84323
2020-01-07,109184491.46823
2020-01-08,109198099.65573
2020-01-09,109211713.46823
2020-01-10,109225390.65573
2020-01-11,109239034.59323
2020-01-12,109252686.59323
2020-01-13,109266314.71823
2020-01-14,109279961.09323
2020-01-15,109293528.90573
2020-01-16,109307143.46823
2020-01-17,109320905.96823
2020-01-18,109334502.15573
2020-01-19,109348250.65573
2020-01-20,109361835.34323
2020-01-21,109375547.84323
2020-01-22,109389060.78073
2020-01-23,109402827.15573
2020-01-24,109416404.34323
2020-01-25,109429997.34323
2020-01-26,109443566.90573
2020-01-27,109457245.03073
2020-01-28,109470810.40573
2020-01-29,109484498.46823
2020-01-30,109498005.15573
2020-01-31,109511656.09323
2020-02-01,109525181.65573
2020-02-02,109538825.46823
2020-02-03,109552489.59323
2020-02-04,109566277.21823
2020-02-05,109579846.96823
2020-02-06,109593533.46823
2020-02-07,109607222.84323
2020-02-08,109620812.15573
2020-02-09,109634378.90573
2020-02-10,109648109.90573
2020-02-11,109661778.59323
2020-02-12,109675397.53073
2020-02-13,109689027.03073
2020-02-14,109702740.96823
2020-02-15,109716351.03073
2020-02-16,109730077.28073
2020-02-17,109743658.71823
2020-02-18,109757278.09323
2020-02-19,109771078.15573
2020-02-20,109784657.59323
2020-02-21,109798221.96823
2020-02-22,109811894.46823
2020-02-23,109825534.71823
2020-02-24,109839069.59323
2020-02-25,109852596.84323
2020-02-26,109866291.59323
2020-02-27,109879917.15573
2020-02-28,109893551.78073
2020-02-29,109907154.53073
2020-03-01,109920714.59323
2020-03-02,109934369.21823
2020-03-03,109948055.84323
2020-03-04,109961778.90573
2020-03-05,109975204.84323
2020-03-06,109988952.71823
2020-03-07,110002629.21823
2020-03-08,110016354.78073
2020-03-09,110029871.28073
2020-03-10,110043529.21823
2020-03-11,110057209.96823
2020-03-12,110070841.15573
2020-03-13,110084261.78073
2020-03-14,110097871.59323
2020-03-15,110111535.96823
2020-03-16,110125140.34323
2020-03-17,110138801.78073
2020-03-18,110152509.40573
2020-03-19,110166193.09323
2020-03-20,110179802.71823
2020-03-21,110193589.84323
2020-03-22,110207098.65573
2020-03-23,110220928.65573
2020-03-24,110234517.46823
2020-03-25,110248177.59323
2020-03-26,110261793.65573
2020-03-27,110275531.78073
2020-03-28,110289119.65573
2020-03-29,110302883.15573
2020-03-30,110316442.40573
2020-03-31,110330027.78073
2020-04-01,110343772.59323
2020-04-02,110357376.40573
2020-04-03,110371020.46823
2020-04-04,110384583.96823
2020-04-05,110398174.71823
2020-04-06,110411698.34323
2020-04-07,110425476.21823
2020-04-08,110439098.34323
2020-04-09,110452719.28073
2020-04-10,110466423.71823
2020-04-11,110479909.71823
2020-04-12,110493650.53073
2020-04-13,110507341.96823
2020-04-14,110520945.46823
2020-04-15,110534618.65573
2020-04-16,110548254.03073
2020-04-17,110561806.59323
2020-04-18,110575358.71823
2020-04-19,110589013.21823
2020-04-20,110602688.65573
2020-04-21,110616267.96823
2020-04-22,110629991.53073
2020-04-23,110643635.90573
2020-04-24,110657260.09323
2020-04-25,110670857.96823
2020-04-26,110684466.59323
2020-04-27,110698095.46823
2020-04-28,110711671.15573
2020-04-29,110725418.71823
2020-04-30,110739057.15573
2020-05-01,110752851.90573
2020-05-02,110766494.53073
2020-05-03,110780060.71823
2020-05-04,110793790.28073
2020-05-05,110807409.65573
2020-05-06,110820862.15573
2020-05-07,110834498.46823
2020-05-08,110848249.46823
2020-05-09,110861774.53073
2020-05-10,110875500.03073
2020-05-11,110889120.90573
2020-05-12,110902698.28073
2020-05-13,110916377.46823
2020-05-14,110930072.40573
2020-05-15,110943660.90573
2020-05-16,110957196.09323
2020-05-17,110970883.34323
2020-05-18,110984420.90573
2020-05-19,110997938.46823
2020-05-20,111011568.03073
2020-05-21,111025203.15573
2020-05-22,111038690.09323
2020-05-23,111052504.09323
2020-05-24,111066062.71823
2020-05-25,111079532.53073
2020-05-26,111093208.03073
2020-05-27,111106816.21823
2020-05-28,111120337.03073
2020-05-29,111133940.09323
2020-05-30,111147573.21823
2020-05-31,111161256.59323
2020-06-01,111174832.03073
2020-06-02,111188532.84323
2020-06-03,111202065.15573
2020-06-04,111215605.53073
2020-06-05,111229340.84323
2020-06-06,111242932.28073
2020-06-07,111256575.53073
2020-06-08,111270135.78073
2020-06-09,111283847.84323
2020-06-10,111297302.46823
2020-06-11,111310904.53073
2020-06-12,111324600.03073
2020-06-13,111338243.65573
2020-06-14,111351911.46823
2020-06-15,111365538.53073
2020-06-16,111379074.65573
2020-06-17,111392570.65573
2020-06-18,111406191.65573
2020-06-19,111419912.65573
2020-06-20,111433541.71823
2020-06-21,111447219.59323
2020-06-22,111460805.90573
2020-06-23,111474452.40573
2020-06-24,111488130.96823
2020-06-25,111501746.28073
2020-06-26,111515349.53073
2020-06-27,111528800.15573
2020-06-28,111542541.03073
2020-06-29,111556082.34323
2020-06-30,111569796.46823
2020-07-01,111583359.46823
2020-07-02,111596924.84323
2020-07-03,111610590.65573
2020-07-04,111624126.03073
2020-07-05,111637738.59323
2020-07-06,111651361.78073
2020-07-07,111665053.84323
2020-07-08,111678747.09323
2020-07-09,111692361.78073
2020-07-10,111705857.34323
2020-07-11,111719607.21823
2020-07-12,111733277.59323
2020-07-13,111746950.40573
2020-07-14,111760498.40573
2020-07-15,111774146.90573
2020-07-16,111787656.53073
2020-07-17,111801203.78073
2020-07-18,111814945.96823
2020-07-19,111828497.53073
2020-07-20,111842102.21823
2020-07-21,111855655.71823
2020-07-22,111869234.65573
2020-07-23,111883001.65573
2020-07-24,111896675.71823
2020-07-25,111910090.34323
2020-07-26,111923785.71823
2020-07-27,111937375.15573
2020-07-28,111951039.21823
2020-07-29,111964678.34323
2020-07-30,111978157.21823
2020-07-31,111991812.09323
2020-08-01,112005518.65573
2020-08-02,112019176.03073
2020-08-03,112032845.65573
2020-08-04,112046391.09323
2020-08-05,112059963.90573
2020-08-06,112073723.90573
2020-08-07,112087353.78073
2020-08-08,112100912.15573
2020-08-09,112114583.21823
2020-08-10,112128187.15573
2020-08-11,112141807.78073
2020-08-12,112155515.65573
2020-08-13,112169108.53073
2020-08-14,112182755.03073
2020-08-15,112196341.53073
2020-08-16,112209957.09323
2020-08-17,112223368.03073
2020-08-18,112237118.09323
2020-08-19,112250781.53073
2020-08-20,112264425.03073
2020-08-21,112278020.90573
2020-08-22,112291518.78073
2020-08-23,112305261.03073
2020-08-24,112318841.46823
2020-08-25,112332293.03073
2020-08-26,112346048.71823
2020-08-27,112359613.53073
2020-08-28,112373242.78073
2020-08-29,112386860.09323
2020-08-30,112400513.78073
2020-08-31,112414301.34323
2020-09-01,112427912.40573
2020-09-02,112441486.21823
2020-09-03,112454997.40573
2020-09-04,112468858.53073
2020-09-05,112482452.90573
2020-09-06,112496259.03073
2020-09-07,112509764.71823
2020-09-08,112523378.84323
2020-09-09,112536924.78073
2020-09-10,112550543.90573
2020-09-11,112564217.03073
2020-09-12,112577777.21823
2020-09-13,112591400.96823
2020-09-14,112604904.21823
2020-09-15,112618518.46823
2020-09-16,112631975.40573
2020-09-17,112645754.59323
2020-09-18,112659205.65573
2020-09-19,112672825.90573
2020-09-20,112686544.21823
2020-09-21,112700267.34323
2020-09-22,112713717.90573
2020-09-23,112727369.46823
2020-09-24,112740961.84323
2020-09-25,112754438.65573
2020-09-26,112767853.78073
2020-09-27,112781105.03073
2020-09-28,112794411.59323
2020-09-29,112807677.71823
2020-09-30,112820988.96823
2020-10-01,112834303.28073
2020-10-02,112847586.53073
2020-10-03,112860900.09323
2020-10-04,112874164.65573
2020-10-05,112887592.28073
2020-10-06,112901020.34323
2020-10-07,112914204.71823
2020-10-08,112927425.71823
2020-10-09,112940766.59323
2020-10-10,112954288.40573
2020-10-11,112967957.96823
2020-10-12,112981464.09323
2020-10-13,112995203.65573
2020-10-14,113008813.40573
2020-10-15,113022455.15573
2020-10-16,113035947.40573
2020-10-17,113049535.53073
2020-10-18,113062917.96823
2020-10-19,113076699.34323
2020-10-20,113090249.90573
2020-10-21,113103782.59323
2020-10-22,113117401.46823
2020-10-23,113130860.15573
2020-10-24,113144549.59323
2020-10-25,113157999.84323
2020-10-26,113171470.46823
2020-10-27,113185090.53073
2020-10-28,113198736.96823
2020-10-29,113212350.40573
2020-10-30,113225819.40573
2020-10-31,113239373.65573
2020-11-01,113252952.59323
2020-11-02,113266396.59323
2020-11-03,113279951.28073
2020-11-04,113293474.09323
2020-11-05,113307037.21823
2020-11-06,113320651.21823
2020-11-07,113334174.59323
2020-11-08,113347742.96823
2020-11-09,113361255.09323
2020-11-10,113374703.09323
2020-11-11,113388257.15573
2020-11-12,113401785.09323
2020-11-13,113415364.15573
2020-11-14,113428960.34323
2020-11-15,113442557.53073
2020-11-16,113456033.21823
2020-11-17,113469608.90573
2020-11-18,113483017.84323
2020-11-19,113496765.96823
2020-11-20,113510213.53073
2020-11-21,113523879.78073
2020-11-22,113537414.28073
2020-11-23,113550886.34323
2020-11-24,113564569.09323
2020-11-25,113578074.90573
2020-11-26,113591626.09323
2020-11-27,113604975.28073
2020-11-28,113618686.15573
2020-11-29,113632233.96823
2020-11-30,113645913.15573
2020-12-01,113659480.71823
2020-12-02,113672870.90573
2020-12-03,113686486.21823
2020-12-04,113699923.71823
2020-12-05,113713441.71823
2020-12-06,113727068.03073
2020-12-07,113740487.71823
2020-12-08,113753966.78073
2020-12-09,113767671.65573
2020-12-10,113780985.46823
2020-12-11,113794493.46823
2020-12-12,113808014.03073
2020-12-13,113821435.53073
2020-12-14,113835021.78073
2020-12-15,113848490.46823
2020-12-16,113862085.78073
2020-12-17,113875675.03073
2020-12-18,113889172.84323
2020-12-19,113902674.78073
2020-12-20,113916288.90573
2020-12-21,113929809.65573
2020-12-22,113943286.28073
2020-12-23,113956998.96823
2020-12-24,113970373.71823
2020-12-25,113983779.71823
2020-12-26,113997506.59323
2020-12-27,114011010.90573
2020-12-28,114024669.21823
2020-12-29,114037967.59323
2020-12-30,114051530.28073
2020-12-31,114065023.09323
2021-01-01,114078557.28073
2021-01-02,114092226.03073
2021-01-03,114105705.28073
2021-01-04,114119201.28073
2021-01-05,114132801.96823
2021-01-06,114146318.09323
2021-01-07,114159673.46823
2021-01-08,114173317.53073
2021-01-09,114186753.71823
2021-01-10,114200301.65573
2021-01-11,114213873.84323
2021-01-12,114227474.40573
2021-01-13,114241101.53073
2021-01-14,114254458.59323
2021-01-15,114268101.46823
2021-01-16,114281615.46823
2021-01-17,114295110.59323
2021-01-18,114308652.53073
2021-01-19,114322217.90573
2021-01-20,114335829.34323
2021-01-21,114349288.90573
2021-01-22,114362784.84323
2021-01-23,114376343.53073
2021-01-24,114389847.34323
2021-01-25,114403391.65573
2021-01-26,114416954.09323
2021-01-27,114430343.78073
2021-01-28,114443898.90573
2021-01-29,114457315.28073
2021-01-30,114470622.84323
2021-01-31,114484364.59323
2021-02-01,114497884.53073
2021-02-02,114511422.28073
2021-02-03,114524965.59323
2021-02-04,114538577.09323
2021-02-05,114552010.59323
2021-02-06,114565535.15573
2021-02-07,114579183.15573
2021-02-08,114592646.40573
2021-02-09,114606152.84323
2021-02-10,114619736.78073
2021-02-11,114633268.15573
2021-02-12,114646835.28073
2021-02-13,114660213.90573
2021-02-14,114673845.03073
2021-02-15,114687347.96823
2021-02-16,114700813.84323
2021-02-17,114714424.28073
2021-02-18,114727869.15573
2021-02-19,114741564.21823
2021-02-20,114755068.46823
2021-02-21,114768581.90573
2021-02-22,114782081.78073
2021-02-23,114795640.09323
2021-02-24,114809106.40573
2021-02-25,114822648.71823
2021-02-26,114836248.59323
2021-02-27,114849762.40573
2021-02-28,114863225.03073
2021-03-01,114876691.90573
2021-03-02,114890344.78073
2021-03-03,114903709.03073
2021-03-04,114917317.09323
2021-03-05,114930886.21823
2021-03-06,114944525.78073
2021-03-07,114958002.34323
2021-03-08,114971543.53073
2021-03-09,114985005.78073
2021-03-10,114998597.90573
2021-03-11,115011958.96823
2021-03-12,115025473.65573
2021-03-13,115039046.40573
2021-03-14,115052705.03073
2021-03-15,115066145.28073
2021-03-16,115079718.28073
2021-03-17,115093258.15573
2021-03-18,115106789.78073
2021-03-19,115120318.40573
2021-03-20,115133909.28073
2021-03-21,115147273.65573
2021-03-22,115160784.96823
2021-03-23,115174337.78073
2021-03-24,115187859.53073
2021-03-25,115201403.96823
2021-03-26,115214994.03073
2021-03-27,115228486.65573
2021-03-28,115241990.96823
2021-03-29,115255558.15573
2021-03-30,115269131.65573
2021-03-31,115282566.03073
2021-04-01,115296089.78073
2021-04-02,115309514.65573
2021-04-03,115323092.90573
2021-04-04,115336733.84323
2021-04-05,115350263.71823
2021-04-06,115363767.84323
2021-04-07,115377317.53073
