t,v
2011-10-13,92
2011-10-14,62
2011-10-15,438
2011-10-16,1415
2011-10-17,1578
2011-10-18,1651
2011-10-19,1388
2011-10-20,1851
2011-10-21,1681
2011-10-22,1505
2011-10-23,1562
2011-10-24,1443
2011-10-25,1260
2011-10-26,1310
2011-10-27,933
2011-10-28,1388
2011-10-29,1522
2011-10-30,1749
2011-10-31,1779
2011-11-01,1980
2011-11-02,2348
2011-11-03,2029
2011-11-04,2112
2011-11-05,1592
2011-11-06,1716
2011-11-07,1608
2011-11-08,1734
2011-11-09,1505
2011-11-10,1487
2011-11-11,2003
2011-11-12,1295
2011-11-13,1572
2011-11-14,1460
2011-11-15,4823
2011-11-16,21994
2011-11-17,15859
2011-11-18,11761
2011-11-19,2499
2011-11-20,4203
2011-11-21,2616
2011-11-22,1735
2011-11-23,1596
2011-11-24,1222
2011-11-25,1317
2011-11-26,1508
2011-11-27,1409
2011-11-28,1300
2011-11-29,883
2011-11-30,1170
2011-12-01,1186
2011-12-02,1157
2011-12-03,1314
2011-12-04,964
2011-12-05,839
2011-12-06,947
2011-12-07,928
2011-12-08,990
2011-12-09,740
2011-12-10,821
2011-12-11,846
2011-12-12,778
2011-12-13,594
2011-12-14,602
2011-12-15,715
2011-12-16,773
2011-12-17,689
2011-12-18,774
2011-12-19,746
2011-12-20,768
2011-12-21,768
2011-12-22,798
2011-12-23,801
2011-12-24,626
2011-12-25,594
2011-12-26,616
2011-12-27,719
2011-12-28,711
2011-12-29,1028
2011-12-30,940
2011-12-31,686
2012-01-01,649
2012-01-02,718
2012-01-03,784
2012-01-04,723
2012-01-05,760
2012-01-06,654
2012-01-07,597
2012-01-08,499
2012-01-09,430
2012-01-10,457
2012-01-11,437
2012-01-12,823
2012-01-13,868
2012-01-14,708
2012-01-15,456
2012-01-16,425
2012-01-17,386
2012-01-18,360
2012-01-19,233
2012-01-20,248
2012-01-21,287
2012-01-22,382
2012-01-23,478
2012-01-24,438
2012-01-25,515
2012-01-26,589
2012-01-27,650
2012-01-28,794
2012-01-29,663
2012-01-30,608
2012-01-31,448
2012-02-01,625
2012-02-02,867
2012-02-03,928
2012-02-04,995
2012-02-05,1049
2012-02-06,874
2012-02-07,1003
2012-02-08,1037
2012-02-09,935
2012-02-10,824
2012-02-11,869
2012-02-12,790
2012-02-13,733
2012-02-14,781
2012-02-15,599
2012-02-16,768
2012-02-17,736
2012-02-18,719
2012-02-19,774
2012-02-20,800
2012-02-21,776
2012-02-22,704
2012-02-23,729
2012-02-24,592
2012-02-25,495
2012-02-26,500
2012-02-27,463
2012-02-28,487
2012-02-29,496
2012-03-01,641
2012-03-02,856
2012-03-03,900
2012-03-04,611
2012-03-05,414
2012-03-06,468
2012-03-07,511
2012-03-08,473
2012-03-09,490
2012-03-10,437
2012-03-11,519
2012-03-12,455
2012-03-13,583
2012-03-14,748
2012-03-15,1031
2012-03-16,506
2012-03-17,442
2012-03-18,585
2012-03-19,703
2012-03-20,672
2012-03-21,708
2012-03-22,578
2012-03-23,749
2012-03-24,516
2012-03-25,510
2012-03-26,551
2012-03-27,642
2012-03-28,573
2012-03-29,518
2012-03-30,545
2012-03-31,501
2012-04-01,549
2012-04-02,503
2012-04-03,464
2012-04-04,517
2012-04-05,496
2012-04-06,557
2012-04-07,485
2012-04-08,546
2012-04-09,462
2012-04-10,606
2012-04-11,562
2012-04-12,531
2012-04-13,582
2012-04-14,519
2012-04-15,478
2012-04-16,517
2012-04-17,522
2012-04-18,529
2012-04-19,486
2012-04-20,443
2012-04-21,354
2012-04-22,412
2012-04-23,464
2012-04-24,479
2012-04-25,456
2012-04-26,490
2012-04-27,482
2012-04-28,489
2012-04-29,491
2012-04-30,552
2012-05-01,556
2012-05-02,554
2012-05-03,520
2012-05-04,397
2012-05-05,414
2012-05-06,422
2012-05-07,495
2012-05-08,508
2012-05-09,532
2012-05-10,507
2012-05-11,521
2012-05-12,460
2012-05-13,502
2012-05-14,548
2012-05-15,488
2012-05-16,505
2012-05-17,600
2012-05-18,595
2012-05-19,538
2012-05-20,657
2012-05-21,704
2012-05-22,662
2012-05-23,686
2012-05-24,674
2012-05-25,774
2012-05-26,640
2012-05-27,658
2012-05-28,684
2012-05-29,683
2012-05-30,596
2012-05-31,628
2012-06-01,434
2012-06-02,602
2012-06-03,608
2012-06-04,547
2012-06-05,587
2012-06-06,595
2012-06-07,519
2012-06-08,595
2012-06-09,610
2012-06-10,584
2012-06-11,580
2012-06-12,569
2012-06-13,631
2012-06-14,616
2012-06-15,689
2012-06-16,551
2012-06-17,524
2012-06-18,558
2012-06-19,565
2012-06-20,599
2012-06-21,609
2012-06-22,728
2012-06-23,665
2012-06-24,674
2012-06-25,753
2012-06-26,646
2012-06-27,669
2012-06-28,668
2012-06-29,557
2012-06-30,462
2012-07-01,638
2012-07-02,561
2012-07-03,868
2012-07-04,883
2012-07-05,773
2012-07-06,736
2012-07-07,913
2012-07-08,1191
2012-07-09,1151
2012-07-10,885
2012-07-11,679
2012-07-12,638
2012-07-13,697
2012-07-14,696
2012-07-15,774
2012-07-16,989
2012-07-17,1144
2012-07-18,947
2012-07-19,958
2012-07-20,860
2012-07-21,797
2012-07-22,685
2012-07-23,1012
2012-07-24,1156
2012-07-25,1049
2012-07-26,682
2012-07-27,1036
2012-07-28,845
2012-07-29,997
2012-07-30,963
2012-07-31,1442
2012-08-01,1735
2012-08-02,1263
2012-08-03,932
2012-08-04,1028
2012-08-05,1347
2012-08-06,711
2012-08-07,606
2012-08-08,753
2012-08-09,748
2012-08-10,616
2012-08-11,680
2012-08-12,1057
2012-08-13,746
2012-08-14,637
2012-08-15,833
2012-08-16,946
2012-08-17,682
2012-08-18,616
2012-08-19,1096
2012-08-20,839
2012-08-21,824
2012-08-22,660
2012-08-23,630
2012-08-24,664
2012-08-25,1212
2012-08-26,706
2012-08-27,1225
2012-08-28,758
2012-08-29,1048
2012-08-30,977
2012-08-31,965
2012-09-01,1131
2012-09-02,3515
2012-09-03,3317
2012-09-04,3375
2012-09-05,2949
2012-09-06,1231
2012-09-07,689
2012-09-08,1282
2012-09-09,2395
2012-09-10,2182
2012-09-11,2185
2012-09-12,1495
2012-09-13,1466
2012-09-14,1922
2012-09-15,2444
2012-09-16,1428
2012-09-17,1444
2012-09-18,782
2012-09-19,2645
2012-09-20,973
2012-09-21,1303
2012-09-22,968
2012-09-23,1135
2012-09-24,1081
2012-09-25,916
2012-09-26,1088
2012-09-27,754
2012-09-28,985
2012-09-29,910
2012-09-30,955
2012-10-01,852
2012-10-02,1051
2012-10-03,988
2012-10-04,775
2012-10-05,1022
2012-10-06,1186
2012-10-07,1063
2012-10-08,1053
2012-10-09,1541
2012-10-10,1440
2012-10-11,1255
2012-10-12,1791
2012-10-13,1406
2012-10-14,1736
2012-10-15,2365
2012-10-16,2571
2012-10-17,1345
2012-10-18,1417
2012-10-19,1190
2012-10-20,1017
2012-10-21,1161
2012-10-22,1254
2012-10-23,1873
2012-10-24,1321
2012-10-25,987
2012-10-26,1066
2012-10-27,1029
2012-10-28,947
2012-10-29,1077
2012-10-30,1128
2012-10-31,1072
2012-11-01,1100
2012-11-02,1042
2012-11-03,1623
2012-11-04,1170
2012-11-05,1143
2012-11-06,931
2012-11-07,1058
2012-11-08,855
2012-11-09,873
2012-11-10,1032
2012-11-11,1001
2012-11-12,994
2012-11-13,1137
2012-11-14,1037
2012-11-15,1096
2012-11-16,1166
2012-11-17,938
2012-11-18,770
2012-11-19,828
2012-11-20,918
2012-11-21,989
2012-11-22,1243
2012-11-23,946
2012-11-24,1274
2012-11-25,1141
2012-11-26,1066
2012-11-27,952
2012-11-28,1102
2012-11-29,1702
2012-11-30,1622
2012-12-01,1414
2012-12-02,771
2012-12-03,638
2012-12-04,778
2012-12-05,693
2012-12-06,603
2012-12-07,965
2012-12-08,1630
2012-12-09,2258
2012-12-10,1274
2012-12-11,623
2012-12-12,646
2012-12-13,666
2012-12-14,846
2012-12-15,1068
2012-12-16,1376
2012-12-17,1090
2012-12-18,686
2012-12-19,592
2012-12-20,810
2012-12-21,820
2012-12-22,690
2012-12-23,1142
2012-12-24,1131
2012-12-25,903
2012-12-26,677
2012-12-27,654
2012-12-28,577
2012-12-29,588
2012-12-30,775
2012-12-31,807
2013-01-01,635
2013-01-02,590
2013-01-03,620
2013-01-04,573
2013-01-05,679
2013-01-06,1006
2013-01-07,990
2013-01-08,861
2013-01-09,952
2013-01-10,1047
2013-01-11,974
2013-01-12,824
2013-01-13,756
2013-01-14,1248
2013-01-15,979
2013-01-16,910
2013-01-17,774
2013-01-18,633
2013-01-19,794
2013-01-20,1166
2013-01-21,704
2013-01-22,1218
2013-01-23,1360
2013-01-24,1348
2013-01-25,1710
2013-01-26,1031
2013-01-27,1037
2013-01-28,940
2013-01-29,1013
2013-01-30,1261
2013-01-31,966
2013-02-01,855
2013-02-02,957
2013-02-03,881
2013-02-04,1015
2013-02-05,937
2013-02-06,1024
2013-02-07,1411
2013-02-08,1263
2013-02-09,2008
2013-02-10,1800
2013-02-11,2052
2013-02-12,1221
2013-02-13,1185
2013-02-14,1481
2013-02-15,1367
2013-02-16,1362
2013-02-17,1453
2013-02-18,1800
2013-02-19,1704
2013-02-20,1362
2013-02-21,1125
2013-02-22,1323
2013-02-23,2110
2013-02-24,1530
2013-02-25,1656
2013-02-26,1613
2013-02-27,2547
2013-02-28,3012
2013-03-01,2270
2013-03-02,1777
2013-03-03,1767
2013-03-04,2087
2013-03-05,2183
2013-03-06,2565
2013-03-07,2143
2013-03-08,2149
2013-03-09,2064
2013-03-10,6095
2013-03-11,13253
2013-03-12,3094
2013-03-13,3546
2013-03-14,3575
2013-03-15,3025
2013-03-16,3173
2013-03-17,3017
2013-03-18,2781
2013-03-19,2918
2013-03-20,2879
2013-03-21,3248
2013-03-22,2464
2013-03-23,3241
2013-03-24,3803
2013-03-25,4990
2013-03-26,4285
2013-03-27,4403
2013-03-28,4189
2013-03-29,3992
2013-03-30,4506
2013-03-31,4503
2013-04-01,6409
2013-04-02,9858
2013-04-03,9954
2013-04-04,9878
2013-04-05,9251
2013-04-06,8726
2013-04-07,8271
2013-04-08,10874
2013-04-09,9364
2013-04-10,11432
2013-04-11,10667
2013-04-12,7975
2013-04-13,9968
2013-04-14,8960
2013-04-15,8282
2013-04-16,8093
2013-04-17,8613
2013-04-18,7872
2013-04-19,7782
2013-04-20,6769
2013-04-21,7661
2013-04-22,7727
2013-04-23,8066
2013-04-24,8670
2013-04-25,9248
2013-04-26,7865
2013-04-27,9163
2013-04-28,9174
2013-04-29,9275
2013-04-30,9099
2013-05-01,8990
2013-05-02,8031
2013-05-03,6280
2013-05-04,6168
2013-05-05,5948
2013-05-06,10636
2013-05-07,8712
2013-05-08,9035
2013-05-09,12776
2013-05-10,10503
2013-05-11,7000
2013-05-12,6924
2013-05-13,6596
2013-05-14,7218
2013-05-15,6500
2013-05-16,7434
2013-05-17,6638
2013-05-18,5660
2013-05-19,5590
2013-05-20,6375
2013-05-21,6248
2013-05-22,5319
2013-05-23,5939
2013-05-24,5997
2013-05-25,5080
2013-05-26,5138
2013-05-27,4880
2013-05-28,5115
2013-05-29,5065
2013-05-30,5250
2013-05-31,5100
2013-06-01,4260
2013-06-02,4495
2013-06-03,4544
2013-06-04,4539
2013-06-05,4655
2013-06-06,4544
2013-06-07,4810
2013-06-08,4443
2013-06-09,5104
2013-06-10,5420
2013-06-11,4798
2013-06-12,4529
2013-06-13,4606
2013-06-14,4796
2013-06-15,3496
2013-06-16,3529
2013-06-17,4037
2013-06-18,4325
2013-06-19,4841
2013-06-20,3889
2013-06-21,4647
2013-06-22,5390
2013-06-23,4360
2013-06-24,4337
2013-06-25,4255
2013-06-26,4867
2013-06-27,4656
2013-06-28,4217
2013-06-29,3905
2013-06-30,3754
2013-07-01,5367
2013-07-02,4961
2013-07-03,5444
2013-07-04,4369
2013-07-05,4008
2013-07-06,3451
2013-07-07,4039
2013-07-08,4287
2013-07-09,4343
2013-07-10,4198
2013-07-11,4835
2013-07-12,4328
2013-07-13,3749
2013-07-14,3397
2013-07-15,4369
2013-07-16,4634
2013-07-17,4298
2013-07-18,3881
2013-07-19,3883
2013-07-20,4147
2013-07-21,3546
2013-07-22,3723
2013-07-23,3888
2013-07-24,3590
2013-07-25,3693
2013-07-26,3461
2013-07-27,3438
2013-07-28,3171
2013-07-29,3750
2013-07-30,3641
2013-07-31,3817
2013-08-01,3552
2013-08-02,3742
2013-08-03,3593
2013-08-04,4106
2013-08-05,4316
2013-08-06,3768
2013-08-07,4292
2013-08-08,3875
2013-08-09,3455
2013-08-10,4067
2013-08-11,3518
2013-08-12,3614
2013-08-13,3756
2013-08-14,4036
2013-08-15,3900
2013-08-16,3237
2013-08-17,3001
2013-08-18,3529
2013-08-19,3850
2013-08-20,4167
2013-08-21,4541
2013-08-22,3958
2013-08-23,4089
2013-08-24,4357
2013-08-25,3819
2013-08-26,3466
2013-08-27,3967
2013-08-28,3987
2013-08-29,3649
2013-08-30,3973
2013-08-31,3880
2013-09-01,3765
2013-09-02,3167
2013-09-03,3493
2013-09-04,3797
2013-09-05,3774
2013-09-06,4250
2013-09-07,3865
2013-09-08,3831
2013-09-09,2568
2013-09-10,2669
2013-09-11,2459
2013-09-12,2756
2013-09-13,2654
2013-09-14,2758
2013-09-15,2910
2013-09-16,2781
2013-09-17,2655
2013-09-18,2614
2013-09-19,2744
2013-09-20,2480
2013-09-21,2259
2013-09-22,2460
2013-09-23,3678
2013-09-24,2895
2013-09-25,3158
2013-09-26,2595
2013-09-27,2693
2013-09-28,3742
2013-09-29,2602
2013-09-30,2777
2013-10-01,2924
2013-10-02,3303
2013-10-03,3609
2013-10-04,3198
2013-10-05,3379
2013-10-06,4311
2013-10-07,2705
2013-10-08,3324
2013-10-09,3112
2013-10-10,3868
2013-10-11,3099
2013-10-12,2514
2013-10-13,2676
2013-10-14,2938
2013-10-15,3191
2013-10-16,3229
2013-10-17,2463
2013-10-18,2725
2013-10-19,2960
2013-10-20,2586
2013-10-21,2859
2013-10-22,3079
2013-10-23,2945
2013-10-24,3311
2013-10-25,3851
2013-10-26,2611
2013-10-27,2783
2013-10-28,2746
2013-10-29,2422
2013-10-30,2754
2013-10-31,3172
2013-11-01,3906
2013-11-02,3165
2013-11-03,5633
2013-11-04,5833
2013-11-05,4624
2013-11-06,4860
2013-11-07,7033
2013-11-08,6798
2013-11-09,7176
2013-11-10,4892
2013-11-11,4540
2013-11-12,4385
2013-11-13,5036
2013-11-14,5258
2013-11-15,6919
2013-11-16,5942
2013-11-17,6927
2013-11-18,11730
2013-11-19,10338
2013-11-20,8077
2013-11-21,7905
2013-11-22,7879
2013-11-23,9001
2013-11-24,7526
2013-11-25,8790
2013-11-26,14055
2013-11-27,17147
2013-11-28,19508
2013-11-29,14892
2013-11-30,13739
2013-12-01,13535
2013-12-02,13386
2013-12-03,13046
2013-12-04,14085
2013-12-05,12934
2013-12-06,11231
2013-12-07,11503
2013-12-08,11014
2013-12-09,13532
2013-12-10,13596
2013-12-11,13171
2013-12-12,11929
2013-12-13,10920
2013-12-14,10084
2013-12-15,11848
2013-12-16,14430
2013-12-17,14900
2013-12-18,16321
2013-12-19,13251
2013-12-20,12559
2013-12-21,9763
2013-12-22,8952
2013-12-23,9782
2013-12-24,9829
2013-12-25,11207
2013-12-26,12703
2013-12-27,11120
2013-12-28,9633
2013-12-29,9545
2013-12-30,11600
2013-12-31,8920
2014-01-01,9369
2014-01-02,11705
2014-01-03,11829
2014-01-04,10534
2014-01-05,11825
2014-01-06,15887
2014-01-07,12554
2014-01-08,11771
2014-01-09,10459
2014-01-10,9272
2014-01-11,11062
2014-01-12,9350
2014-01-13,9953
2014-01-14,9473
2014-01-15,10505
2014-01-16,9407
2014-01-17,8946
2014-01-18,9339
2014-01-19,10054
2014-01-20,11501
2014-01-21,12161
2014-01-22,11547
2014-01-23,11547
2014-01-24,13606
2014-01-25,11695
2014-01-26,12446
2014-01-27,13340
2014-01-28,13026
2014-01-29,12603
2014-01-30,12250
2014-01-31,10534
2014-02-01,11079
2014-02-02,10541
2014-02-03,10556
2014-02-04,12947
2014-02-05,13055
2014-02-06,12048
2014-02-07,10990
2014-02-08,10544
2014-02-09,10620
2014-02-10,11734
2014-02-11,11840
2014-02-12,11642
2014-02-13,11901
2014-02-14,11543
2014-02-15,9968
2014-02-16,11487
2014-02-17,11035
2014-02-18,10026
2014-02-19,9717
2014-02-20,10517
2014-02-21,10449
2014-02-22,10159
2014-02-23,11315
2014-02-24,10532
2014-02-25,11584
2014-02-26,10458
2014-02-27,9581
2014-02-28,9510
2014-03-01,9328
2014-03-02,9723
2014-03-03,12134
2014-03-04,17182
2014-03-05,11354
2014-03-06,11258
2014-03-07,10565
2014-03-08,9730
2014-03-09,9960
2014-03-10,9249
2014-03-11,9203
2014-03-12,12404
2014-03-13,10293
2014-03-14,11002
2014-03-15,10196
2014-03-16,11248
2014-03-17,13468
2014-03-18,17859
2014-03-19,19743
2014-03-20,12382
2014-03-21,11547
2014-03-22,9478
2014-03-23,9023
2014-03-24,10540
2014-03-25,9950
2014-03-26,11011
2014-03-27,11260
2014-03-28,10349
2014-03-29,8423
2014-03-30,8742
2014-03-31,10215
2014-04-01,9469
2014-04-02,10780
2014-04-03,10448
2014-04-04,8551
2014-04-05,7747
2014-04-06,7858
2014-04-07,8641
2014-04-08,7633
2014-04-09,7768
2014-04-10,9654
2014-04-11,9589
2014-04-12,8024
2014-04-13,8146
2014-04-14,9873
2014-04-15,10278
2014-04-16,10644
2014-04-17,8315
2014-04-18,8290
2014-04-19,8060
2014-04-20,7840
2014-04-21,7835
2014-04-22,7532
2014-04-23,7220
2014-04-24,6969
2014-04-25,8487
2014-04-26,6950
2014-04-27,7000
2014-04-28,7008
2014-04-29,5703
2014-04-30,7513
2014-05-01,5768
2014-05-02,5513
2014-05-03,5551
2014-05-04,5313
2014-05-05,5593
2014-05-06,6044
2014-05-07,5948
2014-05-08,8313
2014-05-09,5888
2014-05-10,5808
2014-05-11,7392
2014-05-12,6967
2014-05-13,5768
2014-05-14,5235
2014-05-15,5892
2014-05-16,5365
2014-05-17,4254
2014-05-18,4449
2014-05-19,9499
2014-05-20,6832
2014-05-21,8105
2014-05-22,8786
2014-05-23,7606
2014-05-24,5383
2014-05-25,6391
2014-05-26,6950
2014-05-27,5757
2014-05-28,7191
2014-05-29,5739
2014-05-30,6652
2014-05-31,5312
2014-06-01,6249
2014-06-02,6947
2014-06-03,6299
2014-06-04,6573
2014-06-05,6207
2014-06-06,5283
2014-06-07,4226
2014-06-08,4467
2014-06-09,4724
2014-06-10,4848
2014-06-11,4391
2014-06-12,4597
2014-06-13,4304
2014-06-14,4489
2014-06-15,4298
2014-06-16,4788
2014-06-17,4664
2014-06-18,4609
2014-06-19,5810
2014-06-20,5079
2014-06-21,3648
2014-06-22,3883
2014-06-23,4087
2014-06-24,4439
2014-06-25,4034
2014-06-26,4156
2014-06-27,4312
2014-06-28,3782
2014-06-29,3872
2014-06-30,5172
2014-07-01,4829
2014-07-02,5557
2014-07-03,4378
2014-07-04,4065
2014-07-05,4734
2014-07-06,4362
2014-07-07,4932
2014-07-08,4371
2014-07-09,4297
2014-07-10,4344
2014-07-11,4526
2014-07-12,4989
2014-07-13,4729
2014-07-14,5481
2014-07-15,4828
2014-07-16,5775
2014-07-17,6855
2014-07-18,7110
2014-07-19,6007
2014-07-20,7463
2014-07-21,5620
2014-07-22,6248
2014-07-23,5709
2014-07-24,8204
2014-07-25,6993
2014-07-26,6718
2014-07-27,4586
2014-07-28,4613
2014-07-29,5564
2014-07-30,4805
2014-07-31,5728
2014-08-01,5490
2014-08-02,3819
2014-08-03,3994
2014-08-04,5076
2014-08-05,8388
2014-08-06,8202
2014-08-07,8276
2014-08-08,5336
2014-08-09,3839
2014-08-10,3900
2014-08-11,5679
2014-08-12,6523
2014-08-13,6606
2014-08-14,5337
2014-08-15,4216
2014-08-16,4283
2014-08-17,4694
2014-08-18,5970
2014-08-19,5319
2014-08-20,5687
2014-08-21,4551
2014-08-22,3832
2014-08-23,3247
2014-08-24,3372
2014-08-25,3418
2014-08-26,3698
2014-08-27,3717
2014-08-28,3164
2014-08-29,3971
2014-08-30,3609
2014-08-31,4027
2014-09-01,4307
2014-09-02,4041
2014-09-03,4170
2014-09-04,4769
2014-09-05,3115
2014-09-06,3603
2014-09-07,3892
2014-09-08,2972
2014-09-09,3510
2014-09-10,4378
2014-09-11,3955
2014-09-12,3646
2014-09-13,3630
2014-09-14,3968
2014-09-15,3857
2014-09-16,4107
2014-09-17,4365
2014-09-18,3845
2014-09-19,4231
2014-09-20,4439
2014-09-21,4575
2014-09-22,5174
2014-09-23,3884
2014-09-24,3553
2014-09-25,3580
2014-09-26,3496
2014-09-27,3506
2014-09-28,3614
2014-09-29,3421
2014-09-30,3042
2014-10-01,2524
2014-10-02,2342
2014-10-03,2472
2014-10-04,3304
2014-10-05,3507
2014-10-06,3309
2014-10-07,3782
2014-10-08,3416
2014-10-09,3965
2014-10-10,3438
2014-10-11,3648
2014-10-12,3020
2014-10-13,3066
2014-10-14,5345
2014-10-15,2594
2014-10-16,2750
2014-10-17,2579
2014-10-18,2627
2014-10-19,2625
2014-10-20,3006
2014-10-21,2502
2014-10-22,2430
2014-10-23,2802
2014-10-24,2694
2014-10-25,2548
2014-10-26,2153
2014-10-27,2991
2014-10-28,4016
2014-10-29,2769
2014-10-30,2498
2014-10-31,2589
2014-11-01,2863
2014-11-02,2404
2014-11-03,2364
2014-11-04,2248
2014-11-05,2605
2014-11-06,2393
2014-11-07,2446
2014-11-08,7350
2014-11-09,2763
2014-11-10,3622
2014-11-11,3047
2014-11-12,3881
2014-11-13,4561
2014-11-14,3574
2014-11-15,3311
2014-11-16,3336
2014-11-17,3409
2014-11-18,3050
2014-11-19,3325
2014-11-20,3433
2014-11-21,3345
2014-11-22,3306
2014-11-23,3177
2014-11-24,3318
2014-11-25,3346
2014-11-26,3404
2014-11-27,3004
2014-11-28,3047
2014-11-29,3263
2014-11-30,4216
2014-12-01,2913
2014-12-02,3472
2014-12-03,3315
2014-12-04,5670
2014-12-05,5241
2014-12-06,3049
2014-12-07,3075
2014-12-08,3121
2014-12-09,3323
2014-12-10,2476
2014-12-11,2591
2014-12-12,2470
2014-12-13,2852
2014-12-14,2585
2014-12-15,2943
2014-12-16,4049
2014-12-17,3053
2014-12-18,2871
2014-12-19,2867
2014-12-20,3528
2014-12-21,3818
2014-12-22,4356
2014-12-23,3787
2014-12-24,3059
2014-12-25,3074
2014-12-26,2771
2014-12-27,3184
2014-12-28,3278
2014-12-29,2889
2014-12-30,3405
2014-12-31,3043
2015-01-01,2848
2015-01-02,3195
2015-01-03,5201
2015-01-04,4937
2015-01-05,4530
2015-01-06,4196
2015-01-07,4334
2015-01-08,5235
2015-01-09,4360
2015-01-10,6204
2015-01-11,5734
2015-01-12,4379
2015-01-13,5706
2015-01-14,5465
2015-01-15,4395
2015-01-16,4708
2015-01-17,6269
2015-01-18,5511
2015-01-19,5351
2015-01-20,5487
2015-01-21,5055
2015-01-22,4692
2015-01-23,3433
2015-01-24,4751
2015-01-25,6468
2015-01-26,5929
2015-01-27,7047
2015-01-28,7703
2015-01-29,4369
2015-01-30,5785
2015-01-31,5827
2015-02-01,4150
2015-02-02,11732
2015-02-03,4349
2015-02-04,3543
2015-02-05,4301
2015-02-06,4776
2015-02-07,13183
2015-02-08,19857
2015-02-09,18035
2015-02-10,8879
2015-02-11,9398
2015-02-12,5586
2015-02-13,7721
2015-02-14,5423
2015-02-15,4909
2015-02-16,4261
2015-02-17,3518
2015-02-18,5333
2015-02-19,5083
2015-02-20,3680
2015-02-21,4363
2015-02-22,3951
2015-02-23,5133
2015-02-24,4880
2015-02-25,5970
2015-02-26,5993
2015-02-27,6474
2015-02-28,6445
2015-03-01,6225
2015-03-02,5092
2015-03-03,4387
2015-03-04,10194
2015-03-05,5777
2015-03-06,3857
2015-03-07,4681
2015-03-08,4343
2015-03-09,4190
2015-03-10,4562
2015-03-11,4408
2015-03-12,4177
2015-03-13,3894
2015-03-14,4460
2015-03-15,3559
2015-03-16,4132
2015-03-17,3788
2015-03-18,4004
2015-03-19,4092
2015-03-20,3800
2015-03-21,4162
2015-03-22,4485
2015-03-23,4147
2015-03-24,3938
2015-03-25,4203
2015-03-26,3700
2015-03-27,3429
2015-03-28,3699
2015-03-29,3848
2015-03-30,3565
2015-03-31,3855
2015-04-01,3714
2015-04-02,3523
2015-04-03,3422
2015-04-04,3456
2015-04-05,3391
2015-04-06,3721
2015-04-07,3627
2015-04-08,5383
2015-04-09,3968
2015-04-10,4963
2015-04-11,4894
2015-04-12,3949
2015-04-13,3584
2015-04-14,4751
2015-04-15,4462
2015-04-16,3957
2015-04-17,3885
2015-04-18,4247
2015-04-19,5386
2015-04-20,4031
2015-04-21,4144
2015-04-22,3752
2015-04-23,3878
2015-04-24,3821
2015-04-25,3392
2015-04-26,3422
2015-04-27,3410
2015-04-28,3428
2015-04-29,3114
2015-04-30,3061
2015-05-01,2835
2015-05-02,2949
2015-05-03,3410
2015-05-04,3438
2015-05-05,3197
2015-05-06,2998
2015-05-07,3400
2015-05-08,3385
2015-05-09,3681
2015-05-10,3167
2015-05-11,3592
2015-05-12,3590
2015-05-13,3435
2015-05-14,2860
2015-05-15,2966
2015-05-16,3153
2015-05-17,2978
2015-05-18,3616
2015-05-19,3172
2015-05-20,3062
2015-05-21,2846
2015-05-22,4498
2015-05-23,3628
2015-05-24,3731
2015-05-25,3424
2015-05-26,3153
2015-05-27,3369
2015-05-28,3255
2015-05-29,3065
2015-05-30,3180
2015-05-31,3597
2015-06-01,3986
2015-06-02,3612
2015-06-03,3879
2015-06-04,3064
2015-06-05,3319
2015-06-06,3387
2015-06-07,3045
2015-06-08,3738
2015-06-09,3196
2015-06-10,3124
2015-06-11,3421
2015-06-12,3967
2015-06-13,3433
2015-06-14,4402
2015-06-15,4375
2015-06-16,6420
2015-06-17,6622
2015-06-18,5208
2015-06-19,4896
2015-06-20,9503
2015-06-21,16654
2015-06-22,4332
2015-06-23,3995
2015-06-24,4622
2015-06-25,5584
2015-06-26,5529
2015-06-27,8973
2015-06-28,9308
2015-06-29,10743
2015-06-30,7881
2015-07-01,5210
2015-07-02,5086
2015-07-03,4945
2015-07-04,4787
2015-07-05,6324
2015-07-06,7810
2015-07-07,6124
2015-07-08,6852
2015-07-09,9613
2015-07-10,11648
2015-07-11,7624
2015-07-12,7378
2015-07-13,5789
2015-07-14,4613
2015-07-15,5091
2015-07-16,6819
2015-07-17,4395
2015-07-18,3514
2015-07-19,3874
2015-07-20,3217
2015-07-21,3510
2015-07-22,3224
2015-07-23,2902
2015-07-24,4465
2015-07-25,4021
2015-07-26,4157
2015-07-27,3734
2015-07-28,4486
2015-07-29,4278
2015-07-30,3230
2015-07-31,3163
2015-08-01,3593
2015-08-02,3703
2015-08-03,3850
2015-08-04,3571
2015-08-05,3188
2015-08-06,3620
2015-08-07,3147
2015-08-08,3486
2015-08-09,3270
2015-08-10,3620
2015-08-11,3389
2015-08-12,3513
2015-08-13,3149
2015-08-14,3152
2015-08-15,2920
2015-08-16,3107
2015-08-17,3819
2015-08-18,3424
2015-08-19,3850
2015-08-20,2949
2015-08-21,2668
2015-08-22,3287
2015-08-23,3116
2015-08-24,4400
2015-08-25,5531
2015-08-26,4204
2015-08-27,2763
2015-08-28,3419
2015-08-29,2900
2015-08-30,2707
2015-08-31,2877
2015-09-01,3268
2015-09-02,2870
2015-09-03,3065
2015-09-04,2988
2015-09-05,3403
2015-09-06,5977
2015-09-07,2977
2015-09-08,3063
2015-09-09,2816
2015-09-10,2794
2015-09-11,2878
2015-09-12,2738
2015-09-13,3621
2015-09-14,2999
2015-09-15,2603
2015-09-16,2964
2015-09-17,2814
2015-09-18,3270
2015-09-19,2673
2015-09-20,3804
2015-09-21,3418
2015-09-22,3663
2015-09-23,2964
2015-09-24,2816
2015-09-25,3444
2015-09-26,2559
2015-09-27,3569
2015-09-28,3693
2015-09-29,3703
2015-09-30,3495
2015-10-01,3070
2015-10-02,3075
2015-10-03,2809
2015-10-04,3601
2015-10-05,3364
2015-10-06,3515
2015-10-07,3563
2015-10-08,3284
2015-10-09,3970
2015-10-10,4165
2015-10-11,3715
2015-10-12,4669
2015-10-13,4374
2015-10-14,5283
2015-10-15,4435
2015-10-16,4462
2015-10-17,5807
2015-10-18,4855
2015-10-19,4278
2015-10-20,4290
2015-10-21,7378
2015-10-22,4476
2015-10-23,5255
2015-10-24,5713
2015-10-25,6300
2015-10-26,6287
2015-10-27,6953
2015-10-28,5716
2015-10-29,7109
2015-10-30,7988
2015-10-31,11663
2015-11-01,3944
2015-11-02,5365
2015-11-03,6952
2015-11-04,8463
2015-11-05,6148
2015-11-06,7884
2015-11-07,5463
2015-11-08,6517
2015-11-09,7680
2015-11-10,5200
2015-11-11,6068
2015-11-12,5937
2015-11-13,5196
2015-11-14,5861
2015-11-15,6191
2015-11-16,5786
2015-11-17,5531
2015-11-18,6994
2015-11-19,5843
2015-11-20,5835
2015-11-21,5784
2015-11-22,5268
2015-11-23,4540
2015-11-24,5098
2015-11-25,6242
2015-11-26,8688
2015-11-27,5558
2015-11-28,7482
2015-11-29,6029
2015-11-30,6425
2015-12-01,6213
2015-12-02,5033
2015-12-03,4749
2015-12-04,4661
2015-12-05,6008
2015-12-06,6442
2015-12-07,9440
2015-12-08,6363
2015-12-09,7234
2015-12-10,5826
2015-12-11,7599
2015-12-12,7407
2015-12-13,5847
2015-12-14,8017
2015-12-15,8641
2015-12-16,8647
2015-12-17,5275
2015-12-18,3626
2015-12-19,4366
2015-12-20,4275
2015-12-21,6300
2015-12-22,4237
2015-12-23,5387
2015-12-24,4089
2015-12-25,3097
2015-12-26,3830
2015-12-27,4728
2015-12-28,4069
2015-12-29,3997
2015-12-30,4562
2015-12-31,2860
2016-01-01,3136
2016-01-02,4917
2016-01-03,3794
2016-01-04,4535
2016-01-05,3792
2016-01-06,3232
2016-01-07,4731
2016-01-08,6832
2016-01-09,7472
2016-01-10,5113
2016-01-11,6913
2016-01-12,3998
2016-01-13,4160
2016-01-14,3302
2016-01-15,4134
2016-01-16,5179
2016-01-17,6082
2016-01-18,4494
2016-01-19,3104
2016-01-20,5369
2016-01-21,3912
2016-01-22,4386
2016-01-23,5025
2016-01-24,4643
2016-01-25,5146
2016-01-26,5552
2016-01-27,7193
2016-01-28,6290
2016-01-29,5041
2016-01-30,5638
2016-01-31,5291
2016-02-01,5589
2016-02-02,3366
2016-02-03,3219
2016-02-04,3939
2016-02-05,3761
2016-02-06,3695
2016-02-07,3402
2016-02-08,3572
2016-02-09,4141
2016-02-10,3139
2016-02-11,3151
2016-02-12,3381
2016-02-13,3252
2016-02-14,3451
2016-02-15,3873
2016-02-16,3685
2016-02-17,5035
2016-02-18,3736
2016-02-19,4824
2016-02-20,5272
2016-02-21,4723
2016-02-22,5275
2016-02-23,4052
2016-02-24,4684
2016-02-25,3822
2016-02-26,3919
2016-02-27,3584
2016-02-28,3821
2016-02-29,4700
2016-03-01,4725
2016-03-02,6565
2016-03-03,4283
2016-03-04,3646
2016-03-05,4443
2016-03-06,3827
2016-03-07,3685
2016-03-08,3127
2016-03-09,2954
2016-03-10,3789
2016-03-11,4714
2016-03-12,3261
2016-03-13,4081
2016-03-14,4158
2016-03-15,3446
2016-03-16,3583
2016-03-17,4480
2016-03-18,4443
2016-03-19,4362
2016-03-20,4601
2016-03-21,4272
2016-03-22,4864
2016-03-23,4249
2016-03-24,7126
2016-03-25,4160
2016-03-26,5010
2016-03-27,4581
2016-03-28,5255
2016-03-29,5205
2016-03-30,4923
2016-03-31,4970
2016-04-01,5587
2016-04-02,5474
2016-04-03,3872
2016-04-04,4161
2016-04-05,5809
2016-04-06,4994
2016-04-07,5822
2016-04-08,5313
2016-04-09,6030
2016-04-10,4689
2016-04-11,5222
2016-04-12,4048
2016-04-13,3839
2016-04-14,3898
2016-04-15,4388
2016-04-16,3526
2016-04-17,4252
2016-04-18,4444
2016-04-19,4357
2016-04-20,4245
2016-04-21,4605
2016-04-22,3976
2016-04-23,4755
2016-04-24,6336
2016-04-25,6860
2016-04-26,6469
2016-04-27,6955
2016-04-28,5731
2016-04-29,5654
2016-04-30,5063
2016-05-01,5894
2016-05-02,5691
2016-05-03,5337
2016-05-04,5891
2016-05-05,6905
2016-05-06,6238
2016-05-07,5743
2016-05-08,5261
2016-05-09,6434
2016-05-10,6837
2016-05-11,6763
2016-05-12,7054
2016-05-13,7199
2016-05-14,6309
2016-05-15,6220
2016-05-16,7454
2016-05-17,6990
2016-05-18,6630
2016-05-19,6676
2016-05-20,5574
2016-05-21,5864
2016-05-22,5786
2016-05-23,6259
2016-05-24,5427
2016-05-25,6225
2016-05-26,5851
2016-05-27,8993
2016-05-28,8104
2016-05-29,6509
2016-05-30,6834
2016-05-31,8108
2016-06-01,7149
2016-06-02,7029
2016-06-03,9525
2016-06-04,4141
2016-06-05,3515
2016-06-06,4314
2016-06-07,4230
2016-06-08,3891
2016-06-09,3670
2016-06-10,3734
2016-06-11,3681
2016-06-12,5175
2016-06-13,5440
2016-06-14,5090
2016-06-15,5141
2016-06-16,6314
2016-06-17,6585
2016-06-18,4332
2016-06-19,3894
2016-06-20,4840
2016-06-21,5269
2016-06-22,5582
2016-06-23,6734
2016-06-24,5294
2016-06-25,4501
2016-06-26,4022
2016-06-27,4196
2016-06-28,4274
2016-06-29,4812
2016-06-30,4471
2016-07-01,4251
2016-07-02,3953
2016-07-03,3505
2016-07-04,3950
2016-07-05,3835
2016-07-06,3922
2016-07-07,4225
2016-07-08,3783
2016-07-09,3641
2016-07-10,3371
2016-07-11,3706
2016-07-12,3911
2016-07-13,3234
2016-07-14,3371
2016-07-15,4922
2016-07-16,4057
2016-07-17,3307
2016-07-18,3423
2016-07-19,3363
2016-07-20,3719
2016-07-21,3845
2016-07-22,3671
2016-07-23,2945
2016-07-24,3428
2016-07-25,3580
2016-07-26,4717
2016-07-27,3568
2016-07-28,3074
2016-07-29,3235
2016-07-30,3177
2016-07-31,3235
2016-08-01,4122
2016-08-02,5055
2016-08-03,4813
2016-08-04,3854
2016-08-05,3456
2016-08-06,3391
2016-08-07,3645
2016-08-08,3476
2016-08-09,2861
2016-08-10,2879
2016-08-11,3413
2016-08-12,3506
2016-08-13,3295
2016-08-14,2820
2016-08-15,3279
2016-08-16,3414
2016-08-17,3289
2016-08-18,3214
2016-08-19,3186
2016-08-20,2725
2016-08-21,2764
2016-08-22,3642
2016-08-23,5717
2016-08-24,4376
2016-08-25,3721
2016-08-26,3325
2016-08-27,3294
2016-08-28,3104
2016-08-29,3451
2016-08-30,3559
2016-08-31,3581
2016-09-01,3356
2016-09-02,3594
2016-09-03,3229
2016-09-04,3365
2016-09-05,3441
2016-09-06,3559
2016-09-07,3248
2016-09-08,3421
2016-09-09,3001
2016-09-10,2538
2016-09-11,2809
2016-09-12,3433
2016-09-13,2973
2016-09-14,2922
2016-09-15,2561
2016-09-16,3295
2016-09-17,2439
2016-09-18,2432
2016-09-19,3229
2016-09-20,2919
2016-09-21,4015
2016-09-22,3033
2016-09-23,2511
2016-09-24,2363
2016-09-25,2983
2016-09-26,3002
2016-09-27,2934
2016-09-28,2775
2016-09-29,3128
2016-09-30,3068
2016-10-01,2923
2016-10-02,2457
2016-10-03,2463
2016-10-04,3028
2016-10-05,3075
2016-10-06,4228
2016-10-07,3804
2016-10-08,2875
2016-10-09,2974
2016-10-10,3447
2016-10-11,3397
2016-10-12,3385
2016-10-13,3463
2016-10-14,3382
2016-10-15,3049
2016-10-16,3052
2016-10-17,4214
2016-10-18,3639
2016-10-19,5045
2016-10-20,4004
2016-10-21,3527
2016-10-22,3127
2016-10-23,3086
2016-10-24,4026
2016-10-25,4866
2016-10-26,4582
2016-10-27,4864
2016-10-28,4324
2016-10-29,4212
2016-10-30,3670
2016-10-31,4280
2016-11-01,4427
2016-11-02,3682
2016-11-03,4396
2016-11-04,3739
2016-11-05,3405
2016-11-06,3463
2016-11-07,3703
2016-11-08,3644
2016-11-09,3654
2016-11-10,2975
2016-11-11,3174
2016-11-12,3181
2016-11-13,3815
2016-11-14,3395
2016-11-15,3823
2016-11-16,3801
2016-11-17,3520
2016-11-18,3209
2016-11-19,2893
2016-11-20,3417
2016-11-21,3465
2016-11-22,3592
2016-11-23,3009
2016-11-24,3161
2016-11-25,2686
2016-11-26,2797
2016-11-27,3057
2016-11-28,2998
2016-11-29,3296
2016-11-30,3402
2016-12-01,3334
2016-12-02,3334
2016-12-03,3069
2016-12-04,3029
2016-12-05,5061
2016-12-06,3980
2016-12-07,3530
2016-12-08,3921
2016-12-09,3012
2016-12-10,2667
2016-12-11,2687
2016-12-12,2757
2016-12-13,2304
2016-12-14,2530
2016-12-15,2778
2016-12-16,2853
2016-12-17,2756
2016-12-18,2779
2016-12-19,2974
2016-12-20,3723
2016-12-21,3408
2016-12-22,3437
2016-12-23,4679
2016-12-24,4730
2016-12-25,3578
2016-12-26,3248
2016-12-27,3258
2016-12-28,3804
2016-12-29,3316
2016-12-30,3415
2016-12-31,2646
2017-01-01,2747
2017-01-02,4112
2017-01-03,3604
2017-01-04,5059
2017-01-05,4727
2017-01-06,4169
2017-01-07,4112
2017-01-08,3274
2017-01-09,3536
2017-01-10,4613
2017-01-11,4758
2017-01-12,3734
2017-01-13,3971
2017-01-14,3075
2017-01-15,3578
2017-01-16,3108
2017-01-17,3692
2017-01-18,3326
2017-01-19,4835
2017-01-20,4301
2017-01-21,3276
2017-01-22,3393
2017-01-23,3256
2017-01-24,2787
2017-01-25,2806
2017-01-26,2505
2017-01-27,2436
2017-01-28,2402
2017-01-29,2382
2017-01-30,3767
2017-01-31,3320
2017-02-01,2641
2017-02-02,2491
2017-02-03,2693
2017-02-04,3032
2017-02-05,3849
2017-02-06,2797
2017-02-07,3429
2017-02-08,4376
2017-02-09,4030
2017-02-10,3231
2017-02-11,2356
2017-02-12,2487
2017-02-13,2323
2017-02-14,2536
2017-02-15,3347
2017-02-16,2161
2017-02-17,2731
2017-02-18,2302
2017-02-19,3204
2017-02-20,2738
2017-02-21,2573
2017-02-22,2635
2017-02-23,2620
2017-02-24,3125
2017-02-25,2453
2017-02-26,2942
2017-02-27,3019
2017-02-28,2631
2017-03-01,2573
2017-03-02,3203
2017-03-03,2882
2017-03-04,2533
2017-03-05,2533
2017-03-06,2499
2017-03-07,2458
2017-03-08,2543
2017-03-09,2464
2017-03-10,2510
2017-03-11,3012
2017-03-12,2880
2017-03-13,3146
2017-03-14,2656
2017-03-15,2886
2017-03-16,3653
2017-03-17,3483
2017-03-18,4170
2017-03-19,3689
2017-03-20,3146
2017-03-21,3148
2017-03-22,3408
2017-03-23,3444
2017-03-24,3818
2017-03-25,3649
2017-03-26,3937
2017-03-27,3294
2017-03-28,3641
2017-03-29,4511
2017-03-30,10619
2017-03-31,7207
2017-04-01,5477
2017-04-02,7467
2017-04-03,7652
2017-04-04,6794
2017-04-05,9620
2017-04-06,8754
2017-04-07,6023
2017-04-08,5759
2017-04-09,6858
2017-04-10,5929
2017-04-11,6468
2017-04-12,8222
2017-04-13,5025
2017-04-14,5070
2017-04-15,4631
2017-04-16,4292
2017-04-17,5361
2017-04-18,5560
2017-04-19,5477
2017-04-20,4556
2017-04-21,6476
2017-04-22,8028
2017-04-23,9973
2017-04-24,6675
2017-04-25,7240
2017-04-26,7795
2017-04-27,6917
2017-04-28,6074
2017-04-29,5990
2017-04-30,5989
2017-05-01,6543
2017-05-02,6522
2017-05-03,11914
2017-05-04,14330
2017-05-05,12755
2017-05-06,9550
2017-05-07,12455
2017-05-08,11874
2017-05-09,12872
2017-05-10,17635
2017-05-11,12483
2017-05-12,10242
2017-05-13,8557
2017-05-14,8025
2017-05-15,10690
2017-05-16,12540
2017-05-17,12639
2017-05-18,10631
2017-05-19,12384
2017-05-20,10803
2017-05-21,13207
2017-05-22,16172
2017-05-23,15601
2017-05-24,15907
2017-05-25,16143
2017-05-26,12953
2017-05-27,11572
2017-05-28,9833
2017-05-29,8862
2017-05-30,11084
2017-05-31,11714
2017-06-01,15795
2017-06-02,13871
2017-06-03,13426
2017-06-04,11704
2017-06-05,15647
2017-06-06,15331
2017-06-07,14840
2017-06-08,13606
2017-06-09,14219
2017-06-10,14880
2017-06-11,16975
2017-06-12,16046
2017-06-13,15540
2017-06-14,16893
2017-06-15,17072
2017-06-16,17421
2017-06-17,27528
2017-06-18,18565
2017-06-19,23393
2017-06-20,22471
2017-06-21,19453
2017-06-22,19403
2017-06-23,16713
2017-06-24,14472
2017-06-25,14998
2017-06-26,18802
2017-06-27,17785
2017-06-28,16077
2017-06-29,14234
2017-06-30,13569
2017-07-01,12068
2017-07-02,13600
2017-07-03,19840
2017-07-04,22723
2017-07-05,22501
2017-07-06,18221
2017-07-07,19363
2017-07-08,17123
2017-07-09,15017
2017-07-10,18445
2017-07-11,20525
2017-07-12,18478
2017-07-13,16756
2017-07-14,18712
2017-07-15,18159
2017-07-16,20230
2017-07-17,19427
2017-07-18,20873
2017-07-19,19058
2017-07-20,19610
2017-07-21,19278
2017-07-22,16352
2017-07-23,17133
2017-07-24,17043
2017-07-25,19513
2017-07-26,16598
2017-07-27,16271
2017-07-28,18711
2017-07-29,15458
2017-07-30,14256
2017-07-31,18436
2017-08-01,16693
2017-08-02,18365
2017-08-03,18659
2017-08-04,18595
2017-08-05,21275
2017-08-06,18828
2017-08-07,19102
2017-08-08,21047
2017-08-09,20641
2017-08-10,20216
2017-08-11,25842
2017-08-12,20097
2017-08-13,19976
2017-08-14,20104
2017-08-15,21660
2017-08-16,20056
2017-08-17,19879
2017-08-18,22554
2017-08-19,19537
2017-08-20,16429
2017-08-21,20001
2017-08-22,18246
2017-08-23,26066
2017-08-24,26375
2017-08-25,20531
2017-08-26,18880
2017-08-27,28107
2017-08-28,26564
2017-08-29,26515
2017-08-30,24919
2017-08-31,30563
2017-09-01,44067
2017-09-02,32475
2017-09-03,21931
2017-09-04,32986
2017-09-05,30852
2017-09-06,29107
2017-09-07,25690
2017-09-08,28624
2017-09-09,22738
2017-09-10,23481
2017-09-11,22840
2017-09-12,24390
2017-09-13,24893
2017-09-14,34548
2017-09-15,43144
2017-09-16,27542
2017-09-17,22012
2017-09-18,29051
2017-09-19,25992
2017-09-20,24168
2017-09-21,25888
2017-09-22,22860
2017-09-23,18540
2017-09-24,16531
2017-09-25,21181
2017-09-26,21480
2017-09-27,21831
2017-09-28,22614
2017-09-29,20473
2017-09-30,18333
2017-10-01,17501
2017-10-02,20685
2017-10-03,19392
2017-10-04,18975
2017-10-05,19455
2017-10-06,20561
2017-10-07,18558
2017-10-08,19846
2017-10-09,23158
2017-10-10,21902
2017-10-11,20247
2017-10-12,28669
2017-10-13,31319
2017-10-14,24482
2017-10-15,23927
2017-10-16,27154
2017-10-17,27196
2017-10-18,26667
2017-10-19,25230
2017-10-20,25409
2017-10-21,24063
2017-10-22,21477
2017-10-23,29762
2017-10-24,30002
2017-10-25,25209
2017-10-26,25724
2017-10-27,25536
2017-10-28,21768
2017-10-29,22828
2017-10-30,25684
2017-10-31,21538
2017-11-01,24157
2017-11-02,27529
2017-11-03,24524
2017-11-04,19249
2017-11-05,18545
2017-11-06,20785
2017-11-07,27637
2017-11-08,27657
2017-11-09,29077
2017-11-10,29698
2017-11-11,25978
2017-11-12,34159
2017-11-13,26605
2017-11-14,24375
2017-11-15,26290
2017-11-16,30400
2017-11-17,31024
2017-11-18,24365
2017-11-19,23815
2017-11-20,29536
2017-11-21,29760
2017-11-22,28407
2017-11-23,30623
2017-11-24,28816
2017-11-25,33856
2017-11-26,33004
2017-11-27,40417
2017-11-28,43480
2017-11-29,55781
2017-11-30,42914
2017-12-01,40679
2017-12-02,38855
2017-12-03,39697
2017-12-04,45698
2017-12-05,53733
2017-12-06,68780
2017-12-07,64009
2017-12-08,70853
2017-12-09,79163
2017-12-10,53943
2017-12-11,79265
2017-12-12,156717
2017-12-13,136446
2017-12-14,143609
2017-12-15,116514
2017-12-16,108366
2017-12-17,107871
2017-12-18,110604
2017-12-19,138052
2017-12-20,143881
2017-12-21,162372
2017-12-22,149956
2017-12-23,117738
2017-12-24,81111
2017-12-25,77925
2017-12-26,82613
2017-12-27,112765
2017-12-28,111207
2017-12-29,155481
2017-12-30,141900
2017-12-31,105948
2018-01-01,83076
2018-01-02,127924
2018-01-03,186764
2018-01-04,225860
2018-01-05,197217
2018-01-06,173712
2018-01-07,143412
2018-01-08,146511
2018-01-09,145848
2018-01-10,140304
2018-01-11,120843
2018-01-12,106887
2018-01-13,93443
2018-01-14,88779
2018-01-15,90381
2018-01-16,117447
2018-01-17,113111
2018-01-18,95276
2018-01-19,70009
2018-01-20,66798
2018-01-21,55466
2018-01-22,61730
2018-01-23,59717
2018-01-24,59072
2018-01-25,61836
2018-01-26,57452
2018-01-27,49382
2018-01-28,51278
2018-01-29,50067
2018-01-30,55270
2018-01-31,54531
2018-02-01,57962
2018-02-02,66669
2018-02-03,49384
2018-02-04,45225
2018-02-05,51043
2018-02-06,59946
2018-02-07,50320
2018-02-08,37148
2018-02-09,44811
2018-02-10,46594
2018-02-11,36009
2018-02-12,40374
2018-02-13,41515
2018-02-14,62134
2018-02-15,64146
2018-02-16,55687
2018-02-17,63949
2018-02-18,75280
2018-02-19,55631
2018-02-20,57841
2018-02-21,47113
2018-02-22,43229
2018-02-23,41534
2018-02-24,37171
2018-02-25,36437
2018-02-26,41920
2018-02-27,42480
2018-02-28,74744
2018-03-01,50091
2018-03-02,38813
2018-03-03,35091
2018-03-04,31630
2018-03-05,37546
2018-03-06,36769
2018-03-07,38530
2018-03-08,36806
2018-03-09,39903
2018-03-10,30991
2018-03-11,28583
2018-03-12,30179
2018-03-13,31265
2018-03-14,33328
2018-03-15,35691
2018-03-16,31561
2018-03-17,27818
2018-03-18,33000
2018-03-19,31025
2018-03-20,32184
2018-03-21,30694
2018-03-22,26996
2018-03-23,27804
2018-03-24,26526
2018-03-25,23312
2018-03-26,28790
2018-03-27,29504
2018-03-28,28661
2018-03-29,31286
2018-03-30,29474
2018-03-31,23726
2018-04-01,22487
2018-04-02,24488
2018-04-03,29115
2018-04-04,26433
2018-04-05,26848
2018-04-06,25893
2018-04-07,22584
2018-04-08,20591
2018-04-09,25284
2018-04-10,26399
2018-04-11,27354
2018-04-12,32619
2018-04-13,32661
2018-04-14,24558
2018-04-15,25481
2018-04-16,26699
2018-04-17,30020
2018-04-18,28570
2018-04-19,30261
2018-04-20,33553
2018-04-21,27629
2018-04-22,26376
2018-04-23,29507
2018-04-24,36949
2018-04-25,34019
2018-04-26,29268
2018-04-27,31274
2018-04-28,28846
2018-04-29,29353
2018-04-30,31786
2018-05-01,29737
2018-05-02,32848
2018-05-03,36421
2018-05-04,35402
2018-05-05,33200
2018-05-06,28210
2018-05-07,31101
2018-05-08,31268
2018-05-09,31099
2018-05-10,31719
2018-05-11,33882
2018-05-12,28876
2018-05-13,27074
2018-05-14,32093
2018-05-15,31630
2018-05-16,31414
2018-05-17,31063
2018-05-18,30415
2018-05-19,26596
2018-05-20,26436
2018-05-21,30491
2018-05-22,31372
2018-05-23,34215
2018-05-24,31260
2018-05-25,27911
2018-05-26,22351
2018-05-27,21214
2018-05-28,25213
2018-05-29,26702
2018-05-30,25487
2018-05-31,26334
2018-06-01,25487
2018-06-02,22879
2018-06-03,22155
2018-06-04,24326
2018-06-05,25172
2018-06-06,25346
2018-06-07,24254
2018-06-08,24566
2018-06-09,20786
2018-06-10,25391
2018-06-11,26587
2018-06-12,26358
2018-06-13,27843
2018-06-14,26120
2018-06-15,23315
2018-06-16,19810
2018-06-17,18680
2018-06-18,22327
2018-06-19,23667
2018-06-20,23108
2018-06-21,24046
2018-06-22,27225
2018-06-23,21577
2018-06-24,23255
2018-06-25,23049
2018-06-26,23372
2018-06-27,25168
2018-06-28,23694
2018-06-29,26267
2018-06-30,24450
2018-07-01,19808
2018-07-02,24424
2018-07-03,24786
2018-07-04,23752
2018-07-05,24041
2018-07-06,23975
2018-07-07,22246
2018-07-08,23498
2018-07-09,25370
2018-07-10,25265
2018-07-11,23993
2018-07-12,23309
2018-07-13,22931
2018-07-14,20652
2018-07-15,20578
2018-07-16,24580
2018-07-17,26348
2018-07-18,27438
2018-07-19,24101
2018-07-20,26160
2018-07-21,21282
2018-07-22,20243
2018-07-23,24764
2018-07-24,27110
2018-07-25,26322
2018-07-26,24811
2018-07-27,23944
2018-07-28,20812
2018-07-29,20677
2018-07-30,24424
2018-07-31,26512
2018-08-01,25343
2018-08-02,25224
2018-08-03,26825
2018-08-04,23147
2018-08-05,20405
2018-08-06,25206
2018-08-07,27812
2018-08-08,30339
2018-08-09,28422
2018-08-10,28160
2018-08-11,26817
2018-08-12,21981
2018-08-13,28397
2018-08-14,31445
2018-08-15,29572
2018-08-16,27953
2018-08-17,29406
2018-08-18,25886
2018-08-19,22699
2018-08-20,26422
2018-08-21,24430
2018-08-22,25595
2018-08-23,25387
2018-08-24,25651
2018-08-25,23083
2018-08-26,21534
2018-08-27,24818
2018-08-28,27061
2018-08-29,25522
2018-08-30,25178
2018-08-31,26726
2018-09-01,28620
2018-09-02,25248
2018-09-03,74778
2018-09-04,28882
2018-09-05,28653
2018-09-06,29506
2018-09-07,28434
2018-09-08,25991
2018-09-09,25265
2018-09-10,27868
2018-09-11,28481
2018-09-12,28478
2018-09-13,26906
2018-09-14,27316
2018-09-15,24969
2018-09-16,22179
2018-09-17,26124
2018-09-18,26103
2018-09-19,25047
2018-09-20,27979
2018-09-21,33476
2018-09-22,27046
2018-09-23,26115
2018-09-24,27627
2018-09-25,28344
2018-09-26,28463
2018-09-27,31736
2018-09-28,30752
2018-09-29,27191
2018-09-30,25678
2018-10-01,28782
2018-10-02,27095
2018-10-03,28000
2018-10-04,24039
2018-10-05,26361
2018-10-06,25146
2018-10-07,21492
2018-10-08,23160
2018-10-09,22835
2018-10-10,22736
2018-10-11,28090
2018-10-12,24858
2018-10-13,23406
2018-10-14,20822
2018-10-15,25061
2018-10-16,26416
2018-10-17,27262
2018-10-18,28438
2018-10-19,26501
2018-10-20,25055
2018-10-21,21166
2018-10-22,23686
2018-10-23,24759
2018-10-24,23624
2018-10-25,23596
2018-10-26,25836
2018-10-27,21412
2018-10-28,20398
2018-10-29,23862
2018-10-30,25187
2018-10-31,24488
2018-11-01,23545
2018-11-02,25610
2018-11-03,22635
2018-11-04,23125
2018-11-05,23722
2018-11-06,25287
2018-11-07,24783
2018-11-08,24702
2018-11-09,24704
2018-11-10,30686
2018-11-11,31761
2018-11-12,23812
2018-11-13,24187
2018-11-14,27472
2018-11-15,25736
2018-11-16,24970
2018-11-17,23990
2018-11-18,22302
2018-11-19,26482
2018-11-20,29091
2018-11-21,25804
2018-11-22,23595
2018-11-23,24058
2018-11-24,22675
2018-11-25,24047
2018-11-26,23655
2018-11-27,22852
2018-11-28,25022
2018-11-29,24147
2018-11-30,26265
2018-12-01,22753
2018-12-02,20152
2018-12-03,21575
2018-12-04,21448
2018-12-05,22328
2018-12-06,23111
2018-12-07,27082
2018-12-08,23659
2018-12-09,21575
2018-12-10,22763
2018-12-11,22066
2018-12-12,22057
2018-12-13,22369
2018-12-14,23350
2018-12-15,22674
2018-12-16,21513
2018-12-17,24849
2018-12-18,24504
2018-12-19,26676
2018-12-20,25363
2018-12-21,25601
2018-12-22,22843
2018-12-23,23117
2018-12-24,23398
2018-12-25,19501
2018-12-26,21421
2018-12-27,23365
2018-12-28,24943
2018-12-29,24736
2018-12-30,23038
2018-12-31,20550
2019-01-01,17760
2019-01-02,23310
2019-01-03,23400
2019-01-04,23729
2019-01-05,24483
2019-01-06,24596
2019-01-07,22512
2019-01-08,23257
2019-01-09,23704
2019-01-10,24429
2019-01-11,24297
2019-01-12,23895
2019-01-13,21273
2019-01-14,21552
2019-01-15,23446
2019-01-16,22655
2019-01-17,23338
2019-01-18,25533
2019-01-19,24162
2019-01-20,21108
2019-01-21,22322
2019-01-22,20999
2019-01-23,19718
2019-01-24,20641
2019-01-25,23775
2019-01-26,22337
2019-01-27,20614
2019-01-28,22394
2019-01-29,22087
2019-01-30,22290
2019-01-31,22061
2019-02-01,24853
2019-02-02,22814
2019-02-03,21527
2019-02-04,22157
2019-02-05,22150
2019-02-06,21421
2019-02-07,21709
2019-02-08,31023
2019-02-09,29388
2019-02-10,24705
2019-02-11,24721
2019-02-12,24061
2019-02-13,24334
2019-02-14,23170
2019-02-15,24256
2019-02-16,23423
2019-02-17,22042
2019-02-18,26120
2019-02-19,25854
2019-02-20,25819
2019-02-21,24425
2019-02-22,25684
2019-02-23,24851
2019-02-24,24340
2019-02-25,24141
2019-02-26,22563
2019-02-27,23361
2019-02-28,23633
2019-03-01,26147
2019-03-02,23958
2019-03-03,20828
2019-03-04,23390
2019-03-05,26240
2019-03-06,26027
2019-03-07,28190
2019-03-08,27135
2019-03-09,25435
2019-03-10,20997
2019-03-11,22841
2019-03-12,23969
2019-03-13,24157
2019-03-14,23712
2019-03-15,25489
2019-03-16,24547
2019-03-17,19831
2019-03-18,23002
2019-03-19,23393
2019-03-20,24045
2019-03-21,23630
2019-03-22,25492
2019-03-23,22830
2019-03-24,18774
2019-03-25,21547
2019-03-26,21440
2019-03-27,23499
2019-03-28,23053
2019-03-29,26197
2019-03-30,26185
2019-03-31,22671
2019-04-01,25517
2019-04-02,35034
2019-04-03,39794
2019-04-04,29731
2019-04-05,26768
2019-04-06,26033
2019-04-07,24003
2019-04-08,25967
2019-04-09,23994
2019-04-10,25088
2019-04-11,26512
2019-04-12,24482
2019-04-13,21692
2019-04-14,20060
2019-04-15,24651
2019-04-16,24108
2019-04-17,23327
2019-04-18,24440
2019-04-19,24652
2019-04-20,22281
2019-04-21,19075
2019-04-22,20933
2019-04-23,25298
2019-04-24,24747
2019-04-25,24100
2019-04-26,25563
2019-04-27,21701
2019-04-28,20013
2019-04-29,21393
2019-04-30,24301
2019-05-01,21494
2019-05-02,21775
2019-05-03,23055
2019-05-04,23225
2019-05-05,19099
2019-05-06,23011
2019-05-07,24255
2019-05-08,22658
2019-05-09,24235
2019-05-10,26856
2019-05-11,29717
2019-05-12,23711
2019-05-13,26785
2019-05-14,29204
2019-05-15,34623
2019-05-16,35264
2019-05-17,31251
2019-05-18,25862
2019-05-19,25430
2019-05-20,27781
2019-05-21,28630
2019-05-22,27238
2019-05-23,27372
2019-05-24,34386
2019-05-25,27207
2019-05-26,24756
2019-05-27,33199
2019-05-28,29930
2019-05-29,30469
2019-05-30,33827
2019-05-31,30983
2019-06-01,25787
2019-06-02,23444
2019-06-03,25653
2019-06-04,27411
2019-06-05,25434
2019-06-06,28286
2019-06-07,30004
2019-06-08,29260
2019-06-09,24802
2019-06-10,35155
2019-06-11,36421
2019-06-12,37723
2019-06-13,35175
2019-06-14,36290
2019-06-15,33020
2019-06-16,32452
2019-06-17,33879
2019-06-18,34261
2019-06-19,35605
2019-06-20,35705
2019-06-21,41045
2019-06-22,47926
2019-06-23,33585
2019-06-24,38044
2019-06-25,34798
2019-06-26,39187
2019-06-27,35182
2019-06-28,32184
2019-06-29,30851
2019-06-30,26221
2019-07-01,29452
2019-07-02,26329
2019-07-03,28005
2019-07-04,27487
2019-07-05,27968
2019-07-06,27112
2019-07-07,31597
2019-07-08,35218
2019-07-09,31131
2019-07-10,39901
2019-07-11,33080
2019-07-12,34244
2019-07-13,29969
2019-07-14,28899
2019-07-15,30542
2019-07-16,31731
2019-07-17,32315
2019-07-18,30760
2019-07-19,30011
2019-07-20,28111
2019-07-21,23360
2019-07-22,26659
2019-07-23,28340
2019-07-24,27424
2019-07-25,27014
2019-07-26,28177
2019-07-27,25963
2019-07-28,24601
2019-07-29,29139
2019-07-30,30135
2019-07-31,29821
2019-08-01,28951
2019-08-02,30862
2019-08-03,28348
2019-08-04,26623
2019-08-05,32184
2019-08-06,33948
2019-08-07,33276
2019-08-08,39808
2019-08-09,37674
2019-08-10,32550
2019-08-11,30242
2019-08-12,32593
2019-08-13,30148
2019-08-14,24231
2019-08-15,23746
2019-08-16,23694
2019-08-17,21565
2019-08-18,19787
2019-08-19,20759
2019-08-20,22464
2019-08-21,23187
2019-08-22,23052
2019-08-23,22460
2019-08-24,20683
2019-08-25,16881
2019-08-26,20691
2019-08-27,21495
2019-08-28,22565
2019-08-29,21443
2019-08-30,21790
2019-08-31,21236
2019-09-01,18923
2019-09-02,22539
2019-09-03,27635
2019-09-04,24046
2019-09-05,24801
2019-09-06,28280
2019-09-07,27090
2019-09-08,31130
2019-09-09,28045
2019-09-10,28191
2019-09-11,25604
2019-09-12,26418
2019-09-13,30554
2019-09-14,27762
2019-09-15,31231
2019-09-16,35537
2019-09-17,39895
2019-09-18,39428
2019-09-19,48582
2019-09-20,34911
2019-09-21,25427
2019-09-22,23991
2019-09-23,37725
2019-09-24,32703
2019-09-25,28975
2019-09-26,26006
2019-09-27,24353
2019-09-28,27931
2019-09-29,20199
2019-09-30,26657
2019-10-01,22390
2019-10-02,21691
2019-10-03,21057
2019-10-04,23913
2019-10-05,24612
2019-10-06,27214
2019-10-07,27427
2019-10-08,25078
2019-10-09,26037
2019-10-10,25643
2019-10-11,25570
2019-10-12,23407
2019-10-13,20630
2019-10-14,22020
2019-10-15,22717
2019-10-16,22151
2019-10-17,19971
2019-10-18,20907
2019-10-19,19818
2019-10-20,17403
2019-10-21,19624
2019-10-22,20235
2019-10-23,19659
2019-10-24,19926
2019-10-25,21599
2019-10-26,21967
2019-10-27,19294
2019-10-28,21196
2019-10-29,22325
2019-10-30,21126
2019-10-31,21294
2019-11-01,19902
2019-11-02,67142
2019-11-03,18128
2019-11-04,21222
2019-11-05,33013
2019-11-06,31179
2019-11-07,20340
2019-11-08,21741
2019-11-09,19529
2019-11-10,20027
2019-11-11,19619
2019-11-12,21156
2019-11-13,20242
2019-11-14,23340
2019-11-15,28898
2019-11-16,22380
2019-11-17,19558
2019-11-18,34279
2019-11-19,22027
2019-11-20,21518
2019-11-21,22796
2019-11-22,23516
2019-11-23,21607
2019-11-24,20051
2019-11-25,22153
2019-11-26,21441
2019-11-27,22157
2019-11-28,22240
2019-11-29,22131
2019-11-30,22314
2019-12-01,21540
2019-12-02,20976
2019-12-03,22729
2019-12-04,21978
2019-12-05,21111
2019-12-06,22410
2019-12-07,21015
2019-12-08,19721
2019-12-09,23474
2019-12-10,22429
2019-12-11,21500
2019-12-12,22324
2019-12-13,22726
2019-12-14,21343
2019-12-15,20332
2019-12-16,22944
2019-12-17,23602
2019-12-18,22116
2019-12-19,22803
2019-12-20,23735
2019-12-21,22449
2019-12-22,20022
2019-12-23,22252
2019-12-24,17858
2019-12-25,19754
2019-12-26,25743
2019-12-27,25651
2019-12-28,22656
2019-12-29,20546
2019-12-30,21252
2019-12-31,19127
2020-01-01,15266
2020-01-02,31144
2020-01-03,21256
2020-01-04,19141
2020-01-05,18806
2020-01-06,20221
2020-01-07,22192
2020-01-08,21734
2020-01-09,19374
2020-01-10,22369
2020-01-11,20953
2020-01-12,18332
2020-01-13,18662
2020-01-14,25122
2020-01-15,24009
2020-01-16,21473
2020-01-17,25070
2020-01-18,22981
2020-01-19,22862
2020-01-20,20802
2020-01-21,21842
2020-01-22,21726
2020-01-23,21707
2020-01-24,23234
2020-01-25,20217
2020-01-26,19741
2020-01-27,21498
2020-01-28,24049
2020-01-29,23817
2020-01-30,27038
2020-01-31,26369
2020-02-01,25936
2020-02-02,27365
2020-02-03,34575
2020-02-04,24912
2020-02-05,28228
2020-02-06,28107
2020-02-07,26957
2020-02-08,26179
2020-02-09,26158
2020-02-10,26394
2020-02-11,24744
2020-02-12,27773
2020-02-13,27783
2020-02-14,27323
2020-02-15,25858
2020-02-16,22549
2020-02-17,23506
2020-02-18,24477
2020-02-19,24939
2020-02-20,23546
2020-02-21,24189
2020-02-22,22117
2020-02-23,20513
2020-02-24,21704
2020-02-25,21821
2020-02-26,24434
2020-02-27,25182
2020-02-28,23666
2020-02-29,24045
2020-03-01,21625
2020-03-02,23356
2020-03-03,21772
2020-03-04,20401
2020-03-05,23449
2020-03-06,22856
2020-03-07,22571
2020-03-08,22767
2020-03-09,24745
2020-03-10,23645
2020-03-11,21480
2020-03-12,28365
2020-03-13,28780
2020-03-14,21153
2020-03-15,18974
2020-03-16,23032
2020-03-17,22117
2020-03-18,23034
2020-03-19,23966
2020-03-20,25683
2020-03-21,19646
2020-03-22,18238
2020-03-23,20471
2020-03-24,21205
2020-03-25,21010
2020-03-26,20601
2020-03-27,23426
2020-03-28,21892
2020-03-29,20428
2020-03-30,21773
2020-03-31,23902
2020-04-01,22423
2020-04-02,23442
2020-04-03,22537
2020-04-04,23783
2020-04-05,24144
2020-04-06,24750
2020-04-07,27268
2020-04-08,24745
2020-04-09,25003
2020-04-10,30625
2020-04-11,22579
2020-04-12,21507
2020-04-13,23009
2020-04-14,26225
2020-04-15,26034
2020-04-16,26407
2020-04-17,27186
2020-04-18,27293
2020-04-19,25194
2020-04-20,27432
2020-04-21,25279
2020-04-22,25310
2020-04-23,27187
2020-04-24,28242
2020-04-25,26560
2020-04-26,25148
2020-04-27,30150
2020-04-28,31508
2020-04-29,33129
2020-04-30,34689
2020-05-01,29877
2020-05-02,28054
2020-05-03,26528
2020-05-04,26777
2020-05-05,27982
2020-05-06,29352
2020-05-07,31358
2020-05-08,35032
2020-05-09,29207
2020-05-10,26480
2020-05-11,29677
2020-05-12,32463
2020-05-13,29431
2020-05-14,31229
2020-05-15,31419
2020-05-16,29927
2020-05-17,27985
2020-05-18,32426
2020-05-19,32922
2020-05-20,34080
2020-05-21,29976
2020-05-22,31623
2020-05-23,31808
2020-05-24,28109
2020-05-25,32055
2020-05-26,31476
2020-05-27,31109
2020-05-28,33256
2020-05-29,36320
2020-05-30,35234
2020-05-31,31522
2020-06-01,34065
2020-06-02,35377
2020-06-03,33031
2020-06-04,34257
2020-06-05,35519
2020-06-06,32593
2020-06-07,31232
2020-06-08,35440
2020-06-09,33619
2020-06-10,33798
2020-06-11,36927
2020-06-12,34939
2020-06-13,30845
2020-06-14,29541
2020-06-15,34099
2020-06-16,34058
2020-06-17,32288
2020-06-18,32123
2020-06-19,30994
2020-06-20,31615
2020-06-21,27300
2020-06-22,29762
2020-06-23,35032
2020-06-24,33927
2020-06-25,37887
2020-06-26,36758
2020-06-27,33296
2020-06-28,32022
2020-06-29,32513
2020-06-30,32028
2020-07-01,32234
2020-07-02,33373
2020-07-03,34271
2020-07-04,32266
2020-07-05,30309
2020-07-06,33943
2020-07-07,34261
2020-07-08,37180
2020-07-09,36345
2020-07-10,35456
2020-07-11,32826
2020-07-12,32901
2020-07-13,36035
2020-07-14,36914
2020-07-15,36869
2020-07-16,38139
2020-07-17,37963
2020-07-18,37625
2020-07-19,35085
2020-07-20,36874
2020-07-21,36362
2020-07-22,36879
2020-07-23,38973
2020-07-24,39020
2020-07-25,41949
2020-07-26,40327
2020-07-27,45708
2020-07-28,47595
2020-07-29,46628
2020-07-30,46497
2020-07-31,45241
2020-08-01,37643
2020-08-02,35488
2020-08-03,41825
2020-08-04,44167
2020-08-05,49062
2020-08-06,47671
2020-08-07,46662
2020-08-08,45869
2020-08-09,44557
2020-08-10,45692
2020-08-11,49436
2020-08-12,41910
2020-08-13,54521
2020-08-14,51942
2020-08-15,49178
2020-08-16,49963
2020-08-17,45093
2020-08-18,49298
2020-08-19,49687
2020-08-20,57345
2020-08-21,41976
2020-08-22,38539
2020-08-23,37883
2020-08-24,39637
2020-08-25,42130
2020-08-26,38870
2020-08-27,38960
2020-08-28,40182
2020-08-29,39127
2020-08-30,36999
2020-08-31,42350
2020-09-01,44561
2020-09-02,43935
2020-09-03,43171
2020-09-04,47485
2020-09-05,41509
2020-09-06,39010
2020-09-07,39910
2020-09-08,41560
2020-09-09,42871
2020-09-10,43496
2020-09-11,44243
2020-09-12,41510
2020-09-13,31212
2020-09-14,34993
2020-09-15,40196
2020-09-16,57394
2020-09-17,84689
2020-09-18,95327
2020-09-19,112159
2020-09-20,114522
2020-09-21,129564
2020-09-22,139126
2020-09-23,155026
2020-09-24,165775
2020-09-25,163168
2020-09-26,162605
2020-09-27,156817
2020-09-28,156506
2020-09-29,145857
2020-09-30,136550
2020-10-01,128723
2020-10-02,127137
2020-10-03,114721
2020-10-04,109816
2020-10-05,112400
2020-10-06,112774
2020-10-07,113105
2020-10-08,105895
2020-10-09,98023
2020-10-10,98297
2020-10-11,90377
2020-10-12,95048
2020-10-13,91817
2020-10-14,88605
2020-10-15,119376
2020-10-16,103875
2020-10-17,94335
2020-10-18,93764
2020-10-19,96255
2020-10-20,104095
2020-10-21,112291
2020-10-22,102053
2020-10-23,100960
2020-10-24,100811
2020-10-25,95616
2020-10-26,95291
2020-10-27,90282
2020-10-28,86381
2020-10-29,87397
2020-10-30,98648
2020-10-31,89745
2020-11-01,88250
2020-11-02,92091
2020-11-03,93547
2020-11-04,84726
2020-11-05,87604
2020-11-06,87477
2020-11-07,82481
2020-11-08,74652
2020-11-09,80318
2020-11-10,80585
2020-11-11,76730
2020-11-12,79721
2020-11-13,82474
2020-11-14,75450
2020-11-15,74371
2020-11-16,81652
2020-11-17,79329
2020-11-18,75031
2020-11-19,76804
2020-11-20,76494
2020-11-21,72243
2020-11-22,69462
2020-11-23,72600
2020-11-24,75711
2020-11-25,66158
2020-11-26,66023
2020-11-27,62802
2020-11-28,58663
2020-11-29,59332
2020-11-30,60723
2020-12-01,66000
2020-12-02,58038
2020-12-03,62531
2020-12-04,59314
2020-12-05,54634
2020-12-06,55287
2020-12-07,56166
2020-12-08,56116
2020-12-09,55813
2020-12-10,55958
2020-12-11,56321
2020-12-12,49448
2020-12-13,58304
2020-12-14,57541
2020-12-15,51944
2020-12-16,58689
2020-12-17,71951
2020-12-18,59656
2020-12-19,60011
2020-12-20,56577
2020-12-21,54904
2020-12-22,55955
2020-12-23,61317
2020-12-24,58108
2020-12-25,54194
2020-12-26,61107
2020-12-27,59369
2020-12-28,60288
2020-12-29,64247
2020-12-30,58731
2020-12-31,59818
2021-01-01,53103
2021-01-02,66870
2021-01-03,71819
2021-01-04,69407
2021-01-05,63120
2021-01-06,68735
2021-01-07,66450
2021-01-08,66398
2021-01-09,62648
2021-01-10,60534
2021-01-11,67125
2021-01-12,59246
2021-01-13,57793
2021-01-14,58356
2021-01-15,54827
2021-01-16,56228
2021-01-17,52380
2021-01-18,57437
2021-01-19,62938
2021-01-20,77055
2021-01-21,66403
2021-01-22,60491
2021-01-23,62142
2021-01-24,59689
2021-01-25,66255
2021-01-26,61644
2021-01-27,70064
2021-01-28,69642
2021-01-29,85731
2021-01-30,78644
2021-01-31,75831
2021-02-01,80082
2021-02-02,80022
2021-02-03,85952
2021-02-04,78975
2021-02-05,81226
2021-02-06,80886
2021-02-07,71289
2021-02-08,81284
2021-02-09,89771
2021-02-10,99063
2021-02-11,84580
2021-02-12,89291
2021-02-13,93307
2021-02-14,87592
2021-02-15,86643
2021-02-16,87071
2021-02-17,98738
2021-02-18,99239
2021-02-19,101770
2021-02-20,102001
2021-02-21,89546
2021-02-22,103496
2021-02-23,102068
2021-02-24,106241
2021-02-25,100354
2021-02-26,114981
2021-02-27,105222
2021-02-28,94734
2021-03-01,101604
2021-03-02,101959
2021-03-03,117749
2021-03-04,99539
2021-03-05,95367
2021-03-06,96671
2021-03-07,90555
2021-03-08,95639
2021-03-09,107709
2021-03-10,115052
2021-03-11,97259
2021-03-12,105745
2021-03-13,110670
2021-03-14,100365
2021-03-15,108180
2021-03-16,111237
2021-03-17,130636
2021-03-18,114405
2021-03-19,115157
2021-03-20,105578
2021-03-21,108921
2021-03-22,106571
2021-03-23,108063
2021-03-24,126584
2021-03-25,110470
2021-03-26,108820
2021-03-27,114513
2021-03-28,115185
2021-03-29,113198
2021-03-30,110600
2021-03-31,119245
2021-04-01,111963
2021-04-02,109891
2021-04-03,110209
2021-04-04,97329
2021-04-05,110352
2021-04-06,116958
2021-04-07,122624
2021-04-08,95944
2021-04-09,103263
2021-04-10,111532
2021-04-11,102664
2021-04-12,108446
2021-04-13,113059
2021-04-14,126744
2021-04-15,114068
2021-04-16,134592
2021-04-17,127117
2021-04-18,117344
2021-04-19,124055
2021-04-20,129750
2021-04-21,131599
2021-04-22,114679
2021-04-23,115827
2021-04-24,109770
2021-04-25,100075
2021-04-26,106563
2021-04-27,108257
2021-04-28,120956
2021-04-29,115134
2021-04-30,114180
2021-05-01,114113
2021-05-02,98466
2021-05-03,117360
2021-05-04,124332
2021-05-05,143695
2021-05-06,130417
2021-05-07,126788
2021-05-08,122147
2021-05-09,117622
2021-05-10,137557
2021-05-11,132344
2021-05-12,135431
2021-05-13,120794
2021-05-14,123576
2021-05-15,120198
2021-05-16,114472
2021-05-17,114901
2021-05-18,113923
2021-05-19,131893
2021-05-20,112160
2021-05-21,115219
2021-05-22,101076
2021-05-23,99621
2021-05-24,102884
2021-05-25,104453
2021-05-26,115067
2021-05-27,100893
2021-05-28,107492
2021-05-29,98629
2021-05-30,90179
2021-05-31,92086
2021-06-01,96657
2021-06-02,107309
2021-06-03,94990
2021-06-04,97285
2021-06-05,89895
2021-06-06,84758
2021-06-07,93358
2021-06-08,93510
2021-06-09,101929
2021-06-10,96032
2021-06-11,100534
2021-06-12,93061
2021-06-13,83880
2021-06-14,92043
2021-06-15,95066
2021-06-16,101383
2021-06-17,89218
2021-06-18,89263
2021-06-19,90219
2021-06-20,95995
2021-06-21,108255
2021-06-22,106728
2021-06-23,172920
2021-06-24,195728
2021-06-25,174266
2021-06-26,137413
2021-06-27,128479
2021-06-28,123798
2021-06-29,133831
2021-06-30,143435
2021-07-01,140620
2021-07-02,114149
2021-07-03,72173
2021-07-04,109842
2021-07-05,85784
2021-07-06,72883
2021-07-07,74754
2021-07-08,72381
2021-07-09,112984
2021-07-10,116777
2021-07-11,110411
2021-07-12,117736
2021-07-13,119366
2021-07-14,122125
2021-07-15,140497
2021-07-16,134048
2021-07-17,124029
2021-07-18,120248
2021-07-19,134587
2021-07-20,133495
2021-07-21,127809
2021-07-22,142470
2021-07-23,130344
2021-07-24,122988
2021-07-25,122255
2021-07-26,136259
2021-07-27,127383
2021-07-28,133579
2021-07-29,139309
2021-07-30,119638
2021-07-31,127088
2021-08-01,130536
2021-08-02,129502
2021-08-03,128962
2021-08-04,131179
2021-08-05,143430
2021-08-06,138710
2021-08-07,132066
2021-08-08,123807
2021-08-09,133398
2021-08-10,146410
2021-08-11,153195
2021-08-12,163168
2021-08-13,163449
2021-08-14,151116
2021-08-15,155353
2021-08-16,155850
2021-08-17,155612
2021-08-18,155422
2021-08-19,161416
2021-08-20,168199
2021-08-21,153571
2021-08-22,139080
2021-08-23,160996
2021-08-24,160349
2021-08-25,164679
2021-08-26,160594
2021-08-27,152756
2021-08-28,153236
2021-08-29,142990
2021-08-30,155951
2021-08-31,156522
2021-09-01,159574
2021-09-02,169798
2021-09-03,167361
2021-09-04,146897
2021-09-05,153807
2021-09-06,159061
2021-09-07,147468
2021-09-08,134968
2021-09-09,148681
2021-09-10,149345
2021-09-11,147135
2021-09-12,139348
2021-09-13,151649
2021-09-14,147409
2021-09-15,148856
2021-09-16,148444
2021-09-17,137443
2021-09-18,121059
2021-09-19,107739
2021-09-20,125618
2021-09-21,132039
2021-09-22,133547
2021-09-23,124503
2021-09-24,122818
2021-09-25,119398
2021-09-26,125363
2021-09-27,140996
2021-09-28,141159
2021-09-29,138219
2021-09-30,132985
2021-10-01,152100
2021-10-02,145081
2021-10-03,135363
2021-10-04,138979
2021-10-05,120040
2021-10-06,136358
2021-10-07,120690
2021-10-08,120580
2021-10-09,115721
2021-10-10,109363
2021-10-11,132808
2021-10-12,137002
2021-10-13,132515
2021-10-14,131520
2021-10-15,138863
2021-10-16,128124
2021-10-17,116387
2021-10-18,134954
2021-10-19,129800
2021-10-20,127873
2021-10-21,136887
2021-10-22,139050
2021-10-23,143889
2021-10-24,141813
2021-10-25,142768
2021-10-26,140057
2021-10-27,148497
2021-10-28,139068
2021-10-29,150147
2021-10-30,135866
2021-10-31,134087
2021-11-01,147940
2021-11-02,153143
2021-11-03,150465
2021-11-04,139609
2021-11-05,133497
2021-11-06,135924
2021-11-07,134975
2021-11-08,139324
2021-11-09,148929
2021-11-10,148003
2021-11-11,138281
2021-11-12,133194
2021-11-13,125662
2021-11-14,118671
2021-11-15,136243
2021-11-16,133733
2021-11-17,132135
2021-11-18,123929
2021-11-19,129510
2021-11-20,127084
2021-11-21,117436
2021-11-22,123774
2021-11-23,126008
2021-11-24,137281
2021-11-25,143155
2021-11-26,121055
2021-11-27,108804
2021-11-28,101071
2021-11-29,109571
2021-11-30,127842
2021-12-01,142483
2021-12-02,137964
2021-12-03,138708
2021-12-04,134324
2021-12-05,125212
2021-12-06,122883
2021-12-07,113145
2021-12-08,110487
2021-12-09,109659
2021-12-10,115534
2021-12-11,50096
2021-12-12,73508
2021-12-13,120719
2021-12-14,132157
2021-12-15,127006
2021-12-16,121533
2021-12-17,119526
2021-12-18,118786
2021-12-19,114103
2021-12-20,119156
2021-12-21,120491
2021-12-22,128363
2021-12-23,123873
2021-12-24,119596
2021-12-25,100072
2021-12-26,96059
2021-12-27,104429
2021-12-28,99325
2021-12-29,97678
2021-12-30,103246
2021-12-31,101053
2022-01-01,100430
2022-01-02,105591
2022-01-03,108091
2022-01-04,107569
2022-01-05,112428
2022-01-06,111263
2022-01-07,111431
2022-01-08,110572
2022-01-09,101070
2022-01-10,110501
2022-01-11,110741
2022-01-12,110462
2022-01-13,109457
2022-01-14,113780
2022-01-15,105324
2022-01-16,92158
2022-01-17,108117
2022-01-18,107947
2022-01-19,106037
2022-01-20,113611
2022-01-21,112121
2022-01-22,112181
2022-01-23,99952
2022-01-24,100243
2022-01-25,102720
2022-01-26,104845
2022-01-27,105319
2022-01-28,112983
2022-01-29,107576
2022-01-30,102325
2022-01-31,106192
2022-02-01,112133
2022-02-02,115853
2022-02-03,115616
2022-02-04,120014
2022-02-05,117073
2022-02-06,109902
2022-02-07,121602
2022-02-08,120559
2022-02-09,118060
2022-02-10,117942
2022-02-11,118398
2022-02-12,113738
2022-02-13,109368
2022-02-14,117179
2022-02-15,120807
2022-02-16,119591
2022-02-17,117592
2022-02-18,123107
2022-02-19,116533
2022-02-20,114358
2022-02-21,118662
2022-02-22,115686
2022-02-23,113843
2022-02-24,123132
2022-02-25,127065
2022-02-26,116603
2022-02-27,112076
2022-02-28,126124
2022-03-01,129271
2022-03-02,121683
2022-03-03,125776
2022-03-04,126172
2022-03-05,124096
2022-03-06,116453
2022-03-07,118639
2022-03-08,122986
2022-03-09,117712
2022-03-10,113886
2022-03-11,115379
2022-03-12,115365
2022-03-13,111742
2022-03-14,116737
2022-03-15,124215
2022-03-16,120577
2022-03-17,115537
2022-03-18,117308
2022-03-19,117090
2022-03-20,103773
2022-03-21,120591
2022-03-22,110910
2022-03-23,105505
2022-03-24,107930
2022-03-25,107471
2022-03-26,97867
2022-03-27,98592
2022-03-28,110093
2022-03-29,118027
2022-03-30,122498
2022-03-31,114317
2022-04-01,118465
2022-04-02,115990
2022-04-03,108343
2022-04-04,115027
2022-04-05,128109
2022-04-06,126216
2022-04-07,119806
