t,v
2011-10-13,0.001
2011-10-14,0.002
2011-10-15,0.075
2011-10-16,0.90707077
2011-10-17,0.35624793
2011-10-18,0.37451134
2011-10-19,0.31676977
2011-10-20,0.31730384
2011-10-21,0.30810998
2011-10-22,0.48386862
2011-10-23,0.434
2011-10-24,0.3396925
2011-10-25,0.233
2011-10-26,0.32674311
2011-10-27,0.14011365
2011-10-28,0.27703041
2011-10-29,0.69447838
2011-10-30,1.74799645
2011-10-31,0.88913483
2011-11-01,2.51915163
2011-11-02,1.56227332
2011-11-03,0.30882658
2011-11-04,0.31720688
2011-11-05,0.23354635
2011-11-06,0.35811991
2011-11-07,1.34509582
2011-11-08,0.29268562
2011-11-09,0.85764076
2011-11-10,0.21606553
2011-11-11,1.23968895
2011-11-12,0.18343287
2011-11-13,0.32351137
2011-11-14,0.19445751
2011-11-15,13.35352327
2011-11-16,43.39404254
2011-11-17,45.73661564
2011-11-18,34.26796281
2011-11-19,81.5822683
2011-11-20,40.1854988
2011-11-21,827.24492727
2011-11-22,670.32040551
2011-11-23,410.9106206
2011-11-24,216.85157282
2011-11-25,123.8830022
2011-11-26,269.38850516
2011-11-27,85.78950653
2011-11-28,369.52909186
2011-11-29,30.3786042
2011-11-30,24.52914749
2011-12-01,33.41452892
2011-12-02,36.96045986
2011-12-03,20.56967198
2011-12-04,26.11976075
2011-12-05,13.78164793
2011-12-06,32.68467346
2011-12-07,12.03405502
2011-12-08,17.10151498
2011-12-09,17.37761537
2011-12-10,9.05848349
2011-12-11,18.856275
2011-12-12,12.51501287
2011-12-13,9.65095198
2011-12-14,11.34962731
2011-12-15,11.7299233
2011-12-16,12.808
2011-12-17,11.50172154
2011-12-18,23.72517357
2011-12-19,20.43399021
2011-12-20,15.94788426
2011-12-21,13.91753582
2011-12-22,11.12067367
2011-12-23,12.15596144
2011-12-24,17.15120587
2011-12-25,14.52821766
2011-12-26,15.02909149
2011-12-27,21.43478061
2011-12-28,20.32103011
2011-12-29,22.12293936
2011-12-30,16.55715331
2011-12-31,7.7239616
2012-01-01,22.66679206
2012-01-02,11.52765121
2012-01-03,13.63043221
2012-01-04,9.90058677
2012-01-05,18.36864807
2012-01-06,16.33352011
2012-01-07,10.92961503
2012-01-08,14.01062915
2012-01-09,12.41100001
2012-01-10,19.54997867
2012-01-11,13.43111065
2012-01-12,24.71559806
2012-01-13,19.20993993
2012-01-14,12.97380875
2012-01-15,11.21253811
2012-01-16,13.00878269
2012-01-17,10.01245979
2012-01-18,12.51570555
2012-01-19,40.00630074
2012-01-20,7.33000001
2012-01-21,9.52046558
2012-01-22,18.70100288
2012-01-23,13.72808457
2012-01-24,15.6150221
2012-01-25,16.01050001
2012-01-26,22.22206456
2012-01-27,20.44240591
2012-01-28,24.65908859
2012-01-29,14.30670303
2012-01-30,11.82264691
2012-01-31,10.51234343
2012-02-01,64.75270972
2012-02-02,83.58048002
2012-02-03,100.2525201
2012-02-04,94.93493281
2012-02-05,93.92312636
2012-02-06,67.02184708
2012-02-07,81.44913473
2012-02-08,58.01987072
2012-02-09,25.38164142
2012-02-10,17.46137936
2012-02-11,21.44585132
2012-02-12,19.09736524
2012-02-13,16.3450646
2012-02-14,16.89264325
2012-02-15,16.0228549
2012-02-16,23.0220445
2012-02-17,17.16376636
2012-02-18,11.54652951
2012-02-19,23.04473283
2012-02-20,15.71970211
2012-02-21,19.14680986
2012-02-22,14.06451179
2012-02-23,36.71084159
2012-02-24,14.83866965
2012-02-25,35.35797529
2012-02-26,11.25886727
2012-02-27,18.5545352
2012-02-28,23.47252559
2012-02-29,34.11717299
2012-03-01,23.7126838
2012-03-02,22.64773087
2012-03-03,16.47646825
2012-03-04,12.26031569
2012-03-05,8.61104368
2012-03-06,24.95629201
2012-03-07,16.24732981
2012-03-08,35.55484132
2012-03-09,12.2426743
2012-03-10,15.4015002
2012-03-11,16.0698795
2012-03-12,30.83891745
2012-03-13,25.94487191
2012-03-14,20.42437618
2012-03-15,32.34100001
2012-03-16,17.92293307
2012-03-17,15.101572
2012-03-18,22.67034629
2012-03-19,21.06676245
2012-03-20,21.85193127
2012-03-21,24.85050002
2012-03-22,19.37860417
2012-03-23,15.76989508
2012-03-24,14.53142358
2012-03-25,23.647
2012-03-26,20.23
2012-03-27,35.32001817
2012-03-28,14.20156327
2012-03-29,17.41195288
2012-03-30,25.67600008
2012-03-31,17.93150001
2012-04-01,26.71800044
2012-04-02,15.01100002
2012-04-03,12.32344945
2012-04-04,16.6126428
2012-04-05,17.61990199
2012-04-06,24.81779695
2012-04-07,15.40634851
2012-04-08,20.81113609
2012-04-09,13.51
2012-04-10,29.9800374
2012-04-11,25.93826296
2012-04-12,24.26272599
2012-04-13,28.45847806
2012-04-14,25.61275456
2012-04-15,19.42834523
2012-04-16,26.9620728
2012-04-17,23.9228136
2012-04-18,20.42721547
2012-04-19,17.52728482
2012-04-20,13.01231338
2012-04-21,15.27905922
2012-04-22,12.1113969
2012-04-23,21.0697856
2012-04-24,47.0
2012-04-25,14.2232034
2012-04-26,22.10734266
2012-04-27,21.71846159
2012-04-28,17.52441753
2012-04-29,18.10842549
2012-04-30,17.80148146
2012-05-01,27.20787027
2012-05-02,53.7042181
2012-05-03,31.20076668
2012-05-04,28.2015402
2012-05-05,11.30783645
2012-05-06,15.7
2012-05-07,16.52142246
2012-05-08,18.27230253
2012-05-09,17.55295992
2012-05-10,16.93052258
2012-05-11,27.12673359
2012-05-12,11.86177518
2012-05-13,18.94937309
2012-05-14,17.10155585
2012-05-15,15.5
2012-05-16,20.2
2012-05-17,25.5105
2012-05-18,34.21491855
2012-05-19,20.52500005
2012-05-20,23.4
2012-05-21,30.18169005
2012-05-22,27.841
2012-05-23,38.2701364
2012-05-24,34.46469622
2012-05-25,33.7
2012-05-26,25.52250996
2012-05-27,30.35434209
2012-05-28,37.54000007
2012-05-29,38.06314648
2012-05-30,31.61104993
2012-05-31,59.9215
2012-06-01,17.21857369
2012-06-02,78.81032276
2012-06-03,28.9205021
2012-06-04,68.91200006
2012-06-05,42.59251519
2012-06-06,39.02186798
2012-06-07,19.53933359
2012-06-08,20.30277776
2012-06-09,24.30602619
2012-06-10,25.13200454
2012-06-11,25.91515475
2012-06-12,30.3207684
2012-06-13,41.60533292
2012-06-14,23.32948299
2012-06-15,130.37811024
2012-06-16,32.7005
2012-06-17,20.8
2012-06-18,20.71080896
2012-06-19,23.80000003
2012-06-20,23.0304
2012-06-21,27.04462051
2012-06-22,45.10342721
2012-06-23,28.16627318
2012-06-24,122.31577655
2012-06-25,50.14545758
2012-06-26,24.26702
2012-06-27,39.7685676
2012-06-28,24.41025727
2012-06-29,26.23507866
2012-06-30,62.72881187
2012-07-01,33.51500054
2012-07-02,17.1197476
2012-07-03,57.65991165
2012-07-04,78.3652343
2012-07-05,96.18027662
2012-07-06,75.76875906
2012-07-07,63.97468963
2012-07-08,141.14283596
2012-07-09,98.60038211
2012-07-10,50.72312785
2012-07-11,29.02169023
2012-07-12,26.25800574
2012-07-13,39.85089038
2012-07-14,32.66015061
2012-07-15,36.36755582
2012-07-16,103.24623245
2012-07-17,70.92955894
2012-07-18,38.872998
2012-07-19,42.68259189
2012-07-20,48.80917838
2012-07-21,37.16163708
2012-07-22,32.55681572
2012-07-23,56.79869348
2012-07-24,70.52512549
2012-07-25,60.72001439
2012-07-26,34.2905319
2012-07-27,49.25599465
2012-07-28,46.73070976
2012-07-29,53.23193215
2012-07-30,82.35098274
2012-07-31,515.98768719
2012-08-01,109.65931962
2012-08-02,67.72450204
2012-08-03,58.27527401
2012-08-04,177.29215559
2012-08-05,150.54035857
2012-08-06,41.42754044
2012-08-07,31.60290042
2012-08-08,40.27974355
2012-08-09,41.7940043
2012-08-10,35.3564529
2012-08-11,29.16692863
2012-08-12,81.515
2012-08-13,35.28221264
2012-08-14,33.74085091
2012-08-15,46.2855548
2012-08-16,46.74264732
2012-08-17,29.12550087
2012-08-18,24.35686882
2012-08-19,70.11201346
2012-08-20,40.31430017
2012-08-21,41.63632746
2012-08-22,40.68367618
2012-08-23,35.92264036
2012-08-24,32.12338095
2012-08-25,130.91318593
2012-08-26,64.77600403
2012-08-27,84.0358476
2012-08-28,41.57306121
2012-08-29,69.61315408
2012-08-30,61.80065813
2012-08-31,47.06290137
2012-09-01,82.38617477
2012-09-02,521.46414499
2012-09-03,369.68641689
2012-09-04,291.87333663
2012-09-05,344.36054134
2012-09-06,98.83725344
2012-09-07,32.31426342
2012-09-08,228.4358743
2012-09-09,210.38292482
2012-09-10,186.23087036
2012-09-11,176.87741578
2012-09-12,99.77160206
2012-09-13,108.49271098
2012-09-14,159.4585044
2012-09-15,224.49861002
2012-09-16,128.58003493
2012-09-17,107.33384614
2012-09-18,36.19719834
2012-09-19,231.39473915
2012-09-20,47.20292119
2012-09-21,81.95881404
2012-09-22,57.30228083
2012-09-23,60.42715038
2012-09-24,101.95345305
2012-09-25,96.53080701
2012-09-26,72.8921638
2012-09-27,36.85897634
2012-09-28,59.7021475
2012-09-29,41.01850006
2012-09-30,53.84480619
2012-10-01,41.2278285
2012-10-02,59.06481736
2012-10-03,165.44987158
2012-10-04,27.87160877
2012-10-05,57.51104024
2012-10-06,76.69574793
2012-10-07,71.94316603
2012-10-08,69.39513833
2012-10-09,130.83074855
2012-10-10,92.54234502
2012-10-11,75.04010228
2012-10-12,165.04856541
2012-10-13,83.22908135
2012-10-14,132.67561263
2012-10-15,237.9500181
2012-10-16,257.87099739
2012-10-17,100.00448529
2012-10-18,110.66758966
2012-10-19,90.90118804
2012-10-20,70.34196133
2012-10-21,94.8485061
2012-10-22,96.12135828
2012-10-23,124.20773856
2012-10-24,86.06088719
2012-10-25,50.17151582
2012-10-26,82.59607027
2012-10-27,64.10939714
2012-10-28,59.68221088
2012-10-29,70.85796469
2012-10-30,68.4545
2012-10-31,66.43346549
2012-11-01,66.53718015
2012-11-02,42.40478663
2012-11-03,98.16090719
2012-11-04,63.93374002
2012-11-05,81.34767636
2012-11-06,40.37554945
2012-11-07,52.06526889
2012-11-08,49.26801455
2012-11-09,37.09400801
2012-11-10,56.71486902
2012-11-11,60.40270756
2012-11-12,52.80107225
2012-11-13,52.72232608
2012-11-14,43.16015924
2012-11-15,56.2625421
2012-11-16,72.10284664
2012-11-17,53.1991017
2012-11-18,32.43832497
2012-11-19,37.02700975
2012-11-20,41.89989448
2012-11-21,48.40149909
2012-11-22,59.96350305
2012-11-23,56.85077027
2012-11-24,58.36291343
2012-11-25,59.0697364
2012-11-26,69.47822577
2012-11-27,36.40285817
2012-11-28,46.84134514
2012-11-29,67.360998
2012-11-30,77.74175112
2012-12-01,75.32561164
2012-12-02,49.48754059
2012-12-03,47.21850112
2012-12-04,41.03105804
2012-12-05,59.61300152
2012-12-06,25.68315021
2012-12-07,42.76998131
2012-12-08,70.29505
2012-12-09,136.14504322
2012-12-10,96.904153
2012-12-11,32.43344072
2012-12-12,35.55058239
2012-12-13,34.28836585
2012-12-14,62.06563522
2012-12-15,52.19679113
2012-12-16,51.06299922
2012-12-17,46.811962
2012-12-18,32.17463
2012-12-19,35.09181855
2012-12-20,41.36200005
2012-12-21,50.77759172
2012-12-22,34.82231184
2012-12-23,47.25384806
2012-12-24,35.15687235
2012-12-25,40.36816828
2012-12-26,33.85317174
2012-12-27,54.93332602
2012-12-28,25.18424389
2012-12-29,27.33078948
2012-12-30,41.24938729
2012-12-31,36.01400758
2013-01-01,25.98284385
2013-01-02,20.40173633
2013-01-03,45.22535141
2013-01-04,26.86951559
2013-01-05,57.75919656
2013-01-06,57.29558407
2013-01-07,38.71001892
2013-01-08,59.06050001
2013-01-09,44.21777024
2013-01-10,56.78518692
2013-01-11,155.16094967
2013-01-12,48.65293295
2013-01-13,77.28333212
2013-01-14,64.90711694
2013-01-15,36.28432723
2013-01-16,45.94336906
2013-01-17,42.84921956
2013-01-18,33.32334699
2013-01-19,52.6614823
2013-01-20,63.96416853
2013-01-21,66.32362626
2013-01-22,76.31176892
2013-01-23,79.39224277
2013-01-24,76.29922495
2013-01-25,113.19359105
2013-01-26,42.71521751
2013-01-27,44.9617372
2013-01-28,72.15675465
2013-01-29,43.25034851
2013-01-30,93.67052136
2013-01-31,48.02718418
2013-02-01,34.73419065
2013-02-02,62.0539672
2013-02-03,41.12280351
2013-02-04,50.6209932
2013-02-05,51.25580831
2013-02-06,50.14227212
2013-02-07,90.71835513
2013-02-08,84.57851726
2013-02-09,157.75129398
2013-02-10,123.5455897
2013-02-11,139.33709373
2013-02-12,63.31188954
2013-02-13,62.18861501
2013-02-14,107.16976331
2013-02-15,90.61043286
2013-02-16,69.77193637
2013-02-17,62.18664165
2013-02-18,80.99673165
2013-02-19,84.52010656
2013-02-20,126.58707728
2013-02-21,92.01038493
2013-02-22,102.73164956
2013-02-23,173.9318123
2013-02-24,91.94489194
2013-02-25,105.97368021
2013-02-26,148.17801817
2013-02-27,260.80029858
2013-02-28,318.85815183
2013-03-01,156.82740536
2013-03-02,79.65140079
2013-03-03,88.94156344
2013-03-04,186.52909527
2013-03-05,200.50921669
2013-03-06,175.09271287
2013-03-07,175.4536062
2013-03-08,177.9624163
2013-03-09,128.54866778
2013-03-10,592.57067625
2013-03-11,1283.86116232
2013-03-12,143.71116307
2013-03-13,162.70851107
2013-03-14,199.80421532
2013-03-15,189.71982061
2013-03-16,181.80350917
2013-03-17,191.7054874
2013-03-18,173.48989998
2013-03-19,212.17630012
2013-03-20,188.71775348
2013-03-21,237.6928324
2013-03-22,172.49903114
2013-03-23,200.934722
2013-03-24,275.29666646
2013-03-25,320.97875771
2013-03-26,286.74201127
2013-03-27,220.0389034
2013-03-28,231.35193217
2013-03-29,236.57303659
2013-03-30,278.13160624
2013-03-31,272.3437464
2013-04-01,418.50717253
2013-04-02,626.9999241
2013-04-03,615.14780715
2013-04-04,686.66425923
2013-04-05,655.20095665
2013-04-06,652.31746601
2013-04-07,478.04434565
2013-04-08,774.66774979
2013-04-09,647.72162257
2013-04-10,781.69873636
2013-04-11,722.23680786
2013-04-12,555.73122332
2013-04-13,653.09003543
2013-04-14,594.06804644
2013-04-15,559.73854218
2013-04-16,502.158284
2013-04-17,573.59456572
2013-04-18,518.05697852
2013-04-19,475.40598411
2013-04-20,472.66413467
2013-04-21,447.25216228
2013-04-22,450.46164866
2013-04-23,584.05315942
2013-04-24,575.67231659
2013-04-25,596.05082633
2013-04-26,470.19830233
2013-04-27,554.2510288
2013-04-28,594.35757102
2013-04-29,634.40974108
2013-04-30,792.17037348
2013-05-01,639.97236699
2013-05-02,528.80359447
2013-05-03,375.72909058
2013-05-04,374.67043752
2013-05-05,317.3529699
2013-05-06,745.33360305
2013-05-07,450.48121143
2013-05-08,496.3183591
2013-05-09,944.55579909
2013-05-10,709.35641404
2013-05-11,405.24961215
2013-05-12,377.1173053
2013-05-13,355.15999469
2013-05-14,406.67410524
2013-05-15,366.73639193
2013-05-16,465.7979844
2013-05-17,384.78127068
2013-05-18,301.13206803
2013-05-19,275.62697121
2013-05-20,367.03841859
2013-05-21,361.07769011
2013-05-22,279.27636353
2013-05-23,329.20237443
2013-05-24,350.30271943
2013-05-25,294.10036371
2013-05-26,295.79404855
2013-05-27,242.39658365
2013-05-28,248.42685418
2013-05-29,260.31382668
2013-05-30,288.95641956
2013-05-31,246.78050295
2013-06-01,224.54032723
2013-06-02,220.72951435
2013-06-03,242.6769938
2013-06-04,252.17691073
2013-06-05,279.34608761
2013-06-06,226.14636975
2013-06-07,305.38194828
2013-06-08,243.59449706
2013-06-09,267.23149015
2013-06-10,300.08676012
2013-06-11,300.04043704
2013-06-12,246.10500527
2013-06-13,252.46542204
2013-06-14,245.70830626
2013-06-15,183.52326069
2013-06-16,194.06688208
2013-06-17,222.51310987
2013-06-18,256.7190165
2013-06-19,267.52960579
2013-06-20,166.34649351
2013-06-21,154.54772595
2013-06-22,158.43997506
2013-06-23,100.57333812
2013-06-24,106.59959339
2013-06-25,110.71020465
2013-06-26,151.05454123
2013-06-27,130.01285778
2013-06-28,97.38046828
2013-06-29,84.99125029
2013-06-30,85.51194652
2013-07-01,147.63662621
2013-07-02,78.71211086
2013-07-03,97.69486939
2013-07-04,64.47557223
2013-07-05,55.43536226
2013-07-06,67.51857395
2013-07-07,58.61388636
2013-07-08,66.97345984
2013-07-09,73.06466333
2013-07-10,70.37062535
2013-07-11,96.83596056
2013-07-12,116.432054
2013-07-13,55.71544381
2013-07-14,61.67294489
2013-07-15,90.52156996
2013-07-16,67.85442073
2013-07-17,55.32258601
2013-07-18,76.30307438
2013-07-19,60.69348781
2013-07-20,84.84940922
2013-07-21,61.21555277
2013-07-22,80.25479836
2013-07-23,65.11637744
2013-07-24,55.36026254
2013-07-25,53.69636856
2013-07-26,38.74402112
2013-07-27,41.72265538
2013-07-28,38.41747773
2013-07-29,52.38220999
2013-07-30,56.21095373
2013-07-31,67.2085336
2013-08-01,48.34628551
2013-08-02,52.09868866
2013-08-03,47.37381138
2013-08-04,68.0766141
2013-08-05,80.55545449
2013-08-06,57.22029373
2013-08-07,87.37870942
2013-08-08,57.60480389
2013-08-09,55.32243418
2013-08-10,98.77352642
2013-08-11,36.76511869
2013-08-12,34.08167879
2013-08-13,39.17403195
2013-08-14,65.65272938
2013-08-15,56.63501733
2013-08-16,32.03947335
2013-08-17,31.49182127
2013-08-18,41.58609559
2013-08-19,43.64872147
2013-08-20,70.9268689
2013-08-21,52.61866525
2013-08-22,31.68007634
2013-08-23,37.52039277
2013-08-24,83.76724051
2013-08-25,57.54476288
2013-08-26,54.88075353
2013-08-27,66.87351844
2013-08-28,48.00378179
2013-08-29,33.16424076
2013-08-30,42.56371518
2013-08-31,33.70282564
2013-09-01,38.88397184
2013-09-02,37.87919493
2013-09-03,36.5826043
2013-09-04,46.67603728
2013-09-05,48.08898098
2013-09-06,40.8410548
2013-09-07,42.85373095
2013-09-08,35.50757797
2013-09-09,28.0061448
2013-09-10,29.00706224
2013-09-11,29.26287688
2013-09-12,30.25097743
2013-09-13,149.46490077
2013-09-14,34.32969261
2013-09-15,31.60965656
2013-09-16,28.44379555
2013-09-17,25.8352459
2013-09-18,24.77484402
2013-09-19,32.28833457
2013-09-20,30.09154719
2013-09-21,26.03913375
2013-09-22,29.70244894
2013-09-23,62.00412646
2013-09-24,36.96586372
2013-09-25,41.92478783
2013-09-26,32.94310713
2013-09-27,30.93306771
2013-09-28,62.64534101
2013-09-29,34.52611374
2013-09-30,29.88781249
2013-10-01,40.24031248
2013-10-02,61.26998868
2013-10-03,95.73052932
2013-10-04,69.86182684
2013-10-05,124.47967518
2013-10-06,149.68182094
2013-10-07,33.48438693
2013-10-08,43.16972366
2013-10-09,46.94256652
2013-10-10,61.54079991
2013-10-11,46.78298017
2013-10-12,25.45802096
2013-10-13,25.3781606
2013-10-14,34.22812454
2013-10-15,46.7915342
2013-10-16,70.13408195
2013-10-17,46.41110165
2013-10-18,46.51531817
2013-10-19,76.53214657
2013-10-20,41.62085624
2013-10-21,62.44421518
2013-10-22,87.86350666
2013-10-23,43.61378017
2013-10-24,42.6860301
2013-10-25,45.59746721
2013-10-26,29.14616611
2013-10-27,25.54973157
2013-10-28,32.63472376
2013-10-29,32.00825222
2013-10-30,35.41534098
2013-10-31,33.94687573
2013-11-01,43.95127313
2013-11-02,42.81379653
2013-11-03,82.09668947
2013-11-04,79.17129693
2013-11-05,63.21423908
2013-11-06,59.76544906
2013-11-07,168.94862379
2013-11-08,149.19912729
2013-11-09,91.23418997
2013-11-10,63.77925788
2013-11-11,76.56521547
2013-11-12,111.02541935
2013-11-13,139.45531085
2013-11-14,130.04532638
2013-11-15,113.2107672
2013-11-16,93.85697581
2013-11-17,108.43559831
2013-11-18,178.82252908
2013-11-19,175.6020443
2013-11-20,100.15011647
2013-11-21,103.42717469
2013-11-22,107.77095257
2013-11-23,116.09220485
2013-11-24,149.10937724
2013-11-25,107.22642001
2013-11-26,248.36834299
2013-11-27,247.94310784
2013-11-28,281.80160214
2013-11-29,197.04533347
2013-11-30,201.30008813
2013-12-01,190.17717416
2013-12-02,167.41537424
2013-12-03,160.30967505
2013-12-04,172.81478559
2013-12-05,163.39668206
2013-12-06,123.33963819
2013-12-07,139.29877262
2013-12-08,124.48642611
2013-12-09,260.42019636
2013-12-10,158.77306455
2013-12-11,161.52157573
2013-12-12,141.48641633
2013-12-13,142.37026372
2013-12-14,107.40773036
2013-12-15,116.84425239
2013-12-16,110.25548475
2013-12-17,113.20336171
2013-12-18,130.13586466
2013-12-19,91.57736996
2013-12-20,92.75029828
2013-12-21,58.12898485
2013-12-22,47.96751054
2013-12-23,54.6279255
2013-12-24,54.88703202
2013-12-25,54.17486313
2013-12-26,161.38422581
2013-12-27,60.59840405
2013-12-28,45.34144995
2013-12-29,38.37614967
2013-12-30,46.3880017
2013-12-31,38.33776564
2014-01-01,33.44358035
2014-01-02,41.91832885
2014-01-03,41.43963926
2014-01-04,35.30591439
2014-01-05,38.18565335
2014-01-06,55.31221539
2014-01-07,38.90873303
2014-01-08,39.10950755
2014-01-09,25.44075659
2014-01-10,25.54464626
2014-01-11,27.1129431
2014-01-12,24.75512961
2014-01-13,29.65606573
2014-01-14,25.26024439
2014-01-15,20.83726414
2014-01-16,28.88408569
2014-01-17,20.0727562
2014-01-18,18.03336917
2014-01-19,19.15805207
2014-01-20,28.50348658
2014-01-21,33.98521759
2014-01-22,29.76046356
2014-01-23,30.9586918
2014-01-24,32.37650221
2014-01-25,24.21631126
2014-01-26,26.62947115
2014-01-27,27.70420464
2014-01-28,25.86097482
2014-01-29,22.44755053
2014-01-30,22.49649819
2014-01-31,18.73072176
2014-02-01,20.9793944
2014-02-02,21.60337981
2014-02-03,23.64271014
2014-02-04,26.16308826
2014-02-05,24.93424321
2014-02-06,21.53328312
2014-02-07,26.45951698
2014-02-08,18.61123702
2014-02-09,17.44584817
2014-02-10,30.8149509
2014-02-11,39.33924272
2014-02-12,25.54854035
2014-02-13,20.96770494
2014-02-14,24.2822834
2014-02-15,17.83560487
2014-02-16,20.32871078
2014-02-17,17.51598142
2014-02-18,15.87617247
2014-02-19,18.29133609
2014-02-20,18.28176814
2014-02-21,19.49362746
2014-02-22,15.24996462
2014-02-23,20.06241893
2014-02-24,16.08103035
2014-02-25,27.12355575
2014-02-26,27.31508061
2014-02-27,16.63844233
2014-02-28,21.11714162
2014-03-01,15.77451962
2014-03-02,16.50545584
2014-03-03,112.06060334
2014-03-04,54.57301884
2014-03-05,31.68803581
2014-03-06,24.57974371
2014-03-07,22.98764874
2014-03-08,20.01667055
2014-03-09,30.69262705
2014-03-10,16.37040158
2014-03-11,19.21647898
2014-03-12,23.11925902
2014-03-13,17.8237903
2014-03-14,22.05961742
2014-03-15,15.05236134
2014-03-16,12.46731894
2014-03-17,17.05212033
2014-03-18,28.35991443
2014-03-19,32.64402292
2014-03-20,16.12186997
2014-03-21,15.41820415
2014-03-22,11.2067313
2014-03-23,17.15789626
2014-03-24,12.62451066
2014-03-25,11.99158422
2014-03-26,14.66281273
2014-03-27,18.85659289
2014-03-28,12.70055976
2014-03-29,11.52922899
2014-03-30,12.33578872
2014-03-31,14.73340097
2014-04-01,14.70564489
2014-04-02,15.7221451
2014-04-03,12.29558672
2014-04-04,12.78502467
2014-04-05,7.83779093
2014-04-06,9.40422612
2014-04-07,16.52109518
2014-04-08,9.37727929
2014-04-09,18.34705214
2014-04-10,11.84263854
2014-04-11,12.32845948
2014-04-12,10.97090765
2014-04-13,8.4688652
2014-04-14,12.50780991
2014-04-15,13.35266656
2014-04-16,14.58112816
2014-04-17,10.72118211
2014-04-18,11.30635663
2014-04-19,10.52020463
2014-04-20,11.63764308
2014-04-21,11.49152975
2014-04-22,12.35139818
2014-04-23,8.78508477
2014-04-24,7.91048149
2014-04-25,11.46732233
2014-04-26,17.609944
2014-04-27,6.43008988
2014-04-28,10.66832217
2014-04-29,5.92744276
2014-04-30,11.49905474
2014-05-01,5.94712
2014-05-02,6.12728363
2014-05-03,7.47456993
2014-05-04,9.81068067
2014-05-05,6.92508992
2014-05-06,6.94763164
2014-05-07,9.4142634
2014-05-08,13.49920045
2014-05-09,10.87169146
2014-05-10,6.49662165
2014-05-11,8.06295593
2014-05-12,9.82729783
2014-05-13,6.65820133
2014-05-14,8.19438776
2014-05-15,8.00944234
2014-05-16,7.16554165
2014-05-17,3.63792125
2014-05-18,5.50614821
2014-05-19,10.64604209
2014-05-20,8.99435462
2014-05-21,9.47003927
2014-05-22,11.8146809
2014-05-23,10.69021127
2014-05-24,6.48362916
2014-05-25,8.2335476
2014-05-26,7.3302772
2014-05-27,7.10466655
2014-05-28,12.82545526
2014-05-29,5.74068367
2014-05-30,7.27001133
2014-05-31,6.84909238
2014-06-01,9.3432818
2014-06-02,7.82229438
2014-06-03,7.64379796
2014-06-04,7.59760647
2014-06-05,9.93149052
2014-06-06,7.15171023
2014-06-07,6.23826153
2014-06-08,9.78747808
2014-06-09,7.04971428
2014-06-10,6.92176665
2014-06-11,6.47092292
2014-06-12,7.41288447
2014-06-13,6.1853656
2014-06-14,5.04616472
2014-06-15,6.79837881
2014-06-16,8.23824007
2014-06-17,9.14551995
2014-06-18,14.40351094
2014-06-19,10.01697579
2014-06-20,7.0444304
2014-06-21,4.30853031
2014-06-22,5.02740261
2014-06-23,6.6704353
2014-06-24,5.2244571
2014-06-25,13.66946405
2014-06-26,5.7557184
2014-06-27,4.82810178
2014-06-28,4.76985136
2014-06-29,4.32438018
2014-06-30,18.67891635
2014-07-01,7.07805858
2014-07-02,8.8054753
2014-07-03,5.38867533
2014-07-04,4.52334253
2014-07-05,6.1635684
2014-07-06,5.59089156
2014-07-07,6.73743876
2014-07-08,6.59356157
2014-07-09,8.05773844
2014-07-10,5.41198262
2014-07-11,6.9320039
2014-07-12,6.78699209
2014-07-13,6.26847684
2014-07-14,8.68401631
2014-07-15,7.36729829
2014-07-16,7.37184292
2014-07-17,7.24566448
2014-07-18,9.32968979
2014-07-19,258.67111189
2014-07-20,8.94557695
2014-07-21,6.48785535
2014-07-22,7.80607257
2014-07-23,7.14736091
2014-07-24,9.59796374
2014-07-25,7.66532915
2014-07-26,7.2434203
2014-07-27,5.71673051
2014-07-28,11.17714585
2014-07-29,5.88975218
2014-07-30,5.48916439
2014-07-31,8.42874989
2014-08-01,8.52873741
2014-08-02,3.91881293
2014-08-03,5.22461974
2014-08-04,6.45141072
2014-08-05,10.92800143
2014-08-06,31.21052981
2014-08-07,8.98077898
2014-08-08,5.89793569
2014-08-09,5.25846566
2014-08-10,6.67873154
2014-08-11,9.42023168
2014-08-12,8.23951982
2014-08-13,9.31940748
2014-08-14,6.63153302
2014-08-15,5.72008562
2014-08-16,5.90000839
2014-08-17,6.12006887
2014-08-18,12.61556637
2014-08-19,7.09240371
2014-08-20,6.69187458
2014-08-21,6.81792098
2014-08-22,5.77702836
2014-08-23,3.92368243
2014-08-24,3.94572701
2014-08-25,4.04352017
2014-08-26,5.14360525
2014-08-27,5.89932691
2014-08-28,4.44510513
2014-08-29,4.6205717
2014-08-30,4.98106811
2014-08-31,5.37484285
2014-09-01,5.89014401
2014-09-02,4.67313687
2014-09-03,5.44126193
2014-09-04,6.14047363
2014-09-05,6.12728102
2014-09-06,5.64061742
2014-09-07,4.81506188
2014-09-08,3.92507568
2014-09-09,4.47236614
2014-09-10,6.31649348
2014-09-11,5.61848356
2014-09-12,5.56418468
2014-09-13,6.38633087
2014-09-14,6.81432741
2014-09-15,6.45383674
2014-09-16,5.37303745
2014-09-17,6.82144831
2014-09-18,8.02637535
2014-09-19,5.81934708
2014-09-20,6.32541715
2014-09-21,5.01569731
2014-09-22,5.66267389
2014-09-23,4.97165424
2014-09-24,4.5782845
2014-09-25,4.50197237
2014-09-26,5.3346969
2014-09-27,4.00387569
2014-09-28,7.05739129
2014-09-29,4.82861906
2014-09-30,3.60900825
2014-10-01,18.99293128
2014-10-02,4.47338531
2014-10-03,3.42502626
2014-10-04,4.65352282
2014-10-05,3.68158696
2014-10-06,4.2654483
2014-10-07,3.77344573
2014-10-08,5.09773561
2014-10-09,5.06909284
2014-10-10,5.49158886
2014-10-11,3.94532523
2014-10-12,3.36166287
2014-10-13,4.18454232
2014-10-14,5.54444071
2014-10-15,3.07779942
2014-10-16,3.95308719
2014-10-17,3.91987655
2014-10-18,4.96861385
2014-10-19,13.95014427
2014-10-20,2.775341
2014-10-21,2.877323
2014-10-22,3.21571375
2014-10-23,3.23518853
2014-10-24,4.52444968
2014-10-25,2.8130353
2014-10-26,2.55796404
2014-10-27,5.15325602
2014-10-28,4.67023958
2014-10-29,3.62664119
2014-10-30,4.84358473
2014-10-31,3.3110017
2014-11-01,3.15663372
2014-11-02,3.26142459
2014-11-03,4.27742402
2014-11-04,3.64720089
2014-11-05,3.50077409
2014-11-06,5.31265949
2014-11-07,3.79835827
2014-11-08,2.81729595
2014-11-09,2.98888547
2014-11-10,3.68013321
2014-11-11,3.70275196
2014-11-12,5.37710996
2014-11-13,5.784052
2014-11-14,4.42580987
2014-11-15,3.36354061
2014-11-16,3.62710785
2014-11-17,3.03409129
2014-11-18,3.08588096
2014-11-19,4.93261547
2014-11-20,4.59758519
2014-11-21,5.114268
2014-11-22,13.64556345
2014-11-23,3.92585534
2014-11-24,3.44782889
2014-11-25,3.94841169
2014-11-26,4.36954847
2014-11-27,2.56786478
2014-11-28,3.32088338
2014-11-29,4.00053801
2014-11-30,4.83049164
2014-12-01,4.81415327
2014-12-02,17.36870793
2014-12-03,30.09773664
2014-12-04,112.85622973
2014-12-05,30.12770427
2014-12-06,4.57308789
2014-12-07,4.04401846
2014-12-08,4.09639391
2014-12-09,4.20776819
2014-12-10,3.81671186
2014-12-11,7.19594557
2014-12-12,2.77687604
2014-12-13,4.62157009
2014-12-14,2.9134598
2014-12-15,3.5759709
2014-12-16,4.99619583
2014-12-17,3.02357889
2014-12-18,3.68092732
2014-12-19,2.84581935
2014-12-20,4.26487355
2014-12-21,5.53298231
2014-12-22,5.03601117
2014-12-23,3.52067229
2014-12-24,5.65379649
2014-12-25,3.70763022
2014-12-26,3.89837046
2014-12-27,3.38551373
2014-12-28,4.57405843
2014-12-29,3.10370864
2014-12-30,3.82082053
2014-12-31,3.06484962
2015-01-01,2.96317123
2015-01-02,5.24658999
2015-01-03,8.32754472
2015-01-04,6.96886655
2015-01-05,4.84830278
2015-01-06,4.78453723
2015-01-07,6.25560314
2015-01-08,5.93203378
2015-01-09,5.56461225
2015-01-10,10.24095517
2015-01-11,6.72767465
2015-01-12,7.27724133
2015-01-13,7.74818225
2015-01-14,7.42961631
2015-01-15,7.28599244
2015-01-16,5.71118686
2015-01-17,7.37160231
2015-01-18,6.72050497
2015-01-19,6.63019276
2015-01-20,5.92766948
2015-01-21,7.8121502
2015-01-22,5.26223951
2015-01-23,5.51834866
2015-01-24,6.65712536
2015-01-25,11.3992418
2015-01-26,8.49677437
2015-01-27,8.75849428
2015-01-28,7.88051486
2015-01-29,9.39256401
2015-01-30,7.67559966
2015-01-31,7.67896836
2015-02-01,7.03400113
2015-02-02,10.57507301
2015-02-03,5.54546059
2015-02-04,5.80776637
2015-02-05,4.59622403
2015-02-06,5.57172784
2015-02-07,4.70950527
2015-02-08,4.86892226
2015-02-09,23.67866767
2015-02-10,6.77417977
2015-02-11,5.2044437
2015-02-12,7.5030026
2015-02-13,9.12421606
2015-02-14,7.85356836
2015-02-15,8.53360233
2015-02-16,5.65607388
2015-02-17,7.44496213
2015-02-18,8.57363254
2015-02-19,8.50001761
2015-02-20,9.11367532
2015-02-21,9.35130897
2015-02-22,9.2127524
2015-02-23,9.95474057
2015-02-24,8.78877106
2015-02-25,11.21320006
2015-02-26,10.60654113
2015-02-27,6.32612959
2015-02-28,6.78540306
2015-03-01,6.41852967
2015-03-02,8.41102093
2015-03-03,5.39161126
2015-03-04,7.20009532
2015-03-05,6.23614621
2015-03-06,6.73819302
2015-03-07,6.58462568
2015-03-08,5.92721483
2015-03-09,5.75980481
2015-03-10,8.80356771
2015-03-11,6.07009053
2015-03-12,12.13705312
2015-03-13,5.5187467
2015-03-14,8.00038918
2015-03-15,5.27545838
2015-03-16,7.91328402
2015-03-17,7.59996843
2015-03-18,6.58864918
2015-03-19,5.76409302
2015-03-20,4.90987439
2015-03-21,7.14074075
2015-03-22,10.35750456
2015-03-23,6.00518632
2015-03-24,7.15570344
2015-03-25,4.98909588
2015-03-26,5.80832781
2015-03-27,5.1060814
2015-03-28,5.55372531
2015-03-29,6.85958982
2015-03-30,5.35841995
2015-03-31,10.01376728
2015-04-01,5.94871956
2015-04-02,6.44792695
2015-04-03,4.7655839
2015-04-04,5.70433077
2015-04-05,4.79297696
2015-04-06,5.55456385
2015-04-07,5.03226663
2015-04-08,7.41123542
2015-04-09,5.17689526
2015-04-10,6.83715211
2015-04-11,7.93074416
2015-04-12,4.98219564
2015-04-13,10.13942703
2015-04-14,5.46767519
2015-04-15,5.80835648
2015-04-16,4.32930358
2015-04-17,5.17839293
2015-04-18,6.8354867
2015-04-19,6.74323317
2015-04-20,6.15060754
2015-04-21,10.85650444
2015-04-22,5.00073872
2015-04-23,6.86580607
2015-04-24,5.29925966
2015-04-25,5.72636055
2015-04-26,5.11252406
2015-04-27,5.58808608
2015-04-28,3.95056612
2015-04-29,4.09697339
2015-04-30,10.03939434
2015-05-01,4.09207913
2015-05-02,6.10939888
2015-05-03,5.35245502
2015-05-04,5.43688914
2015-05-05,5.26030779
2015-05-06,5.8454209
2015-05-07,8.01269522
2015-05-08,5.26160142
2015-05-09,6.72381608
2015-05-10,4.65158935
2015-05-11,7.23643182
2015-05-12,14.75540884
2015-05-13,6.97568173
2015-05-14,3.96352475
2015-05-15,5.17169574
2015-05-16,5.85693133
2015-05-17,5.4327322
2015-05-18,16.67433546
2015-05-19,4.57713794
2015-05-20,3.94034443
2015-05-21,4.08078708
2015-05-22,7.40242464
2015-05-23,4.74363295
2015-05-24,4.89573503
2015-05-25,4.43380272
2015-05-26,6.08615295
2015-05-27,5.31141598
2015-05-28,4.78079399
2015-05-29,4.80176972
2015-05-30,4.77245041
2015-05-31,4.27297954
2015-06-01,5.3768839
2015-06-02,4.28923785
2015-06-03,4.76249365
2015-06-04,8.52245347
2015-06-05,3.70428558
2015-06-06,6.25220818
2015-06-07,5.94617341
2015-06-08,4.72152785
2015-06-09,4.07153377
2015-06-10,4.72198319
2015-06-11,4.69246617
2015-06-12,5.31804411
2015-06-13,6.03744113
2015-06-14,5.5558791
2015-06-15,6.09847461
2015-06-16,8.70170766
2015-06-17,10.12351846
2015-06-18,7.01911447
2015-06-19,7.23405147
2015-06-20,10.08509768
2015-06-21,8.33704406
2015-06-22,7.55148235
2015-06-23,7.7817593
2015-06-24,7.16763765
2015-06-25,9.15205364
2015-06-26,9.26972048
2015-06-27,15.68145162
2015-06-28,16.22851165
2015-06-29,16.13999904
2015-06-30,20.08753385
2015-07-01,9.95132464
2015-07-02,15.05613532
2015-07-03,12.89179725
2015-07-04,18.74176261
2015-07-05,19.36463911
2015-07-06,29.10446289
2015-07-07,27.95045258
2015-07-08,30.6177664
2015-07-09,96.47228511
2015-07-10,121.22386989
2015-07-11,59.03178083
2015-07-12,48.94778879
2015-07-13,59.65361354
2015-07-14,68.31107309
2015-07-15,78.57619329
2015-07-16,90.46170282
2015-07-17,72.6152781
2015-07-18,60.53744441
2015-07-19,71.11528703
2015-07-20,72.37177275
2015-07-21,73.48277174
2015-07-22,62.2095886
2015-07-23,62.87287369
2015-07-24,82.68387734
2015-07-25,72.52680993
2015-07-26,68.86612006
2015-07-27,63.53597271
2015-07-28,90.8116555
2015-07-29,75.56655726
2015-07-30,62.7544549
2015-07-31,60.26272818
2015-08-01,51.71558843
2015-08-02,63.5765981
2015-08-03,71.60746211
2015-08-04,68.93138894
2015-08-05,62.83461843
2015-08-06,67.25340518
2015-08-07,70.36556489
2015-08-08,66.8693324
2015-08-09,63.25318687
2015-08-10,69.24101414
2015-08-11,64.06274641
2015-08-12,55.19879059
2015-08-13,58.61554689
2015-08-14,54.27475982
2015-08-15,46.2052304
2015-08-16,52.99672932
2015-08-17,54.43131255
2015-08-18,48.35042467
2015-08-19,64.03657907
2015-08-20,54.76401924
2015-08-21,56.22473076
2015-08-22,69.90210486
2015-08-23,53.5402383
2015-08-24,58.76281075
2015-08-25,77.02286236
2015-08-26,58.88876243
2015-08-27,46.11494992
2015-08-28,44.61597681
2015-08-29,45.73647368
2015-08-30,43.41794092
2015-08-31,39.64949034
2015-09-01,48.99666119
2015-09-02,37.69762596
2015-09-03,36.04038155
2015-09-04,31.62558856
2015-09-05,39.56756601
2015-09-06,23.80263958
2015-09-07,31.93473168
2015-09-08,42.67803354
2015-09-09,38.05094279
2015-09-10,32.95829062
2015-09-11,37.40468486
2015-09-12,38.35669177
2015-09-13,26.15363714
2015-09-14,34.5177775
2015-09-15,43.57134365
2015-09-16,37.61431708
2015-09-17,37.48320889
2015-09-18,42.55694881
2015-09-19,41.52958851
2015-09-20,32.46525914
2015-09-21,45.49661444
2015-09-22,44.79074501
2015-09-23,23.4494192
2015-09-24,24.22989903
2015-09-25,34.79128061
2015-09-26,21.50756141
2015-09-27,23.37049922
2015-09-28,26.75912156
2015-09-29,36.89892992
2015-09-30,26.38416972
2015-10-01,32.4629105
2015-10-02,28.97587164
2015-10-03,35.80055013
2015-10-04,27.87936081
2015-10-05,36.88677456
2015-10-06,38.55180827
2015-10-07,41.73765495
2015-10-08,29.12573202
2015-10-09,26.48117588
2015-10-10,26.97485261
2015-10-11,21.1704665
2015-10-12,19.90204502
2015-10-13,13.96677098
2015-10-14,13.93819566
2015-10-15,13.49684033
2015-10-16,16.8461866
2015-10-17,16.4437978
2015-10-18,14.34940364
2015-10-19,19.22849112
2015-10-20,18.31285558
2015-10-21,21.27848153
2015-10-22,15.87891251
2015-10-23,16.17832713
2015-10-24,18.55470707
2015-10-25,17.85970595
2015-10-26,19.25741035
2015-10-27,18.04189651
2015-10-28,27.06888879
2015-10-29,35.71168328
2015-10-30,42.69535621
2015-10-31,23.38458028
2015-11-01,16.75160466
2015-11-02,27.68268086
2015-11-03,39.88263718
2015-11-04,68.92250248
2015-11-05,53.18662385
2015-11-06,36.51183455
2015-11-07,20.65590467
2015-11-08,30.53612691
2015-11-09,32.33171098
2015-11-10,43.21584057
2015-11-11,43.99186431
2015-11-12,35.10882587
2015-11-13,61.12755887
2015-11-14,56.3397483
2015-11-15,35.28286769
2015-11-16,51.33656767
2015-11-17,47.40718566
2015-11-18,75.94200217
2015-11-19,45.24615231
2015-11-20,43.89779638
2015-11-21,42.34352493
2015-11-22,29.53119169
2015-11-23,41.79117147
2015-11-24,50.42866696
2015-11-25,50.94720911
2015-11-26,32.35121431
2015-11-27,25.02103592
2015-11-28,21.51520082
2015-11-29,24.89569643
2015-11-30,35.37858069
2015-12-01,47.53447201
2015-12-02,52.58226365
2015-12-03,59.71635729
2015-12-04,46.64721102
2015-12-05,59.86042963
2015-12-06,72.76720597
2015-12-07,37.65509043
2015-12-08,49.17841528
2015-12-09,57.41477202
2015-12-10,45.17563144
2015-12-11,51.31783426
2015-12-12,106.36534962
2015-12-13,62.38517208
2015-12-14,97.35501879
2015-12-15,125.82873231
2015-12-16,151.40899467
2015-12-17,84.45078951
2015-12-18,82.1005005
2015-12-19,70.63470104
2015-12-20,77.97620512
2015-12-21,285.00265372
2015-12-22,112.76633387
2015-12-23,217.77175004
2015-12-24,153.56409621
2015-12-25,80.3132004
2015-12-26,103.76865838
2015-12-27,136.27699909
2015-12-28,78.3211674
2015-12-29,97.23503294
2015-12-30,156.29157557
2015-12-31,68.60610953
2016-01-01,89.84063364
2016-01-02,123.08108325
2016-01-03,83.80101387
2016-01-04,135.76309327
2016-01-05,71.6217579
2016-01-06,77.70846598
2016-01-07,175.5559179
2016-01-08,257.92520369
2016-01-09,386.83209764
2016-01-10,242.58546454
2016-01-11,197.30446995
2016-01-12,105.00210107
2016-01-13,101.56311363
2016-01-14,82.21735933
2016-01-15,92.16714691
2016-01-16,82.19981862
2016-01-17,73.89627232
2016-01-18,71.27785323
2016-01-19,69.69132612
2016-01-20,87.70434653
2016-01-21,75.4301137
2016-01-22,105.0979418
2016-01-23,115.26985399
2016-01-24,99.49596342
2016-01-25,106.28787493
2016-01-26,145.08470686
2016-01-27,176.34999487
2016-01-28,127.56809775
2016-01-29,98.04450179
2016-01-30,100.07759211
2016-01-31,84.17729751
2016-02-01,89.99058832
2016-02-02,77.06861175
2016-02-03,70.6213765
2016-02-04,74.78259837
2016-02-05,70.88869036
2016-02-06,80.94650613
2016-02-07,69.41459644
2016-02-08,64.98905588
2016-02-09,76.06059832
2016-02-10,76.86952833
2016-02-11,67.87560684
2016-02-12,64.56345653
2016-02-13,61.26968419
2016-02-14,62.21255485
2016-02-15,67.1272987
2016-02-16,59.20136886
2016-02-17,54.41693307
2016-02-18,65.7335343
2016-02-19,46.68174495
2016-02-20,70.96997632
2016-02-21,52.28890861
2016-02-22,35.03310786
2016-02-23,46.65224465
2016-02-24,34.81350361
2016-02-25,39.35209767
2016-02-26,43.7818811
2016-02-27,53.37519542
2016-02-28,45.56692762
2016-02-29,52.27570105
2016-03-01,63.37098112
2016-03-02,39.03106937
2016-03-03,45.12186277
2016-03-04,46.7639061
2016-03-05,51.91879595
2016-03-06,46.3419468
2016-03-07,43.6503797
2016-03-08,32.17557154
2016-03-09,39.89636403
2016-03-10,47.30351921
2016-03-11,41.30991783
2016-03-12,35.6468806
2016-03-13,37.95501099
2016-03-14,37.85984408
2016-03-15,38.78232073
2016-03-16,40.32559876
2016-03-17,29.60101617
2016-03-18,31.64362659
2016-03-19,32.95261902
2016-03-20,35.31601529
2016-03-21,22.55866378
2016-03-22,26.63348435
2016-03-23,29.86416754
2016-03-24,22.47605417
2016-03-25,22.45446571
2016-03-26,21.38032853
2016-03-27,24.56858817
2016-03-28,24.21101123
2016-03-29,22.45853495
2016-03-30,17.41572851
2016-03-31,17.57997637
2016-04-01,19.5950959
2016-04-02,20.53346896
2016-04-03,15.87829353
2016-04-04,20.87477541
2016-04-05,23.77235614
2016-04-06,22.98136033
2016-04-07,21.59443358
2016-04-08,22.55015649
2016-04-09,22.0766279
2016-04-10,18.6151796
2016-04-11,17.79511389
2016-04-12,18.75494938
2016-04-13,19.78662693
2016-04-14,17.75450372
2016-04-15,18.79245028
2016-04-16,14.25187739
2016-04-17,16.2918103
2016-04-18,15.92125684
2016-04-19,15.86359097
2016-04-20,26.57127707
2016-04-21,24.5675483
2016-04-22,16.34472945
2016-04-23,18.5186165
2016-04-24,21.90392134
2016-04-25,24.67482204
2016-04-26,27.6868087
2016-04-27,24.2955537
2016-04-28,26.47816095
2016-04-29,19.65263595
2016-04-30,17.71074471
2016-05-01,20.55995373
2016-05-02,17.71385814
2016-05-03,24.86032963
2016-05-04,16.82197074
2016-05-05,20.68491409
2016-05-06,20.55745604
2016-05-07,19.13231789
2016-05-08,15.01643726
2016-05-09,24.94102333
2016-05-10,29.8740053
2016-05-11,30.8140797
2016-05-12,19.72433903
2016-05-13,19.47846221
2016-05-14,21.50114785
2016-05-15,16.89144087
2016-05-16,21.65224956
2016-05-17,20.90841519
2016-05-18,19.95071367
2016-05-19,24.65799408
2016-05-20,18.15406909
2016-05-21,18.71780498
2016-05-22,19.84762542
2016-05-23,19.89454372
2016-05-24,17.79081097
2016-05-25,40.21781025
2016-05-26,15.44460233
2016-05-27,24.30083122
2016-05-28,23.52104043
2016-05-29,20.86727596
2016-05-30,20.52397838
2016-05-31,20.89397988
2016-06-01,18.45193588
2016-06-02,19.93544413
2016-06-03,26.5135815
2016-06-04,16.11793634
2016-06-05,16.4376645
2016-06-06,23.3162907
2016-06-07,23.03472078
2016-06-08,19.32310731
2016-06-09,21.46330832
2016-06-10,19.86428673
2016-06-11,24.71872166
2016-06-12,32.11481537
2016-06-13,36.48207084
2016-06-14,26.14454683
2016-06-15,24.2036522
2016-06-16,25.50794866
2016-06-17,24.78086716
2016-06-18,21.21910693
2016-06-19,19.66492383
2016-06-20,21.9326114
2016-06-21,24.96183701
2016-06-22,23.25721603
2016-06-23,22.52895873
2016-06-24,20.68066299
2016-06-25,19.82405152
2016-06-26,20.94418057
2016-06-27,18.93092242
2016-06-28,21.0069017
2016-06-29,18.36858066
2016-06-30,17.88741059
2016-07-01,20.91390623
2016-07-02,17.61078759
2016-07-03,17.90305426
2016-07-04,25.75032569
2016-07-05,19.13804803
2016-07-06,25.45358853
2016-07-07,29.20912283
2016-07-08,19.22640873
2016-07-09,16.52765318
2016-07-10,28.50506146
2016-07-11,26.10993046
2016-07-12,17.06288631
2016-07-13,21.51275356
2016-07-14,18.12824244
2016-07-15,34.0522329
2016-07-16,14.8507474
2016-07-17,13.12709763
2016-07-18,15.57504228
2016-07-19,20.05511932
2016-07-20,20.51612639
2016-07-21,17.18713509
2016-07-22,19.83586602
2016-07-23,13.00185822
2016-07-24,12.50028786
2016-07-25,13.01398752
2016-07-26,17.42996261
2016-07-27,15.08080608
2016-07-28,13.21384825
2016-07-29,15.81228412
2016-07-30,13.28013036
2016-07-31,18.88591111
2016-08-01,18.46587645
2016-08-02,21.49555872
2016-08-03,16.07794545
2016-08-04,12.15307424
2016-08-05,12.19224779
2016-08-06,12.12484594
2016-08-07,14.66289227
2016-08-08,18.96686663
2016-08-09,26.56347291
2016-08-10,17.29196905
2016-08-11,21.46853302
2016-08-12,20.26279663
2016-08-13,22.76307823
2016-08-14,28.26766028
2016-08-15,17.44992106
2016-08-16,17.12510752
2016-08-17,15.26655136
2016-08-18,13.62909217
2016-08-19,14.53560948
2016-08-20,15.32649443
2016-08-21,16.21256975
2016-08-22,24.68644398
2016-08-23,22.23848336
2016-08-24,23.68146168
2016-08-25,24.83980985
2016-08-26,15.80837288
2016-08-27,16.83821218
2016-08-28,13.18509479
2016-08-29,14.50479106
2016-08-30,16.25915832
2016-08-31,30.03109598
2016-09-01,22.79762745
2016-09-02,24.23223528
2016-09-03,19.93034297
2016-09-04,26.70937663
2016-09-05,20.8020369
2016-09-06,17.91959982
2016-09-07,14.49637115
2016-09-08,17.50503373
2016-09-09,15.15794893
2016-09-10,19.871216
2016-09-11,22.9724702
2016-09-12,17.40371112
2016-09-13,14.51736752
2016-09-14,11.85366632
2016-09-15,14.11348383
2016-09-16,11.23797544
2016-09-17,16.65600545
2016-09-18,13.12659815
2016-09-19,11.40446419
2016-09-20,13.69148319
2016-09-21,15.38202544
2016-09-22,11.3512072
2016-09-23,11.72040295
2016-09-24,12.3110146
2016-09-25,13.94946658
2016-09-26,13.39977867
2016-09-27,25.07150725
2016-09-28,12.80551029
2016-09-29,14.32958056
2016-09-30,12.39614965
2016-10-01,18.95230665
2016-10-02,12.52239911
2016-10-03,12.01373554
2016-10-04,14.47264139
2016-10-05,17.96954776
2016-10-06,14.85874578
2016-10-07,14.16098841
2016-10-08,10.26545263
2016-10-09,12.32912598
2016-10-10,13.59628968
2016-10-11,20.01620495
2016-10-12,19.49969847
2016-10-13,22.65343942
2016-10-14,19.98427782
2016-10-15,17.51943637
2016-10-16,15.04266961
2016-10-17,15.97503113
2016-10-18,12.62523988
2016-10-19,14.68366088
2016-10-20,12.397683
2016-10-21,10.1853005
2016-10-22,12.3051335
2016-10-23,13.53169615
2016-10-24,16.89679956
2016-10-25,16.87727108
2016-10-26,15.53925909
2016-10-27,15.53465351
2016-10-28,17.96616348
2016-10-29,20.91236005
2016-10-30,17.72429785
2016-10-31,17.51619181
2016-11-01,23.41406017
2016-11-02,18.55515972
2016-11-03,23.31850528
2016-11-04,20.29681165
2016-11-05,17.98523278
2016-11-06,18.18817787
2016-11-07,16.61472493
2016-11-08,16.0161531
2016-11-09,19.49355895
2016-11-10,25.86794609
2016-11-11,19.26468136
2016-11-12,23.32798676
2016-11-13,18.91033095
2016-11-14,20.61410586
2016-11-15,17.91741741
2016-11-16,20.32552065
2016-11-17,18.95695338
2016-11-18,17.44261642
2016-11-19,17.71204437
2016-11-20,19.83146205
2016-11-21,20.45520971
2016-11-22,15.20423606
2016-11-23,14.56594887
2016-11-24,17.77400351
2016-11-25,18.49928073
2016-11-26,17.64441885
2016-11-27,15.99115892
2016-11-28,15.0435634
2016-11-29,12.26756585
2016-11-30,12.87296173
2016-12-01,14.02918326
2016-12-02,13.70731913
2016-12-03,14.12821441
2016-12-04,15.56435955
2016-12-05,26.32815157
2016-12-06,18.4539373
2016-12-07,15.44803329
2016-12-08,20.68895381
2016-12-09,15.11053054
2016-12-10,12.91270931
2016-12-11,14.32630923
2016-12-12,16.24972581
2016-12-13,19.06311396
2016-12-14,19.32181827
2016-12-15,18.58905441
2016-12-16,17.3800933
2016-12-17,17.2968241
2016-12-18,10.51422017
2016-12-19,14.16462515
2016-12-20,14.5497278
2016-12-21,17.23412248
2016-12-22,23.55573274
2016-12-23,31.86353223
2016-12-24,29.71008673
2016-12-25,32.17856321
2016-12-26,29.39781522
2016-12-27,36.42243842
2016-12-28,45.4653124
2016-12-29,45.66819376
2016-12-30,39.21124571
2016-12-31,40.97620024
2017-01-01,57.89431539
2017-01-02,39.33872321
2017-01-03,44.83067071
2017-01-04,58.46832726
2017-01-05,52.52661021
2017-01-06,47.69904612
2017-01-07,47.19625419
2017-01-08,38.54343872
2017-01-09,59.10352216
2017-01-10,61.77998464
2017-01-11,65.90648067
2017-01-12,44.83618896
2017-01-13,27.02410995
2017-01-14,24.93300603
2017-01-15,26.7725682
2017-01-16,15.46673658
2017-01-17,21.16346678
2017-01-18,19.59005478
2017-01-19,18.55573412
2017-01-20,15.35378286
2017-01-21,13.13007999
2017-01-22,16.38317696
2017-01-23,14.49966418
2017-01-24,17.25091434
2017-01-25,18.47021374
2017-01-26,20.74623691
2017-01-27,13.04534527
2017-01-28,14.34766679
2017-01-29,16.51666951
2017-01-30,17.70867432
2017-01-31,18.9266827
2017-02-01,19.3969329
2017-02-02,15.5484423
2017-02-03,15.9300608
2017-02-04,27.87543595
2017-02-05,22.74224635
2017-02-06,19.82480642
2017-02-07,24.78930347
2017-02-08,29.02366244
2017-02-09,24.46751801
2017-02-10,28.5135141
2017-02-11,23.53443429
2017-02-12,27.18104451
2017-02-13,22.58205138
2017-02-14,25.23776508
2017-02-15,21.29318014
2017-02-16,19.19791031
2017-02-17,28.07622886
2017-02-18,14.30683402
2017-02-19,15.92919417
2017-02-20,22.63412656
2017-02-21,17.14703246
2017-02-22,22.68901744
2017-02-23,23.32825792
2017-02-24,18.07410776
2017-02-25,21.54126656
2017-02-26,25.74942919
2017-02-27,21.59185004
2017-02-28,15.0158771
2017-03-01,9.7393753
2017-03-02,18.111934
2017-03-03,10.93888627
2017-03-04,10.30934905
2017-03-05,10.75790185
2017-03-06,11.06479444
2017-03-07,10.6717926
2017-03-08,10.50284868
2017-03-09,10.67284645
2017-03-10,12.15620242
2017-03-11,13.0131622
2017-03-12,12.2361317
2017-03-13,15.42365157
2017-03-14,12.11842304
2017-03-15,12.30016076
2017-03-16,15.42999812
2017-03-17,18.90957453
2017-03-18,17.52539256
2017-03-19,16.23898834
2017-03-20,13.53704792
2017-03-21,12.15125244
2017-03-22,11.57588541
2017-03-23,11.74417232
2017-03-24,12.62522133
2017-03-25,12.86942215
2017-03-26,12.52661505
2017-03-27,10.44000942
2017-03-28,10.06862169
2017-03-29,11.63522614
2017-03-30,37.31805871
2017-03-31,25.95365106
2017-04-01,17.80000476
2017-04-02,21.41741679
2017-04-03,22.27511184
2017-04-04,18.1739425
2017-04-05,33.49510115
2017-04-06,29.92908138
2017-04-07,20.87311468
2017-04-08,19.41240416
2017-04-09,20.56086002
2017-04-10,12.24285632
2017-04-11,13.55654669
2017-04-12,18.86015687
2017-04-13,13.88347919
2017-04-14,16.74209291
2017-04-15,13.9004595
2017-04-16,17.54585445
2017-04-17,17.72749909
2017-04-18,18.72312629
2017-04-19,16.64292673
2017-04-20,14.89189927
2017-04-21,22.09171382
2017-04-22,27.99605169
2017-04-23,38.99437638
2017-04-24,22.51866236
2017-04-25,20.24430063
2017-04-26,21.70909972
2017-04-27,28.59900412
2017-04-28,22.74493447
2017-04-29,17.50013926
2017-04-30,20.64871225
2017-05-01,21.62186765
2017-05-02,21.52048057
2017-05-03,38.38748534
2017-05-04,52.70789849
2017-05-05,68.212047
2017-05-06,43.22189532
2017-05-07,50.49079408
2017-05-08,52.58701717
2017-05-09,52.18225832
2017-05-10,68.12712098
2017-05-11,41.05226627
2017-05-12,29.85475179
2017-05-13,26.47122611
2017-05-14,17.54424201
2017-05-15,26.4612563
2017-05-16,26.66936888
2017-05-17,31.95544238
2017-05-18,26.62047324
2017-05-19,25.78970498
2017-05-20,29.36104954
2017-05-21,26.70633625
2017-05-22,37.98010821
2017-05-23,54.8706761
2017-05-24,37.11705089
2017-05-25,37.81152817
2017-05-26,37.52356473
2017-05-27,36.13385049
2017-05-28,27.29149484
2017-05-29,42.94010787
2017-05-30,63.83410349
2017-05-31,66.87559149
2017-06-01,110.33471603
2017-06-02,71.6020137
2017-06-03,55.85651452
2017-06-04,39.00573215
2017-06-05,101.67678382
2017-06-06,88.27332404
2017-06-07,84.3543073
2017-06-08,86.84519151
2017-06-09,79.36529144
2017-06-10,80.37248552
2017-06-11,68.05183568
2017-06-12,78.09190743
2017-06-13,70.12832245
2017-06-14,83.26244653
2017-06-15,74.78517921
2017-06-16,93.43456483
2017-06-17,129.25467902
2017-06-18,83.98772596
2017-06-19,118.50554699
2017-06-20,109.15894807
2017-06-21,87.20682779
2017-06-22,107.8073279
2017-06-23,94.09181801
2017-06-24,88.74812019
2017-06-25,162.16900719
2017-06-26,235.1734593
2017-06-27,118.6228017
2017-06-28,68.14563491
2017-06-29,56.02930847
2017-06-30,58.91412234
2017-07-01,36.95903776
2017-07-02,41.82200157
2017-07-03,111.23819693
2017-07-04,110.99000469
2017-07-05,103.28007659
2017-07-06,82.07949247
2017-07-07,69.5296981
2017-07-08,47.33439396
2017-07-09,35.55890334
2017-07-10,53.53755102
2017-07-11,55.88313097
2017-07-12,58.76735229
2017-07-13,51.89941702
2017-07-14,57.65652504
2017-07-15,46.00739867
2017-07-16,46.20579478
2017-07-17,61.99857605
2017-07-18,95.14896413
2017-07-19,80.53938019
2017-07-20,149.08887451
2017-07-21,69.36862817
2017-07-22,66.19422695
2017-07-23,49.15613262
2017-07-24,53.50524923
2017-07-25,54.59007832
2017-07-26,46.74960426
2017-07-27,40.65409784
2017-07-28,39.62974863
2017-07-29,40.15129163
2017-07-30,33.46761682
2017-07-31,66.71734872
2017-08-01,74.83701093
2017-08-02,66.26015318
2017-08-03,68.23545274
2017-08-04,72.26255015
2017-08-05,73.93618251
2017-08-06,61.99959851
2017-08-07,74.82421188
2017-08-08,88.4780566
2017-08-09,74.15950944
2017-08-10,69.83854259
2017-08-11,79.32477368
2017-08-12,61.06984992
2017-08-13,51.87656792
2017-08-14,85.03671257
2017-08-15,99.53130708
2017-08-16,84.94172057
2017-08-17,74.84280012
2017-08-18,83.57480813
2017-08-19,68.28600734
2017-08-20,44.46072792
2017-08-21,76.87571584
2017-08-22,65.8983309
2017-08-23,108.80711071
2017-08-24,101.23586206
2017-08-25,70.34294316
2017-08-26,57.69399216
2017-08-27,65.53794887
2017-08-28,68.92313876
2017-08-29,72.13628897
2017-08-30,59.69250745
2017-08-31,54.92182685
2017-09-01,79.24679717
2017-09-02,68.39780269
2017-09-03,56.71553328
2017-09-04,100.10703669
2017-09-05,97.08176973
2017-09-06,85.65487108
2017-09-07,53.50008208
2017-09-08,56.25140801
2017-09-09,64.39343944
2017-09-10,80.38322455
2017-09-11,52.8084908
2017-09-12,50.12984294
2017-09-13,55.39130381
2017-09-14,73.9338568
2017-09-15,116.14098778
2017-09-16,118.04916809
2017-09-17,66.66826305
2017-09-18,89.67652098
2017-09-19,58.81646328
2017-09-20,54.0230034
2017-09-21,45.91241542
2017-09-22,39.39147712
2017-09-23,32.92954608
2017-09-24,32.13520131
2017-09-25,48.96080563
2017-09-26,45.88980176
2017-09-27,44.85236868
2017-09-28,46.14757978
2017-09-29,39.59376985
2017-09-30,36.93322947
2017-10-01,31.46515158
2017-10-02,32.3544002
2017-10-03,29.12156973
2017-10-04,27.60914064
2017-10-05,27.03660608
2017-10-06,27.67239589
2017-10-07,26.36576941
2017-10-08,28.63091355
2017-10-09,33.09726436
2017-10-10,30.61008255
2017-10-11,27.4349881
2017-10-12,45.78326481
2017-10-13,50.05892393
2017-10-14,35.69351809
2017-10-15,38.79400189
2017-10-16,38.92082551
2017-10-17,40.45442159
2017-10-18,38.66474765
2017-10-19,35.92169129
2017-10-20,34.1227325
2017-10-21,36.34813825
2017-10-22,31.91684441
2017-10-23,46.94730982
2017-10-24,46.10254916
2017-10-25,37.41289924
2017-10-26,39.38809325
2017-10-27,39.80518514
2017-10-28,36.19371105
2017-10-29,37.10037835
2017-10-30,37.43177049
2017-10-31,34.96273079
2017-11-01,39.54419986
2017-11-02,41.8517525
2017-11-03,36.45480241
2017-11-04,27.12560016
2017-11-05,28.61303684
2017-11-06,31.47888806
2017-11-07,42.80430402
2017-11-08,45.77001587
2017-11-09,48.80777839
2017-11-10,45.12791659
2017-11-11,37.60502618
2017-11-12,53.94125596
2017-11-13,40.20224991
2017-11-14,51.91419221
2017-11-15,68.15521318
2017-11-16,44.39201517
2017-11-17,46.86626874
2017-11-18,40.35430032
2017-11-19,52.15126362
2017-11-20,42.37144568
2017-11-21,44.01702834
2017-11-22,45.72424285
2017-11-23,47.255289
2017-11-24,48.30548355
2017-11-25,78.94349435
2017-11-26,57.42409661
2017-11-27,66.40327725
2017-11-28,66.82391743
2017-11-29,79.16421708
2017-11-30,61.60009202
2017-12-01,68.48558077
2017-12-02,64.95625292
2017-12-03,64.294623
2017-12-04,98.7547843
2017-12-05,143.39216086
2017-12-06,145.80314266
2017-12-07,97.42084821
2017-12-08,130.62367601
2017-12-09,112.30710205
2017-12-10,89.4021302
2017-12-11,122.99117854
2017-12-12,360.900449
2017-12-13,482.91752641
2017-12-14,321.96257662
2017-12-15,128.03332985
2017-12-16,115.79107565
2017-12-17,126.3619212
2017-12-18,200.26269099
2017-12-19,143.07260579
2017-12-20,673.72984037
2017-12-21,752.61361958
2017-12-22,534.84132656
2017-12-23,335.60839627
2017-12-24,202.99896498
2017-12-25,172.98782039
2017-12-26,183.82219258
2017-12-27,267.51394684
2017-12-28,321.66313634
2017-12-29,231.12994152
2017-12-30,441.52430017
2017-12-31,396.27645139
2018-01-01,158.74468504
2018-01-02,214.30741106
2018-01-03,330.16929513
2018-01-04,485.66297458
2018-01-05,370.06491653
2018-01-06,332.88727796
2018-01-07,176.3400634
2018-01-08,168.23044497
2018-01-09,167.3666241
2018-01-10,165.92200852
2018-01-11,134.128334
2018-01-12,133.73444553
2018-01-13,133.61652386
2018-01-14,109.88905577
2018-01-15,117.0398274
2018-01-16,146.24360262
2018-01-17,148.58420394
2018-01-18,121.21560363
2018-01-19,97.42426049
2018-01-20,86.79967949
2018-01-21,74.97143
2018-01-22,83.96600813
2018-01-23,83.39240562
2018-01-24,81.27281883
2018-01-25,80.38271757
2018-01-26,81.52443368
2018-01-27,85.70112964
2018-01-28,80.34408795
2018-01-29,73.7643374
2018-01-30,79.55434222
2018-01-31,82.43093168
2018-02-01,84.50428941
2018-02-02,98.03971275
2018-02-03,71.11762704
2018-02-04,74.24730261
2018-02-05,82.60763942
2018-02-06,84.30704415
2018-02-07,76.27749761
2018-02-08,60.34889945
2018-02-09,75.34250322
2018-02-10,80.29722133
2018-02-11,59.68257197
2018-02-12,63.8652649
2018-02-13,64.96108846
2018-02-14,105.88242017
2018-02-15,107.95898017
2018-02-16,81.52802594
2018-02-17,94.10628227
2018-02-18,114.95309574
2018-02-19,91.22523762
2018-02-20,97.08622136
2018-02-21,78.77866681
2018-02-22,74.08820271
2018-02-23,71.1694513
2018-02-24,56.65057283
2018-02-25,53.82658916
2018-02-26,78.24285644
2018-02-27,70.10739479
2018-02-28,75.48160086
2018-03-01,66.04235153
2018-03-02,47.64439942
2018-03-03,47.53852759
2018-03-04,43.2411373
2018-03-05,46.69046359
2018-03-06,46.7440256
2018-03-07,47.51002192
2018-03-08,77.83377701
2018-03-09,49.16242811
2018-03-10,39.60645235
2018-03-11,39.51561468
2018-03-12,44.22159126
2018-03-13,41.47125743
2018-03-14,41.84021261
2018-03-15,45.12875441
2018-03-16,37.74276544
2018-03-17,35.74193746
2018-03-18,38.19523448
2018-03-19,41.71644102
2018-03-20,39.45310999
2018-03-21,37.65243504
2018-03-22,35.0335967
2018-03-23,34.39320423
2018-03-24,28.91262017
2018-03-25,29.90674294
2018-03-26,37.2590951
2018-03-27,37.02610041
2018-03-28,34.42140152
2018-03-29,42.12767806
2018-03-30,36.55016556
2018-03-31,28.22300904
2018-04-01,25.90155069
2018-04-02,36.32350076
2018-04-03,42.6393011
2018-04-04,32.61995021
2018-04-05,31.33488234
2018-04-06,34.42390119
2018-04-07,28.38702387
2018-04-08,25.32977178
2018-04-09,33.84102746
2018-04-10,33.66752603
2018-04-11,34.03238548
2018-04-12,38.87101038
2018-04-13,36.09363407
2018-04-14,32.21920963
2018-04-15,31.87438735
2018-04-16,33.33827164
2018-04-17,39.76288275
2018-04-18,42.46999123
2018-04-19,45.5746889
2018-04-20,37.1033794
2018-04-21,31.70950693
2018-04-22,29.88721792
2018-04-23,36.24537663
2018-04-24,43.68072734
2018-04-25,37.93560699
2018-04-26,33.64225792
2018-04-27,34.04474722
2018-04-28,31.90327427
2018-04-29,34.08401468
2018-04-30,36.53002508
2018-05-01,33.47754
2018-05-02,38.93720213
2018-05-03,45.12304124
2018-05-04,39.07177272
2018-05-05,39.30114759
2018-05-06,33.75906896
2018-05-07,38.21286543
2018-05-08,36.88740334
2018-05-09,35.49823956
2018-05-10,37.17020713
2018-05-11,36.10428309
2018-05-12,30.51628878
2018-05-13,28.26157595
2018-05-14,37.58419489
2018-05-15,36.33352142
2018-05-16,34.2792846
2018-05-17,35.54301475
2018-05-18,34.91357143
2018-05-19,29.70975088
2018-05-20,27.76517852
2018-05-21,35.77794547
2018-05-22,33.1092899
2018-05-23,36.68302031
2018-05-24,31.58666396
2018-05-25,32.12193844
2018-05-26,31.99080366
2018-05-27,32.5822083
2018-05-28,30.8088583
2018-05-29,34.73972271
2018-05-30,32.95586561
2018-05-31,30.86374685
2018-06-01,28.61660826
2018-06-02,26.34765804
2018-06-03,24.24868197
2018-06-04,29.3030016
2018-06-05,27.40205292
2018-06-06,26.36034503
2018-06-07,26.24675157
2018-06-08,25.09510803
2018-06-09,21.58752638
2018-06-10,31.28051889
2018-06-11,27.01367219
2018-06-12,29.04264625
2018-06-13,31.48174723
2018-06-14,28.29759715
2018-06-15,24.92683505
2018-06-16,20.88737806
2018-06-17,19.71000201
2018-06-18,25.12688069
2018-06-19,25.39789008
2018-06-20,24.52240323
2018-06-21,24.77464379
2018-06-22,28.70250594
2018-06-23,21.5528834
2018-06-24,25.8634359
2018-06-25,24.92867884
2018-06-26,24.61519605
2018-06-27,30.22347914
2018-06-28,24.64782376
2018-06-29,26.91623019
2018-06-30,23.54773992
2018-07-01,22.55149056
2018-07-02,26.79343324
2018-07-03,27.17809549
2018-07-04,27.23226931
2018-07-05,25.21376037
2018-07-06,24.96215026
2018-07-07,23.53000269
2018-07-08,29.67055939
2018-07-09,28.00937044
2018-07-10,28.46942948
2018-07-11,25.07064443
2018-07-12,26.25291352
2018-07-13,25.10486732
2018-07-14,21.02393025
2018-07-15,23.23445286
2018-07-16,25.95470783
2018-07-17,28.12629266
2018-07-18,28.61201906
2018-07-19,24.84570501
2018-07-20,24.96795131
2018-07-21,20.7528874
2018-07-22,20.24490719
2018-07-23,26.36694229
2018-07-24,27.89983418
2018-07-25,28.04974879
2018-07-26,26.09918813
2018-07-27,22.74453585
2018-07-28,20.55618717
2018-07-29,21.81076719
2018-07-30,26.0120876
2018-07-31,27.9435694
2018-08-01,29.67037764
2018-08-02,26.20087394
2018-08-03,25.53367409
2018-08-04,22.33856625
2018-08-05,21.17392718
2018-08-06,26.54836526
2018-08-07,29.46500006
2018-08-08,33.8715848
2018-08-09,30.56484788
2018-08-10,25.65555815
2018-08-11,24.27192636
2018-08-12,20.90048889
2018-08-13,26.57643422
2018-08-14,28.30773625
2018-08-15,24.81538073
2018-08-16,23.88085865
2018-08-17,24.45753124
2018-08-18,23.15252064
2018-08-19,28.24337302
2018-08-20,24.51242133
2018-08-21,23.01885832
2018-08-22,23.08301501
2018-08-23,23.24290476
2018-08-24,22.68561711
2018-08-25,21.2014138
2018-08-26,19.76940717
2018-08-27,22.37953329
2018-08-28,27.37928937
2018-08-29,25.13049772
2018-08-30,23.47983454
2018-08-31,23.92989719
2018-09-01,24.36397819
2018-09-02,22.23301705
2018-09-03,25.83081312
2018-09-04,32.75087123
2018-09-05,28.97365667
2018-09-06,25.53017231
2018-09-07,23.47246886
2018-09-08,22.27817047
2018-09-09,21.44078373
2018-09-10,24.35033759
2018-09-11,25.64605844
2018-09-12,25.14127837
2018-09-13,23.75919753
2018-09-14,23.60893771
2018-09-15,22.03081806
2018-09-16,18.81333431
2018-09-17,24.3581458
2018-09-18,23.80121367
2018-09-19,21.50068148
2018-09-20,24.32633103
2018-09-21,26.67944869
2018-09-22,21.83354003
2018-09-23,19.42140825
2018-09-24,22.62391959
2018-09-25,21.38697607
2018-09-26,20.80706452
2018-09-27,24.37493352
2018-09-28,26.30738168
2018-09-29,20.7080426
2018-09-30,19.92701853
2018-10-01,23.07180865
2018-10-02,20.76639005
2018-10-03,19.9002416
2018-10-04,18.64817675
2018-10-05,20.76534665
2018-10-06,18.53010216
2018-10-07,18.64304484
2018-10-08,20.06049541
2018-10-09,19.22947148
2018-10-10,21.51766751
2018-10-11,24.04445488
2018-10-12,19.44389706
2018-10-13,17.80733606
2018-10-14,16.33683355
2018-10-15,22.90184769
2018-10-16,30.06666275
2018-10-17,43.81337147
2018-10-18,56.36361637
2018-10-19,29.24724151
2018-10-20,18.15903809
2018-10-21,15.43149807
2018-10-22,18.94278737
2018-10-23,23.2059622
2018-10-24,18.79812628
2018-10-25,17.94888469
2018-10-26,16.45961941
2018-10-27,15.07320725
2018-10-28,15.47211863
2018-10-29,17.68079116
2018-10-30,17.44312457
2018-10-31,18.25452161
2018-11-01,16.56953413
2018-11-02,16.51625661
2018-11-03,14.80973792
2018-11-04,19.36539359
2018-11-05,21.55592893
2018-11-06,19.40412334
2018-11-07,17.70154505
2018-11-08,18.58950233
2018-11-09,16.13050373
2018-11-10,14.69689224
2018-11-11,15.46597674
2018-11-12,17.68916836
2018-11-13,16.35132889
2018-11-14,20.01724504
2018-11-15,17.31977511
2018-11-16,16.61408416
2018-11-17,15.55200142
2018-11-18,14.3972713
2018-11-19,21.26807981
2018-11-20,21.30957877
2018-11-21,21.13653667
2018-11-22,15.54829066
2018-11-23,16.25812085
2018-11-24,15.13857884
2018-11-25,18.09485762
2018-11-26,17.55362301
2018-11-27,16.46500079
2018-11-28,18.63293412
2018-11-29,15.71931853
2018-11-30,16.16558959
2018-12-01,15.00331012
2018-12-02,13.6420771
2018-12-03,15.10036177
2018-12-04,15.96903674
2018-12-05,15.8139259
2018-12-06,16.75427293
2018-12-07,18.78277447
2018-12-08,14.40072144
2018-12-09,14.05110531
2018-12-10,19.34684916
2018-12-11,14.84628643
2018-12-12,14.68370649
2018-12-13,15.33184967
2018-12-14,15.77115092
2018-12-15,14.92460018
2018-12-16,14.40831027
2018-12-17,19.50039198
2018-12-18,15.90324924
2018-12-19,18.64448087
2018-12-20,16.73462206
2018-12-21,16.33380089
2018-12-22,16.73800852
2018-12-23,14.60254432
2018-12-24,16.76229088
2018-12-25,13.17048276
2018-12-26,15.03614308
2018-12-27,15.3069422
2018-12-28,15.27894805
2018-12-29,15.92091937
2018-12-30,13.89235603
2018-12-31,14.31795444
2019-01-01,11.45391595
2019-01-02,15.4559351
2019-01-03,15.25564711
2019-01-04,14.86846271
2019-01-05,15.97124266
2019-01-06,18.31077915
2019-01-07,16.06729045
2019-01-08,16.73855754
2019-01-09,15.20099998
2019-01-10,16.9245629
2019-01-11,14.2019241
2019-01-12,14.64641601
2019-01-13,13.9177674
2019-01-14,14.69499628
2019-01-15,15.04077423
2019-01-16,13.90759034
2019-01-17,14.69843297
2019-01-18,15.12439168
2019-01-19,14.72594887
2019-01-20,13.1627331
2019-01-21,15.33774943
2019-01-22,14.56365278
2019-01-23,12.95740331
2019-01-24,14.50536537
2019-01-25,17.15404207
2019-01-26,15.17644604
2019-01-27,12.41471759
2019-01-28,15.97399785
2019-01-29,15.80516149
2019-01-30,14.28207534
2019-01-31,13.23755642
2019-02-01,16.21764083
2019-02-02,13.80674284
2019-02-03,14.06033381
2019-02-04,15.14243801
2019-02-05,14.78513292
2019-02-06,14.35722702
2019-02-07,13.57008634
2019-02-08,21.44530314
2019-02-09,18.51391593
2019-02-10,18.02149748
2019-02-11,17.08637205
2019-02-12,15.89010524
2019-02-13,15.31704297
2019-02-14,14.12570934
2019-02-15,14.90664267
2019-02-16,14.67337137
2019-02-17,14.87284722
2019-02-18,19.18493776
2019-02-19,17.66411378
2019-02-20,17.97659942
2019-02-21,16.72185062
2019-02-22,16.14706108
2019-02-23,15.17143159
2019-02-24,16.66327944
2019-02-25,16.7952549
2019-02-26,14.89902752
2019-02-27,14.19645819
2019-02-28,13.61364875
2019-03-01,17.56429426
2019-03-02,14.7105468
2019-03-03,13.35044203
2019-03-04,18.14167785
2019-03-05,18.41549997
2019-03-06,18.26591718
2019-03-07,41.02497704
2019-03-08,16.64014464
2019-03-09,15.49424617
2019-03-10,13.60883096
2019-03-11,19.28823597
2019-03-12,19.64421236
2019-03-13,19.79683216
2019-03-14,16.95495329
2019-03-15,17.20677639
2019-03-16,15.12848849
2019-03-17,13.15166811
2019-03-18,15.22051264
2019-03-19,15.01474716
2019-03-20,14.45762892
2019-03-21,13.77345567
2019-03-22,15.91096178
2019-03-23,13.69171762
2019-03-24,12.88836418
2019-03-25,14.94201396
2019-03-26,13.93671219
2019-03-27,15.12172021
2019-03-28,14.40086857
2019-03-29,14.61433945
2019-03-30,14.89211204
2019-03-31,13.09581804
2019-04-01,17.31222226
2019-04-02,30.8597811
2019-04-03,28.65811967
2019-04-04,19.72936033
2019-04-05,17.66626358
2019-04-06,15.61554471
2019-04-07,15.56025343
2019-04-08,18.27183541
2019-04-09,16.9824799
2019-04-10,16.29233548
2019-04-11,17.75343901
2019-04-12,13.71970601
2019-04-13,12.79132867
2019-04-14,12.82826227
2019-04-15,17.2270767
2019-04-16,15.05182182
2019-04-17,14.41466231
2019-04-18,15.14439187
2019-04-19,14.24705054
2019-04-20,12.77778682
2019-04-21,12.61986011
2019-04-22,14.03250271
2019-04-23,16.12270453
2019-04-24,15.93595552
2019-04-25,13.99828077
2019-04-26,15.64420873
2019-04-27,12.40429661
2019-04-28,12.62640975
2019-04-29,13.76029381
2019-04-30,16.53129512
2019-05-01,13.42349474
2019-05-02,13.61932156
2019-05-03,15.80779466
2019-05-04,14.71145911
2019-05-05,12.73965051
2019-05-06,14.38805166
2019-05-07,14.55130567
2019-05-08,13.65448268
2019-05-09,16.87210828
2019-05-10,17.12852862
2019-05-11,19.58307745
2019-05-12,15.87799902
2019-05-13,18.00363529
2019-05-14,20.56455211
2019-05-15,23.71370503
2019-05-16,24.58781539
2019-05-17,19.83133315
2019-05-18,15.34629934
2019-05-19,16.11063737
2019-05-20,17.1641559
2019-05-21,17.2675968
2019-05-22,16.79365249
2019-05-23,216.40220358
2019-05-24,19.65367856
2019-05-25,16.37363718
2019-05-26,17.9590847
2019-05-27,23.74237866
2019-05-28,20.5883594
2019-05-29,19.21883406
2019-05-30,25.36285261
2019-05-31,20.97197313
2019-06-01,16.9331542
2019-06-02,15.81440858
2019-06-03,18.71808484
2019-06-04,20.06124606
2019-06-05,16.26363012
2019-06-06,17.02912656
2019-06-07,20.16290158
2019-06-08,16.20538587
2019-06-09,15.31753039
2019-06-10,23.66090015
2019-06-11,24.96348359
2019-06-12,25.21081972
2019-06-13,20.01631159
2019-06-14,19.30955969
2019-06-15,17.39425886
2019-06-16,18.03691828
2019-06-17,20.73570452
2019-06-18,18.72799617
2019-06-19,19.70872024
2019-06-20,18.13633955
2019-06-21,21.4708917
2019-06-22,25.71143258
2019-06-23,17.64401211
2019-06-24,21.00780426
2019-06-25,22.29182044
2019-06-26,27.5844006
2019-06-27,28.67785395
2019-06-28,19.76711882
2019-06-29,17.71910507
2019-06-30,16.35906301
2019-07-01,17.7604417
2019-07-02,15.77282909
2019-07-03,15.94435434
2019-07-04,16.65959435
2019-07-05,16.75503821
2019-07-06,13.93000115
2019-07-07,14.02167501
2019-07-08,16.93260573
2019-07-09,18.22694063
2019-07-10,21.32983554
2019-07-11,18.72747085
2019-07-12,18.32032117
2019-07-13,15.47996226
2019-07-14,16.84770776
2019-07-15,18.57559866
2019-07-16,19.14067743
2019-07-17,19.74078349
2019-07-18,18.0385979
2019-07-19,15.74913627
2019-07-20,15.1594717
2019-07-21,12.52641302
2019-07-22,15.27457627
2019-07-23,16.26332753
2019-07-24,15.38886305
2019-07-25,14.65989402
2019-07-26,16.13751848
2019-07-27,14.79624742
2019-07-28,14.16776911
2019-07-29,16.04851303
2019-07-30,19.57300829
2019-07-31,19.59780294
2019-08-01,18.63484476
2019-08-02,17.43488598
2019-08-03,16.72747029
2019-08-04,18.29053263
2019-08-05,21.45431127
2019-08-06,20.2216997
2019-08-07,20.52486961
2019-08-08,18.81582045
2019-08-09,22.56040436
2019-08-10,27.96154187
2019-08-11,25.3514516
2019-08-12,23.50958614
2019-08-13,16.92176016
2019-08-14,13.50317313
2019-08-15,12.65495991
2019-08-16,17.33738828
2019-08-17,12.09971627
2019-08-18,11.72592949
2019-08-19,12.19561533
2019-08-20,12.11980756
2019-08-21,12.27418964
2019-08-22,12.65659963
2019-08-23,10.80359178
2019-08-24,10.69861446
2019-08-25,9.13259578
2019-08-26,12.21397148
2019-08-27,12.40746034
2019-08-28,11.76586076
2019-08-29,13.5094993
2019-08-30,11.51957947
2019-08-31,11.06146173
2019-09-01,9.6390746
2019-09-02,11.9661111
2019-09-03,13.15070409
2019-09-04,11.2455134
2019-09-05,10.9248549
2019-09-06,12.08445215
2019-09-07,10.9214922
2019-09-08,11.41621135
2019-09-09,12.32538227
2019-09-10,14.76865021
2019-09-11,14.20889527
2019-09-12,12.02340046
2019-09-13,11.42333583
2019-09-14,11.4915014
2019-09-15,12.04190051
2019-09-16,14.36354374
2019-09-17,16.2389594
2019-09-18,15.13093064
2019-09-19,15.46461906
2019-09-20,14.86022711
2019-09-21,12.37395206
2019-09-22,11.23671164
2019-09-23,12.57033508
2019-09-24,14.77959473
2019-09-25,13.16853715
2019-09-26,13.85261536
2019-09-27,11.27004168
2019-09-28,11.42430913
2019-09-29,11.08782404
2019-09-30,12.078058
2019-10-01,11.56150654
2019-10-02,9.62381008
2019-10-03,10.44735093
2019-10-04,9.34405698
2019-10-05,8.27601619
2019-10-06,8.35759581
2019-10-07,10.54806276
2019-10-08,10.71301199
2019-10-09,10.79786332
2019-10-10,10.01800192
2019-10-11,10.84067087
2019-10-12,8.84755678
2019-10-13,8.43491626
2019-10-14,9.56621097
2019-10-15,11.17404205
2019-10-16,9.85078014
2019-10-17,9.78486287
2019-10-18,9.30398518
2019-10-19,8.98055458
2019-10-20,7.86684034
2019-10-21,9.42973438
2019-10-22,10.0040332
2019-10-23,9.93354825
2019-10-24,9.01535031
2019-10-25,11.83005198
2019-10-26,10.37394957
2019-10-27,8.84486371
2019-10-28,10.12964109
2019-10-29,12.98147228
2019-10-30,9.88813058
2019-10-31,10.54161558
2019-11-01,10.45974631
2019-11-02,8.34034945
2019-11-03,10.44715129
2019-11-04,10.92025038
2019-11-05,13.17199924
2019-11-06,9.77752961
2019-11-07,9.65533889
2019-11-08,9.90085662
2019-11-09,9.58102035
2019-11-10,8.74423164
2019-11-11,9.51152411
2019-11-12,11.09890307
2019-11-13,11.89261086
2019-11-14,9.65677763
2019-11-15,10.08310702
2019-11-16,8.50945117
2019-11-17,7.93148472
2019-11-18,9.95058149
2019-11-19,10.44389506
2019-11-20,9.0623113
2019-11-21,10.06955073
2019-11-22,11.95827418
2019-11-23,9.38383418
2019-11-24,8.56110132
2019-11-25,10.53311319
2019-11-26,11.16282017
2019-11-27,9.24628663
2019-11-28,9.0806534
2019-11-29,9.11095621
2019-11-30,8.89418904
2019-12-01,10.02147843
2019-12-02,8.85013819
2019-12-03,10.18621042
2019-12-04,9.49439341
2019-12-05,8.43951202
2019-12-06,8.84298716
2019-12-07,8.29062001
2019-12-08,7.96433432
2019-12-09,9.55874231
2019-12-10,11.23647346
2019-12-11,9.50930854
2019-12-12,8.97265516
2019-12-13,10.06277192
2019-12-14,7.71106436
2019-12-15,12.25990161
2019-12-16,9.99474434
2019-12-17,11.48081144
2019-12-18,9.58875814
2019-12-19,9.04403205
2019-12-20,10.63383481
2019-12-21,8.73017355
2019-12-22,8.14818102
2019-12-23,9.19956061
2019-12-24,8.17813609
2019-12-25,9.7609005
2019-12-26,13.3767786
2019-12-27,14.8773965
2019-12-28,14.62872507
2019-12-29,11.07650468
2019-12-30,11.37175751
2019-12-31,11.21086778
2020-01-01,7.19225371
2020-01-02,8.09342637
2020-01-03,8.72037933
2020-01-04,8.16881916
2020-01-05,8.04972685
2020-01-06,9.36738222
2020-01-07,10.36944167
2020-01-08,10.36933535
2020-01-09,9.81469463
2020-01-10,9.52078761
2020-01-11,9.14591014
2020-01-12,8.56026126
2020-01-13,8.88778608
2020-01-14,13.43107879
2020-01-15,11.50025054
2020-01-16,10.45378992
2020-01-17,11.57224471
2020-01-18,9.61054818
2020-01-19,10.31887786
2020-01-20,9.26907815
2020-01-21,10.02701371
2020-01-22,9.01876869
2020-01-23,8.90633481
2020-01-24,8.78362309
2020-01-25,6.9445886
2020-01-26,7.37515279
2020-01-27,11.51273206
2020-01-28,12.88015386
2020-01-29,9.53999491
2020-01-30,11.86881823
2020-01-31,10.63931942
2020-02-01,10.88899152
2020-02-02,9.40076228
2020-02-03,10.09958913
2020-02-04,11.11996965
2020-02-05,10.92957717
2020-02-06,11.92508218
2020-02-07,11.46145605
2020-02-08,11.03575396
2020-02-09,11.09428812
2020-02-10,10.98385075
2020-02-11,11.54825909
2020-02-12,11.89138694
2020-02-13,12.37855707
2020-02-14,9.76390879
2020-02-15,11.22440012
2020-02-16,11.00434026
2020-02-17,10.19986578
2020-02-18,10.49144952
2020-02-19,12.25434921
2020-02-20,9.80231446
2020-02-21,9.75259628
2020-02-22,7.68260121
2020-02-23,7.85066363
2020-02-24,11.98091253
2020-02-25,9.35945642
2020-02-26,10.68370659
2020-02-27,9.71400518
2020-02-28,9.28061727
2020-02-29,8.92470315
2020-03-01,8.04765881
2020-03-02,8.93649842
2020-03-03,9.2964861
2020-03-04,9.0476456
2020-03-05,9.24544311
2020-03-06,9.62068268
2020-03-07,10.24468296
2020-03-08,10.30494645
2020-03-09,11.55578238
2020-03-10,9.66324533
2020-03-11,8.82127323
2020-03-12,15.91182461
2020-03-13,15.58740206
2020-03-14,9.45115868
2020-03-15,10.45941672
2020-03-16,11.0487628
2020-03-17,9.59153485
2020-03-18,9.64900078
2020-03-19,12.19850886
2020-03-20,10.89613649
2020-03-21,8.05411965
2020-03-22,8.5722482
2020-03-23,8.45171715
2020-03-24,9.31558409
2020-03-25,8.77189923
2020-03-26,8.64868712
2020-03-27,8.5232041
2020-03-28,9.13542799
2020-03-29,9.98868157
2020-03-30,8.97286528
2020-03-31,8.86788579
2020-04-01,8.77931282
2020-04-02,9.17769518
2020-04-03,8.50016293
2020-04-04,8.02493438
2020-04-05,7.89956404
2020-04-06,9.52324304
2020-04-07,9.54200711
2020-04-08,8.9496007
2020-04-09,8.48470004
2020-04-10,10.25779658
2020-04-11,8.94234001
2020-04-12,7.24837149
2020-04-13,8.89678051
2020-04-14,9.91176613
2020-04-15,8.68046936
2020-04-16,9.40633821
2020-04-17,8.60431614
2020-04-18,8.75847417
2020-04-19,9.99951305
2020-04-20,9.86196414
2020-04-21,8.96518895
2020-04-22,8.91938211
2020-04-23,10.32251379
2020-04-24,9.65192604
2020-04-25,10.24900138
2020-04-26,9.66207105
2020-04-27,10.50939201
2020-04-28,10.71025524
2020-04-29,14.25162785
2020-04-30,13.00749231
2020-05-01,10.13952781
2020-05-02,9.22646779
2020-05-03,9.75929804
2020-05-04,9.11142186
2020-05-05,10.20505543
2020-05-06,9.97908866
2020-05-07,11.28159135
2020-05-08,12.18585445
2020-05-09,13.28296959
2020-05-10,9.42194827
2020-05-11,11.42052651
2020-05-12,10.43005261
2020-05-13,9.58853637
2020-05-14,10.38887103
2020-05-15,9.98493908
2020-05-16,8.94453504
2020-05-17,9.03387835
2020-05-18,10.07340229
2020-05-19,10.39074556
2020-05-20,10.57652215
2020-05-21,9.58968624
2020-05-22,9.33893935
2020-05-23,8.58308558
2020-05-24,9.31558432
2020-05-25,10.0563232
2020-05-26,10.34581375
2020-05-27,9.32390728
2020-05-28,9.5681758
2020-05-29,9.69432655
2020-05-30,11.39934734
2020-05-31,10.72913491
2020-06-01,11.55145762
2020-06-02,12.19707171
2020-06-03,9.23601364
2020-06-04,9.48917778
2020-06-05,10.58306418
2020-06-06,8.06715489
2020-06-07,8.46549591
2020-06-08,9.6033603
2020-06-09,10.42117862
2020-06-10,10.45589987
2020-06-11,10.74089783
2020-06-12,9.05230234
2020-06-13,7.49731488
2020-06-14,8.24604958
2020-06-15,9.85946855
2020-06-16,9.97156122
2020-06-17,8.54441523
2020-06-18,8.63021234
2020-06-19,8.97989436
2020-06-20,8.1053748
2020-06-21,7.66247452
2020-06-22,8.83352129
2020-06-23,9.75421844
2020-06-24,8.47942202
2020-06-25,9.43753164
2020-06-26,8.95224526
2020-06-27,8.10735702
2020-06-28,7.61003799
2020-06-29,8.3338475
2020-06-30,9.09288604
2020-07-01,8.09610589
2020-07-02,8.78825515
2020-07-03,8.61380763
2020-07-04,8.15321041
2020-07-05,7.80941007
2020-07-06,9.19904501
2020-07-07,9.32018214
2020-07-08,10.78872858
2020-07-09,10.02848754
2020-07-10,8.8183201
2020-07-11,8.18330693
2020-07-12,9.45674347
2020-07-13,10.02934258
2020-07-14,10.85674375
2020-07-15,10.44451915
2020-07-16,10.41121033
2020-07-17,9.6320991
2020-07-18,8.35492066
2020-07-19,8.62427463
2020-07-20,9.35520555
2020-07-21,10.37397728
2020-07-22,10.85424162
2020-07-23,10.62030744
2020-07-24,11.51977108
2020-07-25,12.94647816
2020-07-26,11.41829931
2020-07-27,14.55745099
2020-07-28,16.3024086
2020-07-29,10.71810061
2020-07-30,11.75318637
2020-07-31,12.21999502
2020-08-01,12.08903185
2020-08-02,12.39221383
2020-08-03,13.10459967
2020-08-04,11.37589784
2020-08-05,11.07591842
2020-08-06,10.93555351
2020-08-07,10.90414434
2020-08-08,9.89166721
2020-08-09,9.92258801
2020-08-10,10.29248177
2020-08-11,12.42539845
2020-08-12,11.39183356
2020-08-13,11.98434434
2020-08-14,10.84957995
2020-08-15,11.527662
2020-08-16,11.79462302
2020-08-17,15.59087168
2020-08-18,16.49445283
2020-08-19,13.93625975
2020-08-20,10.61335446
2020-08-21,11.16717811
2020-08-22,9.73653309
2020-08-23,9.20887653
2020-08-24,10.09358741
2020-08-25,10.90078851
2020-08-26,9.65121946
2020-08-27,9.37352032
2020-08-28,9.56415867
2020-08-29,8.72349176
2020-08-30,9.73707913
2020-08-31,11.22760198
2020-09-01,13.62521747
2020-09-02,12.29001702
2020-09-03,13.15220807
2020-09-04,13.00570438
2020-09-05,10.1288949
2020-09-06,9.57720965
2020-09-07,10.63605627
2020-09-08,10.20363216
2020-09-09,10.16103336
2020-09-10,10.49589017
2020-09-11,9.75488112
2020-09-12,10.62944466
2020-09-13,9.27071367
2020-09-14,9.69885902
2020-09-15,10.62238772
2020-09-16,11.11314186
2020-09-17,10.05607297
2020-09-18,11.04757868
2020-09-19,9.70048554
2020-09-20,9.19864002
2020-09-21,11.24578139
2020-09-22,10.18379767
2020-09-23,9.31889364
2020-09-24,10.41104879
2020-09-25,9.81164292
2020-09-26,10.24507663
2020-09-27,8.88617297
2020-09-28,10.09154095
2020-09-29,10.69597103
2020-09-30,9.65390661
2020-10-01,10.61331283
2020-10-02,10.14406676
2020-10-03,8.65189001
2020-10-04,9.16993474
2020-10-05,9.55533378
2020-10-06,10.30081816
2020-10-07,10.35202546
2020-10-08,9.06843681
2020-10-09,9.8907165
2020-10-10,10.32652944
2020-10-11,8.96135033
2020-10-12,11.36602567
2020-10-13,10.5846636
2020-10-14,10.84457275
2020-10-15,10.07026035
2020-10-16,10.16953775
2020-10-17,9.04451266
2020-10-18,8.292003
2020-10-19,9.86679548
2020-10-20,12.54408077
2020-10-21,12.44227177
2020-10-22,12.32515077
2020-10-23,11.32761867
2020-10-24,9.99063273
2020-10-25,9.66165962
2020-10-26,10.04606181
2020-10-27,11.86389487
2020-10-28,11.67435199
2020-10-29,11.90256549
2020-10-30,12.25055556
2020-10-31,11.23737901
2020-11-01,9.48698699
2020-11-02,12.34285774
2020-11-03,12.58620043
2020-11-04,12.70423131
2020-11-05,14.64312612
2020-11-06,14.24266585
2020-11-07,11.49414173
2020-11-08,9.44730747
2020-11-09,12.76278581
2020-11-10,11.93478559
2020-11-11,11.70163931
2020-11-12,11.86821921
2020-11-13,13.91723437
2020-11-14,11.00420859
2020-11-15,9.96026511
2020-11-16,15.04964966
2020-11-17,15.1350157
2020-11-18,14.7509869
2020-11-19,13.82233589
2020-11-20,13.88289615
2020-11-21,14.11127951
2020-11-22,12.51063129
2020-11-23,14.70109906
2020-11-24,15.66545398
2020-11-25,14.30597523
2020-11-26,14.42598327
2020-11-27,12.08078947
2020-11-28,10.42670229
2020-11-29,9.31431091
2020-11-30,12.79311871
2020-12-01,16.97986203
2020-12-02,11.20631514
2020-12-03,11.11733844
2020-12-04,11.94728243
2020-12-05,9.20714241
2020-12-06,9.203678
2020-12-07,25.86809537
2020-12-08,11.18753096
2020-12-09,11.22588928
2020-12-10,10.12825584
2020-12-11,10.53361285
2020-12-12,10.28829522
2020-12-13,10.28253804
2020-12-14,9.56354002
2020-12-15,10.47537319
2020-12-16,15.89025612
2020-12-17,21.01470968
2020-12-18,16.55360371
2020-12-19,14.41258059
2020-12-20,13.8369241
2020-12-21,14.41360441
2020-12-22,13.66983011
2020-12-23,14.13718314
2020-12-24,12.28514114
2020-12-25,13.76511846
2020-12-26,15.30282869
2020-12-27,16.2016412
2020-12-28,15.3269687
2020-12-29,14.52177852
2020-12-30,14.36946348
2020-12-31,12.55366513
2021-01-01,11.33156047
2021-01-02,15.51780399
2021-01-03,18.59284683
2021-01-04,19.43454369
2021-01-05,17.23512263
2021-01-06,20.88501009
2021-01-07,25.70120094
2021-01-08,20.18043594
2021-01-09,18.5170973
2021-01-10,19.27653124
2021-01-11,22.32080956
2021-01-12,16.73116346
2021-01-13,13.73195559
2021-01-14,18.1028918
2021-01-15,15.17143198
2021-01-16,12.78362676
2021-01-17,11.10294312
2021-01-18,14.30354941
2021-01-19,16.12961201
2021-01-20,15.965596
2021-01-21,14.77924122
2021-01-22,12.84937547
2021-01-23,11.28345006
2021-01-24,10.74666569
2021-01-25,13.35095995
2021-01-26,11.4075529
2021-01-27,12.05347825
2021-01-28,13.54937559
2021-01-29,20.18340607
2021-01-30,15.04616831
2021-01-31,14.00645169
2021-02-01,16.92848779
2021-02-02,17.53359573
2021-02-03,17.19175123
2021-02-04,18.0415194
2021-02-05,16.73061226
2021-02-06,16.20223077
2021-02-07,15.699676
2021-02-08,19.16471758
2021-02-09,23.65588702
2021-02-10,22.23611306
2021-02-11,19.25744462
2021-02-12,19.84387949
2021-02-13,20.71625764
2021-02-14,18.40590427
2021-02-15,18.79573634
2021-02-16,19.72597844
2021-02-17,19.90302715
2021-02-18,20.25060274
2021-02-19,19.73413017
2021-02-20,19.94044222
2021-02-21,17.0887093
2021-02-22,19.44925777
2021-02-23,18.45571198
2021-02-24,17.04613707
2021-02-25,16.96219359
2021-02-26,17.08326706
2021-02-27,15.45167876
2021-02-28,14.86580472
2021-03-01,17.97467653
2021-03-02,16.37567303
2021-03-03,16.67139167
2021-03-04,17.42499504
2021-03-05,16.59713665
2021-03-06,14.02083411
2021-03-07,14.07290354
2021-03-08,15.92065165
2021-03-09,18.85322018
2021-03-10,17.91760202
2021-03-11,18.20361989
2021-03-12,22.51032761
2021-03-13,20.41213269
2021-03-14,18.10675505
2021-03-15,18.66555477
2021-03-16,18.42820309
2021-03-17,18.96817343
2021-03-18,18.873274
2021-03-19,18.37125682
2021-03-20,16.56556505
2021-03-21,16.35992537
2021-03-22,18.53952944
2021-03-23,19.74336871
2021-03-24,19.45669369
2021-03-25,16.07385351
2021-03-26,15.95853807
2021-03-27,15.66990345
2021-03-28,15.36216588
2021-03-29,19.37566333
2021-03-30,18.92226352
2021-03-31,19.55459797
2021-04-01,19.25396792
2021-04-02,19.00020813
2021-04-03,17.73803875
2021-04-04,16.02394959
2021-04-05,21.12012418
2021-04-06,25.63691556
2021-04-07,20.53249049
2021-04-08,17.19450238
2021-04-09,18.95630718
2021-04-10,20.61195183
2021-04-11,19.66832203
2021-04-12,21.22043855
2021-04-13,24.08739923
2021-04-14,24.76765407
2021-04-15,21.76603023
2021-04-16,28.52481585
2021-04-17,24.28285012
2021-04-18,22.10817337
2021-04-19,23.06395252
2021-04-20,23.635559
2021-04-21,23.14874859
2021-04-22,24.50691485
2021-04-23,23.73769637
2021-04-24,18.94235839
2021-04-25,17.54561624
2021-04-26,20.40927969
2021-04-27,21.85321851
2021-04-28,19.32019598
2021-04-29,20.10837906
2021-04-30,21.32599451
2021-05-01,21.09160473
2021-05-02,19.65734771
2021-05-03,24.31818236
2021-05-04,28.89559318
2021-05-05,29.09984465
2021-05-06,25.7972577
2021-05-07,25.68403341
2021-05-08,22.34881932
2021-05-09,23.0163649
2021-05-10,33.2788853
2021-05-11,26.7334001
2021-05-12,26.05951132
2021-05-13,25.38466686
2021-05-14,25.55942835
2021-05-15,22.13794898
2021-05-16,21.62649542
2021-05-17,24.12226472
2021-05-18,22.04805425
2021-05-19,25.35091071
2021-05-20,23.17666809
2021-05-21,21.52246746
2021-05-22,16.67388413
2021-05-23,17.09226077
2021-05-24,19.00435873
2021-05-25,16.60186579
2021-05-26,16.79896299
2021-05-27,15.59941321
2021-05-28,15.19251194
2021-05-29,13.42293312
2021-05-30,13.26471568
2021-05-31,14.45978057
2021-06-01,15.28953703
2021-06-02,15.79636963
2021-06-03,15.41300928
2021-06-04,15.99819285
2021-06-05,14.26917698
2021-06-06,12.51716402
2021-06-07,14.21913089
2021-06-08,15.44631235
2021-06-09,14.13226327
2021-06-10,15.25530372
2021-06-11,14.03788749
2021-06-12,12.76369323
2021-06-13,12.59449799
2021-06-14,14.29847978
2021-06-15,14.42279248
2021-06-16,13.58421253
2021-06-17,13.76895922
2021-06-18,13.74664622
2021-06-19,11.18332115
2021-06-20,12.38104854
2021-06-21,13.98808151
2021-06-22,15.20010495
2021-06-23,14.01882415
2021-06-24,14.9784672
2021-06-25,16.61324902
2021-06-26,12.79353579
2021-06-27,12.36728243
2021-06-28,14.41618332
2021-06-29,14.66475531
2021-06-30,14.57730141
2021-07-01,16.13840656
2021-07-02,13.94654982
2021-07-03,13.18723658
2021-07-04,12.44408911
2021-07-05,13.36539002
2021-07-06,14.5026439
2021-07-07,13.31226291
2021-07-08,14.32876288
2021-07-09,13.53465129
2021-07-10,11.52830716
2021-07-11,13.61213205
2021-07-12,13.35806083
2021-07-13,13.39808962
2021-07-14,12.71430861
2021-07-15,13.37839127
2021-07-16,13.42961255
2021-07-17,13.5589468
2021-07-18,13.29263875
2021-07-19,15.82672825
2021-07-20,14.0487318
2021-07-21,13.95180424
2021-07-22,13.47793262
2021-07-23,13.4829679
2021-07-24,12.81025458
2021-07-25,12.95929896
2021-07-26,16.29952121
2021-07-27,14.92412547
2021-07-28,13.84382535
2021-07-29,13.69803051
2021-07-30,13.02397461
2021-07-31,13.54911012
2021-08-01,12.10882554
2021-08-02,14.73651224
2021-08-03,14.00000068
2021-08-04,13.08648469
2021-08-05,14.63934264
2021-08-06,14.76027213
2021-08-07,14.91674362
2021-08-08,15.67704041
2021-08-09,15.41688854
2021-08-10,15.84039352
2021-08-11,15.64082699
2021-08-12,14.50395278
2021-08-13,14.83817322
2021-08-14,12.98162136
2021-08-15,13.13370234
2021-08-16,15.69910101
2021-08-17,15.61005176
2021-08-18,14.50031665
2021-08-19,14.08141893
2021-08-20,16.13081807
2021-08-21,13.83975168
2021-08-22,13.08762767
2021-08-23,17.41185135
2021-08-24,18.96161601
2021-08-25,16.36608242
2021-08-26,14.57068358
2021-08-27,14.92537221
2021-08-28,13.99468315
2021-08-29,13.90395335
2021-08-30,15.12332865
2021-08-31,16.62049046
2021-09-01,16.12130997
2021-09-02,17.62591405
2021-09-03,18.65743079
2021-09-04,15.95272211
2021-09-05,16.17635118
2021-09-06,17.59764428
2021-09-07,18.29866853
2021-09-08,18.44792706
2021-09-09,17.5869058
2021-09-10,19.02090316
2021-09-11,14.2555697
2021-09-12,13.49959441
2021-09-13,16.30318225
2021-09-14,17.14850039
2021-09-15,16.84584133
2021-09-16,16.83802281
2021-09-17,16.01043259
2021-09-18,15.52456082
2021-09-19,13.88758849
2021-09-20,16.66514676
2021-09-21,17.04314453
2021-09-22,14.93145053
2021-09-23,15.63037892
2021-09-24,14.34834994
2021-09-25,12.89792918
2021-09-26,13.76038681
2021-09-27,15.10098696
2021-09-28,15.80425201
2021-09-29,14.40147276
2021-09-30,15.36375152
2021-10-01,17.00555461
2021-10-02,15.62725879
2021-10-03,14.72344037
2021-10-04,14.78405416
2021-10-05,17.60800109
2021-10-06,20.65459687
2021-10-07,19.25156103
2021-10-08,16.69199493
2021-10-09,16.45416544
2021-10-10,16.68672802
2021-10-11,17.5238254
2021-10-12,16.48391477
2021-10-13,18.50233343
2021-10-14,19.21430716
2021-10-15,20.40367002
2021-10-16,17.97338325
2021-10-17,14.23206635
2021-10-18,15.63327101
2021-10-19,15.84995668
2021-10-20,18.31085617
2021-10-21,18.74265371
2021-10-22,17.46398186
2021-10-23,15.89031213
2021-10-24,16.18753918
2021-10-25,17.70086433
2021-10-26,18.99435369
2021-10-27,22.0125268
2021-10-28,18.95997247
2021-10-29,20.47806854
2021-10-30,17.53633836
2021-10-31,16.88194716
2021-11-01,19.88259173
2021-11-02,20.5222025
2021-11-03,21.67684295
2021-11-04,20.85531121
2021-11-05,21.0848924
2021-11-06,17.26568561
2021-11-07,17.06708141
2021-11-08,21.56846586
2021-11-09,26.14753898
2021-11-10,24.26105272
2021-11-11,20.87603529
2021-11-12,20.11898856
2021-11-13,17.96017391
2021-11-14,17.71197416
2021-11-15,19.35784784
2021-11-16,17.95358533
2021-11-17,16.97231195
2021-11-18,16.67655526
2021-11-19,17.29769393
2021-11-20,15.37310132
2021-11-21,15.04985134
2021-11-22,16.66076376
2021-11-23,16.4717336
2021-11-24,16.54632118
2021-11-25,17.79494733
2021-11-26,17.97458047
2021-11-27,15.64713741
2021-11-28,15.50010535
2021-11-29,16.82829872
2021-11-30,18.09352184
2021-12-01,18.71483378
2021-12-02,17.42130586
2021-12-03,17.62399732
2021-12-04,17.21871395
2021-12-05,15.57815783
2021-12-06,17.09757404
2021-12-07,17.82471535
2021-12-08,16.98794094
2021-12-09,17.77285572
2021-12-10,17.59405371
2021-12-11,10.14854237
2021-12-12,11.33056334
2021-12-13,17.33046408
2021-12-14,17.21620534
2021-12-15,17.98803574
2021-12-16,16.10764477
2021-12-17,15.73411857
2021-12-18,14.45614129
2021-12-19,14.62861331
2021-12-20,16.53874659
2021-12-21,16.72003376
2021-12-22,17.73982874
2021-12-23,15.80168016
2021-12-24,15.51554817
2021-12-25,12.48199783
2021-12-26,13.70300975
2021-12-27,16.07079469
2021-12-28,15.35150226
2021-12-29,15.83188522
2021-12-30,17.2370988
2021-12-31,15.51073322
2022-01-01,13.233468
2022-01-02,13.58904888
2022-01-03,15.32265735
2022-01-04,15.85081712
2022-01-05,15.28275995
2022-01-06,15.13178939
2022-01-07,15.21372643
2022-01-08,14.41129914
2022-01-09,14.28664606
2022-01-10,17.16824694
2022-01-11,16.0489972
2022-01-12,17.38810246
2022-01-13,15.87678744
2022-01-14,15.40355578
2022-01-15,16.18285361
2022-01-16,14.08168325
2022-01-17,16.57091514
2022-01-18,16.30382472
2022-01-19,15.02831646
2022-01-20,16.14574685
2022-01-21,16.51387192
2022-01-22,15.53471209
2022-01-23,14.1881955
2022-01-24,15.44175178
2022-01-25,15.88719071
2022-01-26,14.63003802
2022-01-27,14.89950531
2022-01-28,15.58614742
2022-01-29,14.24189928
2022-01-30,14.04284336
2022-01-31,15.7122454
2022-02-01,16.09053029
2022-02-02,16.59953307
2022-02-03,14.95381123
2022-02-04,16.33210185
2022-02-05,15.39575679
2022-02-06,15.03171738
2022-02-07,15.69375511
2022-02-08,17.52353777
2022-02-09,16.73198843
2022-02-10,16.76820777
2022-02-11,16.70500608
2022-02-12,16.82989065
2022-02-13,17.58163128
2022-02-14,16.01665609
2022-02-15,16.3845823
2022-02-16,16.96206771
2022-02-17,16.15746225
2022-02-18,18.10407839
2022-02-19,21.64692887
2022-02-20,15.48652102
2022-02-21,15.8053973
2022-02-22,15.44582333
2022-02-23,15.08134348
2022-02-24,16.28901211
2022-02-25,15.79692202
2022-02-26,15.13418272
2022-02-27,13.43592091
2022-02-28,17.04141864
2022-03-01,18.51226797
2022-03-02,17.41460664
2022-03-03,16.21664169
2022-03-04,16.46703963
2022-03-05,15.6521893
2022-03-06,14.70982338
2022-03-07,16.52267558
2022-03-08,16.3667507
2022-03-09,17.47762102
2022-03-10,16.12601323
2022-03-11,16.45459601
2022-03-12,16.75033302
2022-03-13,15.77279856
2022-03-14,16.00770388
2022-03-15,19.89633774
2022-03-16,17.08680569
2022-03-17,17.97532458
2022-03-18,17.57399782
2022-03-19,17.27933866
2022-03-20,17.21990053
2022-03-21,16.56172848
2022-03-22,17.9669714
2022-03-23,16.97208519
2022-03-24,17.11627653
2022-03-25,17.32580346
2022-03-26,16.60946232
2022-03-27,16.00253078
2022-03-28,18.21196135
2022-03-29,18.02493601
2022-03-30,20.18556942
2022-03-31,19.0161109
2022-04-01,16.48693236
2022-04-02,16.28015245
2022-04-03,15.86978199
2022-04-04,16.85180196
2022-04-05,18.22693527
2022-04-06,19.09649674
2022-04-07,17.74293142
