t,v
2020-11-03,0
2020-11-04,363
2020-11-05,1015
2020-11-06,1253
2020-11-07,1371
2020-11-08,1498
2020-11-09,1549
2020-11-10,1653
2020-11-11,1804
2020-11-12,1870
2020-11-13,1983
2020-11-14,2520
2020-11-15,2899
2020-11-16,3069
2020-11-17,3138
2020-11-18,3258
2020-11-19,3347
2020-11-20,4630
2020-11-21,7379
2020-11-22,8837
2020-11-23,14374
2020-11-24,22000
2020-11-25,23094
2020-11-26,24223
2020-11-27,25037
2020-11-28,25721
2020-11-29,26222
2020-11-30,27041
2020-12-01,28288
2020-12-02,30577
2020-12-03,31043
2020-12-04,33441
2020-12-05,34707
2020-12-06,35742
2020-12-07,37160
2020-12-08,39709
2020-12-09,41034
2020-12-10,42902
2020-12-11,44088
2020-12-12,44864
2020-12-13,45664
2020-12-14,46305
2020-12-15,46939
2020-12-16,47497
2020-12-17,48126
2020-12-18,48692
2020-12-19,50808
2020-12-20,52853
2020-12-21,55870
2020-12-22,60004
2020-12-23,62598
2020-12-24,62941
2020-12-25,63287
2020-12-26,63648
2020-12-27,64957
2020-12-28,65969
2020-12-29,66393
2020-12-30,67158
2020-12-31,67810
2021-01-01,68222
2021-01-02,68621
2021-01-03,68881
2021-01-04,70026
2021-01-05,70657
2021-01-06,71434
2021-01-07,72033
2021-01-08,72875
2021-01-09,73366
2021-01-10,73742
2021-01-11,75163
2021-01-12,75995
2021-01-13,76843
2021-01-14,78237
2021-01-15,78624
2021-01-16,79162
2021-01-17,79367
2021-01-18,81020
2021-01-19,84528
2021-01-20,86784
2021-01-21,86898
2021-01-22,87258
2021-01-23,87840
2021-01-24,88258
2021-01-25,88481
2021-01-26,88737
2021-01-27,88940
2021-01-28,89297
2021-01-29,89763
2021-01-30,89946
2021-01-31,90295
2021-02-01,90535
2021-02-02,90960
2021-02-03,91659
2021-02-04,91833
2021-02-05,92072
2021-02-06,92427
2021-02-07,92922
2021-02-08,93125
2021-02-09,93699
2021-02-10,94775
2021-02-11,95137
2021-02-12,95723
2021-02-13,95867
2021-02-14,96452
2021-02-15,96675
2021-02-16,96927
2021-02-17,97914
2021-02-18,98689
2021-02-19,98991
2021-02-20,99279
2021-02-21,99668
2021-02-22,100210
2021-02-23,100351
2021-02-24,101266
2021-02-25,102806
2021-02-26,103394
2021-02-27,103634
2021-02-28,103765
2021-03-01,104121
2021-03-02,104540
2021-03-03,104750
2021-03-04,105082
2021-03-05,106534
2021-03-06,106697
2021-03-07,107059
2021-03-08,107515
2021-03-09,108062
2021-03-10,108579
2021-03-11,108755
2021-03-12,109038
2021-03-13,109252
2021-03-14,110090
2021-03-15,110170
2021-03-16,110336
2021-03-17,110538
2021-03-18,110791
2021-03-19,111002
2021-03-20,111119
2021-03-21,111196
2021-03-22,111297
2021-03-23,111429
2021-03-24,111683
2021-03-25,111836
2021-03-26,111955
2021-03-27,112356
2021-03-28,112514
2021-03-29,112694
2021-03-30,112998
2021-03-31,113148
2021-04-01,113397
2021-04-02,113864
2021-04-03,115024
2021-04-04,115573
2021-04-05,115891
2021-04-06,116269
2021-04-07,117330
2021-04-08,117540
2021-04-09,117678
2021-04-10,118051
2021-04-11,118442
2021-04-12,119056
2021-04-13,119307
2021-04-14,119516
2021-04-15,120322
2021-04-16,120620
2021-04-17,120909
2021-04-18,121023
2021-04-19,121289
2021-04-20,121795
2021-04-21,122406
2021-04-22,122907
2021-04-23,123345
2021-04-24,123751
2021-04-25,124087
2021-04-26,124781
2021-04-27,125684
2021-04-28,126246
2021-04-29,127102
2021-04-30,127355
2021-05-01,128329
2021-05-02,128522
2021-05-03,129424
2021-05-04,130991
2021-05-05,133475
2021-05-06,134360
2021-05-07,137077
2021-05-08,137980
2021-05-09,138147
2021-05-10,138478
2021-05-11,139165
2021-05-12,140484
2021-05-13,142407
2021-05-14,143296
2021-05-15,143770
2021-05-16,144072
2021-05-17,145238
2021-05-18,146088
2021-05-19,147181
2021-05-20,147743
2021-05-21,148583
2021-05-22,150195
2021-05-23,151202
2021-05-24,152185
2021-05-25,154422
2021-05-26,158335
2021-05-27,161267
2021-05-28,161401
2021-05-29,162246
2021-05-30,162503
2021-05-31,162770
2021-06-01,163031
2021-06-02,163478
2021-06-03,165578
2021-06-04,166192
2021-06-05,166675
2021-06-06,166774
2021-06-07,167056
2021-06-08,167656
2021-06-09,169322
2021-06-10,170179
2021-06-11,170804
2021-06-12,171865
2021-06-13,172589
2021-06-14,172795
2021-06-15,173576
2021-06-16,175616
2021-06-17,176548
2021-06-18,177221
2021-06-19,177858
2021-06-20,178564
2021-06-21,178743
2021-06-22,179422
2021-06-23,183613
2021-06-24,184135
2021-06-25,184729
2021-06-26,185186
2021-06-27,185245
2021-06-28,185373
2021-06-29,186751
2021-06-30,187535
2021-07-01,188652
2021-07-02,189744
2021-07-03,189971
2021-07-04,190151
2021-07-05,190913
2021-07-06,193826
2021-07-07,194205
2021-07-08,194800
2021-07-09,195273
2021-07-10,195446
2021-07-11,195511
2021-07-12,195655
2021-07-13,196028
2021-07-14,196331
2021-07-15,196677
2021-07-16,197802
2021-07-17,198224
2021-07-18,198279
2021-07-19,198347
2021-07-20,198642
2021-07-21,199042
2021-07-22,199290
2021-07-23,200105
2021-07-24,200328
2021-07-25,200376
2021-07-26,200410
2021-07-27,200766
2021-07-28,201231
2021-07-29,201458
2021-07-30,201882
2021-07-31,202080
2021-08-01,202398
2021-08-02,202480
2021-08-03,203161
2021-08-04,204075
2021-08-05,204768
2021-08-06,205071
2021-08-07,205444
2021-08-08,205688
2021-08-09,206216
2021-08-10,207017
2021-08-11,207854
2021-08-12,208274
2021-08-13,208804
2021-08-14,209709
2021-08-15,210065
2021-08-16,210509
2021-08-17,213489
2021-08-18,216541
2021-08-19,218611
2021-08-20,219363
2021-08-21,220616
2021-08-22,221497
2021-08-23,222398
2021-08-24,223010
2021-08-25,223187
2021-08-26,223412
2021-08-27,223658
2021-08-28,224849
2021-08-29,226633
2021-08-30,227007
2021-08-31,227324
2021-09-01,228037
2021-09-02,230505
2021-09-03,231169
2021-09-04,231365
2021-09-05,233451
2021-09-06,233921
2021-09-07,234596
2021-09-08,235205
2021-09-09,235709
2021-09-10,236439
2021-09-11,238520
2021-09-12,238694
2021-09-13,238850
2021-09-14,239317
2021-09-15,239616
2021-09-16,239729
2021-09-17,240088
2021-09-18,241200
2021-09-19,241348
2021-09-20,241530
2021-09-21,241840
2021-09-22,242261
2021-09-23,242529
2021-09-24,242705
2021-09-25,242936
2021-09-26,243076
2021-09-27,243162
2021-09-28,243773
2021-09-29,243978
2021-09-30,244184
2021-10-01,244316
2021-10-02,244446
2021-10-03,244727
2021-10-04,244887
2021-10-05,246652
2021-10-06,246835
2021-10-07,247146
2021-10-08,247298
2021-10-09,247448
2021-10-10,247588
2021-10-11,247751
2021-10-12,247876
2021-10-13,248014
2021-10-14,248205
2021-10-15,248981
2021-10-16,249127
2021-10-17,249224
2021-10-18,249354
2021-10-19,249446
2021-10-20,249586
2021-10-21,249761
2021-10-22,249916
2021-10-23,250055
2021-10-24,250146
2021-10-25,250354
2021-10-26,250521
2021-10-27,250730
2021-10-28,250853
2021-10-29,251500
2021-10-30,252582
2021-10-31,252652
2021-11-01,252915
2021-11-02,253936
2021-11-03,254184
2021-11-04,254380
2021-11-05,255657
2021-11-06,255800
2021-11-07,256066
2021-11-08,256315
2021-11-09,256445
2021-11-10,256675
2021-11-11,256968
2021-11-12,257268
2021-11-13,257383
2021-11-14,257531
2021-11-15,257928
2021-11-16,259299
2021-11-17,259554
2021-11-18,259849
2021-11-19,260142
2021-11-20,260332
2021-11-21,260548
2021-11-22,261062
2021-11-23,261728
2021-11-24,262036
2021-11-25,262312
2021-11-26,262688
2021-11-27,262925
2021-11-28,263311
2021-11-29,263483
2021-11-30,263918
2021-12-01,264761
2021-12-02,265195
2021-12-03,265931
2021-12-04,266167
2021-12-05,266602
2021-12-06,266888
2021-12-07,267622
2021-12-08,267929
2021-12-09,268215
2021-12-10,268485
2021-12-11,268867
2021-12-12,269152
2021-12-13,269438
2021-12-14,270143
2021-12-15,270660
2021-12-16,271021
2021-12-17,271571
2021-12-18,271972
2021-12-19,272661
2021-12-20,273131
2021-12-21,273502
2021-12-22,273792
2021-12-23,273952
2021-12-24,274395
2021-12-25,274578
2021-12-26,274742
2021-12-27,275050
2021-12-28,275226
2021-12-29,275457
2021-12-30,275800
2021-12-31,276024
2022-01-01,276450
2022-01-02,276885
2022-01-03,277530
2022-01-04,278403
2022-01-05,278891
2022-01-06,279390
2022-01-07,279888
2022-01-08,280377
2022-01-09,280557
2022-01-10,280933
2022-01-11,281221
2022-01-12,281432
2022-01-13,281713
2022-01-14,282123
2022-01-15,282468
2022-01-16,282695
2022-01-17,282940
2022-01-18,283168
2022-01-19,284108
2022-01-20,284227
2022-01-21,284503
2022-01-22,285237
2022-01-23,286759
2022-01-24,287081
2022-01-25,287674
2022-01-26,287887
2022-01-27,288363
2022-01-28,288686
2022-01-29,289123
2022-01-30,289287
2022-01-31,289531
2022-02-01,289823
2022-02-02,290006
2022-02-03,290256
2022-02-04,290842
2022-02-05,291163
2022-02-06,291371
2022-02-07,291712
2022-02-08,292241
2022-02-09,292482
2022-02-10,293063
2022-02-11,293602
2022-02-12,293757
2022-02-13,294426
2022-02-14,294640
2022-02-15,295348
2022-02-16,295773
2022-02-17,295973
2022-02-18,296404
2022-02-19,296609
2022-02-20,296846
2022-02-21,296925
2022-02-22,297431
2022-02-23,299092
2022-02-24,299441
2022-02-25,299890
2022-02-26,300343
2022-02-27,300828
2022-02-28,301570
2022-03-01,302873
2022-03-02,303623
2022-03-03,304975
2022-03-04,305926
2022-03-05,306673
2022-03-06,307089
2022-03-07,308923
2022-03-08,310253
2022-03-09,311998
2022-03-10,313263
2022-03-11,314303
2022-03-12,315021
2022-03-13,315290
2022-03-14,316517
2022-03-15,322837
2022-03-16,324839
2022-03-17,326374
2022-03-18,327961
2022-03-19,331509
2022-03-20,331935
2022-03-21,332210
2022-03-22,333022
2022-03-23,334161
2022-03-24,334808
2022-03-25,335517
2022-03-26,335918
2022-03-27,336186
2022-03-28,336562
2022-03-29,337296
2022-03-30,339352
2022-03-31,343142
2022-04-01,344434
2022-04-02,345245
2022-04-03,346503
2022-04-04,347006
2022-04-05,349111
2022-04-06,350124
2022-04-07,351646
