t,v
2015-08-07,0.022928240740740742
2015-08-08,0.017974537037037035
2015-08-09,0.014398148148148148
2015-08-10,0.01765046296296296
2015-08-11,0.03803240740740741
2015-08-12,0.02096064814814815
2015-08-13,0.03013888888888889
2015-08-14,0.03542824074074074
2015-08-15,0.025219907407407406
2015-08-16,0.027233796296296298
2015-08-17,0.028449074074074075
2015-08-18,0.027916666666666666
2015-08-19,0.036828703703703704
2015-08-20,0.025729166666666668
2015-08-21,0.04474537037037037
2015-08-22,0.040636574074074075
2015-08-23,0.047280092592592596
2015-08-24,0.05099537037037037
2015-08-25,0.049837962962962966
2015-08-26,0.04712962962962963
2015-08-27,0.06357638888888889
2015-08-28,0.05423611111111111
2015-08-29,0.04717592592592593
2015-08-30,0.05210648148148148
2015-08-31,0.05935185185185185
2015-09-01,0.05856481481481481
2015-09-02,0.059097222222222225
2015-09-03,0.053391203703703705
2015-09-04,0.058194444444444444
2015-09-05,0.06255787037037037
2015-09-06,0.06297453703703704
2015-09-07,0.06342592592592593
2015-09-08,0.06438657407407407
2015-09-09,0.06368055555555556
2015-09-10,0.060300925925925924
2015-09-11,0.07280092592592592
2015-09-12,0.06305555555555556
2015-09-13,0.0681712962962963
2015-09-14,0.06292824074074074
2015-09-15,0.06163194444444445
2015-09-16,0.0637037037037037
2015-09-17,0.05803240740740741
2015-09-18,0.06427083333333333
2015-09-19,0.05837962962962963
2015-09-20,0.07234953703703703
2015-09-21,0.07125
2015-09-22,0.07774305555555555
2015-09-23,0.08394675925925926
2015-09-24,0.07084490740740741
2015-09-25,0.06591435185185185
2015-09-26,0.06759259259259259
2015-09-27,0.06572916666666667
2015-09-28,0.06940972222222222
2015-09-29,0.06510416666666667
2015-09-30,0.06650462962962964
2015-10-01,0.0730787037037037
2015-10-02,0.06877314814814815
2015-10-03,0.06953703703703704
2015-10-04,0.07560185185185185
2015-10-05,0.06978009259259259
2015-10-06,0.07268518518518519
2015-10-07,0.07953703703703703
2015-10-08,0.07825231481481482
2015-10-09,0.076875
2015-10-10,0.07508101851851852
2015-10-11,0.06912037037037037
2015-10-12,0.07371527777777778
2015-10-13,0.07623842592592593
2015-10-14,0.07689814814814815
2015-10-15,0.0714236111111111
2015-10-16,0.07532407407407407
2015-10-17,0.07262731481481481
2015-10-18,0.07101851851851852
2015-10-19,0.07339120370370371
2015-10-20,0.06645833333333333
2015-10-21,0.06984953703703704
2015-10-22,0.062141203703703705
2015-10-23,0.07241898148148149
2015-10-24,0.06635416666666667
2015-10-25,0.0627199074074074
2015-10-26,0.06496527777777777
2015-10-27,0.07381944444444444
2015-10-28,0.07435185185185185
2015-10-29,0.07983796296296296
2015-10-30,0.0867824074074074
2015-10-31,0.08185185185185186
2015-11-01,0.07537037037037037
2015-11-02,0.07199074074074074
2015-11-03,0.08068287037037038
2015-11-04,0.0785300925925926
2015-11-05,0.08268518518518518
2015-11-06,0.08212962962962964
2015-11-07,0.0897337962962963
2015-11-08,0.13297453703703704
2015-11-09,0.08502314814814815
2015-11-10,0.0815162037037037
2015-11-11,0.08319444444444445
2015-11-12,0.08144675925925926
2015-11-13,0.07966435185185185
2015-11-14,0.07952546296296296
2015-11-15,0.0796875
2015-11-16,0.08177083333333333
2015-11-17,0.0793287037037037
2015-11-18,0.08194444444444444
2015-11-19,0.08094907407407408
2015-11-20,0.07006944444444445
2015-11-21,0.07572916666666667
2015-11-22,0.07883101851851852
2015-11-23,0.08082175925925926
2015-11-24,0.07916666666666666
2015-11-25,0.07868055555555556
2015-11-26,0.08116898148148148
2015-11-27,0.07255787037037037
2015-11-28,0.0745138888888889
2015-11-29,0.075625
2015-11-30,0.07504629629629629
2015-12-01,0.07462962962962963
2015-12-02,0.07018518518518518
2015-12-03,0.0763888888888889
2015-12-04,0.07383101851851852
2015-12-05,0.07417824074074074
2015-12-06,0.09871527777777778
2015-12-07,0.07924768518518518
2015-12-08,0.07379629629629629
2015-12-09,0.07744212962962962
2015-12-10,0.08092592592592593
2015-12-11,0.08962962962962963
2015-12-12,0.09060185185185185
2015-12-13,0.08077546296296297
2015-12-14,0.1741087962962963
2015-12-15,0.1563425925925926
2015-12-16,0.11576388888888889
2015-12-17,0.106875
2015-12-18,0.0983912037037037
2015-12-19,0.10423611111111111
2015-12-20,0.09908564814814814
2015-12-21,0.1041087962962963
2015-12-22,0.23965277777777777
2015-12-23,0.10818287037037037
2015-12-24,0.11675925925925926
2015-12-25,0.10758101851851852
2015-12-26,0.10605324074074074
2015-12-27,0.12152777777777778
2015-12-28,0.12717592592592591
2015-12-29,0.12030092592592592
2015-12-30,0.10663194444444445
2015-12-31,0.11430555555555555
2016-01-01,0.09265046296296296
2016-01-02,0.10202546296296296
2016-01-03,0.10438657407407408
2016-01-04,0.10490740740740741
2016-01-05,0.12925925925925927
2016-01-06,0.14471064814814816
2016-01-07,0.12217592592592592
2016-01-08,0.12163194444444445
2016-01-09,0.12737268518518519
2016-01-10,0.11403935185185185
2016-01-11,0.12096064814814815
2016-01-12,0.12231481481481482
2016-01-13,0.1341550925925926
2016-01-14,0.11795138888888888
2016-01-15,0.10997685185185185
2016-01-16,0.1112962962962963
2016-01-17,0.09983796296296296
2016-01-18,0.11637731481481481
2016-01-19,0.10984953703703704
2016-01-20,0.11644675925925926
2016-01-21,0.11835648148148148
2016-01-22,0.1136574074074074
2016-01-23,0.12240740740740741
2016-01-24,0.13133101851851853
2016-01-25,0.15476851851851853
2016-01-26,0.15975694444444444
2016-01-27,0.17988425925925927
2016-01-28,0.18733796296296296
2016-01-29,0.17841435185185187
2016-01-30,0.16427083333333334
2016-01-31,0.15802083333333333
2016-02-01,0.15859953703703702
2016-02-02,0.15324074074074073
2016-02-03,0.1600462962962963
2016-02-04,0.15824074074074074
2016-02-05,0.16927083333333334
2016-02-06,0.15534722222222222
2016-02-07,0.15891203703703705
2016-02-08,0.1643865740740741
2016-02-09,0.17417824074074073
2016-02-10,0.1922222222222222
2016-02-11,0.23716435185185186
2016-02-12,0.20527777777777778
2016-02-13,0.21637731481481481
2016-02-14,0.18800925925925926
2016-02-15,0.19167824074074075
2016-02-16,0.19453703703703704
2016-02-17,0.19519675925925925
2016-02-18,0.18878472222222223
2016-02-19,0.19850694444444444
2016-02-20,0.18761574074074075
2016-02-21,0.19337962962962962
2016-02-22,0.20298611111111112
2016-02-23,0.20121527777777778
2016-02-24,0.2099074074074074
2016-02-25,0.22078703703703703
2016-02-26,0.20879629629629629
2016-02-27,0.21283564814814815
2016-02-28,0.21391203703703704
2016-02-29,0.22284722222222222
2016-03-01,0.24453703703703702
2016-03-02,0.26730324074074074
2016-03-03,0.28177083333333336
2016-03-04,0.2730902777777778
2016-03-05,0.30516203703703704
2016-03-06,0.2881134259259259
2016-03-07,0.26104166666666667
2016-03-08,0.27238425925925924
2016-03-09,0.2770486111111111
2016-03-10,0.28180555555555553
2016-03-11,0.2628240740740741
2016-03-12,0.3165046296296296
2016-03-13,0.32092592592592595
2016-03-14,0.32320601851851855
2016-03-15,0.33243055555555556
2016-03-16,0.3138425925925926
2016-03-17,0.36092592592592593
2016-03-18,0.361099537037037
2016-03-19,0.32538194444444446
2016-03-20,0.33458333333333334
2016-03-21,0.36181712962962964
2016-03-22,0.3686111111111111
2016-03-23,0.34466435185185185
2016-03-24,0.38908564814814817
2016-03-25,0.34541666666666665
2016-03-26,0.32592592592592595
2016-03-27,0.3424537037037037
2016-03-28,0.3838773148148148
2016-03-29,0.3705439814814815
2016-03-30,0.4079050925925926
2016-03-31,0.3550462962962963
2016-04-01,0.378587962962963
2016-04-02,0.3338888888888889
2016-04-03,0.33800925925925923
2016-04-04,0.39077546296296295
2016-04-05,0.35432870370370373
2016-04-06,0.3628587962962963
2016-04-07,0.36280092592592594
2016-04-08,0.3881597222222222
2016-04-09,0.36413194444444447
2016-04-10,0.3669791666666667
2016-04-11,0.34608796296296296
2016-04-12,0.37300925925925926
2016-04-13,0.3617939814814815
2016-04-14,0.36583333333333334
2016-04-15,0.35609953703703706
2016-04-16,0.3478819444444444
2016-04-17,0.3668865740740741
2016-04-18,0.3825
2016-04-19,0.3731712962962963
2016-04-20,0.37091435185185184
2016-04-21,0.3652314814814815
2016-04-22,0.3569675925925926
2016-04-23,0.36214120370370373
2016-04-24,0.3859722222222222
2016-04-25,0.37072916666666667
2016-04-26,0.3649189814814815
2016-04-27,0.37408564814814815
2016-04-28,0.3759722222222222
2016-04-29,0.397025462962963
2016-04-30,0.4491435185185185
2016-05-01,0.4185763888888889
2016-05-02,0.4647337962962963
2016-05-03,0.42260416666666667
2016-05-04,0.41300925925925924
2016-05-05,0.41552083333333334
2016-05-06,0.4258912037037037
2016-05-07,0.3985648148148148
2016-05-08,0.4444212962962963
2016-05-09,0.4241550925925926
2016-05-10,0.45211805555555556
2016-05-11,0.44375
2016-05-12,0.4882060185185185
2016-05-13,0.5243865740740741
2016-05-14,0.5057523148148149
2016-05-15,0.4426736111111111
2016-05-16,0.41650462962962964
2016-05-17,0.4455208333333333
2016-05-18,0.5112152777777778
2016-05-19,0.48417824074074073
2016-05-20,0.4726736111111111
2016-05-21,0.45991898148148147
2016-05-22,0.42552083333333335
2016-05-23,0.48613425925925924
2016-05-24,0.4772337962962963
2016-05-25,0.47759259259259257
2016-05-26,0.5513194444444445
2016-05-27,0.5238425925925926
2016-05-28,0.5400578703703703
2016-05-29,0.45337962962962963
2016-05-30,0.4401157407407407
2016-05-31,0.4563773148148148
2016-06-01,0.4326157407407407
2016-06-02,0.430625
2016-06-03,0.4348726851851852
2016-06-04,0.40011574074074074
2016-06-05,0.412974537037037
2016-06-06,0.4207060185185185
2016-06-07,0.4293634259259259
2016-06-08,0.4374884259259259
2016-06-09,0.4264699074074074
2016-06-10,0.42483796296296295
2016-06-11,0.3881134259259259
2016-06-12,0.4554861111111111
2016-06-13,0.4720138888888889
2016-06-14,0.5033333333333333
2016-06-15,0.4624537037037037
2016-06-16,0.44394675925925925
2016-06-17,0.5914351851851852
2016-06-18,0.5471759259259259
2016-06-19,0.508900462962963
2016-06-20,0.4583449074074074
2016-06-21,0.48574074074074075
2016-06-22,0.49166666666666664
2016-06-23,0.4423148148148148
2016-06-24,0.45730324074074075
2016-06-25,0.3981134259259259
2016-06-26,0.45024305555555555
2016-06-27,0.4287152777777778
2016-06-28,0.46377314814814813
2016-06-29,0.4438888888888889
2016-06-30,0.43909722222222225
2016-07-01,0.4325115740740741
2016-07-02,0.43483796296296295
2016-07-03,0.4307638888888889
2016-07-04,0.42930555555555555
2016-07-05,0.42207175925925927
2016-07-06,0.41510416666666666
2016-07-07,0.4440162037037037
2016-07-08,0.4443171296296296
2016-07-09,0.4259722222222222
2016-07-10,0.43148148148148147
2016-07-11,0.42462962962962963
2016-07-12,0.43613425925925925
2016-07-13,0.38913194444444443
2016-07-14,0.4557291666666667
2016-07-15,0.4417361111111111
2016-07-16,0.41130787037037037
2016-07-17,0.3778009259259259
2016-07-18,0.4129513888888889
2016-07-19,0.47827546296296297
2016-07-20,0.4781712962962963
2016-07-21,0.45197916666666665
2016-07-22,0.5027199074074075
2016-07-23,0.4635300925925926
2016-07-24,0.6224421296296296
2016-07-25,0.585474537037037
2016-07-26,0.6758796296296297
2016-07-27,0.5342939814814814
2016-07-28,0.5269675925925926
2016-07-29,0.49769675925925927
2016-07-30,0.45534722222222224
2016-07-31,0.5008564814814814
2016-08-01,0.5007638888888889
2016-08-02,0.5282638888888889
2016-08-03,0.5379282407407407
2016-08-04,0.518599537037037
2016-08-05,0.4821875
2016-08-06,0.4675810185185185
2016-08-07,0.4778125
2016-08-08,0.47542824074074075
2016-08-09,0.5173611111111112
2016-08-10,0.495
2016-08-11,0.5320717592592593
2016-08-12,0.47063657407407405
2016-08-13,0.4459490740740741
2016-08-14,0.45873842592592595
2016-08-15,0.47197916666666667
2016-08-16,0.4944212962962963
2016-08-17,0.47708333333333336
2016-08-18,0.4864699074074074
2016-08-19,0.472650462962963
2016-08-20,0.45219907407407406
2016-08-21,0.4711574074074074
2016-08-22,0.47203703703703703
2016-08-23,0.5121064814814815
2016-08-24,0.4810763888888889
2016-08-25,0.5066087962962963
2016-08-26,0.475162037037037
2016-08-27,0.4890509259259259
2016-08-28,0.47375
2016-08-29,0.46533564814814815
2016-08-30,0.4805671296296296
2016-08-31,0.5027546296296296
2016-09-01,0.5125347222222222
2016-09-02,0.48866898148148147
2016-09-03,0.4828472222222222
2016-09-04,0.4747222222222222
2016-09-05,0.47215277777777775
2016-09-06,0.49649305555555556
2016-09-07,0.45773148148148146
2016-09-08,0.5278125
2016-09-09,0.5037268518518518
2016-09-10,0.46890046296296295
2016-09-11,0.4852199074074074
2016-09-12,0.48539351851851853
2016-09-13,0.4699652777777778
2016-09-14,0.5077777777777778
2016-09-15,0.49950231481481483
2016-09-16,0.5359027777777777
2016-09-17,0.4924537037037037
2016-09-18,0.4140740740740741
2016-09-19,0.4571412037037037
2016-09-20,0.5866435185185185
2016-09-21,0.4709143518518519
2016-09-22,0.4332986111111111
2016-09-23,0.38957175925925924
2016-09-24,0.4331597222222222
2016-09-25,0.42413194444444446
2016-09-26,0.4509722222222222
2016-09-27,0.4363078703703704
2016-09-28,0.4304513888888889
2016-09-29,0.44635416666666666
2016-09-30,0.3969560185185185
2016-10-01,0.45222222222222225
2016-10-02,0.482974537037037
2016-10-03,0.44984953703703706
2016-10-04,0.5088194444444445
2016-10-05,0.3487152777777778
2016-10-06,0.34296296296296297
2016-10-07,0.4113888888888889
2016-10-08,0.3946064814814815
2016-10-09,0.4679513888888889
2016-10-10,0.47631944444444446
2016-10-11,0.40872685185185187
2016-10-12,0.25430555555555556
2016-10-13,0.1985185185185185
2016-10-14,0.3502314814814815
2016-10-15,0.25730324074074074
2016-10-16,0.35746527777777776
2016-10-17,0.38988425925925924
2016-10-18,0.4979166666666667
2016-10-19,0.30444444444444446
2016-10-20,0.44332175925925926
2016-10-21,0.6133101851851852
2016-10-22,0.415474537037037
2016-10-23,0.3960532407407407
2016-10-24,0.44741898148148146
2016-10-25,0.428275462962963
2016-10-26,0.4353125
2016-10-27,0.435625
2016-10-28,0.4310648148148148
2016-10-29,0.4085648148148148
2016-10-30,0.389224537037037
2016-10-31,0.4777546296296296
2016-11-01,0.4544212962962963
2016-11-02,0.44479166666666664
2016-11-03,0.43802083333333336
2016-11-04,0.3449421296296296
2016-11-05,0.40424768518518517
2016-11-06,0.36908564814814815
2016-11-07,0.4460763888888889
2016-11-08,0.44287037037037036
2016-11-09,0.43278935185185186
2016-11-10,0.4057175925925926
2016-11-11,0.4141666666666667
2016-11-12,0.42508101851851854
2016-11-13,0.44686342592592593
2016-11-14,0.41542824074074075
2016-11-15,0.4412037037037037
2016-11-16,0.4157986111111111
2016-11-17,0.4056134259259259
2016-11-18,0.4353472222222222
2016-11-19,0.4048611111111111
2016-11-20,0.4258449074074074
2016-11-21,0.4162384259259259
2016-11-22,0.5435185185185185
2016-11-23,0.6883564814814814
2016-11-24,0.36832175925925925
2016-11-25,0.5244560185185185
2016-11-26,0.3646759259259259
2016-11-27,0.3715277777777778
2016-11-28,0.40119212962962963
2016-11-29,0.3854050925925926
2016-11-30,0.371099537037037
2016-12-01,0.3589699074074074
2016-12-02,0.39890046296296294
2016-12-03,0.4032523148148148
2016-12-04,0.3980208333333333
2016-12-05,0.40140046296296295
2016-12-06,0.45483796296296297
2016-12-07,0.3852777777777778
2016-12-08,0.39649305555555553
2016-12-09,0.4191898148148148
2016-12-10,0.41125
2016-12-11,0.3955324074074074
2016-12-12,0.4036342592592593
2016-12-13,0.40622685185185187
2016-12-14,0.41072916666666665
2016-12-15,0.4113425925925926
2016-12-16,0.41726851851851854
2016-12-17,0.38555555555555554
2016-12-18,0.3629861111111111
2016-12-19,0.4344675925925926
2016-12-20,0.4200115740740741
2016-12-21,0.4309837962962963
2016-12-22,0.4996990740740741
2016-12-23,0.42586805555555557
2016-12-24,0.3859606481481481
2016-12-25,0.36975694444444446
2016-12-26,0.35511574074074076
2016-12-27,0.38761574074074073
2016-12-28,0.3972337962962963
2016-12-29,0.42063657407407407
2016-12-30,0.39922453703703703
2016-12-31,0.40569444444444447
2017-01-01,0.3861574074074074
2017-01-02,0.3851967592592593
2017-01-03,0.3995023148148148
2017-01-04,0.47966435185185186
2017-01-05,0.47100694444444446
2017-01-06,0.43376157407407406
2017-01-07,0.43179398148148146
2017-01-08,0.41252314814814817
2017-01-09,0.44751157407407405
2017-01-10,0.4305324074074074
2017-01-11,0.44096064814814817
2017-01-12,0.4544212962962963
2017-01-13,0.4418287037037037
2017-01-14,0.40819444444444447
2017-01-15,0.4001736111111111
2017-01-16,0.4389814814814815
2017-01-17,0.4363888888888889
2017-01-18,0.43724537037037037
2017-01-19,0.4286921296296296
2017-01-20,0.4422916666666667
2017-01-21,0.4257523148148148
2017-01-22,0.43570601851851853
2017-01-23,0.4357986111111111
2017-01-24,0.4424074074074074
2017-01-25,0.4222106481481481
2017-01-26,0.4167824074074074
2017-01-27,0.4231597222222222
2017-01-28,0.4133912037037037
2017-01-29,0.40394675925925927
2017-01-30,0.4213425925925926
2017-01-31,0.41054398148148147
2017-02-01,0.40774305555555557
2017-02-02,0.4237268518518518
2017-02-03,0.4078935185185185
2017-02-04,0.4413310185185185
2017-02-05,0.4466898148148148
2017-02-06,0.43722222222222223
2017-02-07,0.4381365740740741
2017-02-08,0.4450462962962963
2017-02-09,0.44829861111111113
2017-02-10,0.46667824074074077
2017-02-11,0.4150347222222222
2017-02-12,0.42247685185185185
2017-02-13,0.4949884259259259
2017-02-14,0.5083449074074075
2017-02-15,0.5048958333333333
2017-02-16,0.4827314814814815
2017-02-17,0.4677777777777778
2017-02-18,0.4627662037037037
2017-02-19,0.45034722222222223
2017-02-20,0.468125
2017-02-21,0.4643171296296296
2017-02-22,0.45402777777777775
2017-02-23,0.4512962962962963
2017-02-24,0.5024189814814815
2017-02-25,0.4809953703703704
2017-02-26,0.48030092592592594
2017-02-27,0.505625
2017-02-28,0.5725810185185185
2017-03-01,0.5660416666666667
2017-03-02,0.6885648148148148
2017-03-03,0.6306712962962963
2017-03-04,0.5709722222222222
2017-03-05,0.5570138888888889
2017-03-06,0.5811342592592592
2017-03-07,0.5681481481481482
2017-03-08,0.5606481481481481
2017-03-09,0.5993287037037037
2017-03-10,0.6135879629629629
2017-03-11,0.6337037037037037
2017-03-12,0.6521990740740741
2017-03-13,0.8310185185185185
2017-03-14,0.7333564814814815
2017-03-15,0.777800925925926
2017-03-16,1.0668287037037036
2017-03-17,1.0609027777777778
2017-03-18,0.8911689814814815
2017-03-19,0.8050578703703704
2017-03-20,0.7988657407407408
2017-03-21,0.7964351851851852
2017-03-22,0.7519907407407408
2017-03-23,0.7610185185185185
2017-03-24,0.867199074074074
2017-03-25,0.8318518518518518
2017-03-26,0.7503009259259259
2017-03-27,0.8123148148148148
2017-03-28,0.7764930555555556
2017-03-29,0.8056018518518518
2017-03-30,0.8985763888888889
2017-03-31,1.0001273148148149
2017-04-01,0.7539699074074074
2017-04-02,0.8579513888888889
2017-04-03,1.0114699074074074
2017-04-04,0.8210069444444444
2017-04-05,0.825150462962963
2017-04-06,0.9254166666666667
2017-04-07,0.7737731481481481
2017-04-08,0.6937847222222222
2017-04-09,0.680162037037037
2017-04-10,0.7275347222222223
2017-04-11,0.7090393518518519
2017-04-12,0.7338541666666667
2017-04-13,0.7775578703703704
2017-04-14,0.7523032407407407
2017-04-15,0.7132523148148148
2017-04-16,0.6501157407407407
2017-04-17,0.677025462962963
2017-04-18,0.7568634259259259
2017-04-19,0.7696875
2017-04-20,0.8100925925925926
2017-04-21,0.7060300925925926
2017-04-22,0.6879398148148148
2017-04-23,0.7169328703703703
2017-04-24,0.7667476851851852
2017-04-25,0.760613425925926
2017-04-26,0.8457523148148148
2017-04-27,0.9412268518518518
2017-04-28,0.9128703703703703
2017-04-29,0.8492013888888889
2017-04-30,0.8819328703703704
2017-05-01,0.9766666666666667
2017-05-02,0.9632638888888889
2017-05-03,0.8903587962962963
2017-05-04,1.0985300925925925
2017-05-05,1.0673032407407408
2017-05-06,0.9269560185185185
2017-05-07,1.022025462962963
2017-05-08,1.1577893518518518
2017-05-09,1.0873148148148148
2017-05-10,1.0425462962962964
2017-05-11,1.1056481481481482
2017-05-12,1.0249884259259259
2017-05-13,0.9203009259259259
2017-05-14,0.9580208333333333
2017-05-15,1.1116319444444445
2017-05-16,1.1062847222222223
2017-05-17,1.2757523148148149
2017-05-18,1.242974537037037
2017-05-19,1.5359606481481483
2017-05-20,1.1574537037037036
2017-05-21,1.309039351851852
2017-05-22,1.6272453703703704
2017-05-23,1.70125
2017-05-24,1.6760532407407407
2017-05-25,1.6952777777777779
2017-05-26,1.578125
2017-05-27,1.374675925925926
2017-05-28,1.343599537037037
2017-05-29,1.455613425925926
2017-05-30,1.7206712962962962
2017-05-31,1.9994328703703703
2017-06-01,1.8867129629629629
2017-06-02,1.6070949074074075
2017-06-03,1.5878472222222222
2017-06-04,1.5776851851851852
2017-06-05,1.7672800925925927
2017-06-06,1.8513310185185186
2017-06-07,1.808101851851852
2017-06-08,1.675625
2017-06-09,1.9168055555555557
2017-06-10,2.0065393518518517
2017-06-11,2.2718287037037035
2017-06-12,2.8060532407407406
2017-06-13,2.6420601851851853
2017-06-14,2.401712962962963
2017-06-15,2.543414351851852
2017-06-16,2.2816550925925925
2017-06-17,2.206215277777778
2017-06-18,2.2984953703703703
2017-06-19,2.544525462962963
2017-06-20,2.8182175925925925
2017-06-21,1.9675578703703704
2017-06-22,2.5919097222222223
2017-06-23,2.6076967592592593
2017-06-24,2.22880787037037
2017-06-25,2.0635648148148147
2017-06-26,3.1128472222222223
2017-06-27,2.3258912037037036
2017-06-28,2.2924421296296296
2017-06-29,2.262777777777778
2017-06-30,2.250636574074074
2017-07-01,2.105023148148148
2017-07-02,2.0730439814814816
2017-07-03,2.4492824074074075
2017-07-04,2.2738078703703706
2017-07-05,2.239710648148148
2017-07-06,2.2621990740740743
2017-07-07,2.608159722222222
2017-07-08,2.0607407407407408
2017-07-09,1.8906597222222221
2017-07-10,2.5439583333333333
2017-07-11,2.4854629629629628
2017-07-12,2.3206018518518516
2017-07-13,2.0741550925925925
2017-07-14,2.107013888888889
2017-07-15,2.0536689814814815
2017-07-16,2.1204282407407407
2017-07-17,2.083912037037037
2017-07-18,2.2521064814814813
2017-07-19,2.2585532407407407
2017-07-20,2.187060185185185
2017-07-21,2.036377314814815
2017-07-22,1.7441203703703703
2017-07-23,2.2686342592592594
2017-07-24,2.092627314814815
2017-07-25,2.0628819444444444
2017-07-26,1.909849537037037
2017-07-27,2.005798611111111
2017-07-28,2.1202199074074075
2017-07-29,1.8323148148148147
2017-07-30,1.9276851851851853
2017-07-31,2.225462962962963
2017-08-01,1.9916782407407407
2017-08-02,2.043287037037037
2017-08-03,1.999375
2017-08-04,2.1129861111111112
2017-08-05,2.1229282407407406
2017-08-06,2.095335648148148
2017-08-07,2.3054166666666664
2017-08-08,2.6081712962962964
2017-08-09,2.4283449074074075
2017-08-10,2.749247685185185
2017-08-11,2.737372685185185
2017-08-12,2.4855324074074074
2017-08-13,2.5347685185185185
2017-08-14,3.1324074074074075
2017-08-15,3.2628935185185184
2017-08-16,3.173900462962963
2017-08-17,3.1528703703703704
2017-08-18,3.459837962962963
2017-08-19,2.7052199074074075
2017-08-20,2.308402777777778
2017-08-21,3.1024074074074073
2017-08-22,2.6678935185185186
2017-08-23,3.0516319444444444
2017-08-24,2.7352430555555554
2017-08-25,2.7973726851851852
2017-08-26,2.242627314814815
2017-08-27,2.3757407407407407
2017-08-28,2.7222800925925927
2017-08-29,2.9939930555555554
2017-08-30,2.960462962962963
2017-08-31,3.0894791666666666
2017-09-01,2.922025462962963
2017-09-02,2.5234375
2017-09-03,2.2842939814814813
2017-09-04,3.3941203703703704
2017-09-05,3.304409722222222
2017-09-06,3.5510185185185184
2017-09-07,3.090625
2017-09-08,3.177824074074074
2017-09-09,2.6152199074074076
2017-09-10,2.3735069444444443
2017-09-11,2.7173842592592594
2017-09-12,3.1604050925925926
2017-09-13,2.744074074074074
2017-09-14,3.082638888888889
2017-09-15,3.56556712962963
2017-09-16,2.908402777777778
2017-09-17,2.2249074074074073
2017-09-18,2.5698958333333333
2017-09-19,2.5955208333333335
2017-09-20,2.4455787037037036
2017-09-21,2.3267708333333332
2017-09-22,1.995625
2017-09-23,1.9196064814814815
2017-09-24,1.9133564814814814
2017-09-25,2.1767824074074076
2017-09-26,2.0692013888888887
2017-09-27,2.1586689814814815
2017-09-28,2.2905671296296295
2017-09-29,2.4424421296296295
2017-09-30,2.0649421296296295
2017-10-01,1.9466087962962964
2017-10-02,2.198587962962963
2017-10-03,2.3174537037037037
2017-10-04,2.131435185185185
2017-10-05,2.1919560185185185
2017-10-06,2.1841666666666666
2017-10-07,2.0788194444444446
2017-10-08,2.1013194444444445
2017-10-09,2.427511574074074
2017-10-10,2.606701388888889
2017-10-11,2.5670949074074074
2017-10-12,2.568252314814815
2017-10-13,2.868240740740741
2017-10-14,2.4369791666666667
2017-10-15,2.364525462962963
2017-10-16,2.3200694444444445
2017-10-17,2.9425462962962965
2017-10-18,2.7255555555555557
2017-10-19,2.583321759259259
2017-10-20,2.6826041666666667
2017-10-21,2.61494212962963
2017-10-22,2.8461805555555557
2017-10-23,2.8489699074074073
2017-10-24,2.8355092592592595
2017-10-25,2.5587962962962965
2017-10-26,2.6331712962962963
2017-10-27,2.5034953703703704
2017-10-28,2.4265046296296298
2017-10-29,2.4542824074074074
2017-10-30,2.667986111111111
2017-10-31,2.8915625
2017-11-01,3.0697569444444444
2017-11-02,3.2809606481481484
2017-11-03,2.8042824074074075
2017-11-04,2.278703703703704
2017-11-05,2.175590277777778
2017-11-06,2.586087962962963
2017-11-07,2.645300925925926
2017-11-08,2.929224537037037
2017-11-09,2.9433796296296295
2017-11-10,2.9591203703703703
2017-11-11,2.5019212962962962
2017-11-12,3.1015046296296296
2017-11-13,2.935648148148148
2017-11-14,3.0992824074074075
2017-11-15,3.6858680555555554
2017-11-16,3.1458333333333335
2017-11-17,3.4011805555555554
2017-11-18,2.920891203703704
2017-11-19,3.044421296296296
2017-11-20,3.224548611111111
2017-11-21,3.5772569444444446
2017-11-22,3.6521296296296297
2017-11-23,3.601111111111111
2017-11-24,3.638333333333333
2017-11-25,3.4769907407407405
2017-11-26,3.428425925925926
2017-11-27,4.208449074074074
2017-11-28,4.53
2017-11-29,4.945393518518519
2017-11-30,4.7414351851851855
2017-12-01,4.311979166666666
2017-12-02,4.382939814814815
2017-12-03,4.863043981481481
2017-12-04,5.1608680555555555
2017-12-05,5.0284375
2017-12-06,6.947685185185185
2017-12-07,4.917708333333334
2017-12-08,5.727488425925926
2017-12-09,5.10244212962963
2017-12-10,5.205208333333333
2017-12-11,6.398368055555555
2017-12-12,6.680138888888889
2017-12-13,7.179699074074074
2017-12-14,7.7138078703703705
2017-12-15,7.262847222222222
2017-12-16,6.792685185185185
2017-12-17,6.579490740740741
2017-12-18,7.77900462962963
2017-12-19,8.922326388888889
2017-12-20,8.69138888888889
2017-12-21,9.315
2017-12-22,9.59710648148148
2017-12-23,7.261215277777778
2017-12-24,5.76599537037037
2017-12-25,5.794340277777778
2017-12-26,6.505335648148148
2017-12-27,7.2105092592592595
2017-12-28,7.657314814814815
2017-12-29,9.36818287037037
2017-12-30,10.228657407407407
2017-12-31,7.752106481481482
2018-01-01,7.369988425925926
2018-01-02,9.875671296296296
2018-01-03,11.160798611111112
2018-01-04,13.080613425925925
2018-01-05,11.998136574074074
2018-01-06,11.17795138888889
2018-01-07,9.905868055555555
2018-01-08,10.698784722222221
2018-01-09,11.491689814814816
2018-01-10,10.744814814814815
2018-01-11,10.664583333333333
2018-01-12,9.543611111111112
2018-01-13,9.650856481481481
2018-01-14,8.854513888888889
2018-01-15,10.715173611111112
2018-01-16,11.480243055555556
2018-01-17,11.551435185185186
2018-01-18,10.599884259259259
2018-01-19,8.446354166666667
2018-01-20,7.556400462962963
2018-01-21,8.647743055555555
2018-01-22,7.975706018518519
2018-01-23,7.255150462962963
2018-01-24,6.985416666666667
2018-01-25,5.444675925925926
2018-01-26,7.638680555555555
2018-01-27,6.415763888888889
2018-01-28,6.806284722222222
2018-01-29,7.202395833333333
2018-01-30,7.02886574074074
2018-01-31,6.993819444444444
2018-02-01,8.232222222222223
2018-02-02,8.051701388888889
2018-02-03,6.222407407407408
2018-02-04,5.976886574074074
2018-02-05,6.878807870370371
2018-02-06,7.015902777777778
2018-02-07,6.318530092592592
2018-02-08,4.812546296296296
2018-02-09,5.637673611111111
2018-02-10,6.05619212962963
2018-02-11,5.2664583333333335
2018-02-12,5.963449074074074
2018-02-13,5.258043981481482
2018-02-14,5.445266203703704
2018-02-15,5.640405092592593
2018-02-16,4.872268518518519
2018-02-17,4.893599537037037
2018-02-18,4.834907407407408
2018-02-19,5.193310185185185
2018-02-20,5.557118055555556
2018-02-21,5.609259259259259
2018-02-22,4.956608796296297
2018-02-23,4.679143518518519
2018-02-24,4.099930555555556
2018-02-25,4.026747685185185
2018-02-26,5.009953703703704
2018-02-27,4.549201388888889
2018-02-28,4.930381944444444
2018-03-01,4.496331018518519
2018-03-02,4.457916666666667
2018-03-03,3.903090277777778
2018-03-04,3.789837962962963
2018-03-05,4.69287037037037
2018-03-06,4.706226851851852
2018-03-07,5.891608796296296
2018-03-08,4.454641203703703
2018-03-09,4.401446759259259
2018-03-10,3.9508680555555555
2018-03-11,3.4278125
2018-03-12,4.219953703703704
2018-03-13,4.260046296296296
2018-03-14,4.5401388888888885
2018-03-15,4.342488425925926
2018-03-16,4.050092592592593
2018-03-17,3.649074074074074
2018-03-18,4.176319444444444
2018-03-19,4.5896180555555555
2018-03-20,3.9517592592592594
2018-03-21,4.290150462962963
2018-03-22,4.038344907407407
2018-03-23,4.636620370370371
2018-03-24,4.270810185185185
2018-03-25,3.293738425925926
2018-03-26,4.010543981481481
2018-03-27,3.770324074074074
2018-03-28,3.6986805555555557
2018-03-29,3.9253009259259257
2018-03-30,4.1407638888888885
2018-03-31,3.585775462962963
2018-04-01,3.319849537037037
2018-04-02,3.675810185185185
2018-04-03,4.0278125
2018-04-04,3.7233796296296298
2018-04-05,4.085092592592592
2018-04-06,3.875613425925926
2018-04-07,3.2486342592592594
2018-04-08,3.5225
2018-04-09,3.8357060185185183
2018-04-10,3.57162037037037
2018-04-11,3.5697916666666667
2018-04-12,4.173993055555556
2018-04-13,4.463055555555556
2018-04-14,3.513935185185185
2018-04-15,3.6433449074074074
2018-04-16,4.024039351851852
2018-04-17,4.304849537037037
2018-04-18,4.166759259259259
2018-04-19,4.2999074074074075
2018-04-20,4.779826388888889
2018-04-21,4.590925925925926
2018-04-22,4.558622685185185
2018-04-23,5.107835648148148
2018-04-24,5.03363425925926
2018-04-25,4.660486111111111
2018-04-26,4.402627314814815
2018-04-27,4.311689814814815
2018-04-28,4.394849537037037
2018-04-29,4.256909722222222
2018-04-30,4.707488425925926
2018-05-01,4.345335648148148
2018-05-02,4.837361111111111
2018-05-03,5.107488425925926
2018-05-04,8.197569444444444
2018-05-05,4.996886574074074
2018-05-06,4.551898148148148
2018-05-07,4.6694560185185185
2018-05-08,4.841412037037037
2018-05-09,4.913946759259259
2018-05-10,4.848923611111111
2018-05-11,4.929050925925926
2018-05-12,4.443645833333333
2018-05-13,4.415162037037037
2018-05-14,5.077893518518518
2018-05-15,4.617685185185185
2018-05-16,4.6857291666666665
2018-05-17,4.893576388888889
2018-05-18,4.919918981481482
2018-05-19,4.771516203703704
2018-05-20,4.1902083333333335
2018-05-21,4.711701388888889
2018-05-22,4.667858796296296
2018-05-23,5.051226851851852
2018-05-24,4.749895833333333
2018-05-25,4.6434375
2018-05-26,4.052280092592593
2018-05-27,4.220752314814815
2018-05-28,5.362222222222222
2018-05-29,4.601851851851852
2018-05-30,4.831041666666667
2018-05-31,5.054849537037037
2018-06-01,4.583043981481482
2018-06-02,4.294178240740741
2018-06-03,4.174652777777778
2018-06-04,4.674282407407407
2018-06-05,4.499618055555556
2018-06-06,4.387094907407407
2018-06-07,4.351782407407407
2018-06-08,4.065625
2018-06-09,3.8982175925925926
2018-06-10,4.233055555555556
2018-06-11,4.584247685185185
2018-06-12,4.116782407407407
2018-06-13,4.453217592592592
2018-06-14,4.587534722222222
2018-06-15,4.5400578703703705
2018-06-16,3.4550925925925924
2018-06-17,3.7347337962962963
2018-06-18,4.003229166666666
2018-06-19,4.2525
2018-06-20,4.366666666666666
2018-06-21,4.343657407407408
2018-06-22,4.642627314814815
2018-06-23,3.9053472222222223
2018-06-24,4.163043981481482
2018-06-25,5.099930555555556
2018-06-26,4.33238425925926
2018-06-27,4.419247685185185
2018-06-28,4.464884259259259
2018-06-29,4.404930555555556
2018-06-30,3.2142939814814815
2018-07-01,2.7122916666666668
2018-07-02,3.232962962962963
2018-07-03,3.2161226851851854
2018-07-04,3.0866550925925926
2018-07-05,3.6142939814814814
2018-07-06,2.9921180555555558
2018-07-07,3.003391203703704
2018-07-08,3.697141203703704
2018-07-09,3.652858796296296
2018-07-10,3.5729050925925927
2018-07-11,3.299849537037037
2018-07-12,3.1168981481481484
2018-07-13,3.0487152777777777
2018-07-14,3.059108796296296
2018-07-15,2.9222916666666667
2018-07-16,3.885810185185185
2018-07-17,3.7927662037037035
2018-07-18,4.019803240740741
2018-07-19,3.821574074074074
2018-07-20,3.9610069444444442
2018-07-21,3.625914351851852
2018-07-22,3.526435185185185
2018-07-23,3.7916203703703704
2018-07-24,4.230219907407408
2018-07-25,4.112268518518518
2018-07-26,4.1097222222222225
2018-07-27,3.975648148148148
2018-07-28,3.861261574074074
2018-07-29,3.7069328703703706
2018-07-30,4.132337962962963
2018-07-31,4.3922337962962965
2018-08-01,4.243969907407408
2018-08-02,3.922523148148148
2018-08-03,4.0425810185185185
2018-08-04,3.4325578703703705
2018-08-05,3.561087962962963
2018-08-06,3.8844328703703703
2018-08-07,4.109421296296296
2018-08-08,4.409861111111111
2018-08-09,4.09800925925926
2018-08-10,4.112534722222223
2018-08-11,3.701435185185185
2018-08-12,3.40125
2018-08-13,3.8918055555555555
2018-08-14,3.9899768518518517
2018-08-15,3.6243055555555554
2018-08-16,3.798020833333333
2018-08-17,3.976539351851852
2018-08-18,3.117534722222222
2018-08-19,3.0609837962962962
2018-08-20,3.7642592592592594
2018-08-21,3.381122685185185
2018-08-22,3.373923611111111
2018-08-23,3.5435300925925928
2018-08-24,3.5194907407407405
2018-08-25,3.4070949074074073
2018-08-26,3.4155555555555557
2018-08-27,3.607986111111111
2018-08-28,3.8313194444444445
2018-08-29,3.275497685185185
2018-08-30,3.5032060185185183
2018-08-31,3.5768287037037036
2018-09-01,3.711550925925926
2018-09-02,3.463483796296296
2018-09-03,3.7800810185185183
2018-09-04,3.625601851851852
2018-09-05,3.9077546296296295
2018-09-06,4.026273148148148
2018-09-07,3.515972222222222
2018-09-08,3.1008912037037035
2018-09-09,3.2150694444444445
2018-09-10,3.5632060185185184
2018-09-11,3.4416319444444445
2018-09-12,3.552141203703704
2018-09-13,3.6077314814814816
2018-09-14,3.1999305555555555
2018-09-15,2.882604166666667
2018-09-16,2.718796296296296
2018-09-17,3.2315162037037037
2018-09-18,3.075648148148148
2018-09-19,3.290949074074074
2018-09-20,3.2418981481481484
2018-09-21,3.6961574074074073
2018-09-22,3.0170949074074076
2018-09-23,2.8932291666666665
2018-09-24,3.0058564814814814
2018-09-25,3.180162037037037
2018-09-26,3.0669560185185185
2018-09-27,3.2024305555555554
2018-09-28,3.177662037037037
2018-09-29,2.7664814814814815
2018-09-30,3.012789351851852
2018-10-01,2.9963310185185184
2018-10-02,2.9173263888888887
2018-10-03,3.127488425925926
2018-10-04,3.2781944444444444
2018-10-05,3.339965277777778
2018-10-06,3.4486458333333334
2018-10-07,2.874363425925926
2018-10-08,3.1481481481481484
2018-10-09,2.916678240740741
2018-10-10,3.0660300925925927
2018-10-11,3.315115740740741
2018-10-12,3.083449074074074
2018-10-13,2.896030092592593
2018-10-14,2.741365740740741
2018-10-15,3.325717592592593
2018-10-16,3.357685185185185
2018-10-17,3.350914351851852
2018-10-18,3.2398148148148147
2018-10-19,3.1608564814814817
2018-10-20,3.0816203703703704
2018-10-21,2.832986111111111
2018-10-22,3.249976851851852
2018-10-23,3.2430671296296296
2018-10-24,3.3452430555555557
2018-10-25,3.2575694444444445
2018-10-26,3.3621180555555554
2018-10-27,2.8600810185185184
2018-10-28,3.002997685185185
2018-10-29,3.615972222222222
2018-10-30,3.473761574074074
2018-10-31,3.4291087962962963
2018-11-01,3.346678240740741
2018-11-02,3.0923148148148147
2018-11-03,2.8980324074074075
2018-11-04,2.863125
2018-11-05,3.4497222222222224
2018-11-06,3.371354166666667
2018-11-07,3.2458217592592593
2018-11-08,3.179039351851852
2018-11-09,3.291678240740741
2018-11-10,2.8476041666666667
2018-11-11,3.0105555555555554
2018-11-12,3.312962962962963
2018-11-13,3.2032986111111112
2018-11-14,3.5015046296296295
2018-11-15,3.4529513888888888
2018-11-16,3.1588773148148146
2018-11-17,2.8526736111111113
2018-11-18,2.699050925925926
2018-11-19,3.8641666666666667
2018-11-20,3.7080324074074076
2018-11-21,3.2533101851851853
2018-11-22,3.1048495370370373
2018-11-23,3.1551851851851853
2018-11-24,2.7976851851851854
2018-11-25,3.157534722222222
2018-11-26,3.216261574074074
2018-11-27,3.1724305555555556
2018-11-28,3.463888888888889
2018-11-29,3.143553240740741
2018-11-30,3.543113425925926
2018-12-01,2.9715625
2018-12-02,2.8329050925925925
2018-12-03,3.1805671296296296
2018-12-04,3.0960300925925925
2018-12-05,3.2946875
2018-12-06,3.249548611111111
2018-12-07,3.4789814814814815
2018-12-08,3.3362037037037036
2018-12-09,2.9969444444444444
2018-12-10,3.3179166666666666
2018-12-11,2.9126041666666667
2018-12-12,2.892916666666667
2018-12-13,3.0112615740740742
2018-12-14,3.101516203703704
2018-12-15,3.1133564814814814
2018-12-16,3.0529050925925927
2018-12-17,3.17056712962963
2018-12-18,3.0663541666666667
2018-12-19,3.3530208333333333
2018-12-20,3.35724537037037
2018-12-21,3.2718402777777778
2018-12-22,2.736203703703704
2018-12-23,3.1445833333333333
2018-12-24,3.5097222222222224
2018-12-25,3.074097222222222
2018-12-26,3.071087962962963
2018-12-27,3.028738425925926
2018-12-28,3.1635648148148148
2018-12-29,3.1212962962962965
2018-12-30,2.7919328703703705
2018-12-31,2.7872453703703703
2019-01-01,2.5506944444444444
2019-01-02,3.0078819444444442
2019-01-03,2.959513888888889
2019-01-04,2.967488425925926
2019-01-05,2.8108449074074073
2019-01-06,2.795428240740741
2019-01-07,3.2219907407407407
2019-01-08,3.265902777777778
2019-01-09,3.207939814814815
2019-01-10,3.2527662037037035
2019-01-11,3.1363194444444447
2019-01-12,2.586701388888889
2019-01-13,2.684953703703704
2019-01-14,3.5561805555555557
2019-01-15,3.294375
2019-01-16,2.798113425925926
2019-01-17,2.7396527777777777
2019-01-18,2.811898148148148
2019-01-19,2.7222685185185185
2019-01-20,2.464861111111111
2019-01-21,2.823125
2019-01-22,2.6627083333333332
2019-01-23,2.836828703703704
2019-01-24,2.756736111111111
2019-01-25,2.8166319444444445
2019-01-26,2.5323148148148147
2019-01-27,2.8005671296296297
2019-01-28,3.389803240740741
2019-01-29,3.0095833333333335
2019-01-30,2.9855092592592594
2019-01-31,2.8175810185185184
2019-02-01,2.7390393518518517
2019-02-02,2.456678240740741
2019-02-03,2.2003703703703703
2019-02-04,2.1220833333333333
2019-02-05,2.1860069444444443
2019-02-06,2.2737037037037036
2019-02-07,2.2730208333333333
2019-02-08,2.5719560185185184
2019-02-09,2.2913194444444445
2019-02-10,2.1364467592592593
2019-02-11,2.355185185185185
2019-02-12,2.4071527777777777
2019-02-13,2.447789351851852
2019-02-14,2.4186689814814817
2019-02-15,2.4415046296296294
2019-02-16,2.3655092592592593
2019-02-17,2.293298611111111
2019-02-18,2.966597222222222
2019-02-19,2.905601851851852
2019-02-20,2.832291666666667
2019-02-21,2.6015509259259257
2019-02-22,2.6059027777777777
2019-02-23,2.5689583333333332
2019-02-24,2.738599537037037
2019-02-25,2.8663541666666665
2019-02-26,2.7924074074074072
2019-02-27,2.8162962962962963
2019-02-28,3.089583333333333
2019-03-01,2.7641319444444443
2019-03-02,2.6284490740740742
2019-03-03,2.4665162037037036
2019-03-04,2.8776967592592593
2019-03-05,2.8945717592592595
2019-03-06,2.949085648148148
2019-03-07,2.9878125
2019-03-08,2.949375
2019-03-09,2.902372685185185
2019-03-10,2.5555671296296296
2019-03-11,2.7957060185185183
2019-03-12,3.076226851851852
2019-03-13,3.021712962962963
2019-03-14,3.0178125
2019-03-15,2.9856481481481483
2019-03-16,2.7718171296296297
2019-03-17,2.6556944444444444
2019-03-18,3.128576388888889
2019-03-19,3.216921296296296
2019-03-20,3.412233796296296
2019-03-21,3.2240046296296296
2019-03-22,3.42849537037037
2019-03-23,3.176388888888889
2019-03-24,3.0856828703703703
2019-03-25,3.72087962962963
2019-03-26,3.630925925925926
2019-03-27,3.345601851851852
2019-03-28,3.3838194444444443
2019-03-29,3.3797800925925925
2019-03-30,3.289375
2019-03-31,3.042048611111111
2019-04-01,3.842361111111111
2019-04-02,4.373055555555555
2019-04-03,4.182627314814815
2019-04-04,3.4973032407407407
2019-04-05,3.481446759259259
2019-04-06,3.1945833333333336
2019-04-07,3.375509259259259
2019-04-08,3.9389930555555557
2019-04-09,3.8713078703703703
2019-04-10,3.696365740740741
2019-04-11,4.006319444444444
2019-04-12,4.191828703703703
2019-04-13,3.6018518518518516
2019-04-14,3.0459953703703704
2019-04-15,3.6081944444444445
2019-04-16,3.522384259259259
2019-04-17,3.519351851851852
2019-04-18,3.5670949074074074
2019-04-19,3.63875
2019-04-20,3.9144212962962963
2019-04-21,3.508576388888889
2019-04-22,3.906226851851852
2019-04-23,4.028472222222222
2019-04-24,3.844409722222222
2019-04-25,3.567638888888889
2019-04-26,3.5611574074074075
2019-04-27,3.000509259259259
2019-04-28,3.104884259259259
2019-04-29,3.4340046296296296
2019-04-30,3.628599537037037
2019-05-01,3.5712847222222224
2019-05-02,3.245011574074074
2019-05-03,3.4347337962962965
2019-05-04,3.378321759259259
2019-05-05,3.2375
2019-05-06,3.647824074074074
2019-05-07,3.64287037037037
2019-05-08,3.5946296296296296
2019-05-09,3.699247685185185
2019-05-10,3.731990740740741
2019-05-11,3.758726851851852
2019-05-12,3.6389699074074073
2019-05-13,4.155960648148148
2019-05-14,4.495347222222223
2019-05-15,4.805613425925926
2019-05-16,5.2557986111111115
2019-05-17,4.466863425925926
2019-05-18,3.826979166666667
2019-05-19,3.709351851851852
2019-05-20,4.172256944444444
2019-05-21,4.471585648148148
2019-05-22,4.114756944444444
2019-05-23,4.125474537037037
2019-05-24,4.357546296296296
2019-05-25,3.824409722222222
2019-05-26,3.7639699074074073
2019-05-27,4.378391203703703
2019-05-28,4.2675578703703705
2019-05-29,4.302569444444444
2019-05-30,4.3840625
2019-05-31,4.440601851851852
2019-06-01,4.961747685185185
2019-06-02,4.7641782407407405
2019-06-03,4.519016203703703
2019-06-04,4.315636574074074
2019-06-05,3.8791550925925926
2019-06-06,3.7691898148148146
2019-06-07,3.631736111111111
2019-06-08,3.159085648148148
2019-06-09,3.7453819444444445
2019-06-10,3.770023148148148
2019-06-11,4.23619212962963
2019-06-12,5.491030092592593
2019-06-13,4.001516203703703
2019-06-14,4.080868055555555
2019-06-15,4.310925925925926
2019-06-16,5.662314814814815
2019-06-17,4.053275462962963
2019-06-18,4.152025462962963
2019-06-19,3.949409722222222
2019-06-20,3.673298611111111
2019-06-21,4.116388888888889
2019-06-22,4.063935185185185
2019-06-23,3.5899074074074075
2019-06-24,4.129583333333334
2019-06-25,3.951747685185185
2019-06-26,4.728969907407407
2019-06-27,4.394270833333334
2019-06-28,3.997453703703704
2019-06-29,3.7330092592592594
2019-06-30,3.41525462962963
2019-07-01,3.6630671296296295
2019-07-02,4.046192129629629
2019-07-03,3.9475462962962964
2019-07-04,3.7192476851851852
2019-07-05,3.26255787037037
2019-07-06,3.0635069444444443
2019-07-07,2.8836226851851854
2019-07-08,3.473009259259259
2019-07-09,3.7972106481481482
2019-07-10,3.6192592592592594
2019-07-11,3.6432291666666665
2019-07-12,3.476585648148148
2019-07-13,3.0123611111111113
2019-07-14,3.133113425925926
2019-07-15,3.869201388888889
2019-07-16,3.1984375
2019-07-17,3.7485185185185186
2019-07-18,3.374409722222222
2019-07-19,3.222777777777778
2019-07-20,2.8515277777777777
2019-07-21,2.659224537037037
2019-07-22,3.3513657407407407
2019-07-23,3.004537037037037
2019-07-24,2.8512962962962964
2019-07-25,2.797534722222222
2019-07-26,3.058414351851852
2019-07-27,2.878923611111111
2019-07-28,2.9774652777777777
2019-07-29,3.2077314814814817
2019-07-30,3.5463310185185186
2019-07-31,3.1114699074074075
2019-08-01,3.037314814814815
2019-08-02,3.10625
2019-08-03,2.689189814814815
2019-08-04,2.641111111111111
2019-08-05,3.687476851851852
2019-08-06,3.8633564814814814
2019-08-07,3.445
2019-08-08,3.1763194444444443
2019-08-09,3.559849537037037
2019-08-10,3.0140046296296297
2019-08-11,2.903587962962963
2019-08-12,3.600787037037037
2019-08-13,3.3641435185185187
2019-08-14,3.4237152777777777
2019-08-15,3.3112037037037036
2019-08-16,3.6255671296296295
2019-08-17,3.1093171296296296
2019-08-18,2.9195486111111113
2019-08-19,3.2066898148148146
2019-08-20,3.4122453703703703
2019-08-21,3.446597222222222
2019-08-22,3.2769791666666666
2019-08-23,3.144016203703704
2019-08-24,2.894108796296296
2019-08-25,2.841435185185185
2019-08-26,3.1826041666666667
2019-08-27,3.1704166666666667
2019-08-28,3.081863425925926
2019-08-29,3.19755787037037
2019-08-30,3.0893402777777776
2019-08-31,2.859537037037037
2019-09-01,2.646030092592593
2019-09-02,3.037361111111111
2019-09-03,3.0122222222222224
2019-09-04,2.8673148148148146
2019-09-05,3.217210648148148
2019-09-06,3.1353819444444446
2019-09-07,2.7607060185185186
2019-09-08,2.7189814814814817
2019-09-09,3.1084953703703704
2019-09-10,2.8540972222222223
2019-09-11,3.016655092592593
2019-09-12,3.046226851851852
2019-09-13,2.6496643518518517
2019-09-14,2.7098958333333334
2019-09-15,2.7363541666666666
2019-09-16,3.1631365740740742
2019-09-17,2.9573263888888888
2019-09-18,3.157627314814815
2019-09-19,2.9528356481481484
2019-09-20,3.217789351851852
2019-09-21,2.5840625
2019-09-22,2.4700810185185187
2019-09-23,2.671388888888889
2019-09-24,3.0757060185185185
2019-09-25,2.9997800925925926
2019-09-26,2.832951388888889
2019-09-27,2.636527777777778
2019-09-28,2.479699074074074
2019-09-29,2.484375
2019-09-30,2.789386574074074
2019-10-01,2.6108912037037038
2019-10-02,2.6763541666666666
2019-10-03,2.4596412037037036
2019-10-04,2.363425925925926
2019-10-05,2.4778125
2019-10-06,2.2771296296296297
2019-10-07,2.5659027777777776
2019-10-08,2.7528819444444443
2019-10-09,3.0063541666666667
2019-10-10,2.8817245370370372
2019-10-11,2.8846180555555554
2019-10-12,2.526851851851852
2019-10-13,2.2622685185185185
2019-10-14,2.5773958333333336
2019-10-15,2.7250462962962962
2019-10-16,2.5692708333333334
2019-10-17,2.528136574074074
2019-10-18,2.8392708333333334
2019-10-19,2.5524768518518517
2019-10-20,2.432210648148148
2019-10-21,2.7068287037037035
2019-10-22,2.6539930555555555
2019-10-23,2.752291666666667
2019-10-24,2.6302546296296296
2019-10-25,2.857800925925926
2019-10-26,2.7868287037037036
2019-10-27,2.4491203703703706
2019-10-28,2.7866203703703705
2019-10-29,2.732314814814815
2019-10-30,2.68443287037037
2019-10-31,2.655335648148148
2019-11-01,2.6680439814814814
2019-11-02,2.3078587962962964
2019-11-03,2.2427546296296295
2019-11-04,2.6248263888888888
2019-11-05,2.9890046296296298
2019-11-06,2.6972800925925924
2019-11-07,3.140601851851852
2019-11-08,2.755798611111111
2019-11-09,2.340625
2019-11-10,2.4498611111111113
2019-11-11,2.8002199074074072
2019-11-12,2.7844444444444445
2019-11-13,2.798252314814815
2019-11-14,2.648159722222222
2019-11-15,2.50662037037037
2019-11-16,2.224016203703704
2019-11-17,2.237488425925926
2019-11-18,2.6197800925925927
2019-11-19,2.594780092592593
2019-11-20,2.568726851851852
2019-11-21,2.8100694444444443
2019-11-22,3.295335648148148
2019-11-23,2.408888888888889
2019-11-24,2.218472222222222
2019-11-25,2.8191319444444445
2019-11-26,2.4920949074074072
2019-11-27,2.3749189814814815
2019-11-28,2.3560069444444443
2019-11-29,2.675625
2019-11-30,2.2446296296296295
2019-12-01,2.326875
2019-12-02,2.694363425925926
2019-12-03,2.4415162037037037
2019-12-04,2.4753819444444445
2019-12-05,2.4391550925925927
2019-12-06,2.2556018518518517
2019-12-07,1.9379629629629629
2019-12-08,1.7472916666666667
2019-12-09,2.5594675925925925
2019-12-10,2.279537037037037
2019-12-11,2.35125
2019-12-12,2.219641203703704
2019-12-13,2.290023148148148
2019-12-14,1.9616087962962963
2019-12-15,2.0369907407407406
2019-12-16,2.337152777777778
2019-12-17,2.379976851851852
2019-12-18,2.559178240740741
2019-12-19,2.224502314814815
2019-12-20,2.210451388888889
2019-12-21,2.039699074074074
2019-12-22,1.9559606481481482
2019-12-23,2.285486111111111
2019-12-24,2.1421064814814814
2019-12-25,2.041377314814815
2019-12-26,2.1825
2019-12-27,2.1798611111111112
2019-12-28,2.0666319444444445
2019-12-29,1.8426967592592594
2019-12-30,2.300636574074074
2019-12-31,2.04375
2020-01-01,1.7638773148148148
2020-01-02,1.9314930555555556
2020-01-03,2.3894444444444445
2020-01-04,2.4645486111111112
2020-01-05,2.1396527777777776
2020-01-06,2.4236458333333335
2020-01-07,2.540011574074074
2020-01-08,2.609375
2020-01-09,2.595486111111111
2020-01-10,2.443483796296296
2020-01-11,2.283275462962963
2020-01-12,2.258252314814815
2020-01-13,2.4044675925925927
2020-01-14,2.8878703703703703
2020-01-15,2.849247685185185
2020-01-16,2.9033680555555557
2020-01-17,2.727210648148148
2020-01-18,2.6549305555555556
2020-01-19,2.582974537037037
2020-01-20,2.552974537037037
2020-01-21,2.4694791666666664
2020-01-22,2.3114930555555557
2020-01-23,2.6100578703703703
2020-01-24,2.161840277777778
2020-01-25,2.044652777777778
2020-01-26,1.8878703703703703
2020-01-27,2.204710648148148
2020-01-28,2.2586458333333335
2020-01-29,2.329178240740741
2020-01-30,2.347685185185185
2020-01-31,2.311585648148148
2020-02-01,2.271446759259259
2020-02-02,2.22087962962963
2020-02-03,2.835659722222222
2020-02-04,2.3640393518518517
2020-02-05,2.7377199074074072
2020-02-06,2.705486111111111
2020-02-07,2.710590277777778
2020-02-08,2.793298611111111
2020-02-09,2.8374537037037038
2020-02-10,2.7708333333333335
2020-02-11,3.132349537037037
2020-02-12,3.644525462962963
2020-02-13,3.378935185185185
2020-02-14,3.0873032407407406
2020-02-15,3.0512384259259258
2020-02-16,2.80375
2020-02-17,3.0136574074074076
2020-02-18,3.1659953703703705
2020-02-19,2.8836805555555554
2020-02-20,2.843703703703704
2020-02-21,2.8999421296296295
2020-02-22,2.886388888888889
2020-02-23,3.039884259259259
2020-02-24,3.0218287037037035
2020-02-25,2.858900462962963
2020-02-26,2.9465856481481483
2020-02-27,3.115127314814815
2020-02-28,2.9219791666666666
2020-02-29,2.689224537037037
2020-03-01,2.6216550925925928
2020-03-02,2.9878819444444447
2020-03-03,2.6811574074074076
2020-03-04,2.8134375
2020-03-05,3.030462962962963
2020-03-06,2.8939930555555557
2020-03-07,2.8199305555555556
2020-03-08,2.6954861111111112
2020-03-09,3.1471643518518517
2020-03-10,2.912071759259259
2020-03-11,2.8095601851851852
2020-03-12,3.099571759259259
2020-03-13,3.813761574074074
2020-03-14,2.8181481481481483
2020-03-15,2.7183680555555556
2020-03-16,3.3891203703703705
2020-03-17,3.0905324074074074
2020-03-18,2.97525462962963
2020-03-19,3.308310185185185
2020-03-20,3.2871064814814814
2020-03-21,3.1675578703703704
2020-03-22,2.9660185185185184
2020-03-23,3.234675925925926
2020-03-24,3.05
2020-03-25,2.930462962962963
2020-03-26,3.185208333333333
2020-03-27,3.1194444444444445
2020-03-28,2.841724537037037
2020-03-29,2.5895949074074074
2020-03-30,3.1247337962962964
2020-03-31,2.996701388888889
2020-04-01,2.807650462962963
2020-04-02,2.9940972222222224
2020-04-03,3.0595601851851852
2020-04-04,2.7085185185185185
2020-04-05,2.625613425925926
2020-04-06,3.4636805555555554
2020-04-07,3.225277777777778
2020-04-08,3.9626041666666665
2020-04-09,3.1640625
2020-04-10,3.1879976851851852
2020-04-11,2.906435185185185
2020-04-12,3.0258564814814815
2020-04-13,3.4162962962962964
2020-04-14,3.8268981481481483
2020-04-15,3.5692476851851853
2020-04-16,3.4861574074074073
2020-04-17,3.6214930555555553
2020-04-18,3.7071180555555556
2020-04-19,3.4918171296296294
2020-04-20,3.789652777777778
2020-04-21,3.6985069444444445
2020-04-22,3.537511574074074
2020-04-23,3.8608333333333333
2020-04-24,3.9296875
2020-04-25,3.740972222222222
2020-04-26,3.6214351851851854
2020-04-27,3.7635532407407406
2020-04-28,3.809675925925926
2020-04-29,4.272395833333333
2020-04-30,4.253611111111111
2020-05-01,3.917986111111111
2020-05-02,3.6156712962962962
2020-05-03,3.8422800925925924
2020-05-04,3.5084375
2020-05-05,3.4969791666666667
2020-05-06,3.7880555555555557
2020-05-07,3.8632407407407405
2020-05-08,4.077916666666667
2020-05-09,4.188125
2020-05-10,4.1564351851851855
2020-05-11,3.963483796296296
2020-05-12,4.004039351851852
2020-05-13,4.090671296296296
2020-05-14,3.911400462962963
2020-05-15,4.389918981481482
2020-05-16,4.335902777777778
2020-05-17,3.7990393518518517
2020-05-18,3.9565046296296296
2020-05-19,3.977615740740741
2020-05-20,3.9673958333333332
2020-05-21,4.351099537037037
2020-05-22,4.233634259259259
2020-05-23,4.040289351851852
2020-05-24,3.8238425925925927
2020-05-25,3.8886574074074076
2020-05-26,4.2026967592592595
2020-05-27,4.374641203703704
2020-05-28,4.38818287037037
2020-05-29,4.592928240740741
2020-05-30,4.243483796296296
2020-05-31,3.956053240740741
2020-06-01,4.330798611111111
2020-06-02,4.8330671296296295
2020-06-03,4.352384259259259
2020-06-04,4.496423611111111
2020-06-05,4.372928240740741
2020-06-06,4.1382060185185185
2020-06-07,3.9172337962962964
2020-06-08,4.492627314814815
2020-06-09,4.049467592592593
2020-06-10,4.119826388888889
2020-06-11,4.300972222222223
2020-06-12,4.122071759259259
2020-06-13,3.8883680555555555
2020-06-14,3.599976851851852
2020-06-15,4.1809259259259255
2020-06-16,4.160810185185185
2020-06-17,4.145104166666667
2020-06-18,4.304722222222222
2020-06-19,4.209710648148148
2020-06-20,4.0372106481481485
2020-06-21,3.990451388888889
2020-06-22,4.564652777777778
2020-06-23,4.750694444444444
2020-06-24,4.666030092592592
2020-06-25,4.575659722222222
2020-06-26,4.541273148148148
2020-06-27,4.391631944444445
2020-06-28,4.508796296296296
2020-06-29,5.3130902777777775
2020-06-30,5.119618055555556
2020-07-01,5.145844907407407
2020-07-02,4.925034722222223
2020-07-03,4.758634259259259
2020-07-04,4.517523148148148
2020-07-05,4.345092592592593
2020-07-06,4.8616319444444445
2020-07-07,4.98193287037037
2020-07-08,4.978472222222222
2020-07-09,5.0149537037037035
2020-07-10,4.865868055555556
2020-07-11,4.778425925925926
2020-07-12,4.607060185185185
2020-07-13,5.310775462962963
2020-07-14,5.2519328703703705
2020-07-15,5.612662037037037
2020-07-16,5.5530787037037035
2020-07-17,5.30244212962963
2020-07-18,4.894212962962963
2020-07-19,4.914548611111111
2020-07-20,5.3949189814814815
2020-07-21,5.0124305555555555
2020-07-22,5.261678240740741
2020-07-23,5.495324074074074
2020-07-24,5.200659722222222
2020-07-25,5.2535185185185185
2020-07-26,5.450219907407408
2020-07-27,6.178668981481482
2020-07-28,6.164513888888889
2020-07-29,5.417199074074074
2020-07-30,5.438680555555556
2020-07-31,5.5241087962962965
2020-08-01,5.660752314814815
2020-08-02,5.513298611111111
2020-08-03,5.631157407407407
2020-08-04,5.736608796296296
2020-08-05,5.8748611111111115
2020-08-06,5.886273148148148
2020-08-07,5.8372222222222225
2020-08-08,5.386817129629629
2020-08-09,5.445023148148148
2020-08-10,5.861875
2020-08-11,5.7447337962962965
2020-08-12,5.114363425925926
2020-08-13,5.2804166666666665
2020-08-14,5.317592592592592
2020-08-15,5.059710648148148
2020-08-16,5.0515625
2020-08-17,5.220729166666667
2020-08-18,5.2646875
2020-08-19,5.374224537037037
2020-08-20,5.139085648148148
2020-08-21,5.329502314814815
2020-08-22,4.764664351851851
2020-08-23,4.791655092592593
2020-08-24,4.936018518518519
2020-08-25,5.123865740740741
2020-08-26,5.088252314814815
2020-08-27,5.037581018518519
2020-08-28,4.812037037037037
2020-08-29,4.568078703703704
2020-08-30,4.690578703703704
2020-08-31,5.473969907407407
2020-09-01,5.503217592592593
2020-09-02,5.115289351851852
2020-09-03,4.990729166666667
2020-09-04,5.202326388888889
2020-09-05,4.299976851851852
2020-09-06,4.452905092592593
2020-09-07,4.492025462962963
2020-09-08,4.2665625
2020-09-09,4.1550115740740745
2020-09-10,4.275243055555555
2020-09-11,4.159317129629629
2020-09-12,3.9386574074074074
2020-09-13,3.7794560185185184
2020-09-14,4.254027777777778
2020-09-15,4.434085648148148
2020-09-16,3.9991319444444446
2020-09-17,5.625543981481481
2020-09-18,5.376527777777778
2020-09-19,4.599409722222222
2020-09-20,4.931018518518519
2020-09-21,4.889027777777778
2020-09-22,4.749618055555556
2020-09-23,4.734409722222222
2020-09-24,4.864861111111111
2020-09-25,4.469155092592593
2020-09-26,4.364780092592593
2020-09-27,4.380972222222222
2020-09-28,4.650381944444445
2020-09-29,4.590543981481481
2020-09-30,4.546666666666667
2020-10-01,4.43755787037037
2020-10-02,4.390879629629629
2020-10-03,4.125196759259259
2020-10-04,4.3409375
2020-10-05,4.152673611111111
2020-10-06,4.46375
2020-10-07,4.238043981481481
2020-10-08,4.1996875
2020-10-09,4.479988425925926
2020-10-10,4.327025462962963
2020-10-11,3.9863194444444443
2020-10-12,4.32869212962963
2020-10-13,4.74480324074074
2020-10-14,4.688900462962963
2020-10-15,6.013229166666667
2020-10-16,5.427453703703704
2020-10-17,4.576134259259259
2020-10-18,3.865173611111111
2020-10-19,4.526458333333333
2020-10-20,4.344907407407407
2020-10-21,4.8298958333333335
2020-10-22,5.105763888888889
2020-10-23,4.917534722222222
2020-10-24,4.213067129629629
2020-10-25,3.881238425925926
2020-10-26,4.356296296296296
2020-10-27,4.3104050925925925
2020-10-28,4.7209375
2020-10-29,4.492152777777778
2020-10-30,4.582708333333334
2020-10-31,4.625451388888889
2020-11-01,4.48349537037037
2020-11-02,4.836111111111111
2020-11-03,4.592175925925926
2020-11-04,5.2249537037037035
2020-11-05,4.778692129629629
2020-11-06,5.096111111111111
2020-11-07,4.769652777777778
2020-11-08,4.284247685185186
2020-11-09,4.64431712962963
2020-11-10,4.596284722222222
2020-11-11,4.505289351851852
2020-11-12,4.469942129629629
2020-11-13,4.828449074074074
2020-11-14,4.595729166666667
2020-11-15,4.199247685185185
2020-11-16,4.689027777777778
2020-11-17,4.905046296296296
2020-11-18,4.833032407407408
2020-11-19,4.967476851851852
2020-11-20,5.227604166666667
2020-11-21,5.412361111111111
2020-11-22,5.311574074074074
2020-11-23,5.489502314814815
2020-11-24,5.565405092592592
2020-11-25,5.402002314814815
2020-11-26,4.996770833333334
2020-11-27,4.885925925925926
2020-11-28,4.300347222222222
2020-11-29,4.74087962962963
2020-11-30,4.958148148148148
2020-12-01,4.92724537037037
2020-12-02,4.465694444444445
2020-12-03,4.757094907407407
2020-12-04,4.659236111111111
2020-12-05,4.674513888888889
2020-12-06,4.463391203703703
2020-12-07,4.657280092592592
2020-12-08,4.928090277777778
2020-12-09,4.931527777777778
2020-12-10,4.559340277777777
2020-12-11,4.896550925925926
2020-12-12,5.025543981481482
2020-12-13,5.453217592592592
2020-12-14,5.754016203703704
2020-12-15,5.492303240740741
2020-12-16,5.692627314814815
2020-12-17,6.644421296296296
2020-12-18,5.454351851851852
2020-12-19,5.64300925925926
2020-12-20,4.60488425925926
2020-12-21,4.902326388888889
2020-12-22,4.919421296296297
2020-12-23,5.362094907407408
2020-12-24,4.827881944444444
2020-12-25,4.825347222222222
2020-12-26,5.043981481481482
2020-12-27,5.398796296296296
2020-12-28,5.630648148148148
2020-12-29,5.38875
2020-12-30,5.398564814814815
2020-12-31,5.148391203703704
2021-01-01,5.127893518518518
2021-01-02,4.984814814814815
2021-01-03,5.968842592592592
2021-01-04,6.363356481481482
2021-01-05,6.0559375
2021-01-06,6.208900462962963
2021-01-07,6.506064814814815
2021-01-08,6.286053240740741
2021-01-09,6.105775462962963
2021-01-10,5.855659722222223
2021-01-11,6.286238425925926
2021-01-12,5.333703703703704
2021-01-13,5.0704976851851855
2021-01-14,5.475185185185185
2021-01-15,5.813993055555556
2021-01-16,5.786828703703704
2021-01-17,5.277199074074074
2021-01-18,5.728020833333333
2021-01-19,6.351689814814815
2021-01-20,5.963518518518518
2021-01-21,5.494479166666666
2021-01-22,5.657881944444444
2021-01-23,5.452523148148148
2021-01-24,5.472511574074074
2021-01-25,5.9369907407407405
2021-01-26,5.82537037037037
2021-01-27,5.30037037037037
2021-01-28,5.719861111111111
2021-01-29,6.476805555555556
2021-01-30,6.332210648148148
2021-01-31,6.2898958333333335
2021-02-01,6.701053240740741
2021-02-02,6.752719907407408
2021-02-03,6.985798611111111
2021-02-04,6.878622685185185
2021-02-05,7.056423611111111
2021-02-06,6.530833333333334
2021-02-07,6.643958333333333
2021-02-08,6.845
2021-02-09,7.016655092592592
2021-02-10,6.9240625
2021-02-11,6.844895833333333
2021-02-12,6.875150462962963
2021-02-13,6.548703703703704
2021-02-14,6.209745370370371
2021-02-15,5.994988425925926
2021-02-16,6.333298611111111
2021-02-17,6.580706018518518
2021-02-18,6.79167824074074
2021-02-19,6.965219907407407
2021-02-20,6.954791666666667
2021-02-21,6.3134953703703705
2021-02-22,6.5659375
2021-02-23,6.366550925925926
2021-02-24,6.667372685185185
2021-02-25,6.402002314814815
2021-02-26,6.437743055555556
2021-02-27,6.328703703703703
2021-02-28,6.0925
2021-03-01,6.250011574074074
2021-03-02,6.5200810185185185
2021-03-03,6.32462962962963
2021-03-04,6.492361111111111
2021-03-05,5.947905092592593
2021-03-06,6.183391203703704
2021-03-07,5.997928240740741
2021-03-08,6.2664583333333335
2021-03-09,6.677719907407408
2021-03-10,6.794212962962963
2021-03-11,7.098506944444445
2021-03-12,7.136412037037037
2021-03-13,7.142245370370371
2021-03-14,6.902777777777778
2021-03-15,7.126863425925926
2021-03-16,6.980671296296296
2021-03-17,6.926527777777777
2021-03-18,7.158981481481481
2021-03-19,6.954444444444444
2021-03-20,6.975
2021-03-21,6.473472222222222
2021-03-22,6.902685185185185
2021-03-23,7.050671296296296
2021-03-24,6.885381944444444
2021-03-25,7.092222222222222
2021-03-26,6.788773148148148
2021-03-27,6.556342592592593
2021-03-28,6.401527777777778
2021-03-29,6.690972222222222
2021-03-30,7.030405092592592
2021-03-31,7.342106481481482
2021-04-01,7.811041666666667
2021-04-02,7.512650462962963
2021-04-03,7.056307870370371
2021-04-04,6.49644675925926
2021-04-05,6.991909722222222
2021-04-06,7.108530092592592
2021-04-07,6.992476851851852
2021-04-08,6.8414930555555555
2021-04-09,6.781041666666667
2021-04-10,7.39056712962963
2021-04-11,6.786168981481482
2021-04-12,7.128657407407408
2021-04-13,7.242881944444444
2021-04-14,7.487164351851852
2021-04-15,6.1503703703703705
2021-04-16,8.20318287037037
2021-04-17,8.825787037037037
2021-04-18,8.146747685185185
2021-04-19,8.937395833333333
2021-04-20,9.836909722222222
2021-04-21,9.196388888888889
2021-04-22,8.653622685185185
2021-04-23,8.25125
2021-04-24,8.073368055555555
2021-04-25,7.9403703703703705
2021-04-26,7.994143518518518
2021-04-27,7.950138888888889
2021-04-28,8.399467592592593
2021-04-29,8.236284722222223
2021-04-30,7.568726851851852
2021-05-01,7.814930555555556
2021-05-02,7.8092245370370375
2021-05-03,8.320092592592593
2021-05-04,8.63957175925926
2021-05-05,8.580821759259258
2021-05-06,8.510775462962963
2021-05-07,8.49974537037037
2021-05-08,10.56363425925926
2021-05-09,10.998171296296297
2021-05-10,10.617141203703703
2021-05-11,11.516782407407407
2021-05-12,10.05974537037037
2021-05-13,9.23355324074074
2021-05-14,9.180347222222222
2021-05-15,8.8975
2021-05-16,8.422974537037037
2021-05-17,8.09474537037037
2021-05-18,7.9452893518518515
2021-05-19,8.091458333333334
2021-05-20,8.257569444444444
2021-05-21,7.42625
2021-05-22,6.978298611111111
2021-05-23,6.470902777777778
2021-05-24,6.829930555555555
2021-05-25,6.632534722222222
2021-05-26,6.992881944444444
2021-05-27,6.988819444444444
2021-05-28,6.950046296296296
2021-05-29,7.6565625
2021-05-30,7.0995486111111115
2021-05-31,7.439502314814815
2021-06-01,7.0748495370370375
2021-06-02,6.9003703703703705
2021-06-03,7.361678240740741
2021-06-04,7.028252314814814
2021-06-05,6.671134259259259
2021-06-06,6.340046296296296
2021-06-07,6.509756944444445
2021-06-08,6.127407407407407
2021-06-09,6.212453703703703
2021-06-10,6.125636574074074
2021-06-11,5.989560185185185
2021-06-12,6.00425925925926
2021-06-13,6.1441435185185185
2021-06-14,6.128078703703704
2021-06-15,6.432662037037037
2021-06-16,6.341782407407408
2021-06-17,6.09525462962963
2021-06-18,5.85474537037037
2021-06-19,5.4490625
2021-06-20,5.519837962962963
2021-06-21,6.137291666666667
2021-06-22,6.525717592592593
2021-06-23,6.266944444444444
2021-06-24,6.451423611111111
2021-06-25,6.616504629629629
2021-06-26,6.227222222222222
2021-06-27,6.295462962962963
2021-06-28,8.828726851851853
2021-06-29,6.7898148148148145
2021-06-30,6.543738425925926
2021-07-01,6.731365740740741
2021-07-02,6.322037037037037
2021-07-03,5.870023148148148
2021-07-04,5.8303125
2021-07-05,6.031134259259259
2021-07-06,6.528888888888889
2021-07-07,6.596863425925926
2021-07-08,6.445868055555556
2021-07-09,6.250613425925926
2021-07-10,5.777766203703703
2021-07-11,5.703807870370371
2021-07-12,6.005347222222222
2021-07-13,6.21332175925926
2021-07-14,6.411770833333334
2021-07-15,6.560625
2021-07-16,6.195833333333334
2021-07-17,5.982037037037037
2021-07-18,5.747326388888889
2021-07-19,6.159594907407407
2021-07-20,6.261863425925926
2021-07-21,6.227268518518518
2021-07-22,6.2059375
2021-07-23,6.396909722222222
2021-07-24,6.6596875
2021-07-25,6.071944444444444
2021-07-26,6.612071759259259
2021-07-27,7.808472222222222
2021-07-28,7.550694444444445
2021-07-29,6.755891203703704
2021-07-30,6.864328703703704
2021-07-31,6.750196759259259
2021-08-01,6.691111111111111
2021-08-02,6.909872685185185
2021-08-03,6.854074074074074
2021-08-04,6.677326388888889
2021-08-05,6.2820023148148145
2021-08-06,6.720636574074074
2021-08-07,6.649918981481481
2021-08-08,6.632083333333333
2021-08-09,6.711296296296296
2021-08-10,6.719594907407408
2021-08-11,6.660266203703704
2021-08-12,6.404814814814815
2021-08-13,6.5478703703703705
2021-08-14,6.432291666666667
2021-08-15,6.281145833333333
2021-08-16,7.019652777777778
2021-08-17,6.685011574074074
2021-08-18,6.260011574074074
2021-08-19,6.748356481481482
2021-08-20,6.893425925925926
2021-08-21,6.541631944444444
2021-08-22,6.425081018518519
2021-08-23,6.894930555555556
2021-08-24,6.975474537037037
2021-08-25,6.604513888888889
2021-08-26,6.636817129629629
2021-08-27,6.5717592592592595
2021-08-28,6.766759259259259
2021-08-29,6.7129513888888885
2021-08-30,6.755486111111111
2021-08-31,6.932638888888889
2021-09-01,7.174733796296296
2021-09-02,7.125462962962963
2021-09-03,6.574050925925926
2021-09-04,6.474641203703704
2021-09-05,6.224050925925926
2021-09-06,6.520671296296296
2021-09-07,6.946793981481481
2021-09-08,6.346678240740741
2021-09-09,6.573055555555555
2021-09-10,6.803391203703704
2021-09-11,7.558784722222223
2021-09-12,7.2482291666666665
2021-09-13,7.6150115740740745
2021-09-14,7.028321759259259
2021-09-15,7.203414351851852
2021-09-16,6.889699074074074
2021-09-17,6.402939814814815
2021-09-18,6.620763888888889
2021-09-19,6.563958333333333
2021-09-20,6.387650462962963
2021-09-21,6.513159722222222
2021-09-22,6.497060185185185
2021-09-23,6.925115740740741
2021-09-24,6.571423611111111
2021-09-25,6.45832175925926
2021-09-26,6.232916666666667
2021-09-27,6.474861111111111
2021-09-28,6.44269675925926
2021-09-29,6.521458333333333
2021-09-30,6.684340277777777
2021-10-01,7.2574652777777775
2021-10-02,6.526041666666667
2021-10-03,6.622835648148148
2021-10-04,6.441608796296296
2021-10-05,7.1726273148148145
2021-10-06,8.386643518518518
2021-10-07,7.6744212962962965
2021-10-08,7.839733796296296
2021-10-09,7.206365740740741
2021-10-10,6.6685995370370375
2021-10-11,6.560381944444444
2021-10-12,6.695636574074074
2021-10-13,6.840972222222222
2021-10-14,7.121435185185185
2021-10-15,6.949965277777777
2021-10-16,7.063888888888889
2021-10-17,6.643854166666666
2021-10-18,6.9179050925925925
2021-10-19,6.902442129629629
2021-10-20,7.371516203703703
2021-10-21,7.453506944444444
2021-10-22,7.345439814814815
2021-10-23,7.702546296296297
2021-10-24,7.56900462962963
2021-10-25,7.6581828703703705
2021-10-26,7.933587962962963
2021-10-27,7.730868055555556
2021-10-28,8.96974537037037
2021-10-29,8.910231481481482
2021-10-30,8.111805555555556
2021-10-31,7.345729166666667
2021-11-01,7.580625
2021-11-02,7.937858796296296
2021-11-03,7.884340277777778
2021-11-04,7.486805555555556
2021-11-05,7.541342592592593
2021-11-06,7.2673958333333335
2021-11-07,7.453206018518519
2021-11-08,7.435868055555556
2021-11-09,6.958171296296296
2021-11-10,7.873969907407408
2021-11-11,7.945277777777778
2021-11-12,8.034351851851852
2021-11-13,8.232060185185185
2021-11-14,8.023773148148148
2021-11-15,7.421111111111111
2021-11-16,7.2962037037037035
2021-11-17,8.418599537037037
2021-11-18,7.2719907407407405
2021-11-19,7.424016203703704
2021-11-20,6.7103125
2021-11-21,7.389212962962963
2021-11-22,6.809155092592593
2021-11-23,7.108599537037037
2021-11-24,7.45125
2021-11-25,7.145532407407408
2021-11-26,6.958865740740741
2021-11-27,6.80894675925926
2021-11-28,6.469085648148148
2021-11-29,7.273402777777778
2021-11-30,7.413206018518519
2021-12-01,6.978113425925926
2021-12-02,7.064444444444445
2021-12-03,6.591863425925926
2021-12-04,6.475300925925926
2021-12-05,9.362407407407407
2021-12-06,6.859502314814815
2021-12-07,6.879421296296297
2021-12-08,7.481909722222222
2021-12-09,7.2732523148148145
2021-12-10,7.252789351851852
2021-12-11,7.1815625
2021-12-12,7.070300925925926
2021-12-13,7.0915740740740745
2021-12-14,6.847488425925926
2021-12-15,6.974756944444445
2021-12-16,6.962048611111111
2021-12-17,7.644502314814815
2021-12-18,6.823819444444444
2021-12-19,6.7276851851851855
2021-12-20,7.010752314814815
2021-12-21,7.020219907407407
2021-12-22,7.323055555555555
2021-12-23,7.078136574074074
2021-12-24,6.905277777777778
2021-12-25,6.158391203703704
2021-12-26,6.514560185185185
2021-12-27,7.221805555555555
2021-12-28,7.1671875
2021-12-29,6.605729166666666
2021-12-30,7.3571875
2021-12-31,6.838958333333333
2022-01-01,6.606851851851852
2022-01-02,6.624930555555555
2022-01-03,7.02619212962963
2022-01-04,7.331006944444445
2022-01-05,7.538171296296296
2022-01-06,7.436354166666667
2022-01-07,7.207106481481482
2022-01-08,7.375844907407408
2022-01-09,7.186122685185185
2022-01-10,6.298009259259259
2022-01-11,7.168229166666666
2022-01-12,7.551215277777778
2022-01-13,7.977222222222222
2022-01-14,7.48212962962963
2022-01-15,7.466597222222222
2022-01-16,7.405775462962963
2022-01-17,7.2264236111111115
2022-01-18,7.030844907407407
2022-01-19,7.450324074074074
2022-01-20,7.187511574074074
2022-01-21,6.936689814814815
2022-01-22,6.890046296296297
2022-01-23,6.701736111111111
2022-01-24,6.606493055555555
2022-01-25,7.048217592592593
2022-01-26,6.6999305555555555
2022-01-27,6.5811574074074075
2022-01-28,6.724039351851852
2022-01-29,7.136608796296296
2022-01-30,7.462071759259259
2022-01-31,7.510138888888889
2022-02-01,7.425648148148148
2022-02-02,7.126423611111111
2022-02-03,6.900462962962963
2022-02-04,7.37949074074074
2022-02-05,7.884247685185185
2022-02-06,7.387905092592592
2022-02-07,7.006759259259259
2022-02-08,7.051064814814815
2022-02-09,7.366400462962963
2022-02-10,7.182858796296296
2022-02-11,7.158773148148148
2022-02-12,6.704791666666667
2022-02-13,6.967800925925926
2022-02-14,6.762835648148148
2022-02-15,6.87667824074074
2022-02-16,6.669722222222222
2022-02-17,6.7234375
2022-02-18,6.276909722222222
2022-02-19,6.555960648148148
2022-02-20,6.408541666666666
2022-02-21,6.869699074074074
2022-02-22,6.731076388888889
2022-02-23,6.931168981481481
2022-02-24,5.599722222222222
2022-02-25,7.067349537037037
2022-02-26,7.231921296296297
2022-02-27,6.912928240740741
2022-02-28,6.5828125
2022-03-01,6.91925925925926
2022-03-02,7.325393518518519
2022-03-03,7.247372685185185
2022-03-04,7.244872685185185
2022-03-05,6.575173611111111
2022-03-06,6.899664351851852
2022-03-07,7.162118055555555
2022-03-08,7.002060185185186
2022-03-09,6.860324074074074
2022-03-10,6.867060185185185
2022-03-11,6.755092592592592
2022-03-12,6.836747685185185
2022-03-13,6.3116666666666665
2022-03-14,6.500162037037037
2022-03-15,7.266574074074074
2022-03-16,7.294085648148148
2022-03-17,6.700543981481482
2022-03-18,8.096412037037037
2022-03-19,6.543252314814815
2022-03-20,6.704224537037037
2022-03-21,7.1130555555555555
2022-03-22,7.5090625
2022-03-23,6.860243055555555
2022-03-24,6.932407407407408
2022-03-25,6.968923611111111
2022-03-26,6.869293981481482
2022-03-27,6.896203703703704
2022-03-28,6.924270833333333
2022-03-29,6.825856481481481
2022-03-30,6.559525462962963
2022-03-31,6.679976851851852
2022-04-01,6.667453703703703
2022-04-02,6.28125
2022-04-03,6.464722222222222
2022-04-04,6.565925925925926
2022-04-05,6.551180555555556
2022-04-06,6.508865740740741
2022-04-07,6.660694444444444
