t,v
2015-08-07,49353826
2015-08-08,376006093
2015-08-09,38863003
2015-08-10,74070061
2015-08-11,163481740
2015-08-12,70102332
2015-08-13,88234087
2015-08-14,78746522
2015-08-15,59565914
2015-08-16,58241191
2015-08-17,60515132
2015-08-18,66816413
2015-08-19,91746712
2015-08-20,63112713
2015-08-21,106379973
2015-08-22,90744195
2015-08-23,117802449
2015-08-24,97648912
2015-08-25,114480057
2015-08-26,99511209
2015-08-27,147888097
2015-08-28,111903559
2015-08-29,99107570
2015-08-30,102643603
2015-08-31,129040364
2015-09-01,140186844
2015-09-02,139367393
2015-09-03,126323875
2015-09-04,167169621
2015-09-05,159443421
2015-09-06,142769611
2015-09-07,170954165
2015-09-08,159613715
2015-09-09,173606036
2015-09-10,141533806
2015-09-11,160019709
2015-09-12,186314190
2015-09-13,177583552
2015-09-14,171636301
2015-09-15,148568242
2015-09-16,146153300
2015-09-17,147106346
2015-09-18,212949263
2015-09-19,151038683
2015-09-20,206446103
2015-09-21,190902398
2015-09-22,211491983
2015-09-23,198471252
2015-09-24,183782502
2015-09-25,178617418
2015-09-26,160320021
2015-09-27,165754018
2015-09-28,171799357
2015-09-29,155322802
2015-09-30,161315703
2015-10-01,167413168
2015-10-02,175336965
2015-10-03,176738025
2015-10-04,175625589
2015-10-05,217225401
2015-10-06,185466056
2015-10-07,227483136
2015-10-08,206603046
2015-10-09,180944156
2015-10-10,174240457
2015-10-11,154497993
2015-10-12,200001725
2015-10-13,223630692
2015-10-14,193279995
2015-10-15,347607211
2015-10-16,400824348
2015-10-17,230368185
2015-10-18,249377360
2015-10-19,216816740
2015-10-20,191557542
2015-10-21,180468852
2015-10-22,237772273
2015-10-23,260401303
2015-10-24,211420205
2015-10-25,170100960
2015-10-26,203310004
2015-10-27,365376906
2015-10-28,202357247
2015-10-29,241667844
2015-10-30,250649964
2015-10-31,296674561
2015-11-01,316473677
2015-11-02,193339829
2015-11-03,236076946
2015-11-04,180987375
2015-11-05,199792729
2015-11-06,309939683
2015-11-07,572275369
2015-11-08,563914716
2015-11-09,211894015
2015-11-10,287969451
2015-11-11,414061456
2015-11-12,450460992
2015-11-13,280236525
2015-11-14,360305868
2015-11-15,224846805
2015-11-16,182259335
2015-11-17,171866071
2015-11-18,195036006
2015-11-19,291565861
2015-11-20,215430072
2015-11-21,200136785
2015-11-22,200785655
2015-11-23,233727612
2015-11-24,213080657
2015-11-25,236509015
2015-11-26,172083879
2015-11-27,173300084
2015-11-28,277436869
2015-11-29,171604728
2015-11-30,378296036
2015-12-01,231616100
2015-12-02,209753737
2015-12-03,198524826
2015-12-04,224707034
2015-12-05,231821279
2015-12-06,321509549
2015-12-07,176718066
2015-12-08,170716327
2015-12-09,179709088
2015-12-10,205190667
2015-12-11,270674425
2015-12-12,353864548
2015-12-13,325726017
2015-12-14,1415319249
2015-12-15,1945458070
2015-12-16,838759501
2015-12-17,606010119
2015-12-18,601895736
2015-12-19,539740128
2015-12-20,655002877
2015-12-21,740632642
2015-12-22,1120896788
2015-12-23,1474132298
2015-12-24,872428171
2015-12-25,502552472
2015-12-26,587287522
2015-12-27,1308470039
2015-12-28,687001176
2015-12-29,621538951
2015-12-30,1353161589
2015-12-31,452065747
2016-01-01,292262422
2016-01-02,368139389
2016-01-03,369359246
2016-01-04,402593450
2016-01-05,1081639803
2016-01-06,1248021662
2016-01-07,1230019603
2016-01-08,484149867
2016-01-09,727791392
2016-01-10,491410995
2016-01-11,482297856
2016-01-12,471922007
2016-01-13,1023451156
2016-01-14,489948500
2016-01-15,409950494
2016-01-16,418575124
2016-01-17,323467063
2016-01-18,591740638
2016-01-19,678347830
2016-01-20,348032526
2016-01-21,342268224
2016-01-22,570242575
2016-01-23,322444465
2016-01-24,423769859
2016-01-25,726749777
2016-01-26,673354229
2016-01-27,988064305
2016-01-28,757796542
2016-01-29,662122614
2016-01-30,547033880
2016-01-31,528433090
2016-02-01,467975052
2016-02-02,463852720
2016-02-03,454011879
2016-02-04,490608958
2016-02-05,532003821
2016-02-06,1516518359
2016-02-07,456085675
2016-02-08,449250211
2016-02-09,459451796
2016-02-10,490212172
2016-02-11,682081218
2016-02-12,540874146
2016-02-13,634287258
2016-02-14,514552660
2016-02-15,545779880
2016-02-16,589465103
2016-02-17,724546098
2016-02-18,538282068
2016-02-19,656406787
2016-02-20,499477626
2016-02-21,507918522
2016-02-22,554402169
2016-02-23,1552859093
2016-02-24,893246284
2016-02-25,568292172
2016-02-26,961624302
2016-02-27,532969743
2016-02-28,524028419
2016-02-29,583141365
2016-03-01,588897890
2016-03-02,610077143
2016-03-03,664818999
2016-03-04,684182604
2016-03-05,823063642
2016-03-06,839961704
2016-03-07,665621532
2016-03-08,724586328
2016-03-09,722145124
2016-03-10,688871222
2016-03-11,646851762
2016-03-12,802737599
2016-03-13,838358312
2016-03-14,956222024
2016-03-15,903071543
2016-03-16,892420435
2016-03-17,1028386837
2016-03-18,944417594
2016-03-19,1260165166
2016-03-20,1157109905
2016-03-21,1109953099
2016-03-22,1121742299
2016-03-23,1225594298
2016-03-24,1626133605
2016-03-25,1312008358
2016-03-26,1332524164
2016-03-27,825632165
2016-03-28,1184635969
2016-03-29,979937403
2016-03-30,1322684855
2016-03-31,1083408441
2016-04-01,1086582845
2016-04-02,790470279
2016-04-03,801995961
2016-04-04,1117941655
2016-04-05,1282980842
2016-04-06,946603089
2016-04-07,957476321
2016-04-08,1120960125
2016-04-09,882969880
2016-04-10,843594204
2016-04-11,809577184
2016-04-12,1025930028
2016-04-13,1248480822
2016-04-14,1121719747
2016-04-15,1056627642
2016-04-16,756208802
2016-04-17,1201820598
2016-04-18,907032725
2016-04-19,853996868
2016-04-20,1076546004
2016-04-21,1249597416
2016-04-22,920182050
2016-04-23,861316279
2016-04-24,1015487149
2016-04-25,1078392266
2016-04-26,939517922
2016-04-27,919149984
2016-04-28,1012268150
2016-04-29,1063388022
2016-04-30,1383313281
2016-05-01,1511731587
2016-05-02,1177337542
2016-05-03,1146450482
2016-05-04,1201616945
2016-05-05,1358637069
2016-05-06,1602023916
2016-05-07,1015648265
2016-05-08,1261744195
2016-05-09,1179593620
2016-05-10,1210893421
2016-05-11,1397950926
2016-05-12,1632935906
2016-05-13,1656271950
2016-05-14,1537818716
2016-05-15,1432831255
2016-05-16,1254259751
2016-05-17,1284047189
2016-05-18,1521937451
2016-05-19,1452477473
2016-05-20,1658172149
2016-05-21,1615273249
2016-05-22,1271624964
2016-05-23,1325875411
2016-05-24,1261981585
2016-05-25,1466859954
2016-05-26,1618046432
2016-05-27,1661028547
2016-05-28,2961437212
2016-05-29,1627804887
2016-05-30,1408071800
2016-05-31,1407740921
2016-06-01,1425852805
2016-06-02,1156113110
2016-06-03,1136334398
2016-06-04,1107944429
2016-06-05,1076614254
2016-06-06,1140974452
2016-06-07,2845963523
2016-06-08,1263496163
2016-06-09,1294746453
2016-06-10,1302395289
2016-06-11,1248713565
2016-06-12,1301471081
2016-06-13,1682028208
2016-06-14,1750832772
2016-06-15,1386896176
2016-06-16,1814513168
2016-06-17,9699231882
2016-06-18,13050992504
2016-06-19,2537463020
2016-06-20,2430847865
2016-06-21,2852692046
2016-06-22,2305841686
2016-06-23,1467850211
2016-06-24,1836377741
2016-06-25,1301309403
2016-06-26,1272219947
2016-06-27,1279888878
2016-06-28,1469765402
2016-06-29,2550844106
2016-06-30,4044720907
2016-07-01,2158272351
2016-07-02,1122621260
2016-07-03,1427198980
2016-07-04,1224175371
2016-07-05,1368607917
2016-07-06,1382496660
2016-07-07,1218807221
2016-07-08,1841766935
2016-07-09,2334633560
2016-07-10,1282671816
2016-07-11,1300828006
2016-07-12,1519722103
2016-07-13,1149799735
2016-07-14,1486527204
2016-07-15,1357561838
2016-07-16,1093312003
2016-07-17,894579244
2016-07-18,1183112877
2016-07-19,1362771496
2016-07-20,3608686150
2016-07-21,1572084963
2016-07-22,1736914290
2016-07-23,1486891308
2016-07-24,1623408980
2016-07-25,1754648808
2016-07-26,1974011991
2016-07-27,1714851632
2016-07-28,2102090676
2016-07-29,2014113080
2016-07-30,1369798941
2016-07-31,1351488065
2016-08-01,1361547316
2016-08-02,1514488094
2016-08-03,1482317473
2016-08-04,1466374182
2016-08-05,1304026331
2016-08-06,1177530476
2016-08-07,1262729849
2016-08-08,2565817408
2016-08-09,1400157039
2016-08-10,1471694578
2016-08-11,1428325553
2016-08-12,1326666513
2016-08-13,1140082745
2016-08-14,1096874038
2016-08-15,1226846171
2016-08-16,1418034622
2016-08-17,1294638318
2016-08-18,1649547423
2016-08-19,1322051295
2016-08-20,1214018556
2016-08-21,1279475184
2016-08-22,1358530325
2016-08-23,3437976497
2016-08-24,1365497931
2016-08-25,1503181516
2016-08-26,1446149563
2016-08-27,1297050238
2016-08-28,1157458709
2016-08-29,1320040213
2016-08-30,1474119226
2016-08-31,1356666091
2016-09-01,1434700962
2016-09-02,2097074659
2016-09-03,1231580684
2016-09-04,2167392083
2016-09-05,1303037941
2016-09-06,1526617928
2016-09-07,1572299632
2016-09-08,1863985100
2016-09-09,1913940716
2016-09-10,1217614180
2016-09-11,1223254865
2016-09-12,1545907006
2016-09-13,1371598775
2016-09-14,1682711707
2016-09-15,1658435104
2016-09-16,2194001365
2016-09-17,1585781668
2016-09-18,1293680440
2016-09-19,1231910250
2016-09-20,1480764928
2016-09-21,1395904968
2016-09-22,2410972590
2016-09-23,1357490092
2016-09-24,2289308086
2016-09-25,1747816446
2016-09-26,2542248908
2016-09-27,2632786474
2016-09-28,2175515747
2016-09-29,1396207408
2016-09-30,1272668731
2016-10-01,3985836244
2016-10-02,3743242598
2016-10-03,2717406813
2016-10-04,3246134901
2016-10-05,2866992417
2016-10-06,2310816610
2016-10-07,2421130656
2016-10-08,2565205408
2016-10-09,2711943257
2016-10-10,2467479630
2016-10-11,1564187991
2016-10-12,1522678013
2016-10-13,1418138280
2016-10-14,1486426699
2016-10-15,1040206098
2016-10-16,990865611
2016-10-17,1078574284
2016-10-18,1704303900
2016-10-19,4085750321
2016-10-20,2271887910
2016-10-21,1538319822
2016-10-22,1087705458
2016-10-23,1003447161
2016-10-24,1752086955
2016-10-25,1595508580
2016-10-26,1320805021
2016-10-27,1288784933
2016-10-28,1281666893
2016-10-29,1103589525
2016-10-30,1149072616
2016-10-31,1338793706
2016-11-01,1473547479
2016-11-02,1195992854
2016-11-03,1175865179
2016-11-04,909734105
2016-11-05,1010207475
2016-11-06,961987815
2016-11-07,1155660767
2016-11-08,1287625339
2016-11-09,1396745204
2016-11-10,1345345017
2016-11-11,1310188453
2016-11-12,1173857840
2016-11-13,1300556775
2016-11-14,1454676000
2016-11-15,1420427265
2016-11-16,1307725316
2016-11-17,1193974855
2016-11-18,1340958763
2016-11-19,1103130246
2016-11-20,1263031869
2016-11-21,1349827967
2016-11-22,1568327298
2016-11-23,3254628695
2016-11-24,2233482563
2016-11-25,3392587740
2016-11-26,2934289661
2016-11-27,4525823985
2016-11-28,4699481436
2016-11-29,3918433844
2016-11-30,1448305639
2016-12-01,1180527977
2016-12-02,1283132462
2016-12-03,1328529729
2016-12-04,1345963783
2016-12-05,1517390929
2016-12-06,1481293602
2016-12-07,1404840993
2016-12-08,1238576996
2016-12-09,1332625137
2016-12-10,1312233866
2016-12-11,1818891478
2016-12-12,1287935860
2016-12-13,1329012808
2016-12-14,1836909629
2016-12-15,1868759687
2016-12-16,1398571391
2016-12-17,1513557248
2016-12-18,1409786898
2016-12-19,1560298755
2016-12-20,1527579481
2016-12-21,1796300581
2016-12-22,1780610263
2016-12-23,1339317925
2016-12-24,1194026149
2016-12-25,1044063973
2016-12-26,1001482192
2016-12-27,1432329709
2016-12-28,1356082583
2016-12-29,1632363826
2016-12-30,1557091651
2016-12-31,1382568824
2017-01-01,1152786652
2017-01-02,1236999294
2017-01-03,1725017707
2017-01-04,1722898381
2017-01-05,1537875380
2017-01-06,1425908869
2017-01-07,1406844582
2017-01-08,1453192936
2017-01-09,1557850735
2017-01-10,1666805527
2017-01-11,1526980471
2017-01-12,1672885374
2017-01-13,1697321260
2017-01-14,1337816588
2017-01-15,1337441958
2017-01-16,1447294287
2017-01-17,1742542655
2017-01-18,1514489339
2017-01-19,1421181369
2017-01-20,1549686257
2017-01-21,1388291037
2017-01-22,1643236317
2017-01-23,1617239889
2017-01-24,1886697084
2017-01-25,1678823346
2017-01-26,1658172412
2017-01-27,1563231212
2017-01-28,1545204162
2017-01-29,1375911664
2017-01-30,1523951659
2017-01-31,1406776443
2017-02-01,1727201018
2017-02-02,1564077395
2017-02-03,1519386885
2017-02-04,1456943421
2017-02-05,1567592675
2017-02-06,1599155373
2017-02-07,1983099544
2017-02-08,1831684518
2017-02-09,1730081198
2017-02-10,2034959642
2017-02-11,1776670843
2017-02-12,1754189018
2017-02-13,2341393814
2017-02-14,2195001803
2017-02-15,2349687466
2017-02-16,1745086369
2017-02-17,1731885385
2017-02-18,1867779741
2017-02-19,1612682135
2017-02-20,1804456972
2017-02-21,2378366614
2017-02-22,2167016939
2017-02-23,1835468879
2017-02-24,1810469943
2017-02-25,2017627760
2017-02-26,1704657840
2017-02-27,1932317583
2017-02-28,2140986171
2017-03-01,2201275191
2017-03-02,2299273893
2017-03-03,2057586089
2017-03-04,1881415432
2017-03-05,1890414773
2017-03-06,1824348403
2017-03-07,1962866259
2017-03-08,1749096281
2017-03-09,2193042940
2017-03-10,2270770210
2017-03-11,2121047668
2017-03-12,2112935282
2017-03-13,3230713433
2017-03-14,3113154274
2017-03-15,2733378989
2017-03-16,3665163840
2017-03-17,3367447756
2017-03-18,2680677691
2017-03-19,2539978136
2017-03-20,2538286690
2017-03-21,2722576858
2017-03-22,2630501522
2017-03-23,2732317738
2017-03-24,2802719814
2017-03-25,2527232365
2017-03-26,2604354268
2017-03-27,3525902049
2017-03-28,2829505044
2017-03-29,3117278005
2017-03-30,3137233539
2017-03-31,3436349297
2017-04-01,2573095663
2017-04-02,3004667695
2017-04-03,3376865972
2017-04-04,2864503196
2017-04-05,2984719130
2017-04-06,3183645283
2017-04-07,3272867342
2017-04-08,2355623725
2017-04-09,2602180314
2017-04-10,2760816737
2017-04-11,2679717515
2017-04-12,3182442702
2017-04-13,2761853261
2017-04-14,2852421954
2017-04-15,2598033805
2017-04-16,2501650359
2017-04-17,2751457420
2017-04-18,3260252456
2017-04-19,3465363718
2017-04-20,3409122678
2017-04-21,3790138031
2017-04-22,3110233611
2017-04-23,3017245471
2017-04-24,3142866515
2017-04-25,3587460558
2017-04-26,3389558270
2017-04-27,3855782843
2017-04-28,3606508681
2017-04-29,3072854430
2017-04-30,3369941640
2017-05-01,4407350348
2017-05-02,4635194345
2017-05-03,3466927160
2017-05-04,4146025194
2017-05-05,3703774549
2017-05-06,3898769831
2017-05-07,4383783590
2017-05-08,4371120763
2017-05-09,4941861347
2017-05-10,4977215293
2017-05-11,5037332202
2017-05-12,5266065050
2017-05-13,5077306379
2017-05-14,5160924870
2017-05-15,6301530936
2017-05-16,6372683499
2017-05-17,7720771554
2017-05-18,7193965880
2017-05-19,8398318453
2017-05-20,7231434396
2017-05-21,7608565060
2017-05-22,8262616027
2017-05-23,10792046776
2017-05-24,11331763125
2017-05-25,9970769428
2017-05-26,9457379360
2017-05-27,8220637008
2017-05-28,8823289197
2017-05-29,8502914345
2017-05-30,12123850008
2017-05-31,12807114092
2017-06-01,10585577059
2017-06-02,12488700413
2017-06-03,10201890636
2017-06-04,10633567472
2017-06-05,9761889950
2017-06-06,10984663716
2017-06-07,11557499687
2017-06-08,10261845222
2017-06-09,11058393071
2017-06-10,9841868154
2017-06-11,12661099741
2017-06-12,15111081528
2017-06-13,12308459502
2017-06-14,11460738761
2017-06-15,11866655521
2017-06-16,11936721304
2017-06-17,11471789945
2017-06-18,12442644327
2017-06-19,13844965069
2017-06-20,16318742376
2017-06-21,16194449431
2017-06-22,16900771803
2017-06-23,12816221982
2017-06-24,13618865563
2017-06-25,12409519930
2017-06-26,13547864341
2017-06-27,11678415830
2017-06-28,15232354556
2017-06-29,14345970753
2017-06-30,13795600568
2017-07-01,12521038121
2017-07-02,13002683664
2017-07-03,16175176848
2017-07-04,15136378093
2017-07-05,14865252727
2017-07-06,13174610768
2017-07-07,13873012367
2017-07-08,12858510908
2017-07-09,10477343982
2017-07-10,13402974481
2017-07-11,14105413216
2017-07-12,14232178771
2017-07-13,14997729804
2017-07-14,12734885135
2017-07-15,10654024056
2017-07-16,11266129267
2017-07-17,11980769662
2017-07-18,14125844187
2017-07-19,12131955982
2017-07-20,11664100238
2017-07-21,10446514542
2017-07-22,9524071657
2017-07-23,11670362240
2017-07-24,13611993829
2017-07-25,12380952661
2017-07-26,10833315646
2017-07-27,10120647777
2017-07-28,11945897337
2017-07-29,9555608826
2017-07-30,11830615520
2017-07-31,12631771948
2017-08-01,12712633763
2017-08-02,11528446756
2017-08-03,12302333888
2017-08-04,12936116501
2017-08-05,12932883007
2017-08-06,12563169019
2017-08-07,13825333409
2017-08-08,15480719454
2017-08-09,14138834844
2017-08-10,15013390317
2017-08-11,16970909183
2017-08-12,16866888987
2017-08-13,16412188461
2017-08-14,19420639505
2017-08-15,22420514846
2017-08-16,23252716251
2017-08-17,22078488852
2017-08-18,21706184631
2017-08-19,19220763789
2017-08-20,15896801546
2017-08-21,17401005729
2017-08-22,17186834718
2017-08-23,17213958732
2017-08-24,15605369701
2017-08-25,14108202514
2017-08-26,14015346534
2017-08-27,15001225365
2017-08-28,16485319187
2017-08-29,20167518335
2017-08-30,18328764907
2017-08-31,19022461476
2017-09-01,19038356374
2017-09-02,15951133510
2017-09-03,14093399641
2017-09-04,18669548895
2017-09-05,20587720062
2017-09-06,21850533489
2017-09-07,21860214702
2017-09-08,21076267456
2017-09-09,17994285809
2017-09-10,15867451570
2017-09-11,17619207471
2017-09-12,19047548800
2017-09-13,18052205923
2017-09-14,18330776595
2017-09-15,20666662769
2017-09-16,20417940497
2017-09-17,16461120596
2017-09-18,18065378622
2017-09-19,18037053711
2017-09-20,19198494584
2017-09-21,17557702349
2017-09-22,14989028970
2017-09-23,14148926235
2017-09-24,15049348283
2017-09-25,15438672580
2017-09-26,17258565559
2017-09-27,16132176667
2017-09-28,15969409283
2017-09-29,15903325578
2017-09-30,15741288840
2017-10-01,15310702625
2017-10-02,15476144246
2017-10-03,16505707600
2017-10-04,16487207597
2017-10-05,15769323939
2017-10-06,16237865284
2017-10-07,14920815678
2017-10-08,15692320454
2017-10-09,16593181455
2017-10-10,16179450785
2017-10-11,16118748639
2017-10-12,16867122755
2017-10-13,16818042076
2017-10-14,16796028877
2017-10-15,16839186003
2017-10-16,21922149733
2017-10-17,23228035407
2017-10-18,21489016601
2017-10-19,24000639917
2017-10-20,26586385034
2017-10-21,18071912431
2017-10-22,17476670766
2017-10-23,22114753393
2017-10-24,26564360882
2017-10-25,26309948399
2017-10-26,25792279901
2017-10-27,26465608457
2017-10-28,24239121258
2017-10-29,24746206086
2017-10-30,26614306113
2017-10-31,29533828429
2017-11-01,29424380755
2017-11-02,29711567693
2017-11-03,27474314374
2017-11-04,21376044145
2017-11-05,18773996019
2017-11-06,21153932849
2017-11-07,22865503353
2017-11-08,23449784813
2017-11-09,24999897724
2017-11-10,23713089215
2017-11-11,22677631504
2017-11-12,22925905290
2017-11-13,24531180251
2017-11-14,25948015097
2017-11-15,27301492885
2017-11-16,25488243406
2017-11-17,26784225318
2017-11-18,24533058428
2017-11-19,23975536049
2017-11-20,26028323100
2017-11-21,25906642430
2017-11-22,26017603300
2017-11-23,26725565747
2017-11-24,26317791926
2017-11-25,27394968894
2017-11-26,27674433130
2017-11-27,30599738359
2017-11-28,30289043933
2017-11-29,29520353571
2017-11-30,28881252173
2017-12-01,31811889137
2017-12-02,30183965304
2017-12-03,33003047721
2017-12-04,34887499732
2017-12-05,35038771633
2017-12-06,33872882013
2017-12-07,37126347502
2017-12-08,37650148331
2017-12-09,38152909553
2017-12-10,41534998834
2017-12-11,42190966488
2017-12-12,42534383833
2017-12-13,41625360923
2017-12-14,43964305213
2017-12-15,42608413724
2017-12-16,42279552971
2017-12-17,41694633647
2017-12-18,43187334708
2017-12-19,43342615632
2017-12-20,41579876026
2017-12-21,42822071285
2017-12-22,42339991358
2017-12-23,41687096694
2017-12-24,39798473828
2017-12-25,36883633123
2017-12-26,38712647338
2017-12-27,41512701145
2017-12-28,41332148391
2017-12-29,43398452292
2017-12-30,41535012007
2017-12-31,40470764952
2018-01-01,39878404934
2018-01-02,42671435301
2018-01-03,41794056176
2018-01-04,41333334263
2018-01-05,40379670041
2018-01-06,41149583911
2018-01-07,42259801663
2018-01-08,41554528829
2018-01-09,40838637933
2018-01-10,41212627672
2018-01-11,40874997008
2018-01-12,41303106670
2018-01-13,41404605848
2018-01-14,42756086884
2018-01-15,42044275766
2018-01-16,42377676204
2018-01-17,42082782990
2018-01-18,42002307855
2018-01-19,40653335875
2018-01-20,42221484437
2018-01-21,41120833537
2018-01-22,42384838298
2018-01-23,42585322150
2018-01-24,41116424115
2018-01-25,38694721437
2018-01-26,40326332374
2018-01-27,36907616933
2018-01-28,39325309235
2018-01-29,40261375642
2018-01-30,40864587588
2018-01-31,41267322654
2018-02-01,41536066787
2018-02-02,40854960763
2018-02-03,39679298889
2018-02-04,38898828642
2018-02-05,40245262197
2018-02-06,39381740316
2018-02-07,38975391274
2018-02-08,37505525813
2018-02-09,38742712325
2018-02-10,40043465160
2018-02-11,38287873264
2018-02-12,38753227751
2018-02-13,37040843029
2018-02-14,36681356650
2018-02-15,38241261159
2018-02-16,37933761004
2018-02-17,39190424521
2018-02-18,39397404811
2018-02-19,39606970101
2018-02-20,41974258562
2018-02-21,40847900375
2018-02-22,38837227832
2018-02-23,37993641292
2018-02-24,38209721044
2018-02-25,37805621936
2018-02-26,37390627120
2018-02-27,37544709529
2018-02-28,39311462320
2018-03-01,37659753017
2018-03-02,39984146273
2018-03-03,37865643700
2018-03-04,38733139576
2018-03-05,38797167611
2018-03-06,37310730546
2018-03-07,38469776248
2018-03-08,37451501469
2018-03-09,37019872373
2018-03-10,36080720185
2018-03-11,34925920880
2018-03-12,37215981752
2018-03-13,35427520879
2018-03-14,35522377390
2018-03-15,35375081129
2018-03-16,34947475758
2018-03-17,31446273155
2018-03-18,36562793541
2018-03-19,35803513444
2018-03-20,34824357942
2018-03-21,36537281565
2018-03-22,33772229495
2018-03-23,34522534591
2018-03-24,32878735555
2018-03-25,31986599110
2018-03-26,31967676643
2018-03-27,30405926801
2018-03-28,29579699185
2018-03-29,30620962828
2018-03-30,33818268664
2018-03-31,33629067707
2018-04-01,32807335944
2018-04-02,34275719677
2018-04-03,36653734553
2018-04-04,38069879303
2018-04-05,38424159251
2018-04-06,39917500895
2018-04-07,35245960993
2018-04-08,36738692841
2018-04-09,36435661074
2018-04-10,34526522998
2018-04-11,36194193270
2018-04-12,38968902921
2018-04-13,39967746011
2018-04-14,37073745170
2018-04-15,37358712649
2018-04-16,41394095952
2018-04-17,40497158291
2018-04-18,41776811574
2018-04-19,42250861659
2018-04-20,41954960890
2018-04-21,40462973981
2018-04-22,40867127972
2018-04-23,40491570369
2018-04-24,40533102157
2018-04-25,40252769373
2018-04-26,39908994731
2018-04-27,38235245532
2018-04-28,37375800855
2018-04-29,39480510989
2018-04-30,39940635578
2018-05-01,40468255310
2018-05-02,41311595750
2018-05-03,41145258751
2018-05-04,40593432009
2018-05-05,41171830582
2018-05-06,41080342129
2018-05-07,40805556837
2018-05-08,40356122249
2018-05-09,41113518428
2018-05-10,42124564177
2018-05-11,42190262218
2018-05-12,42005762566
2018-05-13,42145698470
2018-05-14,41627509104
2018-05-15,42159372012
2018-05-16,41882605714
2018-05-17,42338374555
2018-05-18,41435670692
2018-05-19,41040525495
2018-05-20,41296242555
2018-05-21,41917863183
2018-05-22,41525228723
2018-05-23,41354932889
2018-05-24,41253268892
2018-05-25,41414693127
2018-05-26,41669336660
2018-05-27,41483155136
2018-05-28,42615295374
2018-05-29,42540635241
2018-05-30,41887522529
2018-05-31,43113364618
2018-06-01,42285060762
2018-06-02,41775080315
2018-06-03,41931216906
2018-06-04,42571646505
2018-06-05,41747630901
2018-06-06,40593909717
2018-06-07,41014362284
2018-06-08,41680115284
2018-06-09,40505249405
2018-06-10,40957162688
2018-06-11,41478158514
2018-06-12,41574159243
2018-06-13,40679789777
2018-06-14,36722061394
2018-06-15,37425182608
2018-06-16,40928246879
2018-06-17,39762305224
2018-06-18,40588419803
2018-06-19,41529355327
2018-06-20,42492438577
2018-06-21,42192513824
2018-06-22,41125962330
2018-06-23,37538683842
2018-06-24,37766116343
2018-06-25,39561080187
2018-06-26,40332977332
2018-06-27,40864261407
2018-06-28,39894207185
2018-06-29,39736452466
2018-06-30,43198504937
2018-07-01,44488940344
2018-07-02,44404968907
2018-07-03,43846733107
2018-07-04,44217212865
2018-07-05,43708739479
2018-07-06,43800194753
2018-07-07,43915762993
2018-07-08,40014392256
2018-07-09,43370048739
2018-07-10,41955002881
2018-07-11,43295332506
2018-07-12,44381477988
2018-07-13,45174377640
2018-07-14,45339386076
2018-07-15,44771824983
2018-07-16,42426180825
2018-07-17,42775974221
2018-07-18,41585774372
2018-07-19,42622517258
2018-07-20,43131472783
2018-07-21,43864730065
2018-07-22,43718533062
2018-07-23,43024639945
2018-07-24,42124303763
2018-07-25,43026887911
2018-07-26,42724863719
2018-07-27,40948763650
2018-07-28,38139349291
2018-07-29,37996724160
2018-07-30,41041055047
2018-07-31,41618055271
2018-08-01,42526840694
2018-08-02,42443634801
2018-08-03,42732264360
2018-08-04,42791545877
2018-08-05,42056443073
2018-08-06,43179622616
2018-08-07,44131622117
2018-08-08,45482310042
2018-08-09,44754521771
2018-08-10,42518070498
2018-08-11,39509179747
2018-08-12,38881712910
2018-08-13,39251046406
2018-08-14,39261426596
2018-08-15,41849321266
2018-08-16,41774666889
2018-08-17,42623243529
2018-08-18,42738980903
2018-08-19,41824772924
2018-08-20,41473658621
2018-08-21,42801247581
2018-08-22,42400085544
2018-08-23,42170106982
2018-08-24,42813642424
2018-08-25,42353325363
2018-08-26,42435122947
2018-08-27,41639143029
2018-08-28,42639120902
2018-08-29,41016540574
2018-08-30,41775143400
2018-08-31,42422842496
2018-09-01,41962410973
2018-09-02,41828966851
2018-09-03,41380404933
2018-09-04,41700209355
2018-09-05,40277339979
2018-09-06,41844295436
2018-09-07,41851443895
2018-09-08,42687384413
2018-09-09,42015802006
2018-09-10,41706065010
2018-09-11,40623580410
2018-09-12,41968405306
2018-09-13,40125460418
2018-09-14,41289957926
2018-09-15,42642844329
2018-09-16,42478630813
2018-09-17,42156342856
2018-09-18,41135032608
2018-09-19,42834301329
2018-09-20,40659297074
2018-09-21,41737250293
2018-09-22,41205336647
2018-09-23,41038492835
2018-09-24,41581136430
2018-09-25,42006670219
2018-09-26,43033396036
2018-09-27,42575076200
2018-09-28,42098982996
2018-09-29,39796949930
2018-09-30,39391455096
2018-10-01,38583903369
2018-10-02,39337916125
2018-10-03,40516803371
2018-10-04,40898314334
2018-10-05,39748882508
2018-10-06,39592284436
2018-10-07,33980367149
2018-10-08,36589051726
2018-10-09,37002537399
2018-10-10,34219858113
2018-10-11,37724015884
2018-10-12,38569009830
2018-10-13,36293556326
2018-10-14,35452573090
2018-10-15,33392147626
2018-10-16,35852217291
2018-10-17,36427604938
2018-10-18,36653273595
2018-10-19,35213124838
2018-10-20,35804024104
2018-10-21,35964956291
2018-10-22,37374204230
2018-10-23,36491674106
2018-10-24,37872420948
2018-10-25,39982833755
2018-10-26,37793198087
2018-10-27,34911178339
2018-10-28,34802398631
2018-10-29,35643224358
2018-10-30,35022944604
2018-10-31,35625151983
2018-11-01,34818807705
2018-11-02,34824065098
2018-11-03,33994631119
2018-11-04,34554032159
2018-11-05,35493731927
2018-11-06,35256316144
2018-11-07,35288255199
2018-11-08,34946503380
2018-11-09,34371853440
2018-11-10,35065223346
2018-11-11,35284181527
2018-11-12,35149346499
2018-11-13,34018905246
2018-11-14,35767814661
2018-11-15,35082177150
2018-11-16,35450852388
2018-11-17,35008930509
2018-11-18,36407485765
2018-11-19,39229097540
2018-11-20,37853937087
2018-11-21,37014296498
2018-11-22,35315094150
2018-11-23,36178832364
2018-11-24,32431469982
2018-11-25,33955416211
2018-11-26,35220313039
2018-11-27,36460736247
2018-11-28,38288924972
2018-11-29,40601167308
2018-11-30,41513770519
2018-12-01,37895005879
2018-12-02,36985040836
2018-12-03,38477221360
2018-12-04,38520539588
2018-12-05,39854329248
2018-12-06,39006302999
2018-12-07,37636438028
2018-12-08,36352536299
2018-12-09,36091932040
2018-12-10,36062991504
2018-12-11,35602677832
2018-12-12,35641296996
2018-12-13,36394508463
2018-12-14,35325385401
2018-12-15,36419053601
2018-12-16,35844796038
2018-12-17,36084235295
2018-12-18,36559260863
2018-12-19,36778159014
2018-12-20,37068937640
2018-12-21,36597574959
2018-12-22,34880980408
2018-12-23,35304014246
2018-12-24,36895129124
2018-12-25,37632259136
2018-12-26,36702456929
2018-12-27,35152024658
2018-12-28,36163977613
2018-12-29,35151969926
2018-12-30,37036309989
2018-12-31,35121491661
2019-01-01,33003248434
2019-01-02,35435884801
2019-01-03,33988178009
2019-01-04,33803233584
2019-01-05,32361006658
2019-01-06,30186019014
2019-01-07,31934490080
2019-01-08,31200726241
2019-01-09,31321818347
2019-01-10,32220047118
2019-01-11,33344122823
2019-01-12,29728716137
2019-01-13,29568223014
2019-01-14,33493945330
2019-01-15,31595826103
2019-01-16,32260837960
2019-01-17,31063271496
2019-01-18,32042569120
2019-01-19,33993234769
2019-01-20,33253363997
2019-01-21,34000481665
2019-01-22,34711970508
2019-01-23,31785798550
2019-01-24,31798921264
2019-01-25,30989472859
2019-01-26,33323587600
2019-01-27,31556022389
2019-01-28,33482861686
2019-01-29,32936747325
2019-01-30,33023211511
2019-01-31,35336403533
2019-02-01,32833526352
2019-02-02,30351303681
2019-02-03,28133598262
2019-02-04,28226086060
2019-02-05,28099781826
2019-02-06,28740956755
2019-02-07,29501173599
2019-02-08,30377537618
2019-02-09,29765635448
2019-02-10,26794646878
2019-02-11,27701803516
2019-02-12,28609441186
2019-02-13,29666839926
2019-02-14,29139449129
2019-02-15,30227583358
2019-02-16,30057634803
2019-02-17,29940808518
2019-02-18,31223109142
2019-02-19,32033122859
2019-02-20,31734662772
2019-02-21,32176024711
2019-02-22,31980015481
2019-02-23,31537945053
2019-02-24,31415391506
2019-02-25,32480104651
2019-02-26,32866137799
2019-02-27,32659898378
2019-02-28,33089095724
2019-03-01,39492806014
2019-03-02,38675982064
2019-03-03,36276738891
2019-03-04,41866940088
2019-03-05,40004931167
2019-03-06,37869758674
2019-03-07,37836693708
2019-03-08,38885568407
2019-03-09,38357994669
2019-03-10,36334557582
2019-03-11,38991552922
2019-03-12,39113647769
2019-03-13,41253884612
2019-03-14,40441525287
2019-03-15,39845970884
2019-03-16,37786787412
2019-03-17,36775053604
2019-03-18,42785944767
2019-03-19,42726696514
2019-03-20,42228719065
2019-03-21,46100304640
2019-03-22,43396790073
2019-03-23,39848479263
2019-03-24,39381538973
2019-03-25,41653960005
2019-03-26,42101191569
2019-03-27,43068932231
2019-03-28,40908077925
2019-03-29,45471659813
2019-03-30,43971609134
2019-03-31,44876931800
2019-04-01,44164601389
2019-04-02,44957091836
2019-04-03,46032736395
2019-04-04,42333468791
2019-04-05,38885727716
2019-04-06,37519636709
2019-04-07,36717155468
2019-04-08,42343595159
2019-04-09,39795673953
2019-04-10,43506452011
2019-04-11,44624694110
2019-04-12,41049837001
2019-04-13,37558504249
2019-04-14,37498770024
2019-04-15,42125589177
2019-04-16,45258931145
2019-04-17,42368840833
2019-04-18,44066495683
2019-04-19,40428663735
2019-04-20,38850909492
2019-04-21,41621625786
2019-04-22,41885538038
2019-04-23,42517699064
2019-04-24,41216931652
2019-04-25,39261136384
2019-04-26,40695830153
2019-04-27,34736330703
2019-04-28,37424405577
2019-04-29,38832371504
2019-04-30,42203569514
2019-05-01,41159294435
2019-05-02,45299563780
2019-05-03,41361144152
2019-05-04,38800031440
2019-05-05,39820143024
2019-05-06,45268734262
2019-05-07,49200070678
2019-05-08,45577854352
2019-05-09,44911545943
2019-05-10,45468860091
2019-05-11,43827817371
2019-05-12,42502018958
2019-05-13,44319266566
2019-05-14,47898145663
2019-05-15,48954515431
2019-05-16,48113650406
2019-05-17,48618953803
2019-05-18,48054490723
2019-05-19,45991445956
2019-05-20,46490927194
2019-05-21,46798238327
2019-05-22,47131876108
2019-05-23,47034333692
2019-05-24,46240780954
2019-05-25,44898486379
2019-05-26,42583152151
2019-05-27,47430272351
2019-05-28,46715959358
2019-05-29,49428569541
2019-05-30,46390084713
2019-05-31,47388812004
2019-06-01,47405557702
2019-06-02,44769162038
2019-06-03,46415901420
2019-06-04,46907686393
2019-06-05,45925073341
2019-06-06,47488881496
2019-06-07,44792873290
2019-06-08,46158076171
2019-06-09,44469327937
2019-06-10,47045899025
2019-06-11,47426348257
2019-06-12,46735103075
2019-06-13,46624984363
2019-06-14,46728818044
2019-06-15,46427635034
2019-06-16,44550294581
2019-06-17,46774789321
2019-06-18,46908532171
2019-06-19,47205378970
2019-06-20,47269497892
2019-06-21,43235979670
2019-06-22,42121083318
2019-06-23,41383634266
2019-06-24,43990077378
2019-06-25,46501462723
2019-06-26,48289883817
2019-06-27,48133692416
2019-06-28,47291628386
2019-06-29,39067810188
2019-06-30,38336674190
2019-07-01,45344763932
2019-07-02,45867632626
2019-07-03,45070792888
2019-07-04,42018485421
2019-07-05,42757619462
2019-07-06,42395644317
2019-07-07,38313122785
2019-07-08,43126652726
2019-07-09,43512684109
2019-07-10,41422146250
2019-07-11,46159535970
2019-07-12,42224620312
2019-07-13,35825926651
2019-07-14,39705416467
2019-07-15,44821550997
2019-07-16,46946508387
2019-07-17,45912246701
2019-07-18,42308351032
2019-07-19,42607042444
2019-07-20,37441489500
2019-07-21,34648121160
2019-07-22,38019129426
2019-07-23,37811798834
2019-07-24,44689377183
2019-07-25,46474237829
2019-07-26,42118054888
2019-07-27,41403384044
2019-07-28,41129098255
2019-07-29,41155067512
2019-07-30,42730371291
2019-07-31,44244042637
2019-08-01,45804054979
2019-08-02,43536803726
2019-08-03,42680383250
2019-08-04,39830823823
2019-08-05,43560552634
2019-08-06,46886100509
2019-08-07,45672836936
2019-08-08,44538911388
2019-08-09,43115125687
2019-08-10,40088982424
2019-08-11,38949665017
2019-08-12,42577796470
2019-08-13,40873845857
2019-08-14,45768083246
2019-08-15,45183685444
2019-08-16,43135126310
2019-08-17,40373906182
2019-08-18,39566178905
2019-08-19,45669627303
2019-08-20,46597068075
2019-08-21,47126041360
2019-08-22,45883895326
2019-08-23,46275129570
2019-08-24,43277113542
2019-08-25,47286517120
2019-08-26,47724066795
2019-08-27,46880418768
2019-08-28,47067689762
2019-08-29,47730007865
2019-08-30,46872741785
2019-08-31,46586262444
2019-09-01,46832424388
2019-09-02,48017317687
2019-09-03,48260023664
2019-09-04,47867688166
2019-09-05,48654755131
2019-09-06,48393843986
2019-09-07,48445388062
2019-09-08,48195645938
2019-09-09,48458952085
2019-09-10,48081488368
2019-09-11,48239448228
2019-09-12,48344984686
2019-09-13,47584273799
2019-09-14,48639944783
2019-09-15,49266521151
2019-09-16,50849497612
2019-09-17,51391019813
2019-09-18,51977016254
2019-09-19,55115574985
2019-09-20,60985142877
2019-09-21,60696186533
2019-09-22,59761117346
2019-09-23,61335855030
2019-09-24,59539712548
2019-09-25,59906815257
2019-09-26,58269516973
2019-09-27,57744896153
2019-09-28,61185087057
2019-09-29,61260805071
2019-09-30,59673943289
2019-10-01,52214302353
2019-10-02,48878880741
2019-10-03,51914535580
2019-10-04,45801042281
2019-10-05,38511159290
2019-10-06,44092578607
2019-10-07,42622027759
2019-10-08,43735636376
2019-10-09,48135174273
2019-10-10,44105577971
2019-10-11,43330359021
2019-10-12,39653044119
2019-10-13,36314259282
2019-10-14,42121616853
2019-10-15,42669651206
2019-10-16,43336209621
2019-10-17,42844838747
2019-10-18,43317026368
2019-10-19,39364929976
2019-10-20,36913086963
2019-10-21,39584365741
2019-10-22,44495678581
2019-10-23,49302806624
2019-10-24,48150807813
2019-10-25,45236401811
2019-10-26,43301661037
2019-10-27,37459637913
2019-10-28,45119125200
2019-10-29,46595392516
2019-10-30,47316901395
2019-10-31,44009018315
2019-11-01,43341018580
2019-11-02,41336034648
2019-11-03,45720306249
2019-11-04,47423129126
2019-11-05,47791848741
2019-11-06,44747367249
2019-11-07,46648231470
2019-11-08,49638971151
2019-11-09,46816455368
2019-11-10,44417663000
2019-11-11,47634130165
2019-11-12,47293168961
2019-11-13,46891615561
2019-11-14,48159924765
2019-11-15,48992704671
2019-11-16,46961502077
2019-11-17,48245840968
2019-11-18,48831614895
2019-11-19,47630136796
2019-11-20,49240624453
2019-11-21,51389717849
2019-11-22,52613955655
2019-11-23,43088337503
2019-11-24,42976830054
2019-11-25,52942609717
2019-11-26,50766698512
2019-11-27,48798946576
2019-11-28,49358993008
2019-11-29,46432300183
2019-11-30,45092536865
2019-12-01,45058445772
2019-12-02,45080799116
2019-12-03,42814998356
2019-12-04,46325777453
2019-12-05,40510095163
2019-12-06,34563421103
2019-12-07,33608766474
2019-12-08,40696866511
2019-12-09,43591009997
2019-12-10,46900084279
2019-12-11,47274696199
2019-12-12,48532946599
2019-12-13,45831247725
2019-12-14,41365654486
2019-12-15,41002813057
2019-12-16,43673052186
2019-12-17,45444365541
2019-12-18,44535977097
2019-12-19,44015266160
2019-12-20,43764315827
2019-12-21,41232979706
2019-12-22,39960691944
2019-12-23,43311115546
2019-12-24,41654117615
2019-12-25,40400552329
2019-12-26,40544618397
2019-12-27,40728699398
2019-12-28,36514850071
2019-12-29,36926881547
2019-12-30,38597046855
2019-12-31,38724661994
2020-01-01,37252588523
2020-01-02,37401007834
2020-01-03,42156338080
2020-01-04,38519976135
2020-01-05,38136631874
2020-01-06,43476599616
2020-01-07,44717148451
2020-01-08,46760482174
2020-01-09,41800111747
2020-01-10,45333493352
2020-01-11,40461216396
2020-01-12,38262810189
2020-01-13,44096722963
2020-01-14,47788554210
2020-01-15,50927429508
2020-01-16,47069124564
2020-01-17,47935640257
2020-01-18,43955415421
2020-01-19,43520192510
2020-01-20,42802276265
2020-01-21,40989893283
2020-01-22,39494089439
2020-01-23,41268814436
2020-01-24,46916918197
2020-01-25,40895005001
2020-01-26,41774320296
2020-01-27,41696643604
2020-01-28,46548828415
2020-01-29,47553858615
2020-01-30,48070698029
2020-01-31,49797533211
2020-02-01,43479896535
2020-02-02,40890616521
2020-02-03,46772607826
2020-02-04,52689826166
2020-02-05,53526356990
2020-02-06,54895298505
2020-02-07,55784045722
2020-02-08,50778745873
2020-02-09,46556740964
2020-02-10,47848689826
2020-02-11,48862952698
2020-02-12,56439774554
2020-02-13,54341690171
2020-02-14,53566278106
2020-02-15,48348734941
2020-02-16,50035301631
2020-02-17,51077187350
2020-02-18,51221779974
2020-02-19,52381553165
2020-02-20,51277606849
2020-02-21,48417575142
2020-02-22,43491346884
2020-02-23,41792163742
2020-02-24,48876926215
2020-02-25,51884271215
2020-02-26,53850347749
2020-02-27,53163475330
2020-02-28,51842923985
2020-02-29,45011350618
2020-03-01,45516773430
2020-03-02,47587843775
2020-03-03,48931741376
2020-03-04,46376686562
2020-03-05,48903276946
2020-03-06,49932720284
2020-03-07,44754999036
2020-03-08,50372880650
2020-03-09,57016472406
2020-03-10,53784383731
2020-03-11,53755854268
2020-03-12,60344975807
2020-03-13,59286366848
2020-03-14,54346890493
2020-03-15,54349015591
2020-03-16,57541645870
2020-03-17,56352660359
2020-03-18,54469589757
2020-03-19,56536235506
2020-03-20,56211151962
2020-03-21,54196430512
2020-03-22,51498487034
2020-03-23,52081325185
2020-03-24,51784845088
2020-03-25,52189247501
2020-03-26,52819675574
2020-03-27,50533798925
2020-03-28,50443808690
2020-03-29,46154243067
2020-03-30,51856415380
2020-03-31,53251463510
2020-04-01,53724729266
2020-04-02,54438639831
2020-04-03,54695022078
2020-04-04,52289063471
2020-04-05,51544214831
2020-04-06,56442808331
2020-04-07,57689755869
2020-04-08,56608956597
2020-04-09,55200871445
2020-04-10,55904766737
2020-04-11,52723500759
2020-04-12,54001516503
2020-04-13,55319957809
2020-04-14,55863708449
2020-04-15,55429852615
2020-04-16,56619763901
2020-04-17,55840500974
2020-04-18,55666760771
2020-04-19,55637522167
2020-04-20,58003569050
2020-04-21,57648864495
2020-04-22,57627953770
2020-04-23,57751372311
2020-04-24,58012631744
2020-04-25,56265048485
2020-04-26,56822518657
2020-04-27,57777162666
2020-04-28,57111998222
2020-04-29,59328256056
2020-04-30,59393163755
2020-05-01,58577818369
2020-05-02,56134920644
2020-05-03,56725660233
2020-05-04,59692238949
2020-05-05,58665282405
2020-05-06,59265151973
2020-05-07,60571820160
2020-05-08,60696758898
2020-05-09,59665820926
2020-05-10,60742489664
2020-05-11,60254418696
2020-05-12,59640886588
2020-05-13,60785522007
2020-05-14,59039497276
2020-05-15,58437187826
2020-05-16,59832838339
2020-05-17,60679010954
2020-05-18,60132147047
2020-05-19,60096137190
2020-05-20,60796160156
2020-05-21,60452726303
2020-05-22,59995040596
2020-05-23,61715022794
2020-05-24,60606415190
2020-05-25,60236068286
2020-05-26,61220745729
2020-05-27,60585520791
2020-05-28,60735554282
2020-05-29,60640460546
2020-05-30,60637775951
2020-05-31,61262098625
2020-06-01,59471557463
2020-06-02,60706102750
2020-06-03,60284761837
2020-06-04,60926910515
2020-06-05,61551296562
2020-06-06,61170706175
2020-06-07,60788101629
2020-06-08,60072753727
2020-06-09,61135315543
2020-06-10,60351280662
2020-06-11,61217697157
2020-06-12,61194677007
2020-06-13,61059257790
2020-06-14,61809571553
2020-06-15,61138411674
2020-06-16,61039584875
2020-06-17,60975667307
2020-06-18,61097695528
2020-06-19,66983646759
2020-06-20,72681822008
2020-06-21,73836766712
2020-06-22,72575247224
2020-06-23,72966351016
2020-06-24,73602869107
2020-06-25,72199602580
2020-06-26,73241965946
2020-06-27,71578109896
2020-06-28,73800908303
2020-06-29,71410517005
2020-06-30,73403332220
2020-07-01,71268885960
2020-07-02,72177528544
2020-07-03,71846131678
2020-07-04,72867103705
2020-07-05,73009705937
2020-07-06,71954662682
2020-07-07,73090493464
2020-07-08,72993638087
2020-07-09,72845442335
2020-07-10,72280013322
2020-07-11,73016176115
2020-07-12,73130109394
2020-07-13,73886556034
2020-07-14,72956460781
2020-07-15,73823720747
2020-07-16,72512244494
2020-07-17,72031120254
2020-07-18,74068446149
2020-07-19,73522695272
2020-07-20,72807420565
2020-07-21,72752605012
2020-07-22,74027223219
2020-07-23,74677796733
2020-07-24,75061753243
2020-07-25,76203905995
2020-07-26,78306549441
2020-07-27,77447071989
2020-07-28,78112767375
2020-07-29,78178695620
2020-07-30,76393925734
2020-07-31,77859908512
2020-08-01,78103433534
2020-08-02,77676603717
2020-08-03,77368571564
2020-08-04,76775143760
2020-08-05,77381256698
2020-08-06,77512451362
2020-08-07,77597396348
2020-08-08,76824649153
2020-08-09,78461870944
2020-08-10,77843751348
2020-08-11,77380198897
2020-08-12,78159344782
2020-08-13,77902624956
2020-08-14,78438621379
2020-08-15,77868325048
2020-08-16,78480224623
2020-08-17,77438062630
2020-08-18,78966351045
2020-08-19,78650572994
2020-08-20,79127347365
2020-08-21,78593075364
2020-08-22,77589103667
2020-08-23,79294223632
2020-08-24,78841595220
2020-08-25,77564795200
2020-08-26,79255713214
2020-08-27,78286311045
2020-08-28,78431384816
2020-08-29,78479060191
2020-08-30,78785219452
2020-08-31,79537354648
2020-09-01,78864652350
2020-09-02,78427332335
2020-09-03,78206309568
2020-09-04,79483676612
2020-09-05,77954443723
2020-09-06,80182346297
2020-09-07,78175045408
2020-09-08,78768135313
2020-09-09,78589979592
2020-09-10,78653790746
2020-09-11,79743954147
2020-09-12,78766392267
2020-09-13,79414676613
2020-09-14,78374655817
2020-09-15,79616854718
2020-09-16,78395148873
2020-09-17,79873595957
2020-09-18,78014968707
2020-09-19,79260271727
2020-09-20,79770381516
2020-09-21,79398473332
2020-09-22,77952769536
2020-09-23,78908897036
2020-09-24,78965771608
2020-09-25,78061419942
2020-09-26,78220453442
2020-09-27,77233029341
2020-09-28,77900573330
2020-09-29,77338712664
2020-09-30,77674404203
2020-10-01,78153876267
2020-10-02,77517138592
2020-10-03,77452011331
2020-10-04,77660014098
2020-10-05,78308505105
2020-10-06,78748080741
2020-10-07,76951973014
2020-10-08,75376755869
2020-10-09,77358095734
2020-10-10,76570518580
2020-10-11,79787447919
2020-10-12,78296006648
2020-10-13,80097303404
2020-10-14,79548678329
2020-10-15,80135428559
2020-10-16,78927839076
2020-10-17,79294248001
2020-10-18,78441716920
2020-10-19,80374472990
2020-10-20,79106901755
2020-10-21,79400829057
2020-10-22,79548083646
2020-10-23,78857176259
2020-10-24,80086035236
2020-10-25,79043685989
2020-10-26,79018418691
2020-10-27,79864583745
2020-10-28,79793314114
2020-10-29,79579962714
2020-10-30,79190370544
2020-10-31,79269881218
2020-11-01,79283838653
2020-11-02,79013568281
2020-11-03,79617868730
2020-11-04,79492925790
2020-11-05,79337650111
2020-11-06,79585521676
2020-11-07,79094614181
2020-11-08,79702782471
2020-11-09,79397625999
2020-11-10,78794768472
2020-11-11,79641101166
2020-11-12,79710575348
2020-11-13,79737863173
2020-11-14,79754234413
2020-11-15,79667382986
2020-11-16,79059063494
2020-11-17,79423090028
2020-11-18,78886998728
2020-11-19,80650412451
2020-11-20,78541787070
2020-11-21,79853721557
2020-11-22,79156827331
2020-11-23,78784912579
2020-11-24,79716763050
2020-11-25,78853492731
2020-11-26,79351250096
2020-11-27,78392588609
2020-11-28,80424631325
2020-11-29,79312439260
2020-11-30,80199545798
2020-12-01,79418825126
2020-12-02,78456588924
2020-12-03,79667393222
2020-12-04,78650515103
2020-12-05,79131951066
2020-12-06,79869709891
2020-12-07,78812475592
2020-12-08,79149618632
2020-12-09,80410134701
2020-12-10,78461405162
2020-12-11,79417037036
2020-12-12,79202588970
2020-12-13,79222793968
2020-12-14,79650531212
2020-12-15,79088787327
2020-12-16,79964964629
2020-12-17,79641192332
2020-12-18,79062884025
2020-12-19,79610410275
2020-12-20,80322225206
2020-12-21,79555003523
2020-12-22,79416799896
2020-12-23,80403111772
2020-12-24,78884495208
2020-12-25,78460405977
2020-12-26,80394399993
2020-12-27,79619149302
2020-12-28,80355187233
2020-12-29,78501673212
2020-12-30,79688716123
2020-12-31,79189267407
2021-01-01,80038891441
2021-01-02,80948469861
2021-01-03,78955134702
2021-01-04,79464427883
2021-01-05,79844614999
2021-01-06,79409862801
2021-01-07,78649000525
2021-01-08,80669146918
2021-01-09,79098414154
2021-01-10,80047806722
2021-01-11,79933632401
2021-01-12,80332321479
2021-01-13,80376599422
2021-01-14,78306132000
2021-01-15,80309431740
2021-01-16,79464637657
2021-01-17,79105097999
2021-01-18,78882210030
2021-01-19,79303557688
2021-01-20,80233064915
2021-01-21,79430948162
2021-01-22,79078691115
2021-01-23,79897258632
2021-01-24,79292330473
2021-01-25,79682201352
2021-01-26,79443454330
2021-01-27,78852380274
2021-01-28,79431279022
2021-01-29,78954526916
2021-01-30,78022454246
2021-01-31,81106444836
2021-02-01,79271092808
2021-02-02,79406719924
2021-02-03,79259433587
2021-02-04,79265045459
2021-02-05,78968310019
2021-02-06,79460024500
2021-02-07,79817183641
2021-02-08,79021550203
2021-02-09,79191181760
2021-02-10,79658368148
2021-02-11,79286091308
2021-02-12,79689230772
2021-02-13,78479036060
2021-02-14,79959458077
2021-02-15,79238461219
2021-02-16,79189007248
2021-02-17,79989171756
2021-02-18,79043489986
2021-02-19,80367241529
2021-02-20,79291675220
2021-02-21,79220738588
2021-02-22,79403221327
2021-02-23,79501394236
2021-02-24,79162407167
2021-02-25,79592224698
2021-02-26,80052300871
2021-02-27,79557364672
2021-02-28,79052824388
2021-03-01,79071397736
2021-03-02,80265242586
2021-03-03,78431533869
2021-03-04,79353276424
2021-03-05,80019849260
2021-03-06,80249422649
2021-03-07,79538139964
2021-03-08,79818737051
2021-03-09,78902832005
2021-03-10,79671036744
2021-03-11,79001506959
2021-03-12,79556087380
2021-03-13,80234090662
2021-03-14,80046162944
2021-03-15,79214395297
2021-03-16,80040726727
2021-03-17,79744246673
2021-03-18,79739395817
2021-03-19,79958570114
2021-03-20,80161507436
2021-03-21,79200529917
2021-03-22,79785214325
2021-03-23,79905668649
2021-03-24,79548914811
2021-03-25,80237958310
2021-03-26,80287235531
2021-03-27,79754599779
2021-03-28,79770842362
2021-03-29,80013370468
2021-03-30,79911244661
2021-03-31,79387330350
2021-04-01,80091331500
2021-04-02,79316513873
2021-04-03,80093593363
2021-04-04,80523140559
2021-04-05,80159854618
2021-04-06,79723268992
2021-04-07,80547203097
2021-04-08,79553793961
2021-04-09,79631351659
2021-04-10,81132935750
2021-04-11,80836454351
2021-04-12,80415879319
2021-04-13,79855612870
2021-04-14,79626845057
2021-04-15,80284736937
2021-04-16,79531704209
2021-04-17,79871137863
2021-04-18,80479057832
2021-04-19,79088526357
2021-04-20,82297440775
2021-04-21,89806676193
2021-04-22,94584944807
2021-04-23,95141284442
2021-04-24,95917365091
2021-04-25,96236026619
2021-04-26,95330862069
2021-04-27,94915300821
2021-04-28,95123656796
2021-04-29,95012776788
2021-04-30,94803456663
2021-05-01,95290204712
2021-05-02,94556510855
2021-05-03,95790355336
2021-05-04,95875907776
2021-05-05,96199371931
2021-05-06,95663643381
2021-05-07,95605522436
2021-05-08,96008381970
2021-05-09,95489593727
2021-05-10,96447624016
2021-05-11,95046499407
2021-05-12,95077202653
2021-05-13,96657984978
2021-05-14,95972463299
2021-05-15,95725781213
2021-05-16,95494911627
2021-05-17,95097126243
2021-05-18,95726718232
2021-05-19,94910292869
2021-05-20,95438214314
2021-05-21,94923757148
2021-05-22,95418508329
2021-05-23,95430530877
2021-05-24,95872434996
2021-05-25,94866224519
2021-05-26,95304448386
2021-05-27,94639468069
2021-05-28,95473480511
2021-05-29,95417920865
2021-05-30,94809939434
2021-05-31,94972163339
2021-06-01,95819266290
2021-06-02,96056540196
2021-06-03,94595742989
2021-06-04,96061501345
2021-06-05,94833549129
2021-06-06,93657111945
2021-06-07,94242071045
2021-06-08,95721239854
2021-06-09,95297492694
2021-06-10,95141722501
2021-06-11,95500390909
2021-06-12,93876634499
2021-06-13,93029865383
2021-06-14,94099179509
2021-06-15,95755505374
2021-06-16,93867427931
2021-06-17,95258174740
2021-06-18,94174859945
2021-06-19,93040728925
2021-06-20,92801535271
2021-06-21,93038301697
2021-06-22,95095274189
2021-06-23,94549621038
2021-06-24,94331828419
2021-06-25,93383155630
2021-06-26,93747015114
2021-06-27,92776556296
2021-06-28,94968347588
2021-06-29,94374652810
2021-06-30,95031806062
2021-07-01,93479021158
2021-07-02,94249085578
2021-07-03,93484743637
2021-07-04,93827351324
2021-07-05,93195566119
2021-07-06,94483893834
2021-07-07,94335807377
2021-07-08,95076027836
2021-07-09,94326869171
2021-07-10,94446379615
2021-07-11,93265830570
2021-07-12,93871826751
2021-07-13,93137262876
2021-07-14,94121053020
2021-07-15,94819285684
2021-07-16,93580151869
2021-07-17,93919147401
2021-07-18,94003200398
2021-07-19,94767271033
2021-07-20,93352724420
2021-07-21,94592181807
2021-07-22,94808278622
2021-07-23,93845459858
2021-07-24,95372931298
2021-07-25,94395717982
2021-07-26,93773449795
2021-07-27,92913043177
2021-07-28,93179229936
2021-07-29,93872218975
2021-07-30,92471669912
2021-07-31,93072315366
2021-08-01,93342589782
2021-08-02,94606443645
2021-08-03,93545726322
2021-08-04,93440178362
2021-08-05,94449876233
2021-08-06,99833807530
2021-08-07,101523049266
2021-08-08,100515275100
2021-08-09,100658630450
2021-08-10,100743448657
2021-08-11,99032450052
2021-08-12,100618285838
2021-08-13,100137267017
2021-08-14,100522547923
2021-08-15,99379334111
2021-08-16,100445846889
2021-08-17,100680820245
2021-08-18,98851968299
2021-08-19,101304757807
2021-08-20,99940118989
2021-08-21,99756143054
2021-08-22,101082305531
2021-08-23,99288240247
2021-08-24,100637826151
2021-08-25,99457429577
2021-08-26,100446975073
2021-08-27,99511881806
2021-08-28,99488799028
2021-08-29,100288422076
2021-08-30,99930229488
2021-08-31,99588309787
2021-09-01,99646996226
2021-09-02,100979536811
2021-09-03,99868846816
2021-09-04,99497548506
2021-09-05,101113618184
2021-09-06,99764274456
2021-09-07,99040740463
2021-09-08,100225835088
2021-09-09,99862901657
2021-09-10,99669661930
2021-09-11,98832823573
2021-09-12,101084407772
2021-09-13,99078484615
2021-09-14,99792266403
2021-09-15,99705020379
2021-09-16,100171656930
2021-09-17,99898437187
2021-09-18,99588089079
2021-09-19,100682356600
2021-09-20,99295159913
2021-09-21,100098839443
2021-09-22,99368407926
2021-09-23,98795997873
2021-09-24,99488910998
2021-09-25,101428978144
2021-09-26,98729453261
2021-09-27,99668379770
2021-09-28,98121131129
2021-09-29,99024382289
2021-09-30,97958729328
2021-10-01,99940537596
2021-10-02,98607821850
2021-10-03,98254946022
2021-10-04,98521267138
2021-10-05,98749386920
2021-10-06,99234890332
2021-10-07,97564435387
2021-10-08,99080580257
2021-10-09,97972965669
2021-10-10,98475597666
2021-10-11,98682802052
2021-10-12,98036296850
2021-10-13,97733405137
2021-10-14,97754677280
2021-10-15,97560326707
2021-10-16,99385187004
2021-10-17,98619555604
2021-10-18,97462750354
2021-10-19,99404881141
2021-10-20,98176164702
2021-10-21,100112401015
2021-10-22,99057211828
2021-10-23,98120356350
2021-10-24,98235649057
2021-10-25,99229001520
2021-10-26,99081985112
2021-10-27,97983958255
2021-10-28,98966629712
2021-10-29,98347489308
2021-10-30,98002210468
2021-10-31,97551234641
2021-11-01,99188257225
2021-11-02,97381906892
2021-11-03,98615686109
2021-11-04,96926416150
2021-11-05,99426765719
2021-11-06,97806897593
2021-11-07,99639707191
2021-11-08,98044586198
2021-11-09,98253505445
2021-11-10,98479436388
2021-11-11,98331547441
2021-11-12,98993755682
2021-11-13,97438506061
2021-11-14,97925457176
2021-11-15,97422476367
2021-11-16,96356492010
2021-11-17,98477697827
2021-11-18,98258045079
2021-11-19,96064983806
2021-11-20,97067685699
2021-11-21,97039418838
2021-11-22,98175509324
2021-11-23,97654433985
2021-11-24,97186997792
2021-11-25,97167359357
2021-11-26,95847643629
2021-11-27,98527637239
2021-11-28,96546465274
2021-11-29,95710323947
2021-11-30,96588497458
2021-12-01,96173608919
2021-12-02,96347004529
2021-12-03,96999612609
2021-12-04,95181800981
2021-12-05,96094328220
2021-12-06,96719652729
2021-12-07,96622508037
2021-12-08,96069191326
2021-12-09,96888034495
2021-12-10,99206691191
2021-12-11,100289873438
2021-12-12,100783092953
2021-12-13,100242813459
2021-12-14,98661297954
2021-12-15,100002585601
2021-12-16,98878029798
2021-12-17,99899533626
2021-12-18,100499502434
2021-12-19,99832932492
2021-12-20,101019415970
2021-12-21,99582538677
2021-12-22,99157641835
2021-12-23,99088233365
2021-12-24,99799023582
2021-12-25,99831016454
2021-12-26,99855677488
2021-12-27,100081178539
2021-12-28,99401788712
2021-12-29,100776349968
2021-12-30,99300781355
2021-12-31,98452603391
2022-01-01,100551171640
2022-01-02,100382404399
2022-01-03,99902168488
2022-01-04,100329879686
2022-01-05,99810024407
2022-01-06,98715972119
2022-01-07,99146545762
2022-01-08,100857814197
2022-01-09,100476979381
2022-01-10,99281434205
2022-01-11,100891618639
2022-01-12,99719511847
2022-01-13,99513142623
2022-01-14,99422947837
2022-01-15,100206226555
2022-01-16,100594113972
2022-01-17,99815462331
2022-01-18,99858454979
2022-01-19,100052859737
2022-01-20,100294943392
2022-01-21,98762028421
2022-01-22,101120789675
2022-01-23,99789268485
2022-01-24,99595606525
2022-01-25,99759441501
2022-01-26,99308664042
2022-01-27,100202326378
2022-01-28,99861682821
2022-01-29,99767539055
2022-01-30,101015302553
2022-01-31,99935919102
2022-02-01,100558993129
2022-02-02,99562179696
2022-02-03,99223355169
2022-02-04,101259761147
2022-02-05,98610252392
2022-02-06,101060738866
2022-02-07,99822018827
2022-02-08,99269806634
2022-02-09,100061769505
2022-02-10,99386734077
2022-02-11,100665610566
2022-02-12,100014118266
2022-02-13,100037388671
2022-02-14,99722263943
2022-02-15,100831175316
2022-02-16,98962084941
2022-02-17,100196760599
2022-02-18,99200040530
2022-02-19,99086540782
2022-02-20,100753877509
2022-02-21,99458416983
2022-02-22,99922748791
2022-02-23,100213758975
2022-02-24,80785741869
2022-02-25,99365667968
2022-02-26,99952445402
2022-02-27,100318695332
2022-02-28,99340469987
2022-03-01,100279202715
2022-03-02,98933121163
2022-03-03,99736545706
2022-03-04,100357669416
2022-03-05,98482683212
2022-03-06,99299521110
2022-03-07,99500363367
2022-03-08,98752843082
2022-03-09,100544327866
2022-03-10,100095014360
2022-03-11,97910888957
2022-03-12,100589272050
2022-03-13,97791785234
2022-03-14,99864155336
2022-03-15,98984054418
2022-03-16,98805170056
2022-03-17,99184588781
2022-03-18,99161213375
2022-03-19,99571956146
2022-03-20,99275340974
2022-03-21,99013394578
2022-03-22,99613314092
2022-03-23,99612247935
2022-03-24,99189946100
2022-03-25,99272958912
2022-03-26,98940976696
2022-03-27,98910506611
2022-03-28,99771668305
2022-03-29,99645982225
2022-03-30,98721281918
2022-03-31,99115196999
2022-04-01,99346344122
2022-04-02,98039013271
2022-04-03,99282411787
2022-04-04,97781137244
2022-04-05,99459066254
2022-04-06,99139016543
2022-04-07,99243188810
