t,v
2015-07-30,19107582359.6007
2015-07-31,46799991645.4346
2015-08-01,54214323540.1988
2015-08-02,63155175045.3328
2015-08-03,68760578661.1602
2015-08-04,75456246198.9683
2015-08-05,80361131461.383
2015-08-06,81664303806.8326
2015-08-07,88270488838.6036
2015-08-08,96449849792.7479
2015-08-09,101396920722.077
2015-08-10,111643071601.253
2015-08-11,124075704134.252
2015-08-12,130892997332.715
2015-08-13,142846542586.419
2015-08-14,177180146081.296
2015-08-15,210273663901.635
2015-08-16,214978134556.6
2015-08-17,241380632162.915
2015-08-18,250647826221.543
2015-08-19,265479542999.799
2015-08-20,208573382733.736
2015-08-21,260002308095.795
2015-08-22,294127490360.094
2015-08-23,297962937481.056
2015-08-24,310719456072.154
2015-08-25,304941030619.328
2015-08-26,323405173074.526
2015-08-27,322865699790.857
2015-08-28,336600560840.108
2015-08-29,333683219981.344
2015-08-30,325988972620.197
2015-08-31,343940678922.416
2015-09-01,348221383736.916
2015-09-02,342955046043.434
2015-09-03,325737135325.491
2015-09-04,332985537862.227
2015-09-05,354872629722.631
2015-09-06,363256531258.943
2015-09-07,354549244570.555
2015-09-08,346233102384.159
2015-09-09,361416162850.036
2015-09-10,364173374024.847
2015-09-11,390448600509.169
2015-09-12,397079110994.839
2015-09-13,404027987626.15
2015-09-14,371887518180.468
2015-09-15,359733463886.929
2015-09-16,354412670056.102
2015-09-17,335711481733.079
2015-09-18,319866968379.81
2015-09-19,325800606677.176
2015-09-20,380624612191.786
2015-09-21,384180681679.458
2015-09-22,387123780748.238
2015-09-23,412109046719.915
2015-09-24,408438815507.653
2015-09-25,413679736106.594
2015-09-26,412404556877.68
2015-09-27,400597913043.024
2015-09-28,369654848004.298
2015-09-29,324978993332.389
2015-09-30,309540652844.151
2015-10-01,340489973619.636
2015-10-02,355844626363.941
2015-10-03,369577408369.808
2015-10-04,350945872152.694
2015-10-05,364272534122.82
2015-10-06,348909348855.123
2015-10-07,346520471658.751
2015-10-08,356370131812.326
2015-10-09,347475085739.297
2015-10-10,341889928978.859
2015-10-11,360444554729.875
2015-10-12,366132726170.546
2015-10-13,375741659870.74
2015-10-14,370055355383.595
2015-10-15,353881909529.648
2015-10-16,328810866398.081
2015-10-17,351361089121.509
2015-10-18,341853814178.031
2015-10-19,340958781576.628
2015-10-20,336974457676.335
2015-10-21,339309075117.105
2015-10-22,320892344436.404
2015-10-23,357731417618.451
2015-10-24,376232538750.55
2015-10-25,388634160050.171
2015-10-26,371467745619.802
2015-10-27,394753698464.326
2015-10-28,393363859347.273
2015-10-29,420144612318.767
2015-10-30,449644121306.679
2015-10-31,462390375678.877
2015-11-01,464372588459.855
2015-11-02,446880995024.904
2015-11-03,431335333652.44
2015-11-04,459253661322.561
2015-11-05,447759424560.094
2015-11-06,451655488115.17
2015-11-07,430137113949.846
2015-11-08,447797932551.71
2015-11-09,450878525534.431
2015-11-10,453764414101.155
2015-11-11,446469499914.739
2015-11-12,455167950152.425
2015-11-13,466083861197.431
2015-11-14,469489457759.978
2015-11-15,496516711496.94
2015-11-16,485350413785.741
2015-11-17,487004938873.468
2015-11-18,501916514725.147
2015-11-19,507258049551.239
2015-11-20,435273646545.898
2015-11-21,442803104517.93
2015-11-22,440241076305.023
2015-11-23,445647654113.841
2015-11-24,443563495586.866
2015-11-25,429662935488.236
2015-11-26,428481846144.268
2015-11-27,447187939032.675
2015-11-28,447539756341.36
2015-11-29,451171938513.572
2015-11-30,457568169864.743
2015-12-01,462784726705.663
2015-12-02,436033830531.007
2015-12-03,456886925657.693
2015-12-04,453901263953.873
2015-12-05,473034947942.571
2015-12-06,446408747951.662
2015-12-07,439992011786.097
2015-12-08,428636955142.14
2015-12-09,442705077303.937
2015-12-10,462821178526.538
2015-12-11,471987005288.134
2015-12-12,472492826792.84
2015-12-13,517663747655.847
2015-12-14,496272808413.52
2015-12-15,514248800515.948
2015-12-16,493823295935.535
2015-12-17,511450561029.958
2015-12-18,510045257308.005
2015-12-19,508206214024.377
2015-12-20,488933255497.539
2015-12-21,490352726259.798
2015-12-22,518581309816.655
2015-12-23,504720541520.468
2015-12-24,497409736991.628
2015-12-25,502504742553.491
2015-12-26,489393674489.842
2015-12-27,498813183791.087
2015-12-28,501391041188.974
2015-12-29,495915294555.074
2015-12-30,493085040973.387
2015-12-31,498185059158.719
2016-01-01,483146737803.456
2016-01-02,480570757251.188
2016-01-03,493841843786.117
2016-01-04,491178701739.228
2016-01-05,492699537663.071
2016-01-06,495954801382.63
2016-01-07,473114572208.916
2016-01-08,497219883977.125
2016-01-09,497444348472.355
2016-01-10,491487344559.202
2016-01-11,521244492061.218
2016-01-12,507062463477.728
2016-01-13,491192812089.854
2016-01-14,514373324045.329
2016-01-15,529144998023.854
2016-01-16,537270349044.268
2016-01-17,528315777888.758
2016-01-18,555119989665.917
2016-01-19,548764650768.01
2016-01-20,548847439780.703
2016-01-21,551234113320.587
2016-01-22,573292978976.024
2016-01-23,573454941556.911
2016-01-24,605351827249.734
2016-01-25,583651395499.166
2016-01-26,632657694606.807
2016-01-27,623953319360.021
2016-01-28,611672644920.882
2016-01-29,627275937328.687
2016-01-30,631328870296.118
2016-01-31,603213673889.342
2016-02-01,633701606958.144
2016-02-02,611654698495.618
2016-02-03,652814909716.255
2016-02-04,650820913525.013
2016-02-05,652668929515.163
2016-02-06,627249509998.634
2016-02-07,650154771195.644
2016-02-08,677146155598.835
2016-02-09,658040084314.776
2016-02-10,668735727240.027
2016-02-11,696786399096.858
2016-02-12,672574478346.124
2016-02-13,712689177617.338
2016-02-14,721498640763.999
2016-02-15,741058722988.967
2016-02-16,738332185091.311
2016-02-17,714848930939.545
2016-02-18,704824841219.741
2016-02-19,736779414800.902
2016-02-20,748841498916.51
2016-02-21,758044434793.575
2016-02-22,793015312798.94
2016-02-23,792457058660.897
2016-02-24,792648621325.361
2016-02-25,805314992344.29
2016-02-26,821333995638.91
2016-02-27,841180455088.384
2016-02-28,857758345615.535
2016-02-29,832831284915.998
2016-03-01,844942991115.509
2016-03-02,881585537104.896
2016-03-03,905016871675.279
2016-03-04,932909383622.856
2016-03-05,978599559270.244
2016-03-06,984746985611.435
2016-03-07,998092568614.756
2016-03-08,1015547043083.15
2016-03-09,1031525925506.85
2016-03-10,1082624584189.15
2016-03-11,1094414377160.44
2016-03-12,1142609455345.31
2016-03-13,1207900218125.62
2016-03-14,1186054890902.04
2016-03-15,1215375125403.31
2016-03-16,1239257546869.25
2016-03-17,1268238807056.8
2016-03-18,1261434319181.37
2016-03-19,1312355643168.22
2016-03-20,1355676098749.33
2016-03-21,1335378401631.16
2016-03-22,1373775960784.34
2016-03-23,1296762734433.17
2016-03-24,1396919607370.06
2016-03-25,1464960914632.31
2016-03-26,1509675663909.0
2016-03-27,1536410708511.78
2016-03-28,1510422156990.27
2016-03-29,1565721993096.95
2016-03-30,1596193946003.67
2016-03-31,1663960868285.17
2016-04-01,1670747166343.63
2016-04-02,1614896639791.99
2016-04-03,1695778266448.92
2016-04-04,1777768930741.77
2016-04-05,1794023546703.12
2016-04-06,1782894541114.0
2016-04-07,1697538599126.0
2016-04-08,1842874459546.51
2016-04-09,1841653239722.35
2016-04-10,1900053119899.68
2016-04-11,1855611584581.53
2016-04-12,1814699497260.76
2016-04-13,1895340876900.16
2016-04-14,1918999537859.25
2016-04-15,1984157715155.39
2016-04-16,2011090549586.44
2016-04-17,1962359936995.21
2016-04-18,2068407493597.93
2016-04-19,2072532550474.97
2016-04-20,2110782142048.38
2016-04-21,2138775782154.9
2016-04-22,2074420213381.04
2016-04-23,2160894559430.04
2016-04-24,2117868254334.7
2016-04-25,2224772864811.25
2016-04-26,2168856113290.69
2016-04-27,2178399983115.12
2016-04-28,2233718374900.62
2016-04-29,2278954747898.62
2016-04-30,2361382555432.34
2016-05-01,2369696942872.72
2016-05-02,2267977994882.44
2016-05-03,2392758702954.58
2016-05-04,2363732565097.67
2016-05-05,2366467277962.28
2016-05-06,2373610233594.37
2016-05-07,2361234608406.11
2016-05-08,2412603547685.22
2016-05-09,2439237559919.42
2016-05-10,2483511305346.57
2016-05-11,2384366771047.25
2016-05-12,2436675319709.34
2016-05-13,2583580216797.62
2016-05-14,2538872202601.7
2016-05-15,2582559551050.92
2016-05-16,2577261799293.25
2016-05-17,2560311190364.75
2016-05-18,2658026153875.42
2016-05-19,2748023535112.2
2016-05-20,2797605735642.18
2016-05-21,2812221418861.53
2016-05-22,2818330188815.01
2016-05-23,2806391422688.82
2016-05-24,2857372144738.03
2016-05-25,2861044767914.74
2016-05-26,2921978133177.15
2016-05-27,2917554314820.2
2016-05-28,2973488399011.02
2016-05-29,3028664629188.21
2016-05-30,3016046670196.75
2016-05-31,2990224714550.21
2016-06-01,2933851746159.95
2016-06-02,3012733548812.44
2016-06-03,3138174730794.0
2016-06-04,3132572462968.73
2016-06-05,3096063643372.75
2016-06-06,3197055459042.03
2016-06-07,3201914472481.92
2016-06-08,3231445941930.04
2016-06-09,3393361638416.47
2016-06-10,3198728417836.73
2016-06-11,3311606001745.56
2016-06-12,3322502696078.66
2016-06-13,3457671599699.97
2016-06-14,3465721350154.18
2016-06-15,3457012445283.43
2016-06-16,3456545569897.99
2016-06-17,3268714290093.75
2016-06-18,3111181220786.91
2016-06-19,3557228613129.39
2016-06-20,3521785341476.48
2016-06-21,3468494113026.75
2016-06-22,3618415737265.44
2016-06-23,3712609072635.69
2016-06-24,3689142552299.52
2016-06-25,3709819751246.82
2016-06-26,3771934329024.34
2016-06-27,3872950751424.46
2016-06-28,3918598911945.42
2016-06-29,3808123065531.97
2016-06-30,3807078116210.57
2016-07-01,3914906769303.22
2016-07-02,3931412057252.86
2016-07-03,4037673032455.83
2016-07-04,4028808235797.38
2016-07-05,4018328025058.61
2016-07-06,4017642955808.5
2016-07-07,4028506424156.8
2016-07-08,4013996543430.16
2016-07-09,3994509630499.95
2016-07-10,4088868335512.52
2016-07-11,4135040534315.51
2016-07-12,4149668309299.35
2016-07-13,4212527805333.55
2016-07-14,4154046720215.92
2016-07-15,4066936496767.1
2016-07-16,4122387870133.69
2016-07-17,4159190067861.03
2016-07-18,4220815085035.67
2016-07-19,4170270547671.08
2016-07-20,4050905882049.07
2016-07-21,4253501348323.73
2016-07-22,4106183773148.0
2016-07-23,4285633579025.14
2016-07-24,4181079550338.17
2016-07-25,4049352589527.4
2016-07-26,3847382216846.2
2016-07-27,3662506172720.27
2016-07-28,3916288700542.91
2016-07-29,3814684711102.2
2016-07-30,3783979392238.54
2016-07-31,3799350762006.08
2016-08-01,3754489135403.35
2016-08-02,3463559509451.07
2016-08-03,3366317201379.15
2016-08-04,3659011406623.94
2016-08-05,3739879999269.09
2016-08-06,3663659754981.03
2016-08-07,3765178719983.66
2016-08-08,3842350456633.6
2016-08-09,4021507586692.22
2016-08-10,4122562967626.33
2016-08-11,4220777410835.08
2016-08-12,4176657540235.75
2016-08-13,4164961534680.78
2016-08-14,4181827802103.02
2016-08-15,4191312964200.07
2016-08-16,4311467001002.5
2016-08-17,4272427822471.63
2016-08-18,4311005806435.51
2016-08-19,4344724283827.02
2016-08-20,4443554165416.91
2016-08-21,4443461205883.72
2016-08-22,4529754309348.9
2016-08-23,4576358785049.54
2016-08-24,4584626272511.25
2016-08-25,4747924486832.99
2016-08-26,4865058890345.23
2016-08-27,4850915690196.91
2016-08-28,4803862003068.15
2016-08-29,4741539612496.93
2016-08-30,4756061669910.25
2016-08-31,4852661195097.93
2016-09-01,4890022555295.6
2016-09-02,4942092698155.2
2016-09-03,4713759914823.24
2016-09-04,4591617797283.87
2016-09-05,4754976681660.69
2016-09-06,4726440653740.11
2016-09-07,4858537791063.02
2016-09-08,4762777907419.45
2016-09-09,4796319426582.18
2016-09-10,4840211355394.76
2016-09-11,5017838422886.88
2016-09-12,4995054708188.58
2016-09-13,4976092417939.89
2016-09-14,5112885961038.84
2016-09-15,5102690697681.43
2016-09-16,5096075601037.79
2016-09-17,5273315823388.58
2016-09-18,4593266923957.72
2016-09-19,4639187266931.27
2016-09-20,5331614733560.77
2016-09-21,5465456672045.96
2016-09-22,4654065058774.22
2016-09-23,5236510593201.15
2016-09-24,5036411111651.81
2016-09-25,5450279959494.54
2016-09-26,5097277680100.2
2016-09-27,4997901480378.29
2016-09-28,5749170958596.51
2016-09-29,5931000798314.63
2016-09-30,5795648594014.87
2016-10-01,5093060858048.29
2016-10-02,5338082191727.94
2016-10-03,5845952716958.55
2016-10-04,6082274327244.94
2016-10-05,5433407756042.63
2016-10-06,5759914525620.91
2016-10-07,4751714628412.29
2016-10-08,5454985427159.93
2016-10-09,5943167018409.98
2016-10-10,6039663216424.03
2016-10-11,6275842022334.01
2016-10-12,5753307417136.97
2016-10-13,5796029629059.3
2016-10-14,6468477377128.82
2016-10-15,6656973951795.14
2016-10-16,6666526791807.99
2016-10-17,6352379329735.84
2016-10-18,6570370047409.83
2016-10-19,6123182881940.93
2016-10-20,6736344911993.09
2016-10-21,7205946854332.09
2016-10-22,7254523200226.35
2016-10-23,7095912760392.03
2016-10-24,7135485625311.27
2016-10-25,7298942862960.14
2016-10-26,7387769875551.34
2016-10-27,7292704127352.3
2016-10-28,6990274894079.69
2016-10-29,5558295985586.65
2016-10-30,5348494421393.28
2016-10-31,5756523068806.39
2016-11-01,4945161594571.97
2016-11-02,4457393765523.91
2016-11-03,4234582477841.45
2016-11-04,3900645261523.57
2016-11-05,3676914187458.67
2016-11-06,3616483168223.36
2016-11-07,4266702248519.21
2016-11-08,4785691881760.24
2016-11-09,4689378307481.1
2016-11-10,4314980334080.05
2016-11-11,4199284213154.56
2016-11-12,4256020196738.96
2016-11-13,4634558105783.84
2016-11-14,4780418493727.15
2016-11-15,4836863219702.61
2016-11-16,4750976521919.32
2016-11-17,4498682131213.12
2016-11-18,4825613595535.32
2016-11-19,5114376771465.0
2016-11-20,5591303059880.38
2016-11-21,5934085679021.01
2016-11-22,5549269286401.55
2016-11-23,5094431016276.4
2016-11-24,4651926034331.8
2016-11-25,4662533523801.84
2016-11-26,4735773466722.9
2016-11-27,4507070395202.56
2016-11-28,4726813974250.07
2016-11-29,4779148134270.07
2016-11-30,4856646334685.12
2016-12-01,4926091779686.64
2016-12-02,5007519140848.52
2016-12-03,5287607054760.43
2016-12-04,5236147575908.86
2016-12-05,5111863072071.76
2016-12-06,5015771547095.16
2016-12-07,5172575515203.83
2016-12-08,5410147146799.43
2016-12-09,5550000800902.89
2016-12-10,5691607709994.17
2016-12-11,5853558679740.51
2016-12-12,5609823914376.97
2016-12-13,5774808366176.7
2016-12-14,5743690697710.69
2016-12-15,5730760611739.51
2016-12-16,5912223892803.82
2016-12-17,5977541716800.68
2016-12-18,6189269202818.34
2016-12-19,6203798635896.5
2016-12-20,6354926566033.74
2016-12-21,6327045973170.28
2016-12-22,6100162376193.7
2016-12-23,5647694040521.05
2016-12-24,5346668649806.95
2016-12-25,5578394030600.58
2016-12-26,5791989739780.23
2016-12-27,5616928912788.2
2016-12-28,5567261308590.15
2016-12-29,5522787456795.1
2016-12-30,5540667879261.38
2016-12-31,5620545952792.11
2017-01-01,5646215566101.34
2017-01-02,5646488469873.93
2017-01-03,5623616054367.66
2017-01-04,6200868950828.31
2017-01-05,6344418243419.66
2017-01-06,6382001840440.8
2017-01-07,6602630894634.38
2017-01-08,6639890719442.8
2017-01-09,6852048204930.36
2017-01-10,6887983442256.56
2017-01-11,6935249860458.46
2017-01-12,7000115701468.74
2017-01-13,7158860723011.64
2017-01-14,7193215991183.72
2017-01-15,7300239638535.97
2017-01-16,7288260809878.32
2017-01-17,7207109428581.45
2017-01-18,7159035072978.03
2017-01-19,7629466954781.33
2017-01-20,7374995030433.78
2017-01-21,7576557893440.31
2017-01-22,7635462965866.55
2017-01-23,7775499645285.01
2017-01-24,7672638863837.85
2017-01-25,7649682986698.13
2017-01-26,7855077309024.99
2017-01-27,7802541627238.1
2017-01-28,7827528257784.59
2017-01-29,7629858523360.77
2017-01-30,7822633462405.55
2017-01-31,7848588382753.26
2017-02-01,7754987847044.94
2017-02-02,7971425258587.62
2017-02-03,7779855491418.6
2017-02-04,7921554695128.29
2017-02-05,8308843638347.22
2017-02-06,8341482391804.27
2017-02-07,8286351857470.71
2017-02-08,8438866389100.39
2017-02-09,8446464594231.06
2017-02-10,8695201061516.4
2017-02-11,8712411390948.49
2017-02-12,8865042320333.98
2017-02-13,8950446075032.49
2017-02-14,9060160531260.65
2017-02-15,9121744347561.92
2017-02-16,9102963337189.21
2017-02-17,9270544303200.7
2017-02-18,9368302204149.56
2017-02-19,9553383783987.98
2017-02-20,9538699497789.61
2017-02-21,9821995153705.47
2017-02-22,9701240486110.42
2017-02-23,9731242479323.09
2017-02-24,9749983658028.58
2017-02-25,9982479477092.86
2017-02-26,10382298688281.9
2017-02-27,10444416044101.9
2017-02-28,10916044692782.4
2017-03-01,10522012814087.0
2017-03-02,10708886375814.7
2017-03-03,11132191553427.2
2017-03-04,10992222464415.1
2017-03-05,11514553306889.9
2017-03-06,11506844347642.6
2017-03-07,11473019167132.4
2017-03-08,11865605475652.0
2017-03-09,11923845384790.3
2017-03-10,11913886418856.2
2017-03-11,12153549533763.7
2017-03-12,12175042542762.4
2017-03-13,12591663709071.2
2017-03-14,12406987384472.9
2017-03-15,12742489502575.4
2017-03-16,12882601425768.8
2017-03-17,13480378885559.3
2017-03-18,13694351183835.5
2017-03-19,13139770119509.4
2017-03-20,13987164872428.5
2017-03-21,13752682803556.6
2017-03-22,14014330898456.2
2017-03-23,14428790920875.6
2017-03-24,14438254639222.0
2017-03-25,14562898799608.6
2017-03-26,15302774654036.4
2017-03-27,15939573237754.0
2017-03-28,15666769599158.0
2017-03-29,16144578459575.3
2017-03-30,16198625985049.9
2017-03-31,16587047683185.1
2017-04-01,16378407474782.1
2017-04-02,16366480961082.6
2017-04-03,15551875873455.2
2017-04-04,16508511541453.4
2017-04-05,17052461793548.3
2017-04-06,16914196792800.3
2017-04-07,17165538923796.1
2017-04-08,17338058379887.1
2017-04-09,16977617995226.8
2017-04-10,17062527871566.8
2017-04-11,17651698128279.7
2017-04-12,17452538438999.6
2017-04-13,17080963812407.2
2017-04-14,18555278779076.7
2017-04-15,18023412351253.5
2017-04-16,18352356958887.6
2017-04-17,18682825184453.1
2017-04-18,19155094655993.6
2017-04-19,19091543597131.3
2017-04-20,19247445176951.2
2017-04-21,19773011361162.6
2017-04-22,19904587149698.2
2017-04-23,20247091442672.4
2017-04-24,19536574356128.8
2017-04-25,20350984734556.2
2017-04-26,20148949786503.1
2017-04-27,20470264581260.3
2017-04-28,21647401450746.9
2017-04-29,22284306880838.4
2017-04-30,21711156424060.0
2017-05-01,21871349134467.7
2017-05-02,21789397465226.0
2017-05-03,22188168295140.9
2017-05-04,21986688182497.1
2017-05-05,22963174534850.8
2017-05-06,22937022935993.1
2017-05-07,23384465825309.5
2017-05-08,23083374729339.5
2017-05-09,23985578376536.6
2017-05-10,23760189344790.5
2017-05-11,24356089228958.6
2017-05-12,24961089819875.3
2017-05-13,24452718462975.4
2017-05-14,25289906238126.5
2017-05-15,25869752440332.4
2017-05-16,26334925878621.6
2017-05-17,25136631904005.4
2017-05-18,26177241937183.2
2017-05-19,27086289269328.3
2017-05-20,27896814753400.0
2017-05-21,28381139743139.1
2017-05-22,29292308681965.9
2017-05-23,28131300556801.7
2017-05-24,28816183110027.3
2017-05-25,28944041620943.5
2017-05-26,28994832892398.7
2017-05-27,29782008284174.2
2017-05-28,29592419072283.5
2017-05-29,31461241687651.3
2017-05-30,33121627256075.8
2017-05-31,32532343390909.0
2017-06-01,34216055857604.7
2017-06-02,33798331615979.8
2017-06-03,34666849722050.3
2017-06-04,35678318831539.0
2017-06-05,36388903182140.5
2017-06-06,37085730226078.1
2017-06-07,38273668073940.2
2017-06-08,38609250275440.7
2017-06-09,38592124094668.6
2017-06-10,40848306645667.6
2017-06-11,41421165565882.4
2017-06-12,40970903444606.5
2017-06-13,42363917980112.1
2017-06-14,43671015037999.0
2017-06-15,44703575181895.1
2017-06-16,45487073147120.7
2017-06-17,46481249041737.1
2017-06-18,47619169617858.4
2017-06-19,47854328392004.0
2017-06-20,48687149048095.2
2017-06-21,49522645970007.2
2017-06-22,49893810228683.8
2017-06-23,49856958831148.5
2017-06-24,50774225409041.5
2017-06-25,51551796451309.4
2017-06-26,53051635831839.9
2017-06-27,53814929298189.8
2017-06-28,54519740957995.5
2017-06-29,55972835386307.5
2017-06-30,56612510243272.7
2017-07-01,57519911583900.2
2017-07-02,58338897994319.8
2017-07-03,59217762851013.4
2017-07-04,60317453754033.1
2017-07-05,58977729428169.9
2017-07-06,60523457920853.5
2017-07-07,61024028761401.5
2017-07-08,62158772167910.4
2017-07-09,63088047112068.9
2017-07-10,63662391151672.5
2017-07-11,63475196459916.2
2017-07-12,61857639528369.8
2017-07-13,63026123937183.2
2017-07-14,61568290790089.4
2017-07-15,64298506768738.0
2017-07-16,65825846029105.7
2017-07-17,62104303973900.8
2017-07-18,63866215761764.2
2017-07-19,66184411145740.5
2017-07-20,68047639204963.6
2017-07-21,68546674268636.7
2017-07-22,68744407927726.4
2017-07-23,70821214542323.1
2017-07-24,68992430582452.9
2017-07-25,72022464509212.4
2017-07-26,71587077465903.7
2017-07-27,70866293507483.8
2017-07-28,71601514005838.5
2017-07-29,72179815546120.1
2017-07-30,73969143484382.3
2017-07-31,74867167667000.1
2017-08-01,75898433365980.0
2017-08-02,75141709096080.4
2017-08-03,71545555843070.8
2017-08-04,74327807573047.3
2017-08-05,73949497309469.8
2017-08-06,74545657626436.1
2017-08-07,76747205071931.1
2017-08-08,77355127469142.9
2017-08-09,79045492940598.7
2017-08-10,76905642422852.9
2017-08-11,77843257613655.7
2017-08-12,80464978290539.7
2017-08-13,80754351830841.4
2017-08-14,82694774748544.1
2017-08-15,82832663566658.6
2017-08-16,82513782225011.1
2017-08-17,83326521569935.2
2017-08-18,83502868644650.5
2017-08-19,87534806045802.0
2017-08-20,86123252119726.9
2017-08-21,87315384284694.0
2017-08-22,87313202222594.9
2017-08-23,89915181256352.5
2017-08-24,88417929253741.0
2017-08-25,88515317344796.0
2017-08-26,88997050467839.6
2017-08-27,88594492272360.0
2017-08-28,85032418674744.7
2017-08-29,90252985362618.2
2017-08-30,91096433010696.5
2017-08-31,88936986983582.3
2017-09-01,91028648653612.1
2017-09-02,91278007214431.8
2017-09-03,92098969848155.3
2017-09-04,91525880828922.4
2017-09-05,91800100777612.8
2017-09-06,90577561145429.5
2017-09-07,92449368894577.2
2017-09-08,97647463025715.9
2017-09-09,95582533293771.5
2017-09-10,94619643360319.5
2017-09-11,94934370538823.5
2017-09-12,98976006842960.2
2017-09-13,95020234682126.3
2017-09-14,96654411774492.6
2017-09-15,98985772533790.4
2017-09-16,98116227542296.4
2017-09-17,100284788721828.0
2017-09-18,96720798247480.7
2017-09-19,99885272765452.1
2017-09-20,99140845262871.2
2017-09-21,101329373924105.0
2017-09-22,101912153585572.0
2017-09-23,98726050063304.5
2017-09-24,100058088238309.0
2017-09-25,95432643120721.5
2017-09-26,96595454939450.5
2017-09-27,97814108863795.7
2017-09-28,95704150722843.5
2017-09-29,91567010110338.1
2017-09-30,91005824486885.8
2017-10-01,94879778124555.0
2017-10-02,93941378970286.9
2017-10-03,93949751089662.0
2017-10-04,96612497219154.0
2017-10-05,101102321594016.0
2017-10-06,95917118481123.3
2017-10-07,94162827812808.5
2017-10-08,96897653523650.6
2017-10-09,97697647347089.9
2017-10-10,98117070017162.2
2017-10-11,101086946335898.0
2017-10-12,97460886067681.2
2017-10-13,101282389594117.0
2017-10-14,97383180765032.3
2017-10-15,100176600721661.0
2017-10-16,101143417616106.0
2017-10-17,100069147257036.0
2017-10-18,101631288732686.0
2017-10-19,105418523951402.0
2017-10-20,104469760871112.0
2017-10-21,105983041901687.0
2017-10-22,107508106573372.0
2017-10-23,105330340027737.0
2017-10-24,108201156043866.0
2017-10-25,106044107940756.0
2017-10-26,102345869787709.0
2017-10-27,104309443214355.0
2017-10-28,105980962704823.0
2017-10-29,104547713864543.0
2017-10-30,101667432096871.0
2017-10-31,106138424837704.0
2017-11-01,106934375699503.0
2017-11-02,102470253185159.0
2017-11-03,101931557130693.0
2017-11-04,100738981247250.0
2017-11-05,104902143732235.0
2017-11-06,102783735289936.0
2017-11-07,101491810718090.0
2017-11-08,104905091590405.0
2017-11-09,101777438489171.0
2017-11-10,104169268389592.0
2017-11-11,104211233204135.0
2017-11-12,107418755329126.0
2017-11-13,104909533285490.0
2017-11-14,102585931617967.0
2017-11-15,102767033644403.0
2017-11-16,99452366008145.9
2017-11-17,101218987422505.0
2017-11-18,99930918247459.5
2017-11-19,101661037959665.0
2017-11-20,106366184003844.0
2017-11-21,105099146627168.0
2017-11-22,105610377470032.0
2017-11-23,108781874319345.0
2017-11-24,111726500795704.0
2017-11-25,112037234221436.0
2017-11-26,110889929578960.0
2017-11-27,108218238906327.0
2017-11-28,106299196923693.0
2017-11-29,107445031287377.0
2017-11-30,109761288350405.0
2017-12-01,109633652102775.0
2017-12-02,109950622480406.0
2017-12-03,105327850437839.0
2017-12-04,100396777897464.0
2017-12-05,95532535520065.0
2017-12-06,92969294661626.2
2017-12-07,99257052967731.2
2017-12-08,104242129890373.0
2017-12-09,104449780566281.0
2017-12-10,103605551016384.0
2017-12-11,104783657702070.0
2017-12-12,102916293876633.0
2017-12-13,105575817381106.0
2017-12-14,108083782204950.0
2017-12-15,115101768820838.0
2017-12-16,116297590025208.0
2017-12-17,117322767421804.0
2017-12-18,119313628189565.0
2017-12-19,112563589111110.0
2017-12-20,110618313989149.0
2017-12-21,112240503943475.0
2017-12-22,112812239422295.0
2017-12-23,123273090662544.0
2017-12-24,126154031003396.0
2017-12-25,129262051781501.0
2017-12-26,129321921521192.0
2017-12-27,128668741056737.0
2017-12-28,130548615950575.0
2017-12-29,125246294869800.0
2017-12-30,125174547695086.0
2017-12-31,131194599509176.0
2018-01-01,132653006888813.0
2018-01-02,128031445143626.0
2018-01-03,122026387168860.0
2018-01-04,119591110407018.0
2018-01-05,119445820025554.0
2018-01-06,119000042264691.0
2018-01-07,124653566409022.0
2018-01-08,125530925057846.0
2018-01-09,125004946395574.0
2018-01-10,125578286642515.0
2018-01-11,130371707547075.0
2018-01-12,131627052460668.0
2018-01-13,133569183185247.0
2018-01-14,141149074857309.0
2018-01-15,137368748722388.0
2018-01-16,140648697747146.0
2018-01-17,145456446135275.0
2018-01-18,146630983254735.0
2018-01-19,149201402704081.0
2018-01-20,160409004648995.0
2018-01-21,159492810524719.0
2018-01-22,163072778818368.0
2018-01-23,163681618320300.0
2018-01-24,169604079368159.0
2018-01-25,171448179582409.0
2018-01-26,170988692049090.0
2018-01-27,172635153540811.0
2018-01-28,174036694360427.0
2018-01-29,177561478609899.0
2018-01-30,176067546885082.0
2018-01-31,178754463819640.0
2018-02-01,178283833460690.0
2018-02-02,183877668143518.0
2018-02-03,191136411046655.0
2018-02-04,190172963436169.0
2018-02-05,194207981085149.0
2018-02-06,191076662774007.0
2018-02-07,194099545596895.0
2018-02-08,195996229912214.0
2018-02-09,197512812584379.0
2018-02-10,197402278873057.0
2018-02-11,203090196083220.0
2018-02-12,202440994552953.0
2018-02-13,205041160909697.0
2018-02-14,200054718405408.0
2018-02-15,199573831790245.0
2018-02-16,206121928771023.0
2018-02-17,207665487963899.0
2018-02-18,207959712651081.0
2018-02-19,203149936077911.0
2018-02-20,197220657981109.0
2018-02-21,196918854312387.0
2018-02-22,202532337224230.0
2018-02-23,203382193825539.0
2018-02-24,201290888181820.0
2018-02-25,209771655822059.0
2018-02-26,203375113820748.0
2018-02-27,202118467481950.0
2018-02-28,208292080129223.0
2018-03-01,211077250482566.0
2018-03-02,209948570758595.0
2018-03-03,219509012692318.0
2018-03-04,213673796878845.0
2018-03-05,213341551162214.0
2018-03-06,212507672187248.0
2018-03-07,218580133119455.0
2018-03-08,219306497280241.0
2018-03-09,215357095974048.0
2018-03-10,215903560925101.0
2018-03-11,216939696718553.0
2018-03-12,214980827236176.0
2018-03-13,215514944400079.0
2018-03-14,211980966126427.0
2018-03-15,215052109002206.0
2018-03-16,224200173931497.0
2018-03-17,220871193650453.0
2018-03-18,224143985541525.0
2018-03-19,226673899578893.0
2018-03-20,226180063912537.0
2018-03-21,223951144813194.0
2018-03-22,224396789737391.0
2018-03-23,226669074115485.0
2018-03-24,225533437312502.0
2018-03-25,227448832247229.0
2018-03-26,231565030075338.0
2018-03-27,224385276178906.0
2018-03-28,224306842865717.0
2018-03-29,216051812403180.0
2018-03-30,220607288064118.0
2018-03-31,223105373884268.0
2018-04-01,225466991411715.0
2018-04-02,225498772822552.0
2018-04-03,217245206043501.0
2018-04-04,220666784902028.0
2018-04-05,220629982658253.0
2018-04-06,227941317938534.0
2018-04-07,226447456021253.0
2018-04-08,223720116268386.0
2018-04-09,214218734220308.0
2018-04-10,220330281720735.0
2018-04-11,217013876394792.0
2018-04-12,213688982930061.0
2018-04-13,211447412796093.0
2018-04-14,214420937117061.0
2018-04-15,215663332327648.0
2018-04-16,213555182458286.0
2018-04-17,211403175054261.0
2018-04-18,206299686320627.0
2018-04-19,208207964297076.0
2018-04-20,202988841490746.0
2018-04-21,215574176369535.0
2018-04-22,214813100022836.0
2018-04-23,212544510061974.0
2018-04-24,207243770104070.0
2018-04-25,210751535858856.0
2018-04-26,217911879517792.0
2018-04-27,208356700534590.0
2018-04-28,206679811137982.0
2018-04-29,215355815138797.0
2018-04-30,211675894577293.0
2018-05-01,202533576528594.0
2018-05-02,205531015425677.0
2018-05-03,207994636519781.0
2018-05-04,208622622955548.0
2018-05-05,215305926552187.0
2018-05-06,218108189771827.0
2018-05-07,224563899221102.0
2018-05-08,221742052001898.0
2018-05-09,216701329630059.0
2018-05-10,215591948504851.0
2018-05-11,218434741541662.0
2018-05-12,224141369514258.0
2018-05-13,226446252069988.0
2018-05-14,216597014717572.0
2018-05-15,216357711666142.0
2018-05-16,214645335664309.0
2018-05-17,216513169827934.0
2018-05-18,210939128674200.0
2018-05-19,210581277435195.0
2018-05-20,215932861166561.0
2018-05-21,219862479766657.0
2018-05-22,215284940263763.0
2018-05-23,212691987679782.0
2018-05-24,207338061775244.0
2018-05-25,208822952071383.0
2018-05-26,215134700750823.0
2018-05-27,209493315748364.0
2018-05-28,213398251170167.0
2018-05-29,210283659209980.0
2018-05-30,206177738931786.0
2018-05-31,212264748118057.0
2018-06-01,205097481142852.0
2018-06-02,208112844863391.0
2018-06-03,208206467381314.0
2018-06-04,207160807589804.0
2018-06-05,209068861239033.0
2018-06-06,206138985762992.0
2018-06-07,206305869886617.0
2018-06-08,209848976282800.0
2018-06-09,214356697297845.0
2018-06-10,212194043084916.0
2018-06-11,211588150807939.0
2018-06-12,220347675939946.0
2018-06-13,217514518978829.0
2018-06-14,218599957608667.0
2018-06-15,217868880485730.0
2018-06-16,223693195611768.0
2018-06-17,225487964100350.0
2018-06-18,233957018862199.0
2018-06-19,230567779225924.0
2018-06-20,227405258865640.0
2018-06-21,234866169113340.0
2018-06-22,230812662909868.0
2018-06-23,232444039221894.0
2018-06-24,234992261848286.0
2018-06-25,222556718389115.0
2018-06-26,223515230788311.0
2018-06-27,235843944478345.0
2018-06-28,227090636588861.0
2018-06-29,225282756985312.0
2018-06-30,235658070583496.0
2018-07-01,226951171811364.0
2018-07-02,232672309679360.0
2018-07-03,232264660043528.0
2018-07-04,232009625491584.0
2018-07-05,239167990200209.0
2018-07-06,237437955411154.0
2018-07-07,237423849532372.0
2018-07-08,227570290876092.0
2018-07-09,239351994771806.0
2018-07-10,233884041761099.0
2018-07-11,230314798377504.0
2018-07-12,238666283164222.0
2018-07-13,237245849131001.0
2018-07-14,237969504492193.0
2018-07-15,240177693850675.0
2018-07-16,233235546684779.0
2018-07-17,235155504864676.0
2018-07-18,231588367397640.0
2018-07-19,230131553256903.0
2018-07-20,231416761215156.0
2018-07-21,224482720833384.0
2018-07-22,231158702241750.0
2018-07-23,238470129142378.0
2018-07-24,230436556084556.0
2018-07-25,237245729706293.0
2018-07-26,238882089495856.0
2018-07-27,239479252991642.0
2018-07-28,245720571779001.0
2018-07-29,247363332636550.0
2018-07-30,245772170524799.0
2018-07-31,241651194528716.0
2018-08-01,238373440438133.0
2018-08-02,240608165957042.0
2018-08-03,237976731774538.0
2018-08-04,247642132570852.0
2018-08-05,244870013656867.0
2018-08-06,246343286116830.0
2018-08-07,242423564407434.0
2018-08-08,247545151637376.0
2018-08-09,247351691398876.0
2018-08-10,245576390779391.0
2018-08-11,244452737027848.0
2018-08-12,235671115285027.0
2018-08-13,237749922082515.0
2018-08-14,244127707157619.0
2018-08-15,242100339540683.0
2018-08-16,236205189046874.0
2018-08-17,235298674975782.0
2018-08-18,234220480309208.0
2018-08-19,237936671979522.0
2018-08-20,239800204950549.0
2018-08-21,242443550317488.0
2018-08-22,246229995974928.0
2018-08-23,233643063878544.0
2018-08-24,235997959912478.0
2018-08-25,239897175096476.0
2018-08-26,245626855579768.0
2018-08-27,240150513433034.0
2018-08-28,238250256528289.0
2018-08-29,235488540812789.0
2018-08-30,234628881384491.0
2018-08-31,238719779534880.0
2018-09-01,233069664447609.0
2018-09-02,236038703737262.0
2018-09-03,231993417482367.0
2018-09-04,234647030976252.0
2018-09-05,236508267462841.0
2018-09-06,237896126515086.0
2018-09-07,232546945251062.0
2018-09-08,231893448418328.0
2018-09-09,219015431440796.0
2018-09-10,223800513789546.0
2018-09-11,221893204744481.0
2018-09-12,219067613752762.0
2018-09-13,211874031619009.0
2018-09-14,220560275850340.0
2018-09-15,220193316493013.0
2018-09-16,221247708692812.0
2018-09-17,220881351570223.0
2018-09-18,219422533374905.0
2018-09-19,224597463468833.0
2018-09-20,221030287471992.0
2018-09-21,218833630293759.0
2018-09-22,228981599573510.0
2018-09-23,228507535320567.0
2018-09-24,229535634676523.0
2018-09-25,227812010500700.0
2018-09-26,232163225663274.0
2018-09-27,230628749381941.0
2018-09-28,231662934931835.0
2018-09-29,230388190932199.0
2018-09-30,230443164365549.0
2018-10-01,228529398112638.0
2018-10-02,229429042415900.0
2018-10-03,226752234914869.0
2018-10-04,231920620210766.0
2018-10-05,231204882558792.0
2018-10-06,234301064704103.0
2018-10-07,236317456085261.0
2018-10-08,236763350331459.0
2018-10-09,233957288760714.0
2018-10-10,235092049533554.0
2018-10-11,228789878327964.0
2018-10-12,231083012640435.0
2018-10-13,228348509132908.0
2018-10-14,230299156778488.0
2018-10-15,226771143087971.0
2018-10-16,226741119986800.0
2018-10-17,226240240873662.0
2018-10-18,230041568805324.0
2018-10-19,225519684034352.0
2018-10-20,224958050283355.0
2018-10-21,221560426902559.0
2018-10-22,218487772444303.0
2018-10-23,221232891085399.0
2018-10-24,222962444249559.0
2018-10-25,221132750017648.0
2018-10-26,217099211369947.0
2018-10-27,220699318183776.0
2018-10-28,219885384759180.0
2018-10-29,215556012693714.0
2018-10-30,216654402774502.0
2018-10-31,221432532224723.0
2018-11-01,215088021300023.0
2018-11-02,210828481494746.0
2018-11-03,212447651208171.0
2018-11-04,214395870560867.0
2018-11-05,210050092133231.0
2018-11-06,211404136988943.0
2018-11-07,213370926359296.0
2018-11-08,214876079054986.0
2018-11-09,211676293207694.0
2018-11-10,212055437101222.0
2018-11-11,218282137212993.0
2018-11-12,214706061419403.0
2018-11-13,213798262884570.0
2018-11-14,215058187610698.0
2018-11-15,215854640730670.0
2018-11-16,220796114304554.0
2018-11-17,213060209365141.0
2018-11-18,213089685498415.0
2018-11-19,208012569244845.0
2018-11-20,203869777766356.0
2018-11-21,197984269823683.0
2018-11-22,193342820771945.0
2018-11-23,195678412063333.0
2018-11-24,195241873824890.0
2018-11-25,192633496653705.0
2018-11-26,189264502401827.0
2018-11-27,174331424304901.0
2018-11-28,167338074144571.0
2018-11-29,171294367196015.0
2018-11-30,169561738106652.0
2018-12-01,176048748168871.0
2018-12-02,170070602084739.0
2018-12-03,168979215684005.0
2018-12-04,172315651053559.0
2018-12-05,166943537468753.0
2018-12-06,171219829308673.0
2018-12-07,163093704495967.0
2018-12-08,160893714409943.0
2018-12-09,161430510680257.0
2018-12-10,168598440978905.0
2018-12-11,162683339925744.0
2018-12-12,158770719700507.0
2018-12-13,156465375945860.0
2018-12-14,154235372642033.0
2018-12-15,157169866537786.0
2018-12-16,155276598817549.0
2018-12-17,152731633784962.0
2018-12-18,150497545698430.0
2018-12-19,152527644789580.0
2018-12-20,151848699906634.0
2018-12-21,152740054345738.0
2018-12-22,155400101252897.0
2018-12-23,156049761093893.0
2018-12-24,163589305553610.0
2018-12-25,169494625609119.0
2018-12-26,174137973740979.0
2018-12-27,170348558276880.0
2018-12-28,167554741068093.0
2018-12-29,168037659422091.0
2018-12-30,169729825267562.0
2018-12-31,171503583982288.0
2019-01-01,162738984733541.0
2019-01-02,166284566135632.0
2019-01-03,167213249907362.0
2019-01-04,166509815069699.0
2019-01-05,171312461061786.0
2019-01-06,174190555861500.0
2019-01-07,175160897662778.0
2019-01-08,171689973769909.0
2019-01-09,175465566116252.0
2019-01-10,172252676996957.0
2019-01-11,173346836053219.0
2019-01-12,168215400797368.0
2019-01-13,170015173066080.0
2019-01-14,171421273045918.0
2019-01-15,175638334243655.0
2019-01-16,167553020923725.0
2019-01-17,166003423190063.0
2019-01-18,167181957829289.0
2019-01-19,173278976413592.0
2019-01-20,173131699919492.0
2019-01-21,167381070007563.0
2019-01-22,168843870839957.0
2019-01-23,158968304606634.0
2019-01-24,165036735101227.0
2019-01-25,166201876522359.0
2019-01-26,160586736438047.0
2019-01-27,158961012506299.0
2019-01-28,146904001461186.0
2019-01-29,137669740643352.0
2019-01-30,137583986930177.0
2019-01-31,140656624862619.0
2019-02-01,134977238996417.0
2019-02-02,134606400845100.0
2019-02-03,132175846130352.0
2019-02-04,134939340212685.0
2019-02-05,133985555527889.0
2019-02-06,132852460769071.0
2019-02-07,132754306467779.0
2019-02-08,135002093709389.0
2019-02-09,134306431564537.0
2019-02-10,139084041134657.0
2019-02-11,135396119424492.0
2019-02-12,140575507752077.0
2019-02-13,135654777161442.0
2019-02-14,133131948588986.0
2019-02-15,132613027730199.0
2019-02-16,136340097096338.0
2019-02-17,133438586872252.0
2019-02-18,135886630510168.0
2019-02-19,145347984630641.0
2019-02-20,143925096609989.0
2019-02-21,144392966498179.0
2019-02-22,142618167966835.0
2019-02-23,151972291517476.0
2019-02-24,148089629474748.0
2019-02-25,145447588771046.0
2019-02-26,147260900968542.0
2019-02-27,147338229778549.0
2019-02-28,147855562774792.0
2019-03-01,141117401705829.0
2019-03-02,142442272242149.0
2019-03-03,140880947804188.0
2019-03-04,139395576954594.0
2019-03-05,141523992422914.0
2019-03-06,141420745514024.0
2019-03-07,141906114723223.0
2019-03-08,142556770620284.0
2019-03-09,138994720658913.0
2019-03-10,141940665498775.0
2019-03-11,139196581807406.0
2019-03-12,138367568967565.0
2019-03-13,136280348038886.0
2019-03-14,137634088821978.0
2019-03-15,138144499220427.0
2019-03-16,142569215425005.0
2019-03-17,141101471534606.0
2019-03-18,138732869346191.0
2019-03-19,134297581929248.0
2019-03-20,139830195431623.0
2019-03-21,137197643851174.0
2019-03-22,136550651943020.0
2019-03-23,136447667951071.0
2019-03-24,137396854238567.0
2019-03-25,137103673205569.0
2019-03-26,131904936854608.0
2019-03-27,131504385786577.0
2019-03-28,130874924968058.0
2019-03-29,131993488558984.0
2019-03-30,126538131590820.0
2019-03-31,127743786507369.0
2019-04-01,134364478610763.0
2019-04-02,132090403805762.0
2019-04-03,131114625744882.0
2019-04-04,134847147884227.0
2019-04-05,135419962089373.0
2019-04-06,137574010405233.0
2019-04-07,136630822007743.0
2019-04-08,135965442945407.0
2019-04-09,137781776721259.0
2019-04-10,140178578730526.0
2019-04-11,139920145174609.0
2019-04-12,139594530932945.0
2019-04-13,142488052297562.0
2019-04-14,143215158340090.0
2019-04-15,143369875840032.0
2019-04-16,140601297076804.0
2019-04-17,137549287563161.0
2019-04-18,137359031949509.0
2019-04-19,140382028176306.0
2019-04-20,138000266163725.0
2019-04-21,140337440858456.0
2019-04-22,141642272376603.0
2019-04-23,138112340814401.0
2019-04-24,137022394387018.0
2019-04-25,138391851940693.0
2019-04-26,137990494234658.0
2019-04-27,141900834728634.0
2019-04-28,139344668192301.0
2019-04-29,142261005320022.0
2019-04-30,143083868198080.0
2019-05-01,143538176874208.0
2019-05-02,142228447206658.0
2019-05-03,139137704552786.0
2019-05-04,146977036671361.0
2019-05-05,144699017345226.0
2019-05-06,140949035837597.0
2019-05-07,143930432521996.0
2019-05-08,141693101888593.0
2019-05-09,142355213407795.0
2019-05-10,143449561891714.0
2019-05-11,144236631852579.0
2019-05-12,146829910188384.0
2019-05-13,144495350631514.0
2019-05-14,150147397598973.0
2019-05-15,151792187165049.0
2019-05-16,148769184717250.0
2019-05-17,157548698787146.0
2019-05-18,160165567345978.0
2019-05-19,156280401129643.0
2019-05-20,153832664626451.0
2019-05-21,151079870302668.0
2019-05-22,152810368020884.0
2019-05-23,150140517000524.0
2019-05-24,148438830674424.0
2019-05-25,152172632749477.0
2019-05-26,149778338163002.0
2019-05-27,154221781959489.0
2019-05-28,149536585298168.0
2019-05-29,160172748355082.0
2019-05-30,156310292767826.0
2019-05-31,157369722384866.0
2019-06-01,155589853730028.0
2019-06-02,158971892407936.0
2019-06-03,150897012159404.0
2019-06-04,153406024102240.0
2019-06-05,149803770147858.0
2019-06-06,156748757589428.0
2019-06-07,155577615162586.0
2019-06-08,151428411855252.0
2019-06-09,149128260562966.0
2019-06-10,151492599493281.0
2019-06-11,150595595812021.0
2019-06-12,149640988098153.0
2019-06-13,148415691767767.0
2019-06-14,148680119352435.0
2019-06-15,148127564576201.0
2019-06-16,149294715722586.0
2019-06-17,149411116432546.0
2019-06-18,149476725508798.0
2019-06-19,151928232219200.0
2019-06-20,150226166761551.0
2019-06-21,148124491361544.0
2019-06-22,148972649824049.0
2019-06-23,150193369420733.0
2019-06-24,154490248985920.0
2019-06-25,155394741116915.0
2019-06-26,161993621897667.0
2019-06-27,160109749073786.0
2019-06-28,157417038659545.0
2019-06-29,163023961132421.0
2019-06-30,162557619477203.0
2019-07-01,161157151631553.0
2019-07-02,162662351851487.0
2019-07-03,158170290130675.0
2019-07-04,157101163007114.0
2019-07-05,157556245058281.0
2019-07-06,162053106679911.0
2019-07-07,161257192696322.0
2019-07-08,158573573990092.0
2019-07-09,163027938052556.0
2019-07-10,162724607572604.0
2019-07-11,166536763643230.0
2019-07-12,166359297147639.0
2019-07-13,166697673312229.0
2019-07-14,170606621678518.0
2019-07-15,167332900609680.0
2019-07-16,160737167117867.0
2019-07-17,165819428342780.0
2019-07-18,168211546041498.0
2019-07-19,161964774331388.0
2019-07-20,167031087140019.0
2019-07-21,162960472582435.0
2019-07-22,162160605122401.0
2019-07-23,164727110482070.0
2019-07-24,164736016028905.0
2019-07-25,162485751556284.0
2019-07-26,162759656975959.0
2019-07-27,168118039180356.0
2019-07-28,166406989198916.0
2019-07-29,164492770894081.0
2019-07-30,168906258407985.0
2019-07-31,164073833336815.0
2019-08-01,160442304099551.0
2019-08-02,164701094183514.0
2019-08-03,167018801576610.0
2019-08-04,169424657656731.0
2019-08-05,171235245987132.0
2019-08-06,171577733853352.0
2019-08-07,172762548309434.0
2019-08-08,170945323460678.0
2019-08-09,169960390410308.0
2019-08-10,174484684584313.0
2019-08-11,170721600350388.0
2019-08-12,173247774934993.0
2019-08-13,172674925510679.0
2019-08-14,170937731655562.0
2019-08-15,171820790490280.0
2019-08-16,170492852094723.0
2019-08-17,175553431947969.0
2019-08-18,168837658858000.0
2019-08-19,168241402208921.0
2019-08-20,167049994648357.0
2019-08-21,166365465107024.0
2019-08-22,161316670311962.0
2019-08-23,165533179732730.0
2019-08-24,162705953567483.0
2019-08-25,164555799204062.0
2019-08-26,165366546309250.0
2019-08-27,159823046296313.0
2019-08-28,161786793831106.0
2019-08-29,167496778532319.0
2019-08-30,168080306280448.0
2019-08-31,166435311499663.0
2019-09-01,164991010482646.0
2019-09-02,166910742991110.0
2019-09-03,168321310203277.0
2019-09-04,164699531950569.0
2019-09-05,166893385630295.0
2019-09-06,160733305983362.0
2019-09-07,169405010481454.0
2019-09-08,169203201222624.0
2019-09-09,166905138937144.0
2019-09-10,167114712608182.0
2019-09-11,168450792515722.0
2019-09-12,173250756859289.0
2019-09-13,169422699973619.0
2019-09-14,172777954882048.0
2019-09-15,171190623097485.0
2019-09-16,176190344147213.0
2019-09-17,180106684704824.0
2019-09-18,183544544850497.0
2019-09-19,177538790455281.0
2019-09-20,180992361922991.0
2019-09-21,185337841426083.0
2019-09-22,181230675573907.0
2019-09-23,185799479046067.0
2019-09-24,178325901902741.0
2019-09-25,182566325299771.0
2019-09-26,185499353783027.0
2019-09-27,182005346037931.0
2019-09-28,184471045473120.0
2019-09-29,181968390799785.0
2019-09-30,181813482758700.0
2019-10-01,182087887085516.0
2019-10-02,176891010587088.0
2019-10-03,175666085794161.0
2019-10-04,177730090944742.0
2019-10-05,177905918276230.0
2019-10-06,178560188415144.0
2019-10-07,176577567557732.0
2019-10-08,175477034054146.0
2019-10-09,174338250425717.0
2019-10-10,177452616938691.0
2019-10-11,181940453213949.0
2019-10-12,176335042469206.0
2019-10-13,181511459113580.0
2019-10-14,178184735911001.0
2019-10-15,187241466669273.0
2019-10-16,182605604271031.0
2019-10-17,181111551547707.0
2019-10-18,176217882502558.0
2019-10-19,182618158978675.0
2019-10-20,182666896933669.0
2019-10-21,176000925658413.0
2019-10-22,177372516638025.0
2019-10-23,183287308318352.0
2019-10-24,178141206171479.0
2019-10-25,171768520326219.0
2019-10-26,176536574267271.0
2019-10-27,172594161151047.0
2019-10-28,173739716555349.0
2019-10-29,174420133847288.0
2019-10-30,176898697785456.0
2019-10-31,177348462751672.0
2019-11-01,179020938083340.0
2019-11-02,175730030328495.0
2019-11-03,175986556191087.0
2019-11-04,172305722714814.0
2019-11-05,174457761845435.0
2019-11-06,176740508240479.0
2019-11-07,176067784145281.0
2019-11-08,174728652674568.0
2019-11-09,175285915077884.0
2019-11-10,175171652150272.0
2019-11-11,172523653170040.0
2019-11-12,175056881115422.0
2019-11-13,178483000720198.0
2019-11-14,175563404467190.0
2019-11-15,173307492927210.0
2019-11-16,170722041541367.0
2019-11-17,174467028430287.0
2019-11-18,175282334782278.0
2019-11-19,164426592695901.0
2019-11-20,163223699839452.0
2019-11-21,172399601358537.0
2019-11-22,167999221761790.0
2019-11-23,170844120563298.0
2019-11-24,170414351523565.0
2019-11-25,172801380493423.0
2019-11-26,160657863763828.0
2019-11-27,165005642446791.0
2019-11-28,165228847813405.0
2019-11-29,164985278521078.0
2019-11-30,166973245985941.0
2019-12-01,164098053714230.0
2019-12-02,166370763439400.0
2019-12-03,168418099178999.0
2019-12-04,164930017016813.0
2019-12-05,163364667767777.0
2019-12-06,161630925056116.0
2019-12-07,167400465889181.0
2019-12-08,161806581932044.0
2019-12-09,163193655680440.0
2019-12-10,169230065038661.0
2019-12-11,162858302903119.0
2019-12-12,165470467995828.0
2019-12-13,165832655309432.0
2019-12-14,169037261793795.0
2019-12-15,166362707761262.0
2019-12-16,165022840207157.0
2019-12-17,157286576046087.0
2019-12-18,149979745656021.0
2019-12-19,150518911169577.0
2019-12-20,145826235973617.0
2019-12-21,149895486010743.0
2019-12-22,147506148824761.0
2019-12-23,148303187957461.0
2019-12-24,148710910842065.0
2019-12-25,144548750097678.0
2019-12-26,143790021094178.0
2019-12-27,144842609940369.0
2019-12-28,148341813691998.0
2019-12-29,149155359019336.0
2019-12-30,147804630318685.0
2019-12-31,145641263166761.0
2020-01-01,141406600911879.0
2020-01-02,146191809361390.0
2020-01-03,149483742143955.0
2020-01-04,157860037434487.0
2020-01-05,153207952383731.0
2020-01-06,154726951729300.0
2020-01-07,159267152115365.0
2020-01-08,155167414210972.0
2020-01-09,152224779689218.0
2020-01-10,157405874255653.0
2020-01-11,158323859220901.0
2020-01-12,156374203954265.0
2020-01-13,157361137549196.0
2020-01-14,156470851603665.0
2020-01-15,159050105849322.0
2020-01-16,157522366238513.0
2020-01-17,157695742443784.0
2020-01-18,156330782483547.0
2020-01-19,157161345266675.0
2020-01-20,158090004268813.0
2020-01-21,159386840158562.0
2020-01-22,156658427842544.0
2020-01-23,157842938836027.0
2020-01-24,160326989074219.0
2020-01-25,157200966358240.0
2020-01-26,155707721675806.0
2020-01-27,157392365815777.0
2020-01-28,154708076861874.0
2020-01-29,157811788608451.0
2020-01-30,153604903014355.0
2020-01-31,154438801837392.0
2020-02-01,153619702281232.0
2020-02-02,158217477314273.0
2020-02-03,157252926778089.0
2020-02-04,159745151918662.0
2020-02-05,156834138104318.0
2020-02-06,157878271616349.0
2020-02-07,157255204544744.0
2020-02-08,160279594927007.0
2020-02-09,158724246047582.0
2020-02-10,161296958580192.0
2020-02-11,162111354803600.0
2020-02-12,161807667762062.0
2020-02-13,164621990505813.0
2020-02-14,165363759967530.0
2020-02-15,165876223086037.0
2020-02-16,167940051222635.0
2020-02-17,166601455409426.0
2020-02-18,168035875900669.0
2020-02-19,175582763571555.0
2020-02-20,170137338521242.0
2020-02-21,167540038592006.0
2020-02-22,172016113787712.0
2020-02-23,171187990724692.0
2020-02-24,173352271141674.0
2020-02-25,168174135960232.0
2020-02-26,170103661439152.0
2020-02-27,176387494084730.0
2020-02-28,171970809510991.0
2020-02-29,173222691589110.0
2020-03-01,170973935817018.0
2020-03-02,169435329808884.0
2020-03-03,169966496720052.0
2020-03-04,172598870872010.0
2020-03-05,171426274167378.0
2020-03-06,169051233692522.0
2020-03-07,171998602242884.0
2020-03-08,175966249689374.0
2020-03-09,171381930703323.0
2020-03-10,171970549906868.0
2020-03-11,169767545762138.0
2020-03-12,170379792553933.0
2020-03-13,165295619181156.0
2020-03-14,163394427841318.0
2020-03-15,164366084767924.0
2020-03-16,165418370434172.0
2020-03-17,160615525123304.0
2020-03-18,164808583721784.0
2020-03-19,164240834270679.0
2020-03-20,163054136356551.0
2020-03-21,166073809528005.0
2020-03-22,157387346822826.0
2020-03-23,161017839857624.0
2020-03-24,163868901624402.0
2020-03-25,161619579918440.0
2020-03-26,166182251607572.0
2020-03-27,166860421948446.0
2020-03-28,166517135831587.0
2020-03-29,170124696091596.0
2020-03-30,168645622343072.0
2020-03-31,164201855784551.0
2020-04-01,165921299255436.0
2020-04-02,169664362448256.0
2020-04-03,168037048409583.0
2020-04-04,164456824669015.0
2020-04-05,166665363199123.0
2020-04-06,159630690269946.0
2020-04-07,164986663261130.0
2020-04-08,165900846807180.0
2020-04-09,165979238209829.0
2020-04-10,169393972028721.0
2020-04-11,163054209241404.0
2020-04-12,170099517320961.0
2020-04-13,166788619671691.0
2020-04-14,170296122987097.0
2020-04-15,168809547041235.0
2020-04-16,169921080010606.0
2020-04-17,167188431073315.0
2020-04-18,168163949559301.0
2020-04-19,164515916878957.0
2020-04-20,164174034044578.0
2020-04-21,166185254838441.0
2020-04-22,165338050852216.0
2020-04-23,168797232880520.0
2020-04-24,166991543236377.0
2020-04-25,164623692906520.0
2020-04-26,166306962040134.0
2020-04-27,162564724262059.0
2020-04-28,161767463531432.0
2020-04-29,168954480849336.0
2020-04-30,168008795505797.0
2020-05-01,173599957693740.0
2020-05-02,174411301646008.0
2020-05-03,169337908805435.0
2020-05-04,176996872833509.0
2020-05-05,177126006065677.0
2020-05-06,170184143735892.0
2020-05-07,167518128384283.0
2020-05-08,170638592774905.0
2020-05-09,169918870855069.0
2020-05-10,168155194041585.0
2020-05-11,168695544048634.0
2020-05-12,167811683665329.0
2020-05-13,168731620850155.0
2020-05-14,170479379853294.0
2020-05-15,173009715606813.0
2020-05-16,168604215313520.0
2020-05-17,174035870922335.0
2020-05-18,168356422746649.0
2020-05-19,165713221091569.0
2020-05-20,171659560299693.0
2020-05-21,167169214403354.0
2020-05-22,165838437851046.0
2020-05-23,171358180789351.0
2020-05-24,170796273522180.0
2020-05-25,166528603740847.0
2020-05-26,167891656970898.0
2020-05-27,171107551472643.0
2020-05-28,167692824933841.0
2020-05-29,169331208949178.0
2020-05-30,171390445418517.0
2020-05-31,174414973569576.0
2020-06-01,170253665482108.0
2020-06-02,172439109548868.0
2020-06-03,174544685514894.0
2020-06-04,176050621505189.0
2020-06-05,173756657523376.0
2020-06-06,174218964855245.0
2020-06-07,177004038290039.0
2020-06-08,173025435205203.0
2020-06-09,171294564893205.0
2020-06-10,167893464173007.0
2020-06-11,170470198833593.0
2020-06-12,171247857104888.0
2020-06-13,172060148306634.0
2020-06-14,173650193904614.0
2020-06-15,172035346109522.0
2020-06-16,175165256750067.0
2020-06-17,170872289165155.0
2020-06-18,171385224099983.0
2020-06-19,175367142376695.0
2020-06-20,176361608233098.0
2020-06-21,176523609607038.0
2020-06-22,173175529759178.0
2020-06-23,175164357091483.0
2020-06-24,177143959482901.0
2020-06-25,179472482037017.0
2020-06-26,179478521645848.0
2020-06-27,175683683770776.0
2020-06-28,176628499488762.0
2020-06-29,177286193965182.0
2020-06-30,176727152186332.0
2020-07-01,173243296583899.0
2020-07-02,175753502133022.0
2020-07-03,178478571134672.0
2020-07-04,179060284104856.0
2020-07-05,178591464995200.0
2020-07-06,178491923833942.0
2020-07-07,176481021195206.0
2020-07-08,182721261984858.0
2020-07-09,178800130613320.0
2020-07-10,177220481439176.0
2020-07-11,181134626499974.0
2020-07-12,182014165840746.0
2020-07-13,183622309872455.0
2020-07-14,178492074184944.0
2020-07-15,178370672484560.0
2020-07-16,179346495774090.0
2020-07-17,176338344257699.0
2020-07-18,181321925209174.0
2020-07-19,180937178557942.0
2020-07-20,175923409062575.0
2020-07-21,169909138420340.0
2020-07-22,170194645792631.0
2020-07-23,178047378877657.0
2020-07-24,184427990290076.0
2020-07-25,175285107310614.0
2020-07-26,182479158908812.0
2020-07-27,182688941317203.0
2020-07-28,188161912438406.0
2020-07-29,190799639104576.0
2020-07-30,184324024485686.0
2020-07-31,179506924521819.0
2020-08-01,183619991077752.0
2020-08-02,188744470628641.0
2020-08-03,181899149495859.0
2020-08-04,182555620595541.0
2020-08-05,183174883458875.0
2020-08-06,184791835330979.0
2020-08-07,188789574776180.0
2020-08-08,190036794257173.0
2020-08-09,195817247552861.0
2020-08-10,192983645545687.0
2020-08-11,189623812015040.0
2020-08-12,192812530921580.0
2020-08-13,193643907255338.0
2020-08-14,201363649912131.0
2020-08-15,204421849731993.0
2020-08-16,199919684631788.0
2020-08-17,191023722592220.0
2020-08-18,187931158680015.0
2020-08-19,195634699443861.0
2020-08-20,200953753662228.0
2020-08-21,204877178699783.0
2020-08-22,202162562433157.0
2020-08-23,207572651905297.0
2020-08-24,205489098355929.0
2020-08-25,205154102079799.0
2020-08-26,207855652136241.0
2020-08-27,204916809485366.0
2020-08-28,210144717707371.0
2020-08-29,203405309849678.0
2020-08-30,207365255564065.0
2020-08-31,208381654508257.0
2020-09-01,217507011060396.0
2020-09-02,215858693718922.0
2020-09-03,211604309371806.0
2020-09-04,221498784286340.0
2020-09-05,223067150351174.0
2020-09-06,229450877067588.0
2020-09-07,229458792732943.0
2020-09-08,227686604493935.0
2020-09-09,225884961586079.0
2020-09-10,221883369634695.0
2020-09-11,230848593567788.0
2020-09-12,234667787167097.0
2020-09-13,234498965421269.0
2020-09-14,230616150948139.0
2020-09-15,235270544378637.0
2020-09-16,228916564237820.0
2020-09-17,240832726759064.0
2020-09-18,232270049671359.0
2020-09-19,236760570750934.0
2020-09-20,240621970213876.0
2020-09-21,242698212490431.0
2020-09-22,236886183704700.0
2020-09-23,242896760475654.0
2020-09-24,235985467158325.0
2020-09-25,235357352788598.0
2020-09-26,241724395814299.0
2020-09-27,241028457133158.0
2020-09-28,240329498201524.0
2020-09-29,240032566659894.0
2020-09-30,241852149869964.0
2020-10-01,242582974612263.0
2020-10-02,241740771709133.0
2020-10-03,237113097647697.0
2020-10-04,239894580531493.0
2020-10-05,243070906334592.0
2020-10-06,254188482091006.0
2020-10-07,247569923011816.0
2020-10-08,240560959071589.0
2020-10-09,244385272331971.0
2020-10-10,250999576790485.0
2020-10-11,248808898990970.0
2020-10-12,246187433713295.0
2020-10-13,252459358963832.0
2020-10-14,248132307801779.0
2020-10-15,253804770688431.0
2020-10-16,251058046206985.0
2020-10-17,251915366590687.0
2020-10-18,242877091687694.0
2020-10-19,253792417365499.0
2020-10-20,251970504030141.0
2020-10-21,251225251685217.0
2020-10-22,252217770342901.0
2020-10-23,253418691744239.0
2020-10-24,258400417624233.0
2020-10-25,251819053687743.0
2020-10-26,243049011056724.0
2020-10-27,249289973396060.0
2020-10-28,252029087677446.0
2020-10-29,256854325897446.0
2020-10-30,251735350457931.0
2020-10-31,252927330058729.0
2020-11-01,255835679124985.0
2020-11-02,246509074780635.0
2020-11-03,252586224530411.0
2020-11-04,252220146564795.0
2020-11-05,248917698553873.0
2020-11-06,256580595840945.0
2020-11-07,258518646915968.0
2020-11-08,250434123737738.0
2020-11-09,252952270756754.0
2020-11-10,252474209045012.0
2020-11-11,257136172613764.0
2020-11-12,252977052386324.0
2020-11-13,258796900699702.0
2020-11-14,253697946730123.0
2020-11-15,261363585693379.0
2020-11-16,252064016493606.0
2020-11-17,257650502881327.0
2020-11-18,255173117827952.0
2020-11-19,262743283247282.0
2020-11-20,261894146250647.0
2020-11-21,265526349080825.0
2020-11-22,267688861853937.0
2020-11-23,255357370265368.0
2020-11-24,266942189156954.0
2020-11-25,266177934942841.0
2020-11-26,265957175714178.0
2020-11-27,263754393623661.0
2020-11-28,264556898345373.0
2020-11-29,272265367033240.0
2020-11-30,274713546580384.0
2020-12-01,278431358263192.0
2020-12-02,262255701368866.0
2020-12-03,273898263238235.0
2020-12-04,271172515477059.0
2020-12-05,271680333230789.0
2020-12-06,275357341013417.0
2020-12-07,271109073042635.0
2020-12-08,272920480112087.0
2020-12-09,277514799450943.0
2020-12-10,274364756352506.0
2020-12-11,267157646509464.0
2020-12-12,270109174745747.0
2020-12-13,274685382504042.0
2020-12-14,265787990176295.0
2020-12-15,267831426579803.0
2020-12-16,269024496367792.0
2020-12-17,271117944952631.0
2020-12-18,272768483631746.0
2020-12-19,269293729917087.0
2020-12-20,274049574081782.0
2020-12-21,276525326059720.0
2020-12-22,275924024029421.0
2020-12-23,282067605771593.0
2020-12-24,275858705662990.0
2020-12-25,268666792975323.0
2020-12-26,278222562147225.0
2020-12-27,274847095767767.0
2020-12-28,288920538078976.0
2020-12-29,280380437185880.0
2020-12-30,277816357472330.0
2020-12-31,281167207542385.0
2021-01-01,282424600682404.0
2021-01-02,293986163657830.0
2021-01-03,290212431528276.0
2021-01-04,291089941472671.0
2021-01-05,291924031579711.0
2021-01-06,293543258333485.0
2021-01-07,293772007472562.0
2021-01-08,302154341425451.0
2021-01-09,298609562348784.0
2021-01-10,305402691929892.0
2021-01-11,307511046896855.0
2021-01-12,310503224754087.0
2021-01-13,311729453627982.0
2021-01-14,312295025085613.0
2021-01-15,312758879976887.0
2021-01-16,317963596210223.0
2021-01-17,309255874092567.0
2021-01-18,312945366942343.0
2021-01-19,316594082674406.0
2021-01-20,324886486531385.0
2021-01-21,319022524015492.0
2021-01-22,321549014989608.0
2021-01-23,328819305228991.0
2021-01-24,328239515662705.0
2021-01-25,334291686405515.0
2021-01-26,334194705274421.0
2021-01-27,342053555493937.0
2021-01-28,336743598505866.0
2021-01-29,331379532304877.0
2021-01-30,328760903919664.0
2021-01-31,341602059652412.0
2021-02-01,346471898701645.0
2021-02-02,346245764763517.0
2021-02-03,342212490026501.0
2021-02-04,350007883060231.0
2021-02-05,350984677627953.0
2021-02-06,353526579757991.0
2021-02-07,365775224098517.0
2021-02-08,363243477736116.0
2021-02-09,360918862931485.0
2021-02-10,363068544631077.0
2021-02-11,368914581390121.0
2021-02-12,377304734450258.0
2021-02-13,370661166027964.0
2021-02-14,380968349726539.0
2021-02-15,379981398734878.0
2021-02-16,380424409506176.0
2021-02-17,385921730911926.0
2021-02-18,377408459080676.0
2021-02-19,390797841453294.0
2021-02-20,385241672925984.0
2021-02-21,376155622214703.0
2021-02-22,393577628999016.0
2021-02-23,389034569626288.0
2021-02-24,397488862142433.0
2021-02-25,395887330520984.0
2021-02-26,397926921006353.0
2021-02-27,400446358630985.0
2021-02-28,399309417155701.0
2021-03-01,401816003867759.0
2021-03-02,404191397065781.0
2021-03-03,390027795841412.0
2021-03-04,392781609863352.0
2021-03-05,406475555834632.0
2021-03-06,418877448272876.0
2021-03-07,413492841444496.0
2021-03-08,414246092954386.0
2021-03-09,407931383150861.0
2021-03-10,413004465769789.0
2021-03-11,409843469254179.0
2021-03-12,405690495396066.0
2021-03-13,416098677324950.0
2021-03-14,423907421559024.0
2021-03-15,419060405266120.0
2021-03-16,427516157345287.0
2021-03-17,429959525788239.0
2021-03-18,425610896792831.0
2021-03-19,432893140867287.0
2021-03-20,442976469908786.0
2021-03-21,436940067823478.0
2021-03-22,433625327910837.0
2021-03-23,438050194798645.0
2021-03-24,435634586352902.0
2021-03-25,446370943302802.0
2021-03-26,457689750270945.0
2021-03-27,452554414741500.0
2021-03-28,456476626839744.0
2021-03-29,465030877639766.0
2021-03-30,464364089580203.0
2021-03-31,460717364253072.0
2021-04-01,468154836654159.0
2021-04-02,469498555697557.0
2021-04-03,472326101033333.0
2021-04-04,482895434957489.0
2021-04-05,492575417735651.0
2021-04-06,484833086218008.0
2021-04-07,498496769259974.0
2021-04-08,495059722895843.0
2021-04-09,491445891068430.0
2021-04-10,498052815484089.0
2021-04-11,489000384444397.0
2021-04-12,516018357387525.0
2021-04-13,512708407802964.0
2021-04-14,510465628385571.0
2021-04-15,513141187764633.0
2021-04-16,491171193848555.0
2021-04-17,499532759038682.0
2021-04-18,507216685943299.0
2021-04-19,488331054061323.0
2021-04-20,507181108859397.0
2021-04-21,517095275086181.0
2021-04-22,513554683134887.0
2021-04-23,514518693662683.0
2021-04-24,516567743845133.0
2021-04-25,533890408722835.0
2021-04-26,536706346424603.0
2021-04-27,533386200997380.0
2021-04-28,545322871512774.0
2021-04-29,544170369412962.0
2021-04-30,542147959216567.0
2021-05-01,545086377223666.0
2021-05-02,543794057929571.0
2021-05-03,547475334946601.0
2021-05-04,562888822493414.0
2021-05-05,557442295769236.0
2021-05-06,569685189761922.0
2021-05-07,553554249599305.0
2021-05-08,567439712297836.0
2021-05-09,576031414038059.0
2021-05-10,575129409767346.0
2021-05-11,575344766887671.0
2021-05-12,580794959696999.0
2021-05-13,588361644935777.0
2021-05-14,590825887103451.0
2021-05-15,582713042010809.0
2021-05-16,600864267192553.0
2021-05-17,583119831595819.0
2021-05-18,598333345417076.0
2021-05-19,600590726597204.0
2021-05-20,610356454182947.0
2021-05-21,591864013180445.0
2021-05-22,591472609769676.0
2021-05-23,585273023060447.0
2021-05-24,581364626189104.0
2021-05-25,579048935400496.0
2021-05-26,579175658673504.0
2021-05-27,572933646335967.0
2021-05-28,571045232188494.0
2021-05-29,567215874270967.0
2021-05-30,573810160294421.0
2021-05-31,569349075251920.0
2021-06-01,559826380988849.0
2021-06-02,569872156570356.0
2021-06-03,569630175691678.0
2021-06-04,583833840887559.0
2021-06-05,584693808082590.0
2021-06-06,590897747117786.0
2021-06-07,587271221769348.0
2021-06-08,591128041704156.0
2021-06-09,579519540119775.0
2021-06-10,568256352715244.0
2021-06-11,568790408897377.0
2021-06-12,557750785603360.0
2021-06-13,553732000058594.0
2021-06-14,545801060568638.0
2021-06-15,566608504137472.0
2021-06-16,549656358773452.0
2021-06-17,547896180642279.0
2021-06-18,555689598749597.0
2021-06-19,533541818796997.0
2021-06-20,524631902504727.0
2021-06-21,499092484769848.0
2021-06-22,488940088519569.0
2021-06-23,473503326006017.0
2021-06-24,473104306766171.0
2021-06-25,460232132401701.0
2021-06-26,455223248719948.0
2021-06-27,457037363034483.0
2021-06-28,464928025965264.0
2021-06-29,469663329908074.0
2021-06-30,474161218837520.0
2021-07-01,465378001589133.0
2021-07-02,472903401336924.0
2021-07-03,473110744159786.0
2021-07-04,477036817906691.0
2021-07-05,481053866042392.0
2021-07-06,487256871440426.0
2021-07-07,482377804577717.0
2021-07-08,487179160283119.0
2021-07-09,484907513766101.0
2021-07-10,503634943195003.0
2021-07-11,499089894382751.0
2021-07-12,503074386693972.0
2021-07-13,481387944659715.0
2021-07-14,482352356759970.0
2021-07-15,490675980367830.0
2021-07-16,488915273794159.0
2021-07-17,497264120911158.0
2021-07-18,490137355943049.0
2021-07-19,502117416144984.0
2021-07-20,493096585860128.0
2021-07-21,500619565249631.0
2021-07-22,503995505120538.0
2021-07-23,505912210386052.0
2021-07-24,515443942927773.0
2021-07-25,522362529432492.0
2021-07-26,524355377866146.0
2021-07-27,519397191219627.0
2021-07-28,527206944847224.0
2021-07-29,531770000707915.0
2021-07-30,509642204616538.0
2021-07-31,528993308083140.0
2021-08-01,536948823952732.0
2021-08-02,547807808748646.0
2021-08-03,557460135153918.0
2021-08-04,561776633411420.0
2021-08-05,559365590243578.0
2021-08-06,556937215544358.0
2021-08-07,569150078589482.0
2021-08-08,565060380727664.0
2021-08-09,580017655055706.0
2021-08-10,591681857674264.0
2021-08-11,571162581941200.0
2021-08-12,583708978595172.0
2021-08-13,580570120038430.0
2021-08-14,581370525560516.0
2021-08-15,574732996490750.0
2021-08-16,574073739002947.0
2021-08-17,583584223708758.0
2021-08-18,585764265401315.0
2021-08-19,607381344786121.0
2021-08-20,590828799215066.0
2021-08-21,604547590656768.0
2021-08-22,609735809449051.0
2021-08-23,591724595766598.0
2021-08-24,611639151280768.0
2021-08-25,612643436246228.0
2021-08-26,622376333199625.0
2021-08-27,616527090724970.0
2021-08-28,613044528754902.0
2021-08-29,615624432526926.0
2021-08-30,624379430509269.0
2021-08-31,629079170290424.0
2021-09-01,620707984798703.0
2021-09-02,644949388268089.0
2021-09-03,644146126062331.0
2021-09-04,635006580415942.0
2021-09-05,657500793665776.0
2021-09-06,653191855517730.0
2021-09-07,649434332512799.0
2021-09-08,662963272496630.0
2021-09-09,656214168857861.0
2021-09-10,660645075541252.0
2021-09-11,660693898437726.0
2021-09-12,685124551027663.0
2021-09-13,662234887417244.0
2021-09-14,663747616514149.0
2021-09-15,666038802852385.0
2021-09-16,670463768803461.0
2021-09-17,668108174948465.0
2021-09-18,676310873447326.0
2021-09-19,681991943947616.0
2021-09-20,672573432612365.0
2021-09-21,694906508137162.0
2021-09-22,678339194765561.0
2021-09-23,664008283017837.0
2021-09-24,676899600213852.0
2021-09-25,701554830061289.0
2021-09-26,685294430813251.0
2021-09-27,683986535601015.0
2021-09-28,667399799023960.0
2021-09-29,674919868001697.0
2021-09-30,667853180146866.0
2021-10-01,691758878364000.0
2021-10-02,691772935256287.0
2021-10-03,683722852068262.0
2021-10-04,681917107165328.0
2021-10-05,707675477300310.0
2021-10-06,700286170727162.0
2021-10-07,698703228871295.0
2021-10-08,714659540853839.0
2021-10-09,695461187868598.0
2021-10-10,695795930595090.0
2021-10-11,711726767640338.0
2021-10-12,710603885060401.0
2021-10-13,712223864253404.0
2021-10-14,706023212509754.0
2021-10-15,687526697605947.0
2021-10-16,709904929642239.0
2021-10-17,705936108026156.0
2021-10-18,702351169520067.0
2021-10-19,711780277390095.0
2021-10-20,713414584271937.0
2021-10-21,730197837792480.0
2021-10-22,731550189362330.0
2021-10-23,719890902474494.0
2021-10-24,729937167446250.0
2021-10-25,749000082987623.0
2021-10-26,755636128167191.0
2021-10-27,749450145202430.0
2021-10-28,741055576879198.0
2021-10-29,741147538114008.0
2021-10-30,751488562356629.0
2021-10-31,735048366569768.0
2021-11-01,766458957955565.0
2021-11-02,762990121073382.0
2021-11-03,774413086403735.0
2021-11-04,746031670682329.0
2021-11-05,769397492469318.0
2021-11-06,761041381270793.0
2021-11-07,786395385046366.0
2021-11-08,783821483232949.0
2021-11-09,801831418007025.0
2021-11-10,782933403302546.0
2021-11-11,808618097960773.0
2021-11-12,812055482821296.0
2021-11-13,819236215452842.0
2021-11-14,806629598576140.0
2021-11-15,817105962619225.0
2021-11-16,793617109036583.0
2021-11-17,829485848944838.0
2021-11-18,850611699307638.0
2021-11-19,800373512679029.0
2021-11-20,798328078638229.0
2021-11-21,790508658091178.0
2021-11-22,818495113987981.0
2021-11-23,819471279341634.0
2021-11-24,820705014040589.0
2021-11-25,789231880522000.0
2021-11-26,764078078554856.0
2021-11-27,799457281405606.0
2021-11-28,803284833656688.0
2021-11-29,803904453324760.0
2021-11-30,804241279829957.0
2021-12-01,821884385208826.0
2021-12-02,840404967545308.0
2021-12-03,835610817476671.0
2021-12-04,825233251267521.0
2021-12-05,841891110688691.0
2021-12-06,855975935884777.0
2021-12-07,864358100916457.0
2021-12-08,856639876520702.0
2021-12-09,856739121820392.0
2021-12-10,842627733765675.0
2021-12-11,840827122006051.0
2021-12-12,847898400722138.0
2021-12-13,876631427211209.0
2021-12-14,877596579959954.0
2021-12-15,878075441729797.0
2021-12-16,856521734625419.0
2021-12-17,853296554901509.0
2021-12-18,877525200190478.0
2021-12-19,871131793708229.0
2021-12-20,891943137761246.0
2021-12-21,896084108537972.0
2021-12-22,877417850205969.0
2021-12-23,873513224864899.0
2021-12-24,883240403738318.0
2021-12-25,876152424706998.0
2021-12-26,873157859330128.0
2021-12-27,881537165889742.0
2021-12-28,879088543425375.0
2021-12-29,899776015974172.0
2021-12-30,898000501621162.0
2021-12-31,873407919384442.0
2022-01-01,878114367472750.0
2022-01-02,896914872921307.0
2022-01-03,909984207059657.0
2022-01-04,926227271806548.0
2022-01-05,918048542334220.0
2022-01-06,900207170810978.0
2022-01-07,882176051464131.0
2022-01-08,886449648936996.0
2022-01-09,934859640599413.0
2022-01-10,898470052972854.0
2022-01-11,909157940011772.0
2022-01-12,922503856079442.0
2022-01-13,915283238910152.0
2022-01-14,921747709382366.0
2022-01-15,895180580612219.0
2022-01-16,908053049815679.0
2022-01-17,915014191959357.0
2022-01-18,936280554900752.0
2022-01-19,922251563013185.0
2022-01-20,925897104334007.0
2022-01-21,924443184398782.0
2022-01-22,954651253317923.0
2022-01-23,943647392778480.0
2022-01-24,929832563431687.0
2022-01-25,913388367917180.0
2022-01-26,941155990572938.0
2022-01-27,943572251908072.0
2022-01-28,933234654985622.0
2022-01-29,939941956913585.0
2022-01-30,947883173886680.0
2022-01-31,939170750682366.0
2022-02-01,958464968291345.0
2022-02-02,961270926905602.0
2022-02-03,917504652591990.0
2022-02-04,951948488602564.0
2022-02-05,942550344811362.0
2022-02-06,971814329520907.0
2022-02-07,942201001950694.0
2022-02-08,954045433433364.0
2022-02-09,963866707266330.0
2022-02-10,958459048288881.0
2022-02-11,943584178737353.0
2022-02-12,954345570288213.0
2022-02-13,976753238951344.0
2022-02-14,969287298173840.0
2022-02-15,973568191672715.0
2022-02-16,945039403983238.0
2022-02-17,954987350405609.0
2022-02-18,948912803533465.0
2022-02-19,941313972151610.0
2022-02-20,953741173759818.0
2022-02-21,961875396469343.0
2022-02-22,946896728086350.0
2022-02-23,952364397472314.0
2022-02-24,938234933402871.0
2022-02-25,951545358553787.0
2022-02-26,944227129942196.0
2022-02-27,974046068360724.0
2022-02-28,944529109453358.0
2022-03-01,962133848901489.0
2022-03-02,955824975459432.0
2022-03-03,941830741013717.0
2022-03-04,955771431019893.0
2022-03-05,927157048551341.0
2022-03-06,936830037472869.0
2022-03-07,911696662736914.0
2022-03-08,931581409846987.0
2022-03-09,933672252318873.0
2022-03-10,960271369432484.0
2022-03-11,932677503817557.0
2022-03-12,976123881002559.0
2022-03-13,934597569959414.0
2022-03-14,948065207595486.0
2022-03-15,934520304203703.0
2022-03-16,943815920527402.0
2022-03-17,945854544505206.0
2022-03-18,947721755633950.0
2022-03-19,970846977291996.0
2022-03-20,948666529577756.0
2022-03-21,967354826014600.0
2022-03-22,954625864593230.0
2022-03-23,962093654086581.0
2022-03-24,953462057835025.0
2022-03-25,977003419578318.0
2022-03-26,954121145600990.0
2022-03-27,950003767949676.0
2022-03-28,976529907220398.0
2022-03-29,969332128282036.0
2022-03-30,977250029573942.0
2022-03-31,961369902999039.0
2022-04-01,977907982273560.0
2022-04-02,962950292924948.0
2022-04-03,972174998717367.0
2022-04-04,957159313539574.0
2022-04-05,974632778365560.0
2022-04-06,973569262409182.0
2022-04-07,983612815207364.0
