t,v
2015-07-30,0
2015-07-31,0
2015-08-01,0
2015-08-02,0
2015-08-03,0
2015-08-04,0
2015-08-05,0
2015-08-06,0
2015-08-07,778
2015-08-08,582
2015-08-09,457
2015-08-10,804
2015-08-11,2119
2015-08-12,565
2015-08-13,858
2015-08-14,1098
2015-08-15,845
2015-08-16,748
2015-08-17,800
2015-08-18,824
2015-08-19,815
2015-08-20,643
2015-08-21,910
2015-08-22,833
2015-08-23,877
2015-08-24,868
2015-08-25,928
2015-08-26,872
2015-08-27,922
2015-08-28,906
2015-08-29,832
2015-08-30,919
2015-08-31,937
2015-09-01,908
2015-09-02,868
2015-09-03,771
2015-09-04,752
2015-09-05,824
2015-09-06,961
2015-09-07,959
2015-09-08,987
2015-09-09,973
2015-09-10,981
2015-09-11,1076
2015-09-12,932
2015-09-13,946
2015-09-14,1006
2015-09-15,892
2015-09-16,909
2015-09-17,967
2015-09-18,883
2015-09-19,824
2015-09-20,891
2015-09-21,983
2015-09-22,992
2015-09-23,961
2015-09-24,991
2015-09-25,959
2015-09-26,885
2015-09-27,903
2015-09-28,991
2015-09-29,926
2015-09-30,912
2015-10-01,931
2015-10-02,835
2015-10-03,874
2015-10-04,862
2015-10-05,854
2015-10-06,885
2015-10-07,874
2015-10-08,853
2015-10-09,854
2015-10-10,785
2015-10-11,832
2015-10-12,824
2015-10-13,823
2015-10-14,938
2015-10-15,862
2015-10-16,865
2015-10-17,855
2015-10-18,805
2015-10-19,831
2015-10-20,819
2015-10-21,855
2015-10-22,829
2015-10-23,933
2015-10-24,856
2015-10-25,891
2015-10-26,971
2015-10-27,1132
2015-10-28,1139
2015-10-29,1239
2015-10-30,1285
2015-10-31,1204
2015-11-01,1139
2015-11-02,1306
2015-11-03,1221
2015-11-04,1214
2015-11-05,1247
2015-11-06,1221
2015-11-07,1146
2015-11-08,1165
2015-11-09,1309
2015-11-10,1251
2015-11-11,1226
2015-11-12,1192
2015-11-13,1164
2015-11-14,1224
2015-11-15,1204
2015-11-16,1243
2015-11-17,1286
2015-11-18,1281
2015-11-19,1263
2015-11-20,1053
2015-11-21,1082
2015-11-22,1012
2015-11-23,1118
2015-11-24,1110
2015-11-25,1109
2015-11-26,1128
2015-11-27,1016
2015-11-28,1032
2015-11-29,1064
2015-11-30,987
2015-12-01,959
2015-12-02,916
2015-12-03,968
2015-12-04,925
2015-12-05,958
2015-12-06,1277
2015-12-07,1260
2015-12-08,1096
2015-12-09,1084
2015-12-10,1066
2015-12-11,1113
2015-12-12,1484
2015-12-13,1256
2015-12-14,1478
2015-12-15,1455
2015-12-16,1470
2015-12-17,1645
2015-12-18,1447
2015-12-19,1514
2015-12-20,1473
2015-12-21,1527
2015-12-22,1563
2015-12-23,1470
2015-12-24,1468
2015-12-25,1420
2015-12-26,1475
2015-12-27,1428
2015-12-28,1598
2015-12-29,1538
2015-12-30,1444
2015-12-31,1694
2016-01-01,1521
2016-01-02,1601
2016-01-03,1603
2016-01-04,1610
2016-01-05,1609
2016-01-06,1650
2016-01-07,1689
2016-01-08,1620
2016-01-09,1656
2016-01-10,1814
2016-01-11,1843
2016-01-12,1962
2016-01-13,1747
2016-01-14,1690
2016-01-15,1914
2016-01-16,1499
2016-01-17,1407
2016-01-18,1630
2016-01-19,1515
2016-01-20,1994
2016-01-21,1500
2016-01-22,1562
2016-01-23,1836
2016-01-24,2050
2016-01-25,2181
2016-01-26,2302
2016-01-27,2027
2016-01-28,2019
2016-01-29,1965
2016-01-30,1944
2016-01-31,2038
2016-02-01,1992
2016-02-02,1958
2016-02-03,1968
2016-02-04,1944
2016-02-05,2005
2016-02-06,1903
2016-02-07,2089
2016-02-08,2251
2016-02-09,2421
2016-02-10,3180
2016-02-11,3302
2016-02-12,3232
2016-02-13,3012
2016-02-14,2609
2016-02-15,2711
2016-02-16,2691
2016-02-17,2632
2016-02-18,2662
2016-02-19,2603
2016-02-20,2476
2016-02-21,3428
2016-02-22,2976
2016-02-23,2928
2016-02-24,2817
2016-02-25,3205
2016-02-26,2925
2016-02-27,3021
2016-02-28,3352
2016-02-29,3944
2016-03-01,4270
2016-03-02,4405
2016-03-03,4736
2016-03-04,4775
2016-03-05,5667
2016-03-06,5286
2016-03-07,4409
2016-03-08,5297
2016-03-09,4849
2016-03-10,5366
2016-03-11,5113
2016-03-12,5020
2016-03-13,4926
2016-03-14,4928
2016-03-15,4759
2016-03-16,4438
2016-03-17,4936
2016-03-18,5268
2016-03-19,4374
2016-03-20,4495
2016-03-21,5011
2016-03-22,4427
2016-03-23,4513
2016-03-24,4357
2016-03-25,4210
2016-03-26,4018
2016-03-27,4617
2016-03-28,4699
2016-03-29,5914
2016-03-30,5984
2016-03-31,4763
2016-04-01,4545
2016-04-02,4299
2016-04-03,4256
2016-04-04,4835
2016-04-05,4901
2016-04-06,4864
2016-04-07,4732
2016-04-08,4573
2016-04-09,4863
2016-04-10,5307
2016-04-11,4699
2016-04-12,4980
2016-04-13,5360
2016-04-14,4968
2016-04-15,4546
2016-04-16,4460
2016-04-17,5039
2016-04-18,4978
2016-04-19,4852
2016-04-20,4968
2016-04-21,4917
2016-04-22,5028
2016-04-23,4850
2016-04-24,4992
2016-04-25,5228
2016-04-26,5323
2016-04-27,5276
2016-04-28,5002
2016-04-29,7098
2016-04-30,7606
2016-05-01,6841
2016-05-02,7787
2016-05-03,7213
2016-05-04,6468
2016-05-05,6785
2016-05-06,6760
2016-05-07,6523
2016-05-08,6684
2016-05-09,7062
2016-05-10,7379
2016-05-11,8029
2016-05-12,8699
2016-05-13,10036
2016-05-14,8787
2016-05-15,7791
2016-05-16,7541
2016-05-17,7806
2016-05-18,8765
2016-05-19,9014
2016-05-20,8459
2016-05-21,7384
2016-05-22,6815
2016-05-23,8901
2016-05-24,8472
2016-05-25,8120
2016-05-26,14965
2016-05-27,9165
2016-05-28,8303
2016-05-29,7420
2016-05-30,7649
2016-05-31,8155
2016-06-01,7608
2016-06-02,7259
2016-06-03,7369
2016-06-04,6740
2016-06-05,6785
2016-06-06,7197
2016-06-07,7522
2016-06-08,7507
2016-06-09,7002
2016-06-10,7308
2016-06-11,6474
2016-06-12,7640
2016-06-13,9273
2016-06-14,9341
2016-06-15,8303
2016-06-16,8957
2016-06-17,12521
2016-06-18,11619
2016-06-19,8410
2016-06-20,8400
2016-06-21,8614
2016-06-22,9659
2016-06-23,8096
2016-06-24,7745
2016-06-25,7134
2016-06-26,6979
2016-06-27,7202
2016-06-28,8196
2016-06-29,8042
2016-06-30,7308
2016-07-01,7419
2016-07-02,7639
2016-07-03,7613
2016-07-04,8067
2016-07-05,8227
2016-07-06,8021
2016-07-07,7958
2016-07-08,7905
2016-07-09,7525
2016-07-10,7242
2016-07-11,7604
2016-07-12,7523
2016-07-13,7449
2016-07-14,8005
2016-07-15,7832
2016-07-16,6269
2016-07-17,6263
2016-07-18,7144
2016-07-19,17368
2016-07-20,8953
2016-07-21,8622
2016-07-22,10030
2016-07-23,9123
2016-07-24,13984
2016-07-25,11286
2016-07-26,17084
2016-07-27,13373
2016-07-28,12169
2016-07-29,9548
2016-07-30,8633
2016-07-31,9757
2016-08-01,10119
2016-08-02,12422
2016-08-03,10416
2016-08-04,9968
2016-08-05,8687
2016-08-06,8466
2016-08-07,8538
2016-08-08,9365
2016-08-09,10122
2016-08-10,9194
2016-08-11,10741
2016-08-12,8534
2016-08-13,7842
2016-08-14,8490
2016-08-15,8482
2016-08-16,9500
2016-08-17,8552
2016-08-18,8509
2016-08-19,8504
2016-08-20,8850
2016-08-21,8496
2016-08-22,7860
2016-08-23,9641
2016-08-24,8742
2016-08-25,9574
2016-08-26,8791
2016-08-27,9372
2016-08-28,8734
2016-08-29,9360
2016-08-30,8905
2016-08-31,9708
2016-09-01,10628
2016-09-02,9573
2016-09-03,8926
2016-09-04,8752
2016-09-05,8786
2016-09-06,8803
2016-09-07,8801
2016-09-08,10224
2016-09-09,8874
2016-09-10,8504
2016-09-11,9101
2016-09-12,9050
2016-09-13,9158
2016-09-14,9359
2016-09-15,9053
2016-09-16,9813
2016-09-17,9428
2016-09-18,8122
2016-09-19,7720
2016-09-20,12278
2016-09-21,12116
2016-09-22,7977
2016-09-23,8676
2016-09-24,9097
2016-09-25,8715
2016-09-26,8422
2016-09-27,8771
2016-09-28,8782
2016-09-29,9892
2016-09-30,10166
2016-10-01,8327
2016-10-02,10162
2016-10-03,8812
2016-10-04,6486
2016-10-05,6655
2016-10-06,7481
2016-10-07,8583
2016-10-08,9304
2016-10-09,10442
2016-10-10,10329
2016-10-11,9033
2016-10-12,5181
2016-10-13,3592
2016-10-14,7683
2016-10-15,6333
2016-10-16,7519
2016-10-17,8122
2016-10-18,11337
2016-10-19,6657
2016-10-20,9615
2016-10-21,9401
2016-10-22,9860
2016-10-23,9426
2016-10-24,8680
2016-10-25,8489
2016-10-26,8701
2016-10-27,8854
2016-10-28,9055
2016-10-29,8484
2016-10-30,7794
2016-10-31,10285
2016-11-01,11202
2016-11-02,8310
2016-11-03,9601
2016-11-04,6631
2016-11-05,8052
2016-11-06,6994
2016-11-07,8611
2016-11-08,8312
2016-11-09,8666
2016-11-10,7185
2016-11-11,8360
2016-11-12,7994
2016-11-13,9142
2016-11-14,7288
2016-11-15,7956
2016-11-16,7521
2016-11-17,7528
2016-11-18,7727
2016-11-19,7206
2016-11-20,7551
2016-11-21,7687
2016-11-22,21521
2016-11-23,29855
2016-11-24,5060
2016-11-25,16556
2016-11-26,5535
2016-11-27,5834
2016-11-28,7194
2016-11-29,6654
2016-11-30,6443
2016-12-01,6427
2016-12-02,7072
2016-12-03,7723
2016-12-04,8996
2016-12-05,7159
2016-12-06,9387
2016-12-07,6330
2016-12-08,6506
2016-12-09,8296
2016-12-10,6744
2016-12-11,6711
2016-12-12,7391
2016-12-13,6828
2016-12-14,6980
2016-12-15,7658
2016-12-16,7007
2016-12-17,6827
2016-12-18,6643
2016-12-19,7494
2016-12-20,7406
2016-12-21,8414
2016-12-22,8007
2016-12-23,7354
2016-12-24,6805
2016-12-25,6134
2016-12-26,6206
2016-12-27,6844
2016-12-28,7315
2016-12-29,8208
2016-12-30,7504
2016-12-31,7928
2017-01-01,6215
2017-01-02,7320
2017-01-03,8236
2017-01-04,10535
2017-01-05,9962
2017-01-06,9876
2017-01-07,8383
2017-01-08,7518
2017-01-09,9651
2017-01-10,8032
2017-01-11,8866
2017-01-12,8331
2017-01-13,7312
2017-01-14,7066
2017-01-15,6935
2017-01-16,8462
2017-01-17,8101
2017-01-18,7627
2017-01-19,8351
2017-01-20,8610
2017-01-21,8005
2017-01-22,7460
2017-01-23,7886
2017-01-24,8113
2017-01-25,7357
2017-01-26,7551
2017-01-27,7480
2017-01-28,7166
2017-01-29,7070
2017-01-30,7750
2017-01-31,7962
2017-02-01,8007
2017-02-02,8351
2017-02-03,7849
2017-02-04,8558
2017-02-05,8824
2017-02-06,8803
2017-02-07,8368
2017-02-08,8493
2017-02-09,8611
2017-02-10,9738
2017-02-11,7934
2017-02-12,8364
2017-02-13,10795
2017-02-14,10644
2017-02-15,10302
2017-02-16,9559
2017-02-17,9534
2017-02-18,10148
2017-02-19,8820
2017-02-20,9324
2017-02-21,9468
2017-02-22,9407
2017-02-23,9223
2017-02-24,10356
2017-02-25,9811
2017-02-26,9768
2017-02-27,10726
2017-02-28,13065
2017-03-01,12956
2017-03-02,20763
2017-03-03,15189
2017-03-04,13662
2017-03-05,13392
2017-03-06,13416
2017-03-07,12226
2017-03-08,12418
2017-03-09,13552
2017-03-10,15244
2017-03-11,14435
2017-03-12,16456
2017-03-13,22414
2017-03-14,18759
2017-03-15,19145
2017-03-16,28747
2017-03-17,28114
2017-03-18,23466
2017-03-19,19650
2017-03-20,19750
2017-03-21,19936
2017-03-22,18371
2017-03-23,18421
2017-03-24,22906
2017-03-25,21007
2017-03-26,18046
2017-03-27,20273
2017-03-28,19138
2017-03-29,19798
2017-03-30,24063
2017-03-31,29770
2017-04-01,19756
2017-04-02,22290
2017-04-03,28694
2017-04-04,21500
2017-04-05,22654
2017-04-06,25954
2017-04-07,18867
2017-04-08,16882
2017-04-09,15532
2017-04-10,18619
2017-04-11,18059
2017-04-12,18884
2017-04-13,20635
2017-04-14,18918
2017-04-15,17673
2017-04-16,14502
2017-04-17,16020
2017-04-18,18805
2017-04-19,18752
2017-04-20,19655
2017-04-21,17147
2017-04-22,16069
2017-04-23,16496
2017-04-24,19502
2017-04-25,18606
2017-04-26,19224
2017-04-27,26160
2017-04-28,24051
2017-04-29,21045
2017-04-30,22514
2017-05-01,25727
2017-05-02,25663
2017-05-03,22349
2017-05-04,29102
2017-05-05,28644
2017-05-06,23697
2017-05-07,27348
2017-05-08,34380
2017-05-09,29984
2017-05-10,27201
2017-05-11,29621
2017-05-12,27204
2017-05-13,22962
2017-05-14,24166
2017-05-15,29778
2017-05-16,29912
2017-05-17,36260
2017-05-18,35240
2017-05-19,45580
2017-05-20,32396
2017-05-21,34115
2017-05-22,42877
2017-05-23,45205
2017-05-24,46857
2017-05-25,46681
2017-05-26,44512
2017-05-27,36641
2017-05-28,34006
2017-05-29,38846
2017-05-30,47009
2017-05-31,59757
2017-06-01,59306
2017-06-02,45242
2017-06-03,44852
2017-06-04,44675
2017-06-05,52198
2017-06-06,51733
2017-06-07,50380
2017-06-08,45636
2017-06-09,56111
2017-06-10,55630
2017-06-11,65038
2017-06-12,87611
2017-06-13,80535
2017-06-14,70478
2017-06-15,73970
2017-06-16,64462
2017-06-17,64941
2017-06-18,67035
2017-06-19,72363
2017-06-20,82461
2017-06-21,78696
2017-06-22,78629
2017-06-23,76808
2017-06-24,64750
2017-06-25,61704
2017-06-26,96132
2017-06-27,73170
2017-06-28,67309
2017-06-29,66906
2017-06-30,69077
2017-07-01,61810
2017-07-02,57685
2017-07-03,71981
2017-07-04,68323
2017-07-05,63236
2017-07-06,62128
2017-07-07,78573
2017-07-08,56273
2017-07-09,50440
2017-07-10,69937
2017-07-11,71626
2017-07-12,64847
2017-07-13,54112
2017-07-14,56441
2017-07-15,58345
2017-07-16,55207
2017-07-17,59065
2017-07-18,65045
2017-07-19,62659
2017-07-20,60179
2017-07-21,53725
2017-07-22,44995
2017-07-23,76379
2017-07-24,57164
2017-07-25,56353
2017-07-26,51271
2017-07-27,56495
2017-07-28,56924
2017-07-29,46377
2017-07-30,42760
2017-07-31,63824
2017-08-01,55398
2017-08-02,59645
2017-08-03,56942
2017-08-04,59466
2017-08-05,63977
2017-08-06,59870
2017-08-07,68252
2017-08-08,78101
2017-08-09,74809
2017-08-10,83309
2017-08-11,80331
2017-08-12,72223
2017-08-13,71988
2017-08-14,84474
2017-08-15,100957
2017-08-16,97675
2017-08-17,93763
2017-08-18,106073
2017-08-19,78146
2017-08-20,72355
2017-08-21,94532
2017-08-22,78965
2017-08-23,93863
2017-08-24,76807
2017-08-25,83579
2017-08-26,63044
2017-08-27,61659
2017-08-28,81376
2017-08-29,89415
2017-08-30,86451
2017-08-31,97311
2017-09-01,91551
2017-09-02,74440
2017-09-03,64162
2017-09-04,111245
2017-09-05,98296
2017-09-06,97771
2017-09-07,92405
2017-09-08,89209
2017-09-09,71466
2017-09-10,63967
2017-09-11,84924
2017-09-12,104799
2017-09-13,91087
2017-09-14,104156
2017-09-15,112404
2017-09-16,75067
2017-09-17,54724
2017-09-18,78728
2017-09-19,83741
2017-09-20,78602
2017-09-21,70337
2017-09-22,61397
2017-09-23,64593
2017-09-24,60628
2017-09-25,72096
2017-09-26,65866
2017-09-27,66007
2017-09-28,70693
2017-09-29,80950
2017-09-30,66262
2017-10-01,58841
2017-10-02,68626
2017-10-03,73872
2017-10-04,67153
2017-10-05,69276
2017-10-06,65575
2017-10-07,64998
2017-10-08,64669
2017-10-09,67497
2017-10-10,79538
2017-10-11,85080
2017-10-12,80577
2017-10-13,97007
2017-10-14,76091
2017-10-15,70222
2017-10-16,69418
2017-10-17,107658
2017-10-18,87285
2017-10-19,74876
2017-10-20,83291
2017-10-21,80942
2017-10-22,116528
2017-10-23,90675
2017-10-24,87584
2017-10-25,76485
2017-10-26,75203
2017-10-27,74982
2017-10-28,70593
2017-10-29,75880
2017-10-30,82496
2017-10-31,86159
2017-11-01,102532
2017-11-02,109636
2017-11-03,82490
2017-11-04,69153
2017-11-05,64390
2017-11-06,75839
2017-11-07,80849
2017-11-08,90653
2017-11-09,88968
2017-11-10,90250
2017-11-11,80996
2017-11-12,96476
2017-11-13,89744
2017-11-14,99621
2017-11-15,116875
2017-11-16,96283
2017-11-17,110199
2017-11-18,89876
2017-11-19,94162
2017-11-20,97779
2017-11-21,115203
2017-11-22,116386
2017-11-23,112663
2017-11-24,113371
2017-11-25,110395
2017-11-26,109848
2017-11-27,137182
2017-11-28,144672
2017-11-29,155036
2017-11-30,142369
2017-12-01,119520
2017-12-02,126345
2017-12-03,144517
2017-12-04,148428
2017-12-05,154339
2017-12-06,206861
2017-12-07,144059
2017-12-08,153970
2017-12-09,137471
2017-12-10,151351
2017-12-11,186839
2017-12-12,220097
2017-12-13,228154
2017-12-14,242663
2017-12-15,228086
2017-12-16,209722
2017-12-17,206613
2017-12-18,222145
2017-12-19,259637
2017-12-20,269591
2017-12-21,282179
2017-12-22,331476
2017-12-23,238185
2017-12-24,178206
2017-12-25,171340
2017-12-26,218335
2017-12-27,227399
2017-12-28,232756
2017-12-29,309383
2017-12-30,335408
2017-12-31,239370
2018-01-01,238831
2018-01-02,338737
2018-01-03,328470
2018-01-04,385820
2018-01-05,351888
2018-01-06,336297
2018-01-07,322676
2018-01-08,328873
2018-01-09,400262
2018-01-10,338718
2018-01-11,353714
2018-01-12,308486
2018-01-13,313712
2018-01-14,313992
2018-01-15,389093
2018-01-16,411824
2018-01-17,407291
2018-01-18,378632
2018-01-19,275258
2018-01-20,220736
2018-01-21,383184
2018-01-22,264387
2018-01-23,237318
2018-01-24,220644
2018-01-25,183316
2018-01-26,260624
2018-01-27,221140
2018-01-28,208711
2018-01-29,223782
2018-01-30,228557
2018-01-31,227046
2018-02-01,274471
2018-02-02,265389
2018-02-03,203193
2018-02-04,228726
2018-02-05,226138
2018-02-06,232852
2018-02-07,212840
2018-02-08,164334
2018-02-09,170942
2018-02-10,183758
2018-02-11,177222
2018-02-12,187925
2018-02-13,167614
2018-02-14,185958
2018-02-15,191795
2018-02-16,154744
2018-02-17,150489
2018-02-18,151568
2018-02-19,157406
2018-02-20,174939
2018-02-21,170747
2018-02-22,150997
2018-02-23,146031
2018-02-24,125580
2018-02-25,123708
2018-02-26,160621
2018-02-27,149052
2018-02-28,168955
2018-03-01,158446
2018-03-02,153095
2018-03-03,126049
2018-03-04,124264
2018-03-05,159312
2018-03-06,175145
2018-03-07,273320
2018-03-08,156340
2018-03-09,148560
2018-03-10,131001
2018-03-11,103767
2018-03-12,126614
2018-03-13,138780
2018-03-14,162984
2018-03-15,139235
2018-03-16,122008
2018-03-17,115096
2018-03-18,124044
2018-03-19,149215
2018-03-20,118612
2018-03-21,144353
2018-03-22,128040
2018-03-23,186064
2018-03-24,171319
2018-03-25,100067
2018-03-26,123810
2018-03-27,122304
2018-03-28,115385
2018-03-29,129940
2018-03-30,141191
2018-03-31,108059
2018-04-01,98070
2018-04-02,110509
2018-04-03,128419
2018-04-04,115199
2018-04-05,112086
2018-04-06,108836
2018-04-07,90293
2018-04-08,87319
2018-04-09,110727
2018-04-10,109128
2018-04-11,115396
2018-04-12,136672
2018-04-13,142008
2018-04-14,108431
2018-04-15,104049
2018-04-16,123686
2018-04-17,125548
2018-04-18,125980
2018-04-19,135206
2018-04-20,145673
2018-04-21,138719
2018-04-22,147816
2018-04-23,175781
2018-04-24,162008
2018-04-25,150045
2018-04-26,136177
2018-04-27,141132
2018-04-28,128569
2018-04-29,133429
2018-04-30,154613
2018-05-01,136477
2018-05-02,161521
2018-05-03,179989
2018-05-04,444027
2018-05-05,195410
2018-05-06,139290
2018-05-07,146209
2018-05-08,162457
2018-05-09,148126
2018-05-10,150010
2018-05-11,164825
2018-05-12,133011
2018-05-13,121102
2018-05-14,154180
2018-05-15,145857
2018-05-16,133149
2018-05-17,145245
2018-05-18,139590
2018-05-19,135123
2018-05-20,126836
2018-05-21,142923
2018-05-22,152736
2018-05-23,156802
2018-05-24,146078
2018-05-25,138837
2018-05-26,115504
2018-05-27,115352
2018-05-28,158067
2018-05-29,137470
2018-05-30,138039
2018-05-31,155140
2018-06-01,145873
2018-06-02,136451
2018-06-03,123133
2018-06-04,150165
2018-06-05,137846
2018-06-06,138671
2018-06-07,142393
2018-06-08,135166
2018-06-09,129701
2018-06-10,152461
2018-06-11,159657
2018-06-12,135411
2018-06-13,132461
2018-06-14,139504
2018-06-15,153210
2018-06-16,105503
2018-06-17,104883
2018-06-18,116360
2018-06-19,137535
2018-06-20,146082
2018-06-21,146058
2018-06-22,162709
2018-06-23,112363
2018-06-24,137640
2018-06-25,190407
2018-06-26,172474
2018-06-27,131677
2018-06-28,130381
2018-06-29,156904
2018-06-30,95647
2018-07-01,78678
2018-07-02,98749
2018-07-03,103328
2018-07-04,93729
2018-07-05,108997
2018-07-06,88401
2018-07-07,90259
2018-07-08,104751
2018-07-09,112857
2018-07-10,112709
2018-07-11,107582
2018-07-12,92727
2018-07-13,92359
2018-07-14,106685
2018-07-15,92221
2018-07-16,126014
2018-07-17,117034
2018-07-18,131997
2018-07-19,114504
2018-07-20,118314
2018-07-21,99646
2018-07-22,96725
2018-07-23,109436
2018-07-24,148680
2018-07-25,136271
2018-07-26,127347
2018-07-27,110898
2018-07-28,95184
2018-07-29,101246
2018-07-30,125837
2018-07-31,136621
2018-08-01,126011
2018-08-02,122124
2018-08-03,130237
2018-08-04,94916
2018-08-05,101052
2018-08-06,116527
2018-08-07,127431
2018-08-08,144148
2018-08-09,124231
2018-08-10,134300
2018-08-11,113006
2018-08-12,96632
2018-08-13,116327
2018-08-14,129131
2018-08-15,112662
2018-08-16,114565
2018-08-17,144910
2018-08-18,92287
2018-08-19,90201
2018-08-20,116104
2018-08-21,94751
2018-08-22,102268
2018-08-23,102025
2018-08-24,120966
2018-08-25,115353
2018-08-26,114437
2018-08-27,121746
2018-08-28,114949
2018-08-29,105415
2018-08-30,99771
2018-08-31,115326
2018-09-01,115378
2018-09-02,96202
2018-09-03,117410
2018-09-04,124538
2018-09-05,134846
2018-09-06,130344
2018-09-07,109577
2018-09-08,85416
2018-09-09,92335
2018-09-10,112700
2018-09-11,98873
2018-09-12,108203
2018-09-13,111397
2018-09-14,98962
2018-09-15,81481
2018-09-16,76319
2018-09-17,95004
2018-09-18,88737
2018-09-19,90684
2018-09-20,97742
2018-09-21,113233
2018-09-22,90608
2018-09-23,83240
2018-09-24,90661
2018-09-25,95698
2018-09-26,92003
2018-09-27,94793
2018-09-28,89115
2018-09-29,80682
2018-09-30,92171
2018-10-01,85539
2018-10-02,82893
2018-10-03,91691
2018-10-04,92445
2018-10-05,108194
2018-10-06,120107
2018-10-07,82477
2018-10-08,99916
2018-10-09,92022
2018-10-10,99056
2018-10-11,105459
2018-10-12,88186
2018-10-13,91234
2018-10-14,73884
2018-10-15,100262
2018-10-16,103036
2018-10-17,107455
2018-10-18,100600
2018-10-19,97127
2018-10-20,90199
2018-10-21,76985
2018-10-22,97375
2018-10-23,102896
2018-10-24,108744
2018-10-25,107625
2018-10-26,109526
2018-10-27,88088
2018-10-28,77576
2018-10-29,117154
2018-10-30,108465
2018-10-31,110002
2018-11-01,104118
2018-11-02,94494
2018-11-03,86801
2018-11-04,85367
2018-11-05,108088
2018-11-06,101702
2018-11-07,93802
2018-11-08,93959
2018-11-09,108709
2018-11-10,85187
2018-11-11,94475
2018-11-12,104737
2018-11-13,97553
2018-11-14,117545
2018-11-15,108393
2018-11-16,96889
2018-11-17,83325
2018-11-18,77210
2018-11-19,150092
2018-11-20,123905
2018-11-21,101076
2018-11-22,100555
2018-11-23,99596
2018-11-24,85605
2018-11-25,97495
2018-11-26,100590
2018-11-27,102940
2018-11-28,100330
2018-11-29,95490
2018-11-30,103109
2018-12-01,83467
2018-12-02,87595
2018-12-03,98170
2018-12-04,93948
2018-12-05,102893
2018-12-06,98823
2018-12-07,117148
2018-12-08,127920
2018-12-09,101923
2018-12-10,98928
2018-12-11,90552
2018-12-12,93623
2018-12-13,93242
2018-12-14,102789
2018-12-15,115628
2018-12-16,117640
2018-12-17,97785
2018-12-18,94784
2018-12-19,114619
2018-12-20,110230
2018-12-21,101592
2018-12-22,79331
2018-12-23,100235
2018-12-24,104265
2018-12-25,100789
2018-12-26,105041
2018-12-27,105697
2018-12-28,95916
2018-12-29,111648
2018-12-30,88398
2018-12-31,91797
2019-01-01,78978
2019-01-02,97980
2019-01-03,95245
2019-01-04,98020
2019-01-05,92098
2019-01-06,90787
2019-01-07,107447
2019-01-08,113857
2019-01-09,107211
2019-01-10,109426
2019-01-11,109032
2019-01-12,80948
2019-01-13,79074
2019-01-14,139521
2019-01-15,122486
2019-01-16,86982
2019-01-17,83174
2019-01-18,85089
2019-01-19,81801
2019-01-20,74073
2019-01-21,84627
2019-01-22,81477
2019-01-23,85947
2019-01-24,84470
2019-01-25,82061
2019-01-26,74691
2019-01-27,78186
2019-01-28,111422
2019-01-29,98168
2019-01-30,86356
2019-01-31,87642
2019-02-01,87680
2019-02-02,72746
2019-02-03,67456
2019-02-04,64224
2019-02-05,65291
2019-02-06,67012
2019-02-07,72626
2019-02-08,89194
2019-02-09,70152
2019-02-10,69083
2019-02-11,78456
2019-02-12,75046
2019-02-13,72868
2019-02-14,75353
2019-02-15,76663
2019-02-16,72220
2019-02-17,71750
2019-02-18,105693
2019-02-19,97785
2019-02-20,91884
2019-02-21,86819
2019-02-22,83812
2019-02-23,87981
2019-02-24,90798
2019-02-25,88331
2019-02-26,88074
2019-02-27,95668
2019-02-28,88124
2019-03-01,97083
2019-03-02,91544
2019-03-03,83167
2019-03-04,88122
2019-03-05,95812
2019-03-06,99192
2019-03-07,101003
2019-03-08,92670
2019-03-09,97010
2019-03-10,80360
2019-03-11,88399
2019-03-12,103575
2019-03-13,97022
2019-03-14,94025
2019-03-15,99920
2019-03-16,84142
2019-03-17,78911
2019-03-18,104786
2019-03-19,101220
2019-03-20,103676
2019-03-21,99839
2019-03-22,101693
2019-03-23,96824
2019-03-24,87804
2019-03-25,127242
2019-03-26,121068
2019-03-27,104186
2019-03-28,99931
2019-03-29,106173
2019-03-30,100638
2019-03-31,97813
2019-04-01,118431
2019-04-02,161677
2019-04-03,147659
2019-04-04,116776
2019-04-05,126478
2019-04-06,108796
2019-04-07,112600
2019-04-08,132584
2019-04-09,138974
2019-04-10,120843
2019-04-11,144137
2019-04-12,180913
2019-04-13,138122
2019-04-14,95863
2019-04-15,119667
2019-04-16,108524
2019-04-17,109967
2019-04-18,123565
2019-04-19,118802
2019-04-20,163641
2019-04-21,111521
2019-04-22,110550
2019-04-23,140955
2019-04-24,135880
2019-04-25,115988
2019-04-26,114664
2019-04-27,98529
2019-04-28,97177
2019-04-29,109199
2019-04-30,118107
2019-05-01,109626
2019-05-02,99420
2019-05-03,107892
2019-05-04,104111
2019-05-05,99323
2019-05-06,114111
2019-05-07,115417
2019-05-08,113901
2019-05-09,123976
2019-05-10,117707
2019-05-11,122459
2019-05-12,118369
2019-05-13,136866
2019-05-14,151990
2019-05-15,160780
2019-05-16,175439
2019-05-17,144727
2019-05-18,124351
2019-05-19,130040
2019-05-20,144788
2019-05-21,150728
2019-05-22,140585
2019-05-23,137391
2019-05-24,151751
2019-05-25,122126
2019-05-26,121712
2019-05-27,143260
2019-05-28,130227
2019-05-29,128405
2019-05-30,143698
2019-05-31,137186
2019-06-01,166481
2019-06-02,129572
2019-06-03,124318
2019-06-04,150656
2019-06-05,128689
2019-06-06,116860
2019-06-07,123573
2019-06-08,106991
2019-06-09,147257
2019-06-10,138633
2019-06-11,182765
2019-06-12,287113
2019-06-13,138941
2019-06-14,149104
2019-06-15,139657
2019-06-16,253118
2019-06-17,136134
2019-06-18,120717
2019-06-19,128535
2019-06-20,118027
2019-06-21,150834
2019-06-22,145883
2019-06-23,123202
2019-06-24,139846
2019-06-25,137000
2019-06-26,178925
2019-06-27,152992
2019-06-28,133462
2019-06-29,113671
2019-06-30,105982
2019-07-01,121413
2019-07-02,164619
2019-07-03,142802
2019-07-04,125049
2019-07-05,115962
2019-07-06,101283
2019-07-07,94915
2019-07-08,121790
2019-07-09,137213
2019-07-10,126215
2019-07-11,118658
2019-07-12,112850
2019-07-13,97585
2019-07-14,100158
2019-07-15,134026
2019-07-16,101428
2019-07-17,122465
2019-07-18,107761
2019-07-19,112729
2019-07-20,90789
2019-07-21,87349
2019-07-22,99396
2019-07-23,93614
2019-07-24,89306
2019-07-25,89505
2019-07-26,102860
2019-07-27,100483
2019-07-28,103418
2019-07-29,108631
2019-07-30,132015
2019-07-31,101886
2019-08-01,96802
2019-08-02,102610
2019-08-03,86487
2019-08-04,83065
2019-08-05,134111
2019-08-06,148340
2019-08-07,118609
2019-08-08,108712
2019-08-09,123611
2019-08-10,97212
2019-08-11,95579
2019-08-12,133290
2019-08-13,100637
2019-08-14,107270
2019-08-15,103353
2019-08-16,127351
2019-08-17,98157
2019-08-18,95286
2019-08-19,104552
2019-08-20,106412
2019-08-21,108028
2019-08-22,101593
2019-08-23,92121
2019-08-24,84346
2019-08-25,84176
2019-08-26,92001
2019-08-27,99078
2019-08-28,94648
2019-08-29,101572
2019-08-30,98499
2019-08-31,88034
2019-09-01,82437
2019-09-02,97249
2019-09-03,94539
2019-09-04,94371
2019-09-05,103272
2019-09-06,95905
2019-09-07,84647
2019-09-08,84576
2019-09-09,98011
2019-09-10,89992
2019-09-11,96149
2019-09-12,97152
2019-09-13,83819
2019-09-14,84523
2019-09-15,88532
2019-09-16,101096
2019-09-17,99971
2019-09-18,104865
2019-09-19,103856
2019-09-20,105492
2019-09-21,82960
2019-09-22,80766
2019-09-23,84086
2019-09-24,91439
2019-09-25,85443
2019-09-26,89003
2019-09-27,78727
2019-09-28,71304
2019-09-29,73312
2019-09-30,87184
2019-10-01,83695
2019-10-02,92396
2019-10-03,78146
2019-10-04,73354
2019-10-05,74292
2019-10-06,67724
2019-10-07,77559
2019-10-08,81358
2019-10-09,102935
2019-10-10,101216
2019-10-11,103252
2019-10-12,85820
2019-10-13,72637
2019-10-14,83075
2019-10-15,83985
2019-10-16,81017
2019-10-17,76094
2019-10-18,83342
2019-10-19,72011
2019-10-20,75657
2019-10-21,81635
2019-10-22,81062
2019-10-23,85226
2019-10-24,83014
2019-10-25,96902
2019-10-26,93414
2019-10-27,80618
2019-10-28,91184
2019-10-29,89817
2019-10-30,85735
2019-10-31,83115
2019-11-01,90165
2019-11-02,74460
2019-11-03,72170
2019-11-04,83835
2019-11-05,95838
2019-11-06,80504
2019-11-07,81032
2019-11-08,85337
2019-11-09,70690
2019-11-10,76714
2019-11-11,84446
2019-11-12,90354
2019-11-13,84060
2019-11-14,82728
2019-11-15,81670
2019-11-16,73245
2019-11-17,80203
2019-11-18,85446
2019-11-19,77402
2019-11-20,84408
2019-11-21,80751
2019-11-22,116470
2019-11-23,73829
2019-11-24,64210
2019-11-25,81908
2019-11-26,78800
2019-11-27,74444
2019-11-28,74341
2019-11-29,96356
2019-11-30,71655
2019-12-01,65449
2019-12-02,81884
2019-12-03,76663
2019-12-04,80210
2019-12-05,78345
2019-12-06,71273
2019-12-07,62206
2019-12-08,58763
2019-12-09,80722
2019-12-10,69416
2019-12-11,78779
2019-12-12,66464
2019-12-13,70992
2019-12-14,59106
2019-12-15,62710
2019-12-16,70065
2019-12-17,70454
2019-12-18,73630
2019-12-19,71469
2019-12-20,65388
2019-12-21,69421
2019-12-22,61353
2019-12-23,73192
2019-12-24,65945
2019-12-25,63946
2019-12-26,62363
2019-12-27,69437
2019-12-28,66950
2019-12-29,61642
2019-12-30,82259
2019-12-31,62382
2020-01-01,52535
2020-01-02,60559
2020-01-03,74946
2020-01-04,76982
2020-01-05,66994
2020-01-06,79066
2020-01-07,83918
2020-01-08,89255
2020-01-09,85564
2020-01-10,77540
2020-01-11,72570
2020-01-12,68163
2020-01-13,73483
2020-01-14,101903
2020-01-15,92256
2020-01-16,97066
2020-01-17,87826
2020-01-18,92553
2020-01-19,88809
2020-01-20,85479
2020-01-21,83456
2020-01-22,75074
2020-01-23,107050
2020-01-24,76084
2020-01-25,65535
2020-01-26,63962
2020-01-27,75960
2020-01-28,82908
2020-01-29,82785
2020-01-30,80128
2020-01-31,78317
2020-02-01,74900
2020-02-02,74058
2020-02-03,108373
2020-02-04,80658
2020-02-05,102705
2020-02-06,96604
2020-02-07,95630
2020-02-08,100116
2020-02-09,107765
2020-02-10,94545
2020-02-11,107536
2020-02-12,127531
2020-02-13,121636
2020-02-14,115216
2020-02-15,117129
2020-02-16,108091
2020-02-17,117835
2020-02-18,121237
2020-02-19,105034
2020-02-20,102339
2020-02-21,108681
2020-02-22,124141
2020-02-23,135527
2020-02-24,117926
2020-02-25,93716
2020-02-26,96715
2020-02-27,107693
2020-02-28,100628
2020-02-29,96441
2020-03-01,78028
2020-03-02,109856
2020-03-03,88259
2020-03-04,97237
2020-03-05,107693
2020-03-06,96400
2020-03-07,90572
2020-03-08,85604
2020-03-09,104982
2020-03-10,95228
2020-03-11,94344
2020-03-12,103120
2020-03-13,111842
2020-03-14,96942
2020-03-15,93442
2020-03-16,110632
2020-03-17,101895
2020-03-18,96725
2020-03-19,109206
2020-03-20,105256
2020-03-21,90200
2020-03-22,88297
2020-03-23,99682
2020-03-24,103300
2020-03-25,99629
2020-03-26,120515
2020-03-27,119609
2020-03-28,99771
2020-03-29,92793
2020-03-30,103476
2020-03-31,91399
2020-04-01,95983
2020-04-02,96681
2020-04-03,98726
2020-04-04,91980
2020-04-05,86129
2020-04-06,108795
2020-04-07,112834
2020-04-08,181816
2020-04-09,113109
2020-04-10,110508
2020-04-11,103465
2020-04-12,111746
2020-04-13,134309
2020-04-14,163467
2020-04-15,141088
2020-04-16,120847
2020-04-17,139879
2020-04-18,144662
2020-04-19,137769
2020-04-20,138185
2020-04-21,126180
2020-04-22,114550
2020-04-23,135625
2020-04-24,137048
2020-04-25,129247
2020-04-26,122480
2020-04-27,124118
2020-04-28,129181
2020-04-29,147085
2020-04-30,152275
2020-05-01,144334
2020-05-02,147089
2020-05-03,159532
2020-05-04,124048
2020-05-05,132198
2020-05-06,143734
2020-05-07,135243
2020-05-08,143835
2020-05-09,154406
2020-05-10,139324
2020-05-11,130890
2020-05-12,128864
2020-05-13,126700
2020-05-14,127151
2020-05-15,137008
2020-05-16,130475
2020-05-17,127164
2020-05-18,130047
2020-05-19,135642
2020-05-20,132588
2020-05-21,142508
2020-05-22,135385
2020-05-23,143281
2020-05-24,132779
2020-05-25,124858
2020-05-26,132470
2020-05-27,134908
2020-05-28,141421
2020-05-29,166798
2020-05-30,146862
2020-05-31,138822
2020-06-01,144122
2020-06-02,168932
2020-06-03,157798
2020-06-04,161394
2020-06-05,156193
2020-06-06,145898
2020-06-07,127178
2020-06-08,143373
2020-06-09,145047
2020-06-10,141346
2020-06-11,146660
2020-06-12,143930
2020-06-13,145595
2020-06-14,133270
2020-06-15,138963
2020-06-16,137799
2020-06-17,135578
2020-06-18,156129
2020-06-19,140175
2020-06-20,141755
2020-06-21,137754
2020-06-22,151464
2020-06-23,154767
2020-06-24,151986
2020-06-25,152132
2020-06-26,149012
2020-06-27,147894
2020-06-28,172874
2020-06-29,231915
2020-06-30,183385
2020-07-01,193611
2020-07-02,187673
2020-07-03,172250
2020-07-04,175414
2020-07-05,168162
2020-07-06,175765
2020-07-07,187496
2020-07-08,176493
2020-07-09,179898
2020-07-10,180361
2020-07-11,185573
2020-07-12,174064
2020-07-13,185141
2020-07-14,182066
2020-07-15,214218
2020-07-16,184720
2020-07-17,181428
2020-07-18,172755
2020-07-19,194070
2020-07-20,205084
2020-07-21,170293
2020-07-22,186052
2020-07-23,195481
2020-07-24,184941
2020-07-25,190412
2020-07-26,199623
2020-07-27,218979
2020-07-28,236495
2020-07-29,192517
2020-07-30,196955
2020-07-31,192701
2020-08-01,215358
2020-08-02,202057
2020-08-03,209167
2020-08-04,223057
2020-08-05,215699
2020-08-06,222103
2020-08-07,200363
2020-08-08,193744
2020-08-09,180974
2020-08-10,180156
2020-08-11,180120
2020-08-12,148137
2020-08-13,164589
2020-08-14,182646
2020-08-15,185587
2020-08-16,179629
2020-08-17,179927
2020-08-18,176572
2020-08-19,186589
2020-08-20,187453
2020-08-21,180854
2020-08-22,165243
2020-08-23,157777
2020-08-24,161072
2020-08-25,165196
2020-08-26,169616
2020-08-27,169304
2020-08-28,163964
2020-08-29,152246
2020-08-30,142505
2020-08-31,167009
2020-09-01,167818
2020-09-02,152081
2020-09-03,153107
2020-09-04,183743
2020-09-05,133543
2020-09-06,154052
2020-09-07,152825
2020-09-08,152939
2020-09-09,135451
2020-09-10,129899
2020-09-11,125820
2020-09-12,126617
2020-09-13,118745
2020-09-14,135567
2020-09-15,146684
2020-09-16,127525
2020-09-17,182589
2020-09-18,191322
2020-09-19,171154
2020-09-20,200376
2020-09-21,184043
2020-09-22,166328
2020-09-23,181302
2020-09-24,183795
2020-09-25,163664
2020-09-26,175635
2020-09-27,180702
2020-09-28,166153
2020-09-29,157474
2020-09-30,148030
2020-10-01,172132
2020-10-02,169266
2020-10-03,154376
2020-10-04,178349
2020-10-05,148315
2020-10-06,158578
2020-10-07,161421
2020-10-08,158945
2020-10-09,170005
2020-10-10,160993
2020-10-11,146226
2020-10-12,152804
2020-10-13,179992
2020-10-14,176776
2020-10-15,276853
2020-10-16,247132
2020-10-17,192434
2020-10-18,133276
2020-10-19,159182
2020-10-20,147613
2020-10-21,176913
2020-10-22,188255
2020-10-23,170736
2020-10-24,172898
2020-10-25,147295
2020-10-26,162994
2020-10-27,161581
2020-10-28,176615
2020-10-29,158009
2020-10-30,163756
2020-10-31,180541
2020-11-01,175238
2020-11-02,180350
2020-11-03,177858
2020-11-04,239552
2020-11-05,194887
2020-11-06,211711
2020-11-07,199183
2020-11-08,179032
2020-11-09,182393
2020-11-10,174106
2020-11-11,178679
2020-11-12,170588
2020-11-13,193023
2020-11-14,194502
2020-11-15,165288
2020-11-16,180002
2020-11-17,179886
2020-11-18,178756
2020-11-19,178292
2020-11-20,201013
2020-11-21,222634
2020-11-22,220695
2020-11-23,212498
2020-11-24,207936
2020-11-25,220982
2020-11-26,183258
2020-11-27,211221
2020-11-28,195047
2020-11-29,236882
2020-11-30,197654
2020-12-01,185128
2020-12-02,175671
2020-12-03,187639
2020-12-04,169500
2020-12-05,181468
2020-12-06,176319
2020-12-07,172542
2020-12-08,180106
2020-12-09,181203
2020-12-10,164975
2020-12-11,182722
2020-12-12,191636
2020-12-13,209558
2020-12-14,213084
2020-12-15,186793
2020-12-16,208902
2020-12-17,274767
2020-12-18,199814
2020-12-19,252376
2020-12-20,180363
2020-12-21,179249
2020-12-22,180600
2020-12-23,192965
2020-12-24,170955
2020-12-25,174845
2020-12-26,182719
2020-12-27,202165
2020-12-28,213557
2020-12-29,202496
2020-12-30,199369
2020-12-31,189028
2021-01-01,214623
2021-01-02,184791
2021-01-03,232780
2021-01-04,240569
2021-01-05,234848
2021-01-06,244670
2021-01-07,275451
2021-01-08,252265
2021-01-09,270265
2021-01-10,254555
2021-01-11,252668
2021-01-12,206833
2021-01-13,200590
2021-01-14,217985
2021-01-15,240117
2021-01-16,242349
2021-01-17,223570
2021-01-18,223197
2021-01-19,254559
2021-01-20,239836
2021-01-21,210661
2021-01-22,210469
2021-01-23,222831
2021-01-24,218680
2021-01-25,222060
2021-01-26,231031
2021-01-27,189319
2021-01-28,204213
2021-01-29,241768
2021-01-30,247339
2021-01-31,233578
2021-02-01,240144
2021-02-02,246774
2021-02-03,262903
2021-02-04,252229
2021-02-05,253130
2021-02-06,242974
2021-02-07,247871
2021-02-08,256046
2021-02-09,254884
2021-02-10,248985
2021-02-11,265812
2021-02-12,255400
2021-02-13,249027
2021-02-14,232958
2021-02-15,214263
2021-02-16,244943
2021-02-17,258737
2021-02-18,247963
2021-02-19,262680
2021-02-20,251933
2021-02-21,233570
2021-02-22,231456
2021-02-23,219526
2021-02-24,238351
2021-02-25,237399
2021-02-26,246818
2021-02-27,243965
2021-02-28,235408
2021-03-01,243910
2021-03-02,254553
2021-03-03,231689
2021-03-04,244670
2021-03-05,215709
2021-03-06,231877
2021-03-07,217402
2021-03-08,230215
2021-03-09,250834
2021-03-10,265922
2021-03-11,265870
2021-03-12,261033
2021-03-13,259826
2021-03-14,249252
2021-03-15,260719
2021-03-16,246985
2021-03-17,243876
2021-03-18,243647
2021-03-19,247426
2021-03-20,247310
2021-03-21,235115
2021-03-22,237635
2021-03-23,261700
2021-03-24,236993
2021-03-25,244621
2021-03-26,242972
2021-03-27,236353
2021-03-28,234623
2021-03-29,241556
2021-03-30,247837
2021-03-31,252887
2021-04-01,274618
2021-04-02,280339
2021-04-03,255747
2021-04-04,241909
2021-04-05,256770
2021-04-06,258767
2021-04-07,254529
2021-04-08,256071
2021-04-09,253504
2021-04-10,279076
2021-04-11,260413
2021-04-12,275212
2021-04-13,274221
2021-04-14,280989
2021-04-15,235959
2021-04-16,303450
2021-04-17,310292
2021-04-18,291312
2021-04-19,334117
2021-04-20,360286
2021-04-21,357375
2021-04-22,347990
2021-04-23,324033
2021-04-24,337651
2021-04-25,364457
2021-04-26,357693
2021-04-27,336158
2021-04-28,343737
2021-04-29,331601
2021-04-30,292971
2021-05-01,322634
2021-05-02,295034
2021-05-03,316673
2021-05-04,343919
2021-05-05,337512
2021-05-06,328804
2021-05-07,325152
2021-05-08,315722
2021-05-09,383817
2021-05-10,333270
2021-05-11,346959
2021-05-12,320959
2021-05-13,326695
2021-05-14,330080
2021-05-15,313137
2021-05-16,300773
2021-05-17,293666
2021-05-18,285289
2021-05-19,278647
2021-05-20,307872
2021-05-21,289508
2021-05-22,237796
2021-05-23,229934
2021-05-24,250634
2021-05-25,258457
2021-05-26,273870
2021-05-27,288556
2021-05-28,247770
2021-05-29,286834
2021-05-30,259196
2021-05-31,273621
2021-06-01,263409
2021-06-02,283373
2021-06-03,310829
2021-06-04,308171
2021-06-05,293620
2021-06-06,286318
2021-06-07,268311
2021-06-08,240049
2021-06-09,246750
2021-06-10,243875
2021-06-11,227174
2021-06-12,246952
2021-06-13,272788
2021-06-14,251332
2021-06-15,257890
2021-06-16,253317
2021-06-17,224675
2021-06-18,224030
2021-06-19,212816
2021-06-20,222935
2021-06-21,232569
2021-06-22,247278
2021-06-23,251778
2021-06-24,270342
2021-06-25,273671
2021-06-26,254837
2021-06-27,246076
2021-06-28,271914
2021-06-29,262925
2021-06-30,256810
2021-07-01,277680
2021-07-02,254292
2021-07-03,229048
2021-07-04,231980
2021-07-05,242719
2021-07-06,228260
2021-07-07,234879
2021-07-08,231695
2021-07-09,233344
2021-07-10,219410
2021-07-11,221073
2021-07-12,220957
2021-07-13,225094
2021-07-14,227728
2021-07-15,240678
2021-07-16,224812
2021-07-17,224291
2021-07-18,223770
2021-07-19,226377
2021-07-20,241281
2021-07-21,247143
2021-07-22,242472
2021-07-23,254503
2021-07-24,281706
2021-07-25,241862
2021-07-26,263617
2021-07-27,264527
2021-07-28,268650
2021-07-29,273383
2021-07-30,265938
2021-07-31,255395
2021-08-01,260911
2021-08-02,265399
2021-08-03,247548
2021-08-04,238628
2021-08-05,223732
2021-08-06,240366
2021-08-07,233595
2021-08-08,237206
2021-08-09,230483
2021-08-10,224955
2021-08-11,226831
2021-08-12,216999
2021-08-13,218582
2021-08-14,208993
2021-08-15,211851
2021-08-16,241412
2021-08-17,226707
2021-08-18,217945
2021-08-19,242574
2021-08-20,245389
2021-08-21,238447
2021-08-22,228133
2021-08-23,236273
2021-08-24,222348
2021-08-25,203336
2021-08-26,209439
2021-08-27,201959
2021-08-28,218007
2021-08-29,216340
2021-08-30,216528
2021-08-31,232263
2021-09-01,233412
2021-09-02,243246
2021-09-03,220556
2021-09-04,216541
2021-09-05,208511
2021-09-06,219808
2021-09-07,236234
2021-09-08,209233
2021-09-09,217560
2021-09-10,252036
2021-09-11,323971
2021-09-12,278421
2021-09-13,339793
2021-09-14,263727
2021-09-15,269802
2021-09-16,245407
2021-09-17,220763
2021-09-18,237704
2021-09-19,235121
2021-09-20,209223
2021-09-21,216930
2021-09-22,221409
2021-09-23,238200
2021-09-24,216390
2021-09-25,233232
2021-09-26,212371
2021-09-27,211565
2021-09-28,203664
2021-09-29,215876
2021-09-30,217864
2021-10-01,229780
2021-10-02,235649
2021-10-03,235362
2021-10-04,209506
2021-10-05,251699
2021-10-06,271755
2021-10-07,277862
2021-10-08,294088
2021-10-09,266064
2021-10-10,250750
2021-10-11,224420
2021-10-12,241104
2021-10-13,236590
2021-10-14,253783
2021-10-15,237284
2021-10-16,259054
2021-10-17,249899
2021-10-18,253493
2021-10-19,258757
2021-10-20,282979
2021-10-21,187918
2021-10-22,265568
2021-10-23,304258
2021-10-24,276818
2021-10-25,272558
2021-10-26,278735
2021-10-27,268574
2021-10-28,318234
2021-10-29,309434
2021-10-30,263895
2021-10-31,245667
2021-11-01,256950
2021-11-02,275578
2021-11-03,267133
2021-11-04,256762
2021-11-05,256935
2021-11-06,246305
2021-11-07,257239
2021-11-08,261762
2021-11-09,235984
2021-11-10,305178
2021-11-11,306194
2021-11-12,311823
2021-11-13,315874
2021-11-14,316008
2021-11-15,274722
2021-11-16,259938
2021-11-17,361823
2021-11-18,267471
2021-11-19,287486
2021-11-20,237769
2021-11-21,280696
2021-11-22,239574
2021-11-23,250030
2021-11-24,266105
2021-11-25,254863
2021-11-26,251845
2021-11-27,231813
2021-11-28,227979
2021-11-29,272062
2021-11-30,281141
2021-12-01,253649
2021-12-02,262450
2021-12-03,237922
2021-12-04,221439
2021-12-05,501240
2021-12-06,263442
2021-12-07,242272
2021-12-08,257771
2021-12-09,262057
2021-12-10,270633
2021-12-11,253651
2021-12-12,252416
2021-12-13,256577
2021-12-14,236496
2021-12-15,232658
2021-12-16,262221
2021-12-17,258156
2021-12-18,242266
2021-12-19,246804
2021-12-20,262671
2021-12-21,245903
2021-12-22,293181
2021-12-23,251569
2021-12-24,253366
2021-12-25,219972
2021-12-26,232239
2021-12-27,251652
2021-12-28,250179
2021-12-29,228697
2021-12-30,248812
2021-12-31,238006
2022-01-01,234246
2022-01-02,220058
2022-01-03,239760
2022-01-04,258922
2022-01-05,263710
2022-01-06,264620
2022-01-07,254690
2022-01-08,255114
2022-01-09,236837
2022-01-10,211302
2022-01-11,244833
2022-01-12,293137
2022-01-13,295145
2022-01-14,286617
2022-01-15,277537
2022-01-16,274558
2022-01-17,264713
2022-01-18,256907
2022-01-19,265666
2022-01-20,267842
2022-01-21,237502
2022-01-22,245492
2022-01-23,234049
2022-01-24,233839
2022-01-25,244468
2022-01-26,233043
2022-01-27,227926
2022-01-28,234189
2022-01-29,248706
2022-01-30,264357
2022-01-31,269563
2022-02-01,265972
2022-02-02,257543
2022-02-03,248454
2022-02-04,278331
2022-02-05,300916
2022-02-06,289682
2022-02-07,264863
2022-02-08,272678
2022-02-09,281155
2022-02-10,280649
2022-02-11,282251
2022-02-12,271545
2022-02-13,295842
2022-02-14,275890
2022-02-15,273165
2022-02-16,260135
2022-02-17,256564
2022-02-18,227075
2022-02-19,249470
2022-02-20,248410
2022-02-21,241992
2022-02-22,249067
2022-02-23,254703
2022-02-24,215885
2022-02-25,281706
2022-02-26,302141
2022-02-27,282124
2022-02-28,256087
2022-03-01,268940
2022-03-02,304933
2022-03-03,297027
2022-03-04,286439
2022-03-05,274639
2022-03-06,277847
2022-03-07,272510
2022-03-08,278565
2022-03-09,274304
2022-03-10,294330
2022-03-11,286100
2022-03-12,294171
2022-03-13,267797
2022-03-14,265086
2022-03-15,316306
2022-03-16,331938
2022-03-17,263626
2022-03-18,393987
2022-03-19,267059
2022-03-20,281742
2022-03-21,315996
2022-03-22,342470
2022-03-23,285902
2022-03-24,277583
2022-03-25,279374
2022-03-26,293188
2022-03-27,274481
2022-03-28,273124
2022-03-29,259368
2022-03-30,252646
2022-03-31,250515
2022-04-01,242788
2022-04-02,227938
2022-04-03,229806
2022-04-04,225083
2022-04-05,235761
2022-04-06,232972
2022-04-07,235159
