t,v
2020-05-05,0.0
2020-05-06,0.0
2020-05-07,0.0
2020-05-08,0.0
2020-05-09,0.0
2020-05-10,0.0
2020-05-11,0.0
2020-05-12,0.0
2020-05-13,0.0
2020-05-14,0.0
2020-05-15,0.0
2020-05-16,0.0
2020-05-17,0.0
2020-05-18,0.0
2020-05-19,180.169726054942
2020-05-20,1191.62375330862
2020-05-21,2427.8844993285
2020-05-22,1700.43231851592
2020-05-23,1434.86457353607
2020-05-24,2849.53676179666
2020-05-25,1283.48710027785
2020-05-26,1704.01593685999
2020-05-27,1420.70176370697
2020-05-28,2793.19411673384
2020-05-29,6767.78223861501
2020-05-30,5321.77614960289
2020-05-31,4740.54833470661
2020-06-01,5503.82707780121
2020-06-02,7910.69132949809
2020-06-03,4344.43273113898
2020-06-04,4575.65826171001
2020-06-05,3931.96854296459
2020-06-06,4006.08502188581
2020-06-07,5468.4865960277
2020-06-08,6889.44332109855
2020-06-09,13026.9392879612
2020-06-10,10143.6929338731
2020-06-11,20144.8648669076
2020-06-12,6724.44168232117
2020-06-13,5991.02864990097
2020-06-14,5237.44685455234
2020-06-15,22040.3286953873
2020-06-16,13674.7936199053
2020-06-17,222233.549303606
2020-06-18,131014.501035038
2020-06-19,137609.409663139
2020-06-20,27701.8633519821
2020-06-21,51376.206542919
2020-06-22,52979.0607159907
2020-06-23,46483.9316808067
2020-06-24,43718.8103049899
2020-06-25,63884.1047791517
2020-06-26,51497.4362652271
2020-06-27,55240.3924657633
2020-06-28,32489.1787301199
2020-06-29,46264.988334687
2020-06-30,43954.4729462523
2020-07-01,58505.2835998531
2020-07-02,66556.3364036749
2020-07-03,58645.7336198091
2020-07-04,40403.3997481119
2020-07-05,34850.4656733012
2020-07-06,43933.6592903193
2020-07-07,37218.6286524892
2020-07-08,55302.7329657025
2020-07-09,67444.5219471093
2020-07-10,63991.0840956165
2020-07-11,71338.226061934
2020-07-12,101957.543261238
2020-07-13,170663.42142348
2020-07-14,95627.6487923326
2020-07-15,103205.456743827
2020-07-16,95959.7023244591
2020-07-17,157963.906449773
2020-07-18,160884.05529147
2020-07-19,155738.307386275
2020-07-20,184902.759537576
2020-07-21,186641.013742945
2020-07-22,218905.012331472
2020-07-23,230781.232320496
2020-07-24,224297.645591276
2020-07-25,297059.330134457
2020-07-26,298242.835241797
2020-07-27,379149.828964381
2020-07-28,254660.499780678
2020-07-29,287362.698605287
2020-07-30,354529.521690222
2020-07-31,317206.399050219
2020-08-01,243097.772033253
2020-08-02,210740.268605592
2020-08-03,193932.572601311
2020-08-04,189448.393725139
2020-08-05,161447.498338028
2020-08-06,170657.821475391
2020-08-07,273113.71335198
2020-08-08,271365.270476645
2020-08-09,302155.828521154
2020-08-10,480044.858888816
2020-08-11,381906.080551436
2020-08-12,627311.956169083
2020-08-13,626504.459129646
2020-08-14,398169.055748035
2020-08-15,342738.591420525
2020-08-16,357441.15786263
2020-08-17,381498.498002183
2020-08-18,489219.567669583
2020-08-19,473172.025144791
2020-08-20,490467.816709745
2020-08-21,552579.962551802
2020-08-22,355431.297537244
2020-08-23,317856.437710157
2020-08-24,417411.634632024
2020-08-25,420661.511824797
2020-08-26,465685.393421419
2020-08-27,370121.958085573
2020-08-28,531236.517842479
2020-08-29,752282.273189593
2020-08-30,1226114.00374402
2020-08-31,1362100.40576266
2020-09-01,2058122.32899162
2020-09-02,2057491.43383836
2020-09-03,2054680.0853071
2020-09-04,1510314.72350039
2020-09-05,2354858.42980285
2020-09-06,1847539.03431037
2020-09-07,1286117.45393641
2020-09-08,1120049.81436685
2020-09-09,1245396.22523707
2020-09-10,1126561.9473784
2020-09-11,865124.776199336
2020-09-12,825438.900459758
2020-09-13,1097688.05923559
2020-09-14,1271267.99402702
2020-09-15,1074717.32914253
2020-09-16,981845.443580643
2020-09-17,1527067.33474427
2020-09-18,1619397.72531673
2020-09-19,1229005.99376318
2020-09-20,999485.575804875
2020-09-21,1280595.34924561
2020-09-22,921392.815794971
2020-09-23,1018795.12418507
2020-09-24,778071.31557064
2020-09-25,695974.219010602
2020-09-26,652777.318702278
2020-09-27,823367.36084382
2020-09-28,782349.942997113
2020-09-29,1003240.2444703
2020-09-30,746362.64537877
2020-10-01,1023564.68460114
2020-10-02,1279769.42741013
2020-10-03,765091.225862791
2020-10-04,841874.820274336
2020-10-05,714107.209276816
2020-10-06,1193511.38323915
2020-10-07,951936.273127636
2020-10-08,891436.145992523
2020-10-09,744452.226663309
2020-10-10,626492.687406937
2020-10-11,513849.602645291
2020-10-12,679538.349620359
2020-10-13,530709.324538241
2020-10-14,571016.105859119
2020-10-15,581419.970829442
2020-10-16,500224.970763622
2020-10-17,369023.895580667
2020-10-18,383069.360779863
2020-10-19,428878.953436069
2020-10-20,527099.684294029
2020-10-21,713207.27734051
2020-10-22,576087.138247561
2020-10-23,511191.716647751
2020-10-24,316917.24651582
2020-10-25,362731.242708984
2020-10-26,5362827.76700734
2020-10-27,486810.46684576
2020-10-28,987736.326650589
2020-10-29,827644.116509501
2020-10-30,875430.096117113
2020-10-31,565535.021409657
2020-11-01,402194.600440443
2020-11-02,527846.568968005
2020-11-03,557823.890636676
2020-11-04,570359.350288233
2020-11-05,706141.385410186
2020-11-06,807830.353396196
2020-11-07,902556.040738079
2020-11-08,436740.653361034
2020-11-09,540143.596790168
2020-11-10,503149.062331748
2020-11-11,503994.549369378
2020-11-12,489691.011872198
2020-11-13,530492.655454568
2020-11-14,865669.548013015
2020-11-15,494186.701828972
2020-11-16,603821.544946108
2020-11-17,841821.753481585
2020-11-18,600496.705771823
2020-11-19,534606.982340431
2020-11-20,603994.10683619
2020-11-21,713936.731461565
2020-11-22,809765.968109064
2020-11-23,644672.51923745
2020-11-24,700796.94893168
2020-11-25,503848.269017334
2020-11-26,1409892.63396365
2020-11-27,441055.314722344
2020-11-28,333956.363570595
2020-11-29,351676.776014989
2020-11-30,528961.348450735
2020-12-01,580168.880052978
2020-12-02,437354.041810739
2020-12-03,488477.573331164
2020-12-04,505272.117717116
2020-12-05,443451.977661214
2020-12-06,624814.040413112
2020-12-07,486059.864353479
2020-12-08,651403.511705884
2020-12-09,621436.272440854
2020-12-10,532401.805109453
2020-12-11,538814.152025417
2020-12-12,406414.499438595
2020-12-13,383064.619701602
2020-12-14,409603.034160936
2020-12-15,485268.022011716
2020-12-16,511446.2644155
2020-12-17,2181545.21873318
2020-12-18,500023.145027454
2020-12-19,527688.72266329
2020-12-20,517554.120655838
2020-12-21,695490.333326736
2020-12-22,638997.18913059
2020-12-23,689089.996063079
2020-12-24,632637.063396604
2020-12-25,565974.636000299
2020-12-26,540160.24885543
2020-12-27,741832.189127986
2020-12-28,612949.806136293
2020-12-29,764838.135751674
2020-12-30,727128.787537434
2020-12-31,736182.969764685
2021-01-01,673365.766780165
2021-01-02,734568.967818911
2021-01-03,907735.00274754
2021-01-04,997396.523967449
2021-01-05,738804.619234698
2021-01-06,665969.830149783
2021-01-07,608835.619303652
2021-01-08,687002.94828387
2021-01-09,635921.202118002
2021-01-10,621449.128676994
2021-01-11,1225692.28410186
2021-01-12,640437.118630676
2021-01-13,534651.137098678
2021-01-14,547620.537862758
2021-01-15,632877.926707867
2021-01-16,579284.825374161
2021-01-17,545136.634634283
2021-01-18,563823.373480923
2021-01-19,737747.242034641
2021-01-20,580350.133430013
2021-01-21,740220.91645971
2021-01-22,728394.829937493
2021-01-23,536817.006859522
2021-01-24,580497.66339661
2021-01-25,648483.331914323
2021-01-26,578166.298842539
2021-01-27,618628.740549111
2021-01-28,524181.440269565
2021-01-29,751557.255677992
2021-01-30,538134.100560255
2021-01-31,547451.132358242
2021-02-01,616100.522901103
2021-02-02,639938.885576579
2021-02-03,554202.12623991
2021-02-04,783883.103255925
2021-02-05,664367.852121162
2021-02-06,575457.420037967
2021-02-07,581242.745544159
2021-02-08,635485.171290963
2021-02-09,603103.240819342
2021-02-10,599942.666402986
2021-02-11,521340.936025875
2021-02-12,575359.945503579
2021-02-13,564760.981059783
2021-02-14,543226.504014003
2021-02-15,652505.990222195
2021-02-16,545480.37140932
2021-02-17,606941.703567383
2021-02-18,578468.34818158
2021-02-19,524356.702968132
2021-02-20,634667.684805594
2021-02-21,503849.783136369
2021-02-22,838228.070346817
2021-02-23,1154377.90746191
2021-02-24,709303.011365543
2021-02-25,638008.920905886
2021-02-26,697917.128063944
2021-02-27,504157.366682822
2021-02-28,712751.675140965
2021-03-01,552566.082082158
2021-03-02,526823.089579365
2021-03-03,535612.031345951
2021-03-04,527283.527661751
2021-03-05,630877.923358911
2021-03-06,479318.244483946
2021-03-07,666186.672360382
2021-03-08,647660.123983757
2021-03-09,615690.868990602
2021-03-10,531396.195262861
2021-03-11,551722.639262056
2021-03-12,620880.44381944
2021-03-13,563467.799826732
2021-03-14,545702.225796468
2021-03-15,609063.124536677
2021-03-16,562207.389033504
2021-03-17,552362.40047183
2021-03-18,495432.617360681
2021-03-19,571496.034731182
2021-03-20,515162.819900458
2021-03-21,472131.204807942
2021-03-22,740041.320126856
2021-03-23,636095.404029895
2021-03-24,746533.258610236
2021-03-25,659966.311409189
2021-03-26,575363.044166386
2021-03-27,552421.810880349
2021-03-28,949817.843786097
2021-03-29,3747044.27066991
2021-03-30,18550033.8189283
2021-03-31,6675637.71116067
2021-04-01,651741.882973491
2021-04-02,627195.2731254
2021-04-03,562624.403342922
2021-04-04,498321.395129525
2021-04-05,570965.875029113
2021-04-06,586157.301814486
2021-04-07,725275.612316308
2021-04-08,545453.26209487
2021-04-09,470754.919047444
2021-04-10,481437.685491535
2021-04-11,434522.761664644
2021-04-12,496245.866543759
2021-04-13,507513.764719386
2021-04-14,566039.401002529
2021-04-15,477639.182573099
2021-04-16,572591.272683411
2021-04-17,569276.539863638
2021-04-18,762178.933195925
2021-04-19,603889.275363443
2021-04-20,808193.034439019
2021-04-21,623005.189940471
2021-04-22,750055.58152512
2021-04-23,806968.53350574
2021-04-24,433358.940045579
2021-04-25,409396.769262147
2021-04-26,478876.765182441
2021-04-27,458906.786163267
2021-04-28,478544.397051004
2021-04-29,425531.269060691
2021-04-30,413227.857732216
2021-05-01,411283.549942759
2021-05-02,572113.943299912
2021-05-03,561365.284164141
2021-05-04,590217.697046578
2021-05-05,455920.331037786
2021-05-06,312815.972441435
2021-05-07,320581.947236049
2021-05-08,723786.254801145
2021-05-09,544740.261348617
2021-05-10,752615.339324352
2021-05-11,596836.413432731
2021-05-12,717475.375635217
2021-05-13,573876.992544076
2021-05-14,442835.018870919
2021-05-15,405910.694405153
2021-05-16,473403.850457776
2021-05-17,514588.025481303
2021-05-18,390126.849857176
2021-05-19,1341553.50480367
2021-05-20,722341.794307261
2021-05-21,690924.294823694
2021-05-22,458265.016573546
2021-05-23,937321.109654665
2021-05-24,537286.524400628
2021-05-25,416654.227030993
2021-05-26,424983.586676571
2021-05-27,280293.957210538
2021-05-28,381440.893683089
2021-05-29,350637.957023514
2021-05-30,263043.577507499
2021-05-31,258958.699255697
2021-06-01,272988.945741605
2021-06-02,220810.063404095
2021-06-03,245149.889359863
2021-06-04,271967.040085014
2021-06-05,183357.51776585
2021-06-06,120070.614066991
2021-06-07,199020.428870065
2021-06-08,267513.484414455
2021-06-09,226668.717553746
2021-06-10,207018.319643492
2021-06-11,235120.607557161
2021-06-12,214655.290247286
2021-06-13,158021.481208105
2021-06-14,163324.051333033
2021-06-15,158859.812514439
2021-06-16,173763.753569581
2021-06-17,219603.180249352
2021-06-18,206666.61609537
2021-06-19,156725.41727603
2021-06-20,156627.102319244
2021-06-21,340695.189098022
2021-06-22,358839.634611417
2021-06-23,212187.533495269
2021-06-24,169047.781092889
2021-06-25,206562.143061484
2021-06-26,179023.381540325
2021-06-27,153333.154327176
2021-06-28,412851.991812116
2021-06-29,166686.458460609
2021-06-30,172434.833125186
2021-07-01,454797.252655404
2021-07-02,235746.369229578
2021-07-03,148523.752163549
2021-07-04,205464.679959638
2021-07-05,132897.631796496
2021-07-06,142466.768641447
2021-07-07,120135.648154474
2021-07-08,142610.935215586
2021-07-09,193274.504495607
2021-07-10,104525.720767549
2021-07-11,76856.4342699323
2021-07-12,91952.3196150935
2021-07-13,118370.51436583
2021-07-14,159410.032997378
2021-07-15,189386.333652543
2021-07-16,134180.387483804
2021-07-17,103513.2312169
2021-07-18,166191.598063329
2021-07-19,106040.855406616
2021-07-20,228884.28937396
2021-07-21,161576.067985936
2021-07-22,101589.470620355
2021-07-23,110689.592097462
2021-07-24,125746.770587963
2021-07-25,127639.208440501
2021-07-26,289795.365526476
2021-07-27,125757.840623193
2021-07-28,125390.813496862
2021-07-29,141160.748705572
2021-07-30,164437.746226213
2021-07-31,123572.759387143
2021-08-01,138130.745539369
2021-08-02,114106.562465094
2021-08-03,128740.308176998
2021-08-04,126666.62387983
2021-08-05,133981.110397392
2021-08-06,106331.440249607
2021-08-07,126659.562403279
2021-08-08,173179.147671166
2021-08-09,138034.539798963
2021-08-10,116565.101457979
2021-08-11,127588.967776525
2021-08-12,117231.435058435
2021-08-13,104324.105646699
2021-08-14,89812.3916568092
2021-08-15,87860.1757228901
2021-08-16,128127.129645444
2021-08-17,168007.560638768
2021-08-18,160779.938692786
2021-08-19,144098.015828403
2021-08-20,140948.659370076
2021-08-21,100650.119739157
2021-08-22,103236.331351071
2021-08-23,140500.071852965
2021-08-24,223627.109960489
2021-08-25,137295.434351393
2021-08-26,158147.716252703
2021-08-27,116150.017138321
2021-08-28,100567.582516225
2021-08-29,108069.274106029
2021-08-30,182591.085424763
2021-08-31,133185.836992953
2021-09-01,134564.120569653
2021-09-02,96015.6483068534
2021-09-03,100481.257113977
2021-09-04,98864.8726980163
2021-09-05,84039.7040807318
2021-09-06,103415.078003528
2021-09-07,202031.274548353
2021-09-08,158411.693092989
2021-09-09,124253.899378283
2021-09-10,164719.288865007
2021-09-11,123597.567964486
2021-09-12,108018.143106164
2021-09-13,135881.102928916
2021-09-14,117909.22978991
2021-09-15,119590.461375934
2021-09-16,118708.128880244
2021-09-17,106960.082746614
2021-09-18,94866.6445258383
2021-09-19,109712.502902024
2021-09-20,176340.590729684
2021-09-21,187454.289964234
2021-09-22,126801.56230411
2021-09-23,98680.7630148585
2021-09-24,131271.959167188
2021-09-25,96328.778112467
2021-09-26,148295.676327385
2021-09-27,108105.048343173
2021-09-28,108006.62589925
2021-09-29,113168.94952312
2021-09-30,106400.973970211
2021-10-01,101710.569312229
2021-10-02,86364.3302761679
2021-10-03,72413.1809521945
2021-10-04,99403.013189651
2021-10-05,109091.528833545
2021-10-06,122331.648504044
2021-10-07,161012.189829271
2021-10-08,91613.5539522778
2021-10-09,77795.4448616946
2021-10-10,96954.5806164656
2021-10-11,115566.129412215
2021-10-12,122819.647806539
2021-10-13,127608.647351431
2021-10-14,129351.092225391
2021-10-15,146339.235667344
2021-10-16,101149.366695162
2021-10-17,102635.666862904
2021-10-18,98890.6945639696
2021-10-19,122322.410746516
2021-10-20,106679.044009932
2021-10-21,131775.590004077
2021-10-22,106486.774597819
2021-10-23,96763.4034366181
2021-10-24,117522.958776065
2021-10-25,137676.87682994
2021-10-26,160918.252980615
2021-10-27,205781.170286181
2021-10-28,209449.908910879
2021-10-29,228435.381098442
2021-10-30,258071.596118254
2021-10-31,212801.057846794
2021-11-01,182652.639186061
2021-11-02,226939.566576521
2021-11-03,202887.272338915
2021-11-04,185717.710836102
2021-11-05,195388.770505646
2021-11-06,145896.184908701
2021-11-07,151437.731674133
2021-11-08,166756.639752851
2021-11-09,154034.356993865
2021-11-10,189154.657794948
2021-11-11,265136.710610039
2021-11-12,202889.225064153
2021-11-13,176107.161062563
2021-11-14,177961.739538112
2021-11-15,155743.547841629
2021-11-16,195554.624561147
2021-11-17,174135.226343982
2021-11-18,236009.894894526
2021-11-19,152855.366070682
2021-11-20,122751.501311872
2021-11-21,144967.822231915
2021-11-22,146503.961958289
2021-11-23,154108.889949309
2021-11-24,179412.101366202
2021-11-25,185243.152522249
2021-11-26,233532.035798417
2021-11-27,151344.809183886
2021-11-28,144252.694335788
2021-11-29,131919.658480757
2021-11-30,142886.777887636
2021-12-01,119847.413034477
2021-12-02,132044.900484037
2021-12-03,119325.491275251
2021-12-04,222930.450275052
2021-12-05,124083.098491312
2021-12-06,164195.139972036
2021-12-07,103959.632704645
2021-12-08,100678.691498591
2021-12-09,111653.559064141
2021-12-10,114616.179851208
2021-12-11,82752.7570652524
2021-12-12,70371.3054812775
2021-12-13,109739.755572872
2021-12-14,99295.0843222051
2021-12-15,103956.478473053
2021-12-16,71912.2970525101
2021-12-17,93274.8590357253
2021-12-18,80046.4873622821
2021-12-19,88673.1710345193
2021-12-20,92533.0689278175
2021-12-21,102919.715430116
2021-12-22,105373.977599481
2021-12-23,100895.291514611
2021-12-24,86290.26283212
2021-12-25,67244.1190088076
2021-12-26,70844.6845283646
2021-12-27,92365.9961588543
2021-12-28,99407.0326429904
2021-12-29,97127.390457107
2021-12-30,96705.860827518
2021-12-31,111525.900773434
2022-01-01,87802.6711952713
2022-01-02,80621.7209182172
2022-01-03,104914.114786094
2022-01-04,103858.16660469
2022-01-05,169787.498170711
2022-01-06,141570.319475825
2022-01-07,176127.310520696
2022-01-08,117828.366276091
2022-01-09,79774.1483873969
2022-01-10,135039.788453571
2022-01-11,120782.004062859
2022-01-12,124896.805256612
2022-01-13,106866.471596891
2022-01-14,111493.547529016
2022-01-15,83983.4010305774
2022-01-16,84648.2652833629
2022-01-17,105674.604843858
2022-01-18,106601.311272123
2022-01-19,107810.641809298
2022-01-20,117440.63563808
2022-01-21,276188.136482267
2022-01-22,287632.11430934
2022-01-23,105748.061600441
2022-01-24,206257.671776252
2022-01-25,103406.340000517
2022-01-26,131739.978529938
2022-01-27,104010.310340287
2022-01-28,99029.9342600646
2022-01-29,84223.5658966182
2022-01-30,74874.7829349512
2022-01-31,82025.7615746087
2022-02-01,94757.7743773089
2022-02-02,94216.7685578154
2022-02-03,74966.8382891393
2022-02-04,92399.3405812065
2022-02-05,68125.6484202439
2022-02-06,74035.6698005964
2022-02-07,88943.1954349488
2022-02-08,95430.68362297
2022-02-09,91111.6287672763
2022-02-10,101144.710113299
2022-02-11,105061.520053106
2022-02-12,74185.9955219582
2022-02-13,56186.1464134319
2022-02-14,75027.8639892226
2022-02-15,92942.8143699806
2022-02-16,120211.515868229
2022-02-17,118253.064993967
2022-02-18,104431.871646596
2022-02-19,59604.6752077278
2022-02-20,74990.5773460599
2022-02-21,85582.3645245935
2022-02-22,78675.6825123093
2022-02-23,57213.2874058282
2022-02-24,162999.604017461
2022-02-25,71932.5313729448
2022-02-26,56150.5812147644
2022-02-27,62622.7458219574
2022-02-28,63753.6930417235
2022-03-01,66250.4989947783
2022-03-02,65552.9286490077
2022-03-03,57562.3486938909
2022-03-04,69587.2996933937
2022-03-05,53296.8595877825
2022-03-06,55362.5476782648
2022-03-07,69902.4242288336
2022-03-08,63281.7299860333
2022-03-09,61340.6703741525
2022-03-10,49431.3832877929
2022-03-11,61910.6706248709
2022-03-12,41015.8846550246
2022-03-13,46366.2793390524
2022-03-14,49314.6856236596
2022-03-15,61437.84271261
2022-03-16,59984.6027008268
2022-03-17,61767.9035554417
2022-03-18,81140.0364052552
2022-03-19,48348.5945395215
2022-03-20,47624.2171922137
2022-03-21,45312.5934059834
2022-03-22,56295.0928783262
2022-03-23,50853.9195240426
2022-03-24,47359.4876076904
2022-03-25,51079.8052640006
2022-03-26,44732.4694146033
2022-03-27,51957.4464251795
2022-03-28,74837.4340619047
2022-03-29,78474.8075503817
2022-03-30,65073.7168522309
2022-03-31,80200.5257279533
2022-04-01,86332.9610980886
2022-04-02,88779.5189475597
2022-04-03,84476.8133117402
2022-04-04,118975.320303931
2022-04-05,81075.7682407932
2022-04-06,97757.8375052515
2022-04-07,91716.421513608
