t,v
2013-05-19,3.1491
2013-05-20,
2013-05-21,
2013-05-22,3.06
2013-05-23,3.05
2013-05-24,3.05
2013-05-25,3.05
2013-05-26,3.15
2013-05-27,3.15
2013-05-28,3.05
2013-05-29,3.069
2013-05-30,2.88
2013-05-31,2.72
2013-06-01,2.83
2013-06-02,2.83
2013-06-03,2.83
2013-06-04,2.83
2013-06-05,2.8
2013-06-06,2.81
2013-06-07,2.795
2013-06-08,2.6
2013-06-09,2.348333333333333
2013-06-10,2.25
2013-06-11,2.4599
2013-06-12,2.35
2013-06-13,2.4
2013-06-14,2.3
2013-06-15,2.16
2013-06-16,2.15
2013-06-17,2.395
2013-06-18,2.37810101
2013-06-19,2.36
2013-06-20,2.2
2013-06-21,2.6525
2013-06-22,3.03
2013-06-23,2.999
2013-06-24,2.09
2013-06-25,2.401
2013-06-26,2.555
2013-06-27,2.74
2013-06-28,2.356666666666667
2013-06-29,2.31
2013-06-30,2.6214
2013-07-01,2.664
2013-07-02,2.61
2013-07-03,2.5250000000000004
2013-07-04,2.6599
2013-07-05,2.3200000000000003
2013-07-06,2.3
2013-07-07,2.5
2013-07-08,2.3501
2013-07-09,2.65
2013-07-10,2.8
2013-07-11,2.7
2013-07-12,2.6575
2013-07-13,2.59
2013-07-14,2.56
2013-07-15,2.74
2013-07-16,2.83
2013-07-17,2.82
2013-07-18,2.6010000000000004
2013-07-19,2.799
2013-07-20,2.799428571428572
2013-07-21,2.651
2013-07-22,2.9
2013-07-23,2.71
2013-07-24,2.84
2013-07-25,2.721
2013-07-26,2.7015
2013-07-27,
2013-07-28,2.86
2013-07-29,2.65
2013-07-30,2.59
2013-07-31,2.58
2013-08-01,2.6
2013-08-02,2.67
2013-08-03,2.67
2013-08-04,2.705
2013-08-05,2.64
2013-08-06,2.65
2013-08-07,2.54375
2013-08-08,2.59
2013-08-09,2.45
2013-08-10,2.32
2013-08-11,2.35
2013-08-12,2.31
2013-08-13,2.44
2013-08-14,2.39
2013-08-15,2.41
2013-08-16,2.37
2013-08-17,2.38
2013-08-18,2.39
2013-08-19,2.4
2013-08-20,2.35
2013-08-21,2.37
2013-08-22,2.35
2013-08-23,2.55
2013-08-24,2.4
2013-08-25,2.3
2013-08-26,2.48
2013-08-27,2.3201
2013-08-28,2.3901
2013-08-29,2.3901
2013-08-30,2.4001
2013-08-31,2.41
2013-09-01,2.3833333333333333
2013-09-02,2.41
2013-09-03,2.4
2013-09-04,2.546666666666667
2013-09-05,2.5805
2013-09-06,2.6
2013-09-07,2.66
2013-09-08,2.62
2013-09-09,2.57
2013-09-10,2.51
2013-09-11,
2013-09-12,2.54
2013-09-13,2.4
2013-09-14,2.52
2013-09-15,2.649995
2013-09-16,2.61
2013-09-17,2.55
2013-09-18,2.5
2013-09-19,2.5
2013-09-20,2.5499
2013-09-21,2.43
2013-09-22,2.42
2013-09-23,2.4
2013-09-24,2.33
2013-09-25,2.25
2013-09-26,2.34
2013-09-27,2.3
2013-09-28,1.975
2013-09-29,2.1
2013-09-30,2.25
2013-10-01,2.34505
2013-10-02,1.85
2013-10-03,2.13999
2013-10-04,2.06
2013-10-05,2.0
2013-10-06,1.992
2013-10-07,1.99
2013-10-08,1.9316666666666664
2013-10-09,1.84
2013-10-10,1.92
2013-10-11,1.93
2013-10-12,1.9545
2013-10-13,2.03
2013-10-14,1.96
2013-10-15,1.89
2013-10-16,1.84
2013-10-17,1.8151428571428572
2013-10-18,1.96
2013-10-19,1.771
2013-10-20,1.85
2013-10-21,1.714
2013-10-22,1.65
2013-10-23,2.19
2013-10-24,2.135
2013-10-25,2.1667
2013-10-26,2.06
2013-10-27,2.13
2013-10-28,2.07
2013-10-29,2.092116
2013-10-30,2.25
2013-10-31,2.285
2013-11-01,2.4
2013-11-02,2.5701
2013-11-03,2.87
2013-11-04,3.011
2013-11-05,2.91
2013-11-06,3.35
2013-11-07,4.22
2013-11-08,4.521
2013-11-09,4.113333333333333
2013-11-10,3.9
2013-11-11,4.008
2013-11-12,4.0539999999999985
2013-11-13,4.0299999999999985
2013-11-14,4.17
2013-11-15,3.9
2013-11-16,4.0442
2013-11-17,4.051
2013-11-18,9.3
2013-11-19,7.74
2013-11-20,8.35
2013-11-21,9.889
2013-11-22,10.15
2013-11-23,11.645
2013-11-24,10.85
2013-11-25,12.012499995
2013-11-26,19.65
2013-11-27,37.59888888888889
2013-11-28,40.03333333333333
2013-11-29,36.567142857142855
2013-11-30,39.5
2013-12-01,32.923784999999995
2013-12-02,33.61006666666667
2013-12-03,37.33
2013-12-04,43.81333333333333
2013-12-05,38.74
2013-12-06,29.99
2013-12-07,21.809
2013-12-08,26.695555555555554
2013-12-09,31.14
2013-12-10,35.13
2013-12-11,31.0225
2013-12-12,30.99
2013-12-13,30.570000000000004
2013-12-14,29.218000000000004
2013-12-15,30.89
2013-12-16,24.278000000000002
2013-12-17,22.22
2013-12-18,13.47
2013-12-19,20.08633333333333
2013-12-20,17.34
2013-12-21,16.267599999999998
2013-12-22,16.255499999999998
2013-12-23,17.5
2013-12-24,16.8005
2013-12-25,20.947142857142858
2013-12-26,23.844
2013-12-27,22.43
2013-12-28,21.601999999999997
2013-12-29,23.16
2013-12-30,23.5
2013-12-31,23.8
2014-01-01,23.8
2014-01-02,25.0
2014-01-03,24.5
2014-01-04,24.45
2014-01-05,26.351
2014-01-06,28.59
2014-01-07,22.214142857142853
2014-01-08,23.7355
2014-01-09,23.783666666666665
2014-01-10,24.69333333333333
2014-01-11,26.66
2014-01-12,24.552
2014-01-13,23.67
2014-01-14,23.639995000000003
2014-01-15,24.678
2014-01-16,23.53
2014-01-17,23.19
2014-01-18,23.8
2014-01-19,24.2
2014-01-20,24.08
2014-01-21,23.775
2014-01-22,23.12
2014-01-23,22.00025
2014-01-24,19.910333666666666
2014-01-25,21.7
2014-01-26,22.150187755
2014-01-27,19.52283333333333
2014-01-28,20.6135
2014-01-29,20.796333333333333
2014-01-30,20.93316666833333
2014-01-31,21.06000001
2014-02-01,22.322493485
2014-02-02,22.2
2014-02-03,21.53000001
2014-02-04,21.131
2014-02-05,20.516666666666666
2014-02-06,19.762
2014-02-07,18.1
2014-02-08,17.914
2014-02-09,18.215
2014-02-10,17.58
2014-02-11,17.49000000166667
2014-02-12,17.133666666666667
2014-02-13,15.5435
2014-02-14,16.945
2014-02-15,16.31900001
2014-02-16,15.94
2014-02-17,15.8
2014-02-18,15.8005
2014-02-19,15.94000001
2014-02-20,14.162727272727276
2014-02-21,14.3699998
2014-02-22,15.446666658333333
2014-02-23,15.634
2014-02-24,14.302785714285715
2014-02-25,13.9499
2014-02-26,14.38999999375
2014-02-27,14.45
2014-02-28,13.5
2014-03-01,13.79
2014-03-02,12.85249975
2014-03-03,14.7955625
2014-03-04,17.290999313125006
2014-03-05,16.73
2014-03-06,17.06879999
2014-03-07,15.989
2014-03-08,15.7
2014-03-09,16.442000229999998
2014-03-10,16.2
2014-03-11,16.3
2014-03-12,17.360555555555564
2014-03-13,17.41
2014-03-14,16.80000001
2014-03-15,17.03
2014-03-16,17.600000002
2014-03-17,17.44
2014-03-18,19.708777721666664
2014-03-19,17.462702413333336
2014-03-20,16.603874627499998
2014-03-21,15.788232699999998
2014-03-22,15.778725
2014-03-23,15.4225
2014-03-24,16.169999996666668
2014-03-25,16.4
2014-03-26,16.34
2014-03-27,12.763016538461535
2014-03-28,13.82925
2014-03-29,13.55
2014-03-30,13.147142857142857
2014-03-31,12.78
2014-04-01,13.1337
2014-04-02,11.38355
2014-04-03,11.0961
2014-04-04,11.1559
2014-04-05,11.38797142857143
2014-04-06,11.75
2014-04-07,11.28625
2014-04-08,11.374349995
2014-04-09,11.200075
2014-04-10,8.473025
2014-04-11,10.795320000999997
2014-04-12,10.641001
2014-04-13,10.5
2014-04-14,11.411
2014-04-15,13.04
2014-04-16,13.52
2014-04-17,12.5602
2014-04-18,12.25
2014-04-19,13.1
2014-04-20,12.50971875
2014-04-21,12.345
2014-04-22,11.8194487804878
2014-04-23,11.992057142857142
2014-04-24,12.46406153846154
2014-04-25,11.0178444
2014-04-26,10.639166555555557
2014-04-27,9.914231913701343
2014-04-28,10.073118181818181
2014-04-29,10.3325
2014-04-30,10.923625
2014-05-01,11.03312
2014-05-02,10.3905
2014-05-03,10.314666666666668
2014-05-04,10.308666666666667
2014-05-05,10.21091932849365
2014-05-06,10.25
2014-05-07,10.408999999999997
2014-05-08,10.42256
2014-05-09,10.743527272727272
2014-05-10,10.614
2014-05-11,10.3
2014-05-12,10.350366666666666
2014-05-13,10.36
2014-05-14,10.3764
2014-05-15,10.421285714285714
2014-05-16,10.29010606060606
2014-05-17,10.25
2014-05-18,10.35135918726189
2014-05-19,10.2112
2014-05-20,10.6359
2014-05-21,10.522625
2014-05-22,10.663394798684216
2014-05-23,11.133969230769226
2014-05-24,11.089016666666666
2014-05-25,11.542714285714286
2014-05-26,11.613499999999998
2014-05-27,11.2495
2014-05-28,11.1
2014-05-29,10.79075
2014-05-30,11.5
2014-05-31,11.061333333333332
2014-06-01,11.109000000000002
2014-06-02,11.5655
2014-06-03,11.662
2014-06-04,11.1585
2014-06-05,11.395
2014-06-06,11.033500000000002
2014-06-07,10.990000000000002
2014-06-08,11.1695
2014-06-09,11.08981
2014-06-10,10.930699999999998
2014-06-11,10.768706249999996
2014-06-12,10.027733333333334
2014-06-13,10.178008333333333
2014-06-14,9.879701111111109
2014-06-15,9.89
2014-06-16,9.741235000000001
2014-06-17,9.519534
2014-06-18,9.53144
2014-06-19,9.89112063302622
2014-06-20,9.8233
2014-06-21,9.721275
2014-06-22,9.67543
2014-06-23,9.609985714285713
2014-06-24,9.500242307692307
2014-06-25,9.095
2014-06-26,8.986723333333332
2014-06-27,9.20225
2014-06-28,9.07961
2014-06-29,8.87854
2014-06-30,8.928003103393971
2014-07-01,7.760685657574282
2014-07-02,8.182749999999999
2014-07-03,7.91
2014-07-04,7.280501666666668
2014-07-05,7.2678552
2014-07-06,7.0927912499999985
2014-07-07,7.5838714285714275
2014-07-08,7.688661232351098
2014-07-09,7.70466
2014-07-10,7.71801
2014-07-11,7.788201666666668
2014-07-12,8.593449999999999
2014-07-13,8.893360000000003
2014-07-14,8.657096666666668
2014-07-15,8.64
2014-07-16,8.332317010793856
2014-07-17,8.710783333333334
2014-07-18,8.75
2014-07-19,8.70663
2014-07-20,8.542
2014-07-21,8.552724000000001
2014-07-22,8.49978264803726
2014-07-23,8.387960000000001
2014-07-24,7.779116
2014-07-25,7.5571720000000004
2014-07-26,7.65
2014-07-27,7.747755000000001
2014-07-28,7.7189999999999985
2014-07-29,7.596839999999999
2014-07-30,7.229935
2014-07-31,7.533728571428571
2014-08-01,7.7814999999999985
2014-08-02,7.5688
2014-08-03,7.460159999999999
2014-08-04,7.386067142857142
2014-08-05,7.212578249160451
2014-08-06,7.14756
2014-08-07,7.14211111111111
2014-08-08,6.996366666666668
2014-08-09,6.891094285714287
2014-08-10,6.904498333333333
2014-08-11,6.053594775267737
2014-08-12,5.6486657142857135
2014-08-13,4.9971128571428585
2014-08-14,5.0474935714285705
2014-08-15,5.051666666666666
2014-08-16,4.964331111111111
2014-08-17,4.32710721066812
2014-08-18,3.631293571428572
2014-08-19,4.651182778159418
2014-08-20,5.494134852148812
2014-08-21,5.771082383203414
2014-08-22,5.22377547169811
2014-08-23,4.892563212803267
2014-08-24,5.397570909090909
2014-08-25,5.211213333333333
2014-08-26,5.528574285714287
2014-08-27,5.3690750000000005
2014-08-28,5.252944999999999
2014-08-29,5.34765
2014-08-30,5.181892666666666
2014-08-31,4.83903
2014-09-01,4.704088290851338
2014-09-02,4.801994285714286
2014-09-03,4.874666666666666
2014-09-04,5.152845833333334
2014-09-05,4.95294
2014-09-06,4.9510000000000005
2014-09-07,5.136370952380951
2014-09-08,5.043451666666667
2014-09-09,4.8052800000000016
2014-09-10,5.327216000000001
2014-09-11,5.4208
2014-09-12,5.309411333333333
2014-09-13,5.4
2014-09-14,5.4235000000000015
2014-09-15,5.129733
2014-09-16,5.015
2014-09-17,4.96166
2014-09-18,4.6183000000000005
2014-09-19,4.282699999999998
2014-09-20,4.219644999999999
2014-09-21,4.08636
2014-09-22,4.288633157894736
2014-09-23,4.7373781818181815
2014-09-24,4.660554166666668
2014-09-25,4.507313403245941
2014-09-26,4.453633636363637
2014-09-27,4.417891666666668
2014-09-28,4.197585
2014-09-29,4.22079623015873
2014-09-30,4.46324
2014-10-01,4.3906
2014-10-02,4.280217777777779
2014-10-03,4.0218300000000005
2014-10-04,3.9380000000000006
2014-10-05,3.712311133141786
2014-10-06,3.7703968421052636
2014-10-07,3.816638
2014-10-08,3.921416666666666
2014-10-09,3.840002987041768
2014-10-10,3.7961
2014-10-11,3.762696428571428
2014-10-12,3.89051671502336
2014-10-13,3.856785
2014-10-14,4.069025
2014-10-15,3.9947142857142857
2014-10-16,3.98034
2014-10-17,3.976
2014-10-18,4.04215
2014-10-19,3.95225
2014-10-20,3.884328571428571
2014-10-21,3.905
2014-10-22,3.828230000000001
2014-10-23,3.69865
2014-10-24,3.7139103448231583
2014-10-25,3.6226
2014-10-26,3.715953333333333
2014-10-27,3.783225
2014-10-28,3.8016666666666667
2014-10-29,3.6850529166666672
2014-10-30,3.7786
2014-10-31,3.730983333333333
2014-11-01,3.546891111111111
2014-11-02,3.57
2014-11-03,3.561628333333333
2014-11-04,3.604156666666667
2014-11-05,3.62
2014-11-06,3.633127
2014-11-07,3.5414800000000004
2014-11-08,3.536
2014-11-09,
2014-11-10,
2014-11-11,
2014-11-12,4.030510169491524
2014-11-13,4.07981111111111
2014-11-14,3.949726666666667
2014-11-15,3.844466666666667
2014-11-16,3.90665
2014-11-17,3.8485400000000003
2014-11-18,3.71982
2014-11-19,3.771425
2014-11-20,3.58815
2014-11-21,3.445785555555556
2014-11-22,3.490123333333333
2014-11-23,3.5806459999999998
2014-11-24,3.6077188888888885
2014-11-25,3.5410000000000004
2014-11-26,3.5440000000000005
2014-11-27,3.518966666666667
2014-11-28,3.56
2014-11-29,3.5340625
2014-11-30,3.5336666666666665
2014-12-01,3.5463750000000003
2014-12-02,3.5966099999999996
2014-12-03,3.543
2014-12-04,3.5357000000000003
2014-12-05,3.5437
2014-12-06,3.634
2014-12-07,3.6498666666666666
2014-12-08,3.6137968750000007
2014-12-09,3.502
2014-12-10,3.4513
2014-12-11,3.41969
2014-12-12,3.41215
2014-12-13,3.4216333333333337
2014-12-14,3.445135
2014-12-15,3.386
2014-12-16,2.9907202492998963
2014-12-17,2.93157
2014-12-18,2.8080000000000003
2014-12-19,2.8480000000000003
2014-12-20,2.9303
2014-12-21,2.817
2014-12-22,2.8520000000000003
2014-12-23,2.84011
2014-12-24,2.707133333333333
2014-12-25,2.7
2014-12-26,2.768
2014-12-27,2.6987359397408306
2014-12-28,2.7
2014-12-29,2.687
2014-12-30,2.6965000000000003
2014-12-31,2.7571833333333338
2015-01-01,2.69
2015-01-02,2.65552
2015-01-03,2.1181198931502694
2015-01-04,1.96343
2015-01-05,2.07859
2015-01-06,2.1276525000000004
2015-01-07,2.1536285714285714
2015-01-08,2.0194
2015-01-09,2.0016960000000004
2015-01-10,1.6569668421052632
2015-01-11,1.7478580952380949
2015-01-12,1.7054999999999998
2015-01-13,1.5500679461912577
2015-01-14,1.1429994580296217
2015-01-15,1.2829585714285712
2015-01-16,1.3959625
2015-01-17,1.29523
2015-01-18,1.3605142857142858
2015-01-19,1.355
2015-01-20,1.31998
2015-01-21,1.361033333333333
2015-01-22,1.41215
2015-01-23,1.4289857142857143
2015-01-24,1.8357185185185183
2015-01-25,2.236
2015-01-26,2.07903856467447
2015-01-27,2.04598
2015-01-28,1.7967670000000002
2015-01-29,1.881
2015-01-30,1.8756171184802672
2015-01-31,1.8537138461538456
2015-02-01,1.8168
2015-02-02,1.8519502530567533
2015-02-03,1.7921428571428577
2015-02-04,1.78351
2015-02-05,1.7322371969057078
2015-02-06,1.7553533333333335
2015-02-07,1.7898199999999995
2015-02-08,1.766
2015-02-09,1.7251666666666663
2015-02-10,1.7717700000000003
2015-02-11,1.7279999999999998
2015-02-12,1.72877
2015-02-13,1.802018
2015-02-14,1.941682857142857
2015-02-15,1.8320176923076918
2015-02-16,1.78025
2015-02-17,1.837335
2015-02-18,1.798
2015-02-19,1.82755
2015-02-20,1.8060000000000005
2015-02-21,1.79352
2015-02-22,1.756
2015-02-23,1.7756680000000002
2015-02-24,1.77001
2015-02-25,1.7619999999999998
2015-02-26,1.759
2015-02-27,1.81
2015-02-28,1.7948099999999998
2015-03-01,1.8982
2015-03-02,1.9293045454545452
2015-03-03,1.94636
2015-03-04,1.908625
2015-03-05,1.89
2015-03-06,1.8867
2015-03-07,1.899
2015-03-08,1.881362
2015-03-09,1.9185
2015-03-10,1.98225
2015-03-11,2.0
2015-03-12,2.035486666666667
2015-03-13,1.9830022446160376
2015-03-14,1.948
2015-03-15,1.981
2015-03-16,2.01101
2015-03-17,1.9838166666666668
2015-03-18,1.7284425
2015-03-19,1.744
2015-03-20,1.7431841666666663
2015-03-21,1.74
2015-03-22,1.79
2015-03-23,1.7759999999999998
2015-03-24,1.6661414285714289
2015-03-25,1.6847437500000004
2015-03-26,1.68745
2015-03-27,1.680775
2015-03-28,1.6840000000000002
2015-03-29,1.63989
2015-03-30,1.663
2015-03-31,1.632
2015-04-01,1.6469999999999998
2015-04-02,1.66
2015-04-03,1.672
2015-04-04,1.66
2015-04-05,1.6796018181818182
2015-04-06,1.6466666666666665
2015-04-07,1.669
2015-04-08,1.6302
2015-04-09,1.5832
2015-04-10,1.4948164285714287
2015-04-11,1.4527298704062317
2015-04-12,1.42474
2015-04-13,1.3666785714285716
2015-04-14,1.3781307142857142
2015-04-15,1.3783849999999995
2015-04-16,1.4025999999999998
2015-04-17,1.4029999999999998
2015-04-18,1.395
2015-04-19,1.378414
2015-04-20,1.3836454545454544
2015-04-21,1.46104
2015-04-22,1.449175
2015-04-23,1.4432763636363637
2015-04-24,1.40312
2015-04-25,1.392
2015-04-26,1.3297475
2015-04-27,1.4107616666666667
2015-04-28,1.376275
2015-04-29,1.3769028194718094
2015-04-30,1.4530158333333334
2015-05-01,1.41756
2015-05-02,1.42842
2015-05-03,1.4409999999999998
2015-05-04,1.414213333333333
2015-05-05,1.4056666666666666
2015-05-06,1.39985
2015-05-07,1.4506666666666668
2015-05-08,1.491643103448275
2015-05-09,1.4402
2015-05-10,1.4423
2015-05-11,1.445
2015-05-12,1.4403899999999998
2015-05-13,1.4502818468417584
2015-05-14,1.44945
2015-05-15,1.4579
2015-05-16,1.4507433333333333
2015-05-17,1.45297
2015-05-18,1.4416
2015-05-19,1.44996
2015-05-20,1.469799032258065
2015-05-21,1.47267
2015-05-22,1.83653
2015-05-23,1.7866716666666669
2015-05-24,1.825
2015-05-25,1.7997523532858637
2015-05-26,1.81696
2015-05-27,1.84229375
2015-05-28,1.84717
2015-05-29,1.84203
2015-05-30,1.8
2015-05-31,1.6348346153846156
2015-06-01,1.617874166666667
2015-06-02,1.67020125
2015-06-03,1.69584118531925
2015-06-04,1.67
2015-06-05,1.7473333333333334
2015-06-06,1.7696266666666665
2015-06-07,1.7340666666666669
2015-06-08,1.7812799999999998
2015-06-09,1.806945028215574
2015-06-10,1.749
2015-06-11,1.7971400000000002
2015-06-12,1.80145
2015-06-13,1.88
2015-06-14,2.00602
2015-06-15,1.99357
2015-06-16,2.8897354716981134
2015-06-17,2.854924545454545
2015-06-18,3.0708
2015-06-19,2.7382420000000005
2015-06-20,3.032515217344486
2015-06-21,2.9939999999999998
2015-06-22,3.00001
2015-06-23,2.9695750000000003
2015-06-24,2.7771688698987558
2015-06-25,2.8425
2015-06-26,2.8651853846153843
2015-06-27,3.0791987500000007
2015-06-28,3.0921384195343036
2015-06-29,3.7358258333333354
2015-06-30,4.0991575000000005
2015-07-01,3.8967892307692313
2015-07-02,4.0560375
2015-07-03,4.0920999999999985
2015-07-04,4.138128181818183
2015-07-05,4.962674969367691
2015-07-06,5.375229817644598
2015-07-07,5.163211165299924
2015-07-08,6.420059022910997
2015-07-09,7.5609230323118926
2015-07-10,4.429550092556457
2015-07-11,4.295687388935832
2015-07-12,5.268892088039348
2015-07-13,4.649560867786487
2015-07-14,4.554576249999998
2015-07-15,4.131716222008782
2015-07-16,3.6682222682142216
2015-07-17,3.695689230769232
2015-07-18,3.936055
2015-07-19,3.6972893359777017
2015-07-20,3.9304602941176467
2015-07-21,3.74537625
2015-07-22,3.8581937604868304
2015-07-23,3.7413533333333335
2015-07-24,4.590702600860858
2015-07-25,4.5625849999999994
2015-07-26,4.650319230769231
2015-07-27,4.6093714285714285
2015-07-28,4.96183
2015-07-29,4.70034
2015-07-30,4.599036783923023
2015-07-31,4.6221778975085375
2015-08-01,4.162351467155158
2015-08-02,4.1849267723854116
2015-08-03,4.1578836130809185
2015-08-04,4.399505
2015-08-05,4.313326666666668
2015-08-06,4.040756
2015-08-07,4.17502428701526
2015-08-08,3.846543191229802
2015-08-09,3.85287
2015-08-10,3.9415793333333333
2015-08-11,4.158208172373289
2015-08-12,3.969504615384616
2015-08-13,3.81496
2015-08-14,4.03648705882353
2015-08-15,3.8865816666666655
2015-08-16,3.96595
2015-08-17,3.95698
2015-08-18,3.408608156981149
2015-08-19,3.444704
2015-08-20,3.573385
2015-08-21,3.5697
2015-08-22,3.507890757688723
2015-08-23,3.33311625
2015-08-24,3.018230776878238
2015-08-25,2.9337499835703555
2015-08-26,2.9313925
2015-08-27,2.8215133333333333
2015-08-28,2.865488
2015-08-29,2.8631923658308622
2015-08-30,2.8146585
2015-08-31,2.81822
2015-09-01,2.76642
2015-09-02,2.7652099999999997
2015-09-03,2.62293114719065
2015-09-04,2.6911166666666664
2015-09-05,2.91225
2015-09-06,2.9835928571428565
2015-09-07,3.009436428571429
2015-09-08,3.0413433333333337
2015-09-09,2.8989518750000003
2015-09-10,2.9290775
2015-09-11,2.9220599999999997
2015-09-12,2.7964669230769226
2015-09-13,2.816701
2015-09-14,2.8315599999999996
2015-09-15,2.782802
2015-09-16,2.77887
2015-09-17,2.900675454545455
2015-09-18,2.935086666666667
2015-09-19,2.84786
2015-09-20,2.82638
2015-09-21,2.768888571428572
2015-09-22,2.845157857142857
2015-09-23,2.8545975
2015-09-24,2.913798
2015-09-25,2.8526
2015-09-26,2.86132
2015-09-27,2.8503
2015-09-28,3.0355648338768813
2015-09-29,2.9439059259259266
2015-09-30,2.993025
2015-10-01,2.9864533333333334
2015-10-02,2.9551225
2015-10-03,2.99711
2015-10-04,2.9754
2015-10-05,3.035289673604638
2015-10-06,3.099
2015-10-07,3.017068333333334
2015-10-08,3.06877
2015-10-09,3.0752420000000003
2015-10-10,3.070965
2015-10-11,3.1145
2015-10-12,3.091335
2015-10-13,3.156257142857142
2015-10-14,3.1015333333333337
2015-10-15,3.0809922222222217
2015-10-16,3.0686166666666668
2015-10-17,2.998305
2015-10-18,2.96833
2015-10-19,3.01162
2015-10-20,3.0560916666666667
2015-10-21,3.034998
2015-10-22,3.0483075675675684
2015-10-23,3.04868
2015-10-24,3.0508176923076915
2015-10-25,3.0003379999999997
2015-10-26,3.0562220000000004
2015-10-27,3.070844
2015-10-28,3.0249669999999997
2015-10-29,3.661966944444445
2015-10-30,3.8242800000000003
2015-10-31,3.54799875
2015-11-01,3.599502623168131
2015-11-02,3.82467
2015-11-03,4.358059047619047
2015-11-04,4.004652694468982
2015-11-05,3.773819333333334
2015-11-06,3.4079519999999994
2015-11-07,3.4534442857142857
2015-11-08,3.329947826086957
2015-11-09,3.3054216666666663
2015-11-10,3.098740588235294
2015-11-11,2.9349672222222223
2015-11-12,3.2594681818181814
2015-11-13,3.2135908823529404
2015-11-14,3.1640999999999995
2015-11-15,3.0266581250000004
2015-11-16,3.1793260000000005
2015-11-17,3.167174
2015-11-18,3.162654166666668
2015-11-19,3.1243120000000006
2015-11-20,3.1014966666666663
2015-11-21,3.1279636842105254
2015-11-22,3.11674
2015-11-23,3.101986666666667
2015-11-24,3.08623
2015-11-25,3.360888119247699
2015-11-26,3.537687614138008
2015-11-27,3.52259625
2015-11-28,3.504226
2015-11-29,3.646485714285714
2015-11-30,3.56737
2015-12-01,3.4070400000000003
2015-12-02,3.323049994884036
2015-12-03,3.3397933333333327
2015-12-04,3.3233
2015-12-05,3.4632668181818183
2015-12-06,3.4142528947368413
2015-12-07,3.550186666666667
2015-12-08,3.7108545473791303
2015-12-09,3.6321866666666667
2015-12-10,3.619
2015-12-11,3.8308417849851586
2015-12-12,3.5846709758795066
2015-12-13,3.521201333333333
2015-12-14,3.572983333333333
2015-12-15,3.7414016666666665
2015-12-16,3.6002708333333335
2015-12-17,3.691543202892421
2015-12-18,3.6807366666666663
2015-12-19,3.684036666666666
2015-12-20,3.496939957024715
2015-12-21,3.423712727272728
2015-12-22,3.38869
2015-12-23,3.5547533333333328
2015-12-24,3.601695555555555
2015-12-25,3.568865
2015-12-26,3.4272313333333333
2015-12-27,3.4880577777777777
2015-12-28,3.448525
2015-12-29,3.4911504258875583
2015-12-30,3.45
2015-12-31,3.455
2016-01-01,3.5189
2016-01-02,3.47
2016-01-03,3.45202
2016-01-04,3.5050541666666657
2016-01-05,3.47289
2016-01-06,3.44549
2016-01-07,3.62
2016-01-08,3.54332
2016-01-09,3.53
2016-01-10,3.5292175
2016-01-11,3.54576
2016-01-12,3.483881056599964
2016-01-13,3.48004
2016-01-14,3.4894300000000005
2016-01-15,2.9841553815273825
2016-01-16,3.082461086956522
2016-01-17,2.9994622222222223
2016-01-18,3.0351
2016-01-19,3.0170055555555555
2016-01-20,3.3779626315789466
2016-01-21,3.2286799999999998
2016-01-22,3.109995
2016-01-23,3.13
2016-01-24,3.17495
2016-01-25,3.14
2016-01-26,3.13455
2016-01-27,3.2878
2016-01-28,3.114555
2016-01-29,3.101395
2016-01-30,3.09222
2016-01-31,3.0317733333333337
2016-02-01,3.10353
2016-02-02,3.053
2016-02-03,3.0408130000000004
2016-02-04,3.15166
2016-02-05,3.113
2016-02-06,3.05
2016-02-07,3.0481
2016-02-08,3.075537142857143
2016-02-09,3.0815599999999996
2016-02-10,3.1
2016-02-11,3.09044
2016-02-12,3.111678571428572
2016-02-13,3.110118
2016-02-14,3.17995
2016-02-15,3.1301
2016-02-16,3.17099
2016-02-17,3.17947
2016-02-18,3.1900000000000004
2016-02-19,3.20111
2016-02-20,3.4232463636363644
2016-02-21,3.41
2016-02-22,3.45815
2016-02-23,3.384
2016-02-24,3.34
2016-02-25,3.34027
2016-02-26,3.4092510110899785
2016-02-27,3.4007
2016-02-28,3.407068
2016-02-29,3.3876
2016-03-01,3.37466
2016-03-02,3.3447288697887982
2016-03-03,3.302045
2016-03-04,3.227527414866094
2016-03-05,3.1882650000000003
2016-03-06,3.199005
2016-03-07,3.2434525451579823
2016-03-08,3.21888
2016-03-09,3.254890526315789
2016-03-10,3.24935
2016-03-11,3.365
2016-03-12,3.2824
2016-03-13,3.2812070000000007
2016-03-14,3.2807222222222223
2016-03-15,3.2929
2016-03-16,3.308496666666666
2016-03-17,3.28854
2016-03-18,3.17335
2016-03-19,3.1729966666666662
2016-03-20,3.19259
2016-03-21,3.171565
2016-03-22,3.2216683333333336
2016-03-23,3.21781
2016-03-24,3.209566666666667
2016-03-25,3.2132366666666665
2016-03-26,3.19378
2016-03-27,3.2625644444444446
2016-03-28,3.27
2016-03-29,3.222
2016-03-30,3.219
2016-03-31,3.2505
2016-04-01,3.225
2016-04-02,3.23641
2016-04-03,3.21606
2016-04-04,3.21698
2016-04-05,3.2125
2016-04-06,3.2110000000000003
2016-04-07,3.2022
2016-04-08,3.2324
2016-04-09,3.2021
2016-04-10,3.21
2016-04-11,3.217
2016-04-12,3.22329
2016-04-13,3.2124200000000003
2016-04-14,3.2145599999999996
2016-04-15,3.234
2016-04-16,3.26051
2016-04-17,3.22255
2016-04-18,3.23
2016-04-19,3.300025
2016-04-20,3.3015
2016-04-21,3.31992
2016-04-22,3.2510000000000003
2016-04-23,3.3579522222222216
2016-04-24,3.6462
2016-04-25,3.7639290909090906
2016-04-26,4.0331238888888885
2016-04-27,3.878936875
2016-04-28,3.72383
2016-04-29,3.77
2016-04-30,3.662275
2016-05-01,3.685
2016-05-02,3.67988
2016-05-03,3.738
2016-05-04,3.732549
2016-05-05,3.6910433333333335
2016-05-06,3.7504452941176467
2016-05-07,3.9155
2016-05-08,3.89685
2016-05-09,4.004055999999999
2016-05-10,3.809933333333333
2016-05-11,3.86
2016-05-12,3.85339
2016-05-13,3.91755
2016-05-14,4.0181
2016-05-15,4.0618375
2016-05-16,3.9900000000000015
2016-05-17,3.970056666666667
2016-05-18,3.99917
2016-05-19,3.8126908305589504
2016-05-20,3.8730075
2016-05-21,3.935832
2016-05-22,3.8383
2016-05-23,3.97184
2016-05-24,3.9421
2016-05-25,4.0604
2016-05-26,4.075645
2016-05-27,4.4084575
2016-05-28,4.366312857142858
2016-05-29,4.4566300000000005
2016-05-30,4.512230769230769
2016-05-31,4.5087775
2016-06-01,4.62
2016-06-02,4.7162
2016-06-03,4.772233333333333
2016-06-04,4.82
2016-06-05,4.7
2016-06-06,4.99629
2016-06-07,4.662802
2016-06-08,4.667
2016-06-09,4.6389999999999985
2016-06-10,4.81065
2016-06-11,4.918611764705883
2016-06-12,5.178112499999998
2016-06-13,5.2436181818181815
2016-06-14,5.0959666666666665
2016-06-15,5.234669999999999
2016-06-16,5.413914581549561
2016-06-17,5.76260434084944
2016-06-18,5.505330000000001
2016-06-19,5.435593333333332
2016-06-20,5.063795555555553
2016-06-21,4.70897
2016-06-22,3.799569487814148
2016-06-23,3.7989
2016-06-24,4.262028181818182
2016-06-25,4.0884
2016-06-26,3.95231
2016-06-27,4.0746060010757335
2016-06-28,3.9703
2016-06-29,3.96166
2016-06-30,4.098319999999998
2016-07-01,4.17662
2016-07-02,4.549066666666667
2016-07-03,4.21795
2016-07-04,4.5273
2016-07-05,4.3453
2016-07-06,4.37
2016-07-07,4.0300625
2016-07-08,4.1099
2016-07-09,4.05
2016-07-10,4.05
2016-07-11,4.04614
2016-07-12,4.076303333333333
2016-07-13,4.1147599999999995
2016-07-14,4.129955000000001
2016-07-15,4.09951
2016-07-16,4.16
2016-07-17,4.12036
2016-07-18,4.0624
2016-07-19,4.1006
2016-07-20,4.08
2016-07-21,4.1
2016-07-22,4.0360000000000005
2016-07-23,3.9889
2016-07-24,4.06187
2016-07-25,3.98835
2016-07-26,3.944
2016-07-27,3.93355
2016-07-28,3.99245
2016-07-29,4.0573266666666665
2016-07-30,4.0366
2016-07-31,3.93749
2016-08-01,3.8483388323236167
2016-08-02,3.64362825
2016-08-03,3.71672
2016-08-04,3.76822
2016-08-05,3.7480000000000016
2016-08-06,3.756
2016-08-07,3.78457
2016-08-08,3.7585
2016-08-09,3.71869
2016-08-10,3.72485
2016-08-11,3.7340199999999997
2016-08-12,3.6753617140475208
2016-08-13,3.7044
2016-08-14,3.6255242857142855
2016-08-15,3.5367381250000003
2016-08-16,3.621
2016-08-17,3.58666
2016-08-18,3.59287
2016-08-19,3.59696
2016-08-20,3.5979900000000002
2016-08-21,3.58796
2016-08-22,3.649408897423576
2016-08-23,3.934508823529411
2016-08-24,3.853698888888889
2016-08-25,3.790375
2016-08-26,3.8095
2016-08-27,3.7511550000000002
2016-08-28,3.7306175
2016-08-29,3.762935
2016-08-30,3.81058125
2016-08-31,3.82064
2016-09-01,3.841
2016-09-02,3.82608
2016-09-03,3.90288
2016-09-04,3.96011
2016-09-05,3.93366
2016-09-06,3.95
2016-09-07,3.9937666666666667
2016-09-08,4.01
2016-09-09,3.9529
2016-09-10,3.973230000000001
2016-09-11,3.870000000000001
2016-09-12,3.80371
2016-09-13,3.83933
2016-09-14,3.83
2016-09-15,3.8383183333333335
2016-09-16,3.8156
2016-09-17,3.81202
2016-09-18,3.81697
2016-09-19,3.78875
2016-09-20,3.815125216881509
2016-09-21,3.77
2016-09-22,3.75383
2016-09-23,3.83
2016-09-24,3.8237099999999997
2016-09-25,3.82
2016-09-26,3.86644
2016-09-27,3.85
2016-09-28,3.840435
2016-09-29,3.857658571428572
2016-09-30,3.81
2016-10-01,3.85
2016-10-02,3.8247
2016-10-03,3.8299999999999987
2016-10-04,3.815
2016-10-05,3.8104
2016-10-06,3.7983
2016-10-07,3.8500405
2016-10-08,3.82
2016-10-09,3.814645
2016-10-10,3.7873016666666666
2016-10-11,3.824258333333333
2016-10-12,3.791958
2016-10-13,3.87826
2016-10-14,3.875959
2016-10-15,3.93
2016-10-16,3.850005
2016-10-17,3.836
2016-10-18,3.826999
2016-10-19,3.79562
2016-10-20,3.77
2016-10-21,3.829999
2016-10-22,3.824101
2016-10-23,3.8798333333333335
2016-10-24,3.838847439661032
2016-10-25,3.8945953728813536
2016-10-26,3.9272827298969
2016-10-27,3.99101309375
2016-10-28,3.9369980000000004
2016-10-29,4.0200010000000015
2016-10-30,3.9512849166666673
2016-10-31,3.982533333333333
2016-11-01,4.049999333333333
2016-11-02,4.0520446250000015
2016-11-03,3.848112
2016-11-04,3.89
2016-11-05,3.91481
2016-11-06,3.827741935483867
2016-11-07,3.799999
2016-11-08,3.778
2016-11-09,3.802001
2016-11-10,3.771404
2016-11-11,3.85
2016-11-12,3.755002
2016-11-13,3.863056083333334
2016-11-14,3.8533333333333335
2016-11-15,3.838936
2016-11-16,3.87393025
2016-11-17,3.8656946666666654
2016-11-18,3.86673
2016-11-19,3.8853145
2016-11-20,3.89
2016-11-21,3.920802
2016-11-22,3.865948
2016-11-23,3.913598333333333
2016-11-24,3.8785445
2016-11-25,3.9003
2016-11-26,3.830275
2016-11-27,3.868624
2016-11-28,3.85101
2016-11-29,3.823886666666666
2016-11-30,3.83259061111111
2016-12-01,3.831
2016-12-02,3.889999
2016-12-03,3.865884
2016-12-04,3.868812
2016-12-05,3.4702398226509965
2016-12-06,3.4963940000000004
2016-12-07,3.6202353333333335
2016-12-08,3.67350039248404
2016-12-09,3.6639
2016-12-10,3.627429
2016-12-11,3.633197
2016-12-12,3.6058257692307696
2016-12-13,3.62
2016-12-14,3.5655
2016-12-15,3.59972405263158
2016-12-16,3.588999
2016-12-17,3.6611626666666655
2016-12-18,3.645999
2016-12-19,3.61104164
2016-12-20,3.62
2016-12-21,3.61000025
2016-12-22,3.611064
2016-12-23,4.5344756
2016-12-24,4.3599893750000005
2016-12-25,4.153302
2016-12-26,4.1058015
2016-12-27,4.3633
2016-12-28,4.3480002
2016-12-29,4.3531130000000005
2016-12-30,4.3306805
2016-12-31,4.162514
2017-01-01,4.320906000000001
2017-01-02,4.42659408695652
2017-01-03,4.437427333333334
2017-01-04,4.472713819612738
2017-01-05,4.075179333333334
2017-01-06,3.6703775000000007
2017-01-07,3.711277
2017-01-08,3.8049839999999997
2017-01-09,4.189665857142857
2017-01-10,4.438408407407407
2017-01-11,3.926133333333334
2017-01-12,3.95361175
2017-01-13,3.8982358333333336
2017-01-14,3.93745
2017-01-15,3.8923666666666654
2017-01-16,3.4099915000000003
2017-01-17,3.9413448
2017-01-18,3.828225888888889
2017-01-19,3.783596
2017-01-20,3.86
2017-01-21,3.9208
2017-01-22,3.8000870000000004
2017-01-23,3.7949495
2017-01-24,3.7492080000000003
2017-01-25,3.71801
2017-01-26,3.8368
2017-01-27,3.85816
2017-01-28,3.8558
2017-01-29,3.8351
2017-01-30,4.1421
2017-01-31,4.12475
2017-02-01,4.07618
2017-02-02,4.085057142857143
2017-02-03,4.00282
2017-02-04,4.012
2017-02-05,3.9555
2017-02-06,3.95043
2017-02-07,3.98
2017-02-08,3.97
2017-02-09,3.6596853874488775
2017-02-10,3.778465
2017-02-11,3.7523336666666665
2017-02-12,3.7194
2017-02-13,3.79
2017-02-14,3.8149669999999998
2017-02-15,3.826045
2017-02-16,3.86
2017-02-17,3.818832
2017-02-18,3.7678585
2017-02-19,3.718663
2017-02-20,3.74875
2017-02-21,3.8566
2017-02-22,3.773246666666666
2017-02-23,3.897287388189727
2017-02-24,3.949995
2017-02-25,3.9
2017-02-26,3.776096666666666
2017-02-27,3.7881039999999992
2017-02-28,3.7603333333333335
2017-03-01,3.816250642857143
2017-03-02,3.949448333333333
2017-03-03,3.991022
2017-03-04,3.962542833333334
2017-03-05,3.97433577254446
2017-03-06,4.037914166666667
2017-03-07,3.99
2017-03-08,3.772
2017-03-09,3.8700695
2017-03-10,3.7392044547388266
2017-03-11,3.778
2017-03-12,3.837999
2017-03-13,4.3571888888888894
2017-03-14,4.124972909090909
2017-03-15,4.2917457500000005
2017-03-16,4.410737000000001
2017-03-17,4.1929383210781115
2017-03-18,4.077049825238245
2017-03-19,3.9820375
2017-03-20,4.115272
2017-03-21,4.0803059220755635
2017-03-22,4.051500666666667
2017-03-23,4.09012288235294
2017-03-24,4.200078752662328
2017-03-25,4.1065299999999985
2017-03-26,4.081239999999998
2017-03-27,4.08
2017-03-28,4.210861951058218
2017-03-29,4.316742857142857
2017-03-30,7.492053881298161
2017-03-31,7.099776467960496
2017-04-01,7.500268052631579
2017-04-02,8.254158811290553
2017-04-03,8.583481156069999
2017-04-04,9.01247710533156
2017-04-05,12.185778691831056
2017-04-06,10.773128970515726
2017-04-07,9.946385085560811
2017-04-08,10.748162096774195
2017-04-09,9.211315076923078
2017-04-10,9.868006923076925
2017-04-11,9.754633333333333
2017-04-12,11.732644339820359
2017-04-13,11.152961302443046
2017-04-14,11.680525723538263
2017-04-15,11.734333208333334
2017-04-16,11.7
2017-04-17,11.228841864665373
2017-04-18,11.346379882352938
2017-04-19,10.454812512266324
2017-04-20,11.51461479891291
2017-04-21,12.135840524853512
2017-04-22,14.357332265026256
2017-04-23,15.87447826086957
2017-04-24,15.606010580541248
2017-04-25,15.373603929851965
2017-04-26,15.170589824846546
2017-04-27,15.551881004221286
2017-04-28,14.570006872652428
2017-04-29,16.39252983741017
2017-04-30,16.268319285714277
2017-05-01,16.655800077976167
2017-05-02,16.697499999999998
2017-05-03,21.261242909494836
2017-05-04,23.57787209888367
2017-05-05,25.375177941487035
2017-05-06,27.95660814881448
2017-05-07,30.281551911648826
2017-05-08,28.68819061574129
2017-05-09,33.206229855488964
2017-05-10,32.25618622588312
2017-05-11,30.57032769444444
2017-05-12,27.36744594981719
2017-05-13,28.822592250414747
2017-05-14,28.980451171032072
2017-05-15,25.439833478741413
2017-05-16,23.336690813756213
2017-05-17,25.438461225591897
2017-05-18,28.273773302261837
2017-05-19,27.310951035714282
2017-05-20,27.0031890424929
2017-05-21,25.739616986302394
2017-05-22,24.33614022108904
2017-05-23,30.740003432634648
2017-05-24,33.57226162739518
2017-05-25,27.56302918299837
2017-05-26,24.98165239507967
2017-05-27,21.8910794331044
2017-05-28,24.13258726069354
2017-05-29,25.32514529329133
2017-05-30,23.70406510416975
2017-05-31,25.66358465217391
2017-06-01,26.825447126465512
2017-06-02,27.41603450864195
2017-06-03,26.879268739896194
2017-06-04,27.535853440031875
2017-06-05,30.306120159966774
2017-06-06,29.980642387923
2017-06-07,28.38208274509804
2017-06-08,29.840180312499985
2017-06-09,29.134180331997626
2017-06-10,29.304969703686186
2017-06-11,33.55187335656705
2017-06-12,28.703898520819052
2017-06-13,30.031312259131237
2017-06-14,28.97693707825071
2017-06-15,28.925918565150674
2017-06-16,33.62097565974957
2017-06-17,45.70420875141391
2017-06-18,43.084323823595305
2017-06-19,47.245812381078785
2017-06-20,45.28272628565868
2017-06-21,43.854177579800826
2017-06-22,45.83458960812045
2017-06-23,45.09901613584479
2017-06-24,42.816843374999976
2017-06-25,40.73739282290368
2017-06-26,38.299889624322795
2017-06-27,39.458148063014406
2017-06-28,41.75950439576768
2017-06-29,39.667165963972785
2017-06-30,39.16589721758147
2017-07-01,37.915044200000004
2017-07-02,41.01567392612228
2017-07-03,44.805346619893506
2017-07-04,54.07090369787461
2017-07-05,52.84403048435885
2017-07-06,50.85712799395184
2017-07-07,45.97789804612825
2017-07-08,51.06166346422603
2017-07-09,48.14618067118492
2017-07-10,44.85511051022335
2017-07-11,43.67338048457992
2017-07-12,46.65504471877848
2017-07-13,45.26764920528458
2017-07-14,42.376796225976456
2017-07-15,38.276010077965545
2017-07-16,40.750235184437145
2017-07-17,41.93324503360089
2017-07-18,43.4392535237513
2017-07-19,39.92468681215379
2017-07-20,44.11971853135769
2017-07-21,45.2952931248396
2017-07-22,45.606488993100655
2017-07-23,44.89563181818182
2017-07-24,44.75732507362125
2017-07-25,42.192041958287675
2017-07-26,41.91805027976617
2017-07-27,41.785421138327216
2017-07-28,40.350679814827245
2017-07-29,41.01895669587656
2017-07-30,40.39995454545454
2017-07-31,42.261616169895255
2017-08-01,43.073185101400355
2017-08-02,41.73217252322048
2017-08-03,42.52540954109529
2017-08-04,43.02106366666667
2017-08-05,46.192721259915025
2017-08-06,45.42254368825143
2017-08-07,45.96402325342177
2017-08-08,48.992547553978994
2017-08-09,47.6937670812573
2017-08-10,46.83471595328813
2017-08-11,47.1576383168287
2017-08-12,46.212344820521814
2017-08-13,45.21440700228989
2017-08-14,45.62679026930354
2017-08-15,43.01249685160615
2017-08-16,43.82625844819165
2017-08-17,43.81969363414635
2017-08-18,46.75210274133792
2017-08-19,45.09326281398975
2017-08-20,45.7505781213784
2017-08-21,47.942543774378386
2017-08-22,46.371340237303656
2017-08-23,53.09593219105727
2017-08-24,50.27268203381114
2017-08-25,51.11642277121202
2017-08-26,51.53590072760097
2017-08-27,60.76507556407736
2017-08-28,62.20698324320842
2017-08-29,63.565315303905614
2017-08-30,65.72602643316439
2017-08-31,73.1349970484702
2017-09-01,88.31078354662452
2017-09-02,79.72823186627646
2017-09-03,79.33295363732263
2017-09-04,68.89506701007042
2017-09-05,73.72847060524394
2017-09-06,81.40845290367372
2017-09-07,80.32322210330355
2017-09-08,73.14376747196192
2017-09-09,71.20828372187209
2017-09-10,67.26578496660692
2017-09-11,68.17717738971197
2017-09-12,66.02768301213057
2017-09-13,61.7391602959854
2017-09-14,45.42541231869009
2017-09-15,52.07020416644145
2017-09-16,52.16182507785131
2017-09-17,50.9368456045537
2017-09-18,56.30148699887968
2017-09-19,52.84794493580385
2017-09-20,51.44978506338319
2017-09-21,46.493000657134935
2017-09-22,47.74672952465379
2017-09-23,49.265009068216294
2017-09-24,47.63481375686554
2017-09-25,52.25562416309061
2017-09-26,52.29949071845
2017-09-27,56.90286003877811
2017-09-28,54.85068299142785
2017-09-29,52.686448730274755
2017-09-30,55.415783942335075
2017-10-01,54.75566094248124
2017-10-02,53.35045101455255
2017-10-03,52.120641962924566
2017-10-04,51.172496034797284
2017-10-05,51.668448275862076
2017-10-06,52.06778660778895
2017-10-07,52.57086841253237
2017-10-08,53.328932326072376
2017-10-09,50.069952040431865
2017-10-10,50.47815229387824
2017-10-11,50.79485147846247
2017-10-12,59.42407539660334
2017-10-13,59.01858186103176
2017-10-14,63.55794612000904
2017-10-15,65.52585306301344
2017-10-16,64.74073670700794
2017-10-17,59.1468913203069
2017-10-18,60.52163302522057
2017-10-19,59.79190084534014
2017-10-20,60.18315352567233
2017-10-21,58.03926006564047
2017-10-22,56.66998363612786
2017-10-23,54.54109243503984
2017-10-24,55.604077876759106
2017-10-25,56.25726695769613
2017-10-26,55.5916923076923
2017-10-27,55.0917879854218
2017-10-28,54.487563036701886
2017-10-29,56.86584060063218
2017-10-30,56.143061330380284
2017-10-31,55.4357099438062
2017-11-01,52.83262976341563
2017-11-02,54.18321732662504
2017-11-03,55.9035693377346
2017-11-04,55.04845653273963
2017-11-05,54.64316049127611
2017-11-06,54.574275772027065
2017-11-07,60.67615662974225
2017-11-08,62.4146106297505
2017-11-09,64.12970741094907
2017-11-10,58.884391333458396
2017-11-11,62.35394773273232
2017-11-12,58.72253580603701
2017-11-13,60.92214583037267
2017-11-14,62.28888005378185
2017-11-15,63.220902680485935
2017-11-16,70.7083919812728
2017-11-17,67.34815100042934
2017-11-18,69.41083493382818
2017-11-19,71.6860768684781
2017-11-20,72.41011322146159
2017-11-21,69.87295200022079
2017-11-22,72.10944687769032
2017-11-23,72.89366575506807
2017-11-24,77.47976022159405
2017-11-25,88.84118083572822
2017-11-26,86.05917497710493
2017-11-27,90.3803889737402
2017-11-28,94.18022523449748
2017-11-29,84.46613617030425
2017-11-30,86.42066422332853
2017-12-01,99.30286415003368
2017-12-02,99.44700219061316
2017-12-03,101.22580696373232
2017-12-04,103.81426806582613
2017-12-05,100.7268765485344
2017-12-06,98.34013090775758
2017-12-07,95.76522362216923
2017-12-08,122.497729897408
2017-12-09,154.55855051514297
2017-12-10,146.33840946104056
2017-12-11,214.86841975094228
2017-12-12,333.15077329761937
2017-12-13,303.423815462311
2017-12-14,278.51745602988734
2017-12-15,300.20606949093417
2017-12-16,300.8235454007502
2017-12-17,321.39768765688086
2017-12-18,355.8919273772805
2017-12-19,345.5578212242994
2017-12-20,304.4207137834274
2017-12-21,306.87833834532904
2017-12-22,262.6583996581099
2017-12-23,282.09031202116023
2017-12-24,270.54469718823015
2017-12-25,270.6577940699175
2017-12-26,281.5924638456853
2017-12-27,268.25307227826204
2017-12-28,250.35033457616532
2017-12-29,244.18628167610356
2017-12-30,212.68387541989648
2017-12-31,227.43445390074646
2018-01-01,226.11263804996483
2018-01-02,251.65652010811542
2018-01-03,244.75263831687846
2018-01-04,238.83184086521882
2018-01-05,245.08413078630053
2018-01-06,279.36502274795384
2018-01-07,272.47966660609796
2018-01-08,256.71011525217017
2018-01-09,247.47399102319847
2018-01-10,250.70666958036395
2018-01-11,229.79656185187042
2018-01-12,235.66032859845203
2018-01-13,259.4051398934004
2018-01-14,240.07857358567082
2018-01-15,234.11991704954158
2018-01-16,188.95945788840004
2018-01-17,188.06056542573083
2018-01-18,192.9612358152416
2018-01-19,196.86562653975614
2018-01-20,212.7584252593024
2018-01-21,191.23425277225877
2018-01-22,180.63714614062505
2018-01-23,178.99583332882364
2018-01-24,181.06889890122173
2018-01-25,179.55536245343984
2018-01-26,177.92833215882953
2018-01-27,181.332519147479
2018-01-28,194.06698362976695
2018-01-29,182.4633807419001
2018-01-30,164.18746348444142
2018-01-31,163.29673004214663
2018-02-01,142.34615326515674
2018-02-02,132.02461352071458
2018-02-03,162.35219015887918
2018-02-04,147.95376769054326
2018-02-05,125.2814215287862
2018-02-06,142.49104321738918
2018-02-07,138.73822780313418
2018-02-08,150.71988115819568
2018-02-09,163.9051583047681
2018-02-10,155.41507768004206
2018-02-11,149.55009284042538
2018-02-12,162.45813535934474
2018-02-13,160.10986074156583
2018-02-14,212.53789157517448
2018-02-15,222.7865894205675
2018-02-16,230.38
2018-02-17,229.535
2018-02-18,216.459
2018-02-19,223.07
2018-02-20,232.851
2018-02-21,213.352
2018-02-22,195.308
2018-02-23,209.309
2018-02-24,209.422
2018-02-25,220.475
2018-02-26,220.962
2018-02-27,216.599
2018-02-28,202.895
2018-03-01,209.75
2018-03-02,212.556
2018-03-03,210.643
2018-03-04,213.799
2018-03-05,211.175
2018-03-06,196.601
2018-03-07,185.839
2018-03-08,176.511
2018-03-09,187.168
2018-03-10,177.732
2018-03-11,188.946
2018-03-12,178.234
2018-03-13,175.782
2018-03-14,161.101
2018-03-15,164.476
2018-03-16,165.45
2018-03-17,152.969
2018-03-18,154.074
2018-03-19,161.142
2018-03-20,168.817
2018-03-21,169.052
2018-03-22,163.584
2018-03-23,165.937
2018-03-24,160.482
2018-03-25,160.084
2018-03-26,149.14
2018-03-27,136.066
2018-03-28,131.643
2018-03-29,115.106
2018-03-30,118.598
2018-03-31,116.541
2018-04-01,115.222
2018-04-02,119.076
2018-04-03,134.302
2018-04-04,118.573
2018-04-05,119.131
2018-04-06,113.075
2018-04-07,116.202
2018-04-08,117.447
2018-04-09,114.864
2018-04-10,114.288
2018-04-11,114.962
2018-04-12,
2018-04-13,
2018-04-14,
2018-04-15,
2018-04-16,128.287
2018-04-17,132.921
2018-04-18,139.967
2018-04-19,146.178
2018-04-20,155.583
2018-04-21,148.284
2018-04-22,146.854
2018-04-23,152.108
2018-04-24,165.654
2018-04-25,144.056
2018-04-26,153.823
2018-04-27,145.905
2018-04-28,152.332
2018-04-29,153.637
2018-04-30,148.289
2018-05-01,148.545
2018-05-02,151.664
2018-05-03,161.57
2018-05-04,168.811
2018-05-05,177.731
2018-05-06,171.789
2018-05-07,164.585
2018-05-08,159.857
2018-05-09,157.021
2018-05-10,149.337
2018-05-11,137.416
2018-05-12,141.996
2018-05-13,144.942
2018-05-14,147.714
2018-05-15,139.82
2018-05-16,139.268
2018-05-17,132.773
2018-05-18,135.979
2018-05-19,135.328
2018-05-20,139.698
2018-05-21,134.446
2018-05-22,128.757
2018-05-23,119.388
2018-05-24,122.576
2018-05-25,119.163
2018-05-26,118.553
2018-05-27,117.949
2018-05-28,111.806
2018-05-29,119.592
2018-05-30,117.577
2018-05-31,117.969
2018-06-01,120.112
2018-06-02,123.41
2018-06-03,125.5
2018-06-04,119.753
2018-06-05,121.545
2018-06-06,121.419
2018-06-07,121.288
2018-06-08,120.098
2018-06-09,118.415
2018-06-10,106.924
2018-06-11,107.298
2018-06-12,100.19
2018-06-13,94.0151
2018-06-14,101.046
2018-06-15,96.6714
2018-06-16,97.5317
2018-06-17,95.9984
2018-06-18,98.779
2018-06-19,98.8214
2018-06-20,97.8743
2018-06-21,96.9625
2018-06-22,85.0282
2018-06-23,82.5862
2018-06-24,80.8426
2018-06-25,81.8566
2018-06-26,76.8537
2018-06-27,80.7462
2018-06-28,74.9298
2018-06-29,78.8902
2018-06-30,81.4717
2018-07-01,80.3279
2018-07-02,85.1872
2018-07-03,85.1852
2018-07-04,85.4997
2018-07-05,83.7564
2018-07-06,83.6539
2018-07-07,86.1363
2018-07-08,82.5203
2018-07-09,80.9067
2018-07-10,76.0956
2018-07-11,78.5618
2018-07-12,76.8086
2018-07-13,76.9593
2018-07-14,76.8107
2018-07-15,78.939
2018-07-16,84.5252
2018-07-17,89.8061
2018-07-18,86.9621
2018-07-19,86.649
2018-07-20,82.7546
2018-07-21,84.4728
2018-07-22,83.1562
2018-07-23,82.4623
2018-07-24,89.2932
2018-07-25,86.2817
2018-07-26,84.0156
2018-07-27,84.4693
2018-07-28,83.6737
2018-07-29,84.0266
2018-07-30,82.742816594
2018-07-31,79.9677270794
2018-08-01,77.8556227225
2018-08-02,76.3189589686
2018-08-03,77.6109035069
2018-08-04,73.2406898702
2018-08-05,74.977133119
2018-08-06,73.9135187269
2018-08-07,68.3162251526
2018-08-08,62.4904159334
2018-08-09,64.0004080865
2018-08-10,59.3939803569
2018-08-11,58.2966140283
2018-08-12,59.476109028
2018-08-13,56.9370557642
2018-08-14,54.5594410781
2018-08-15,54.4968756471
2018-08-16,55.3094380981
2018-08-17,61.5475050935
2018-08-18,57.2111911221
2018-08-19,57.9389562934
2018-08-20,53.9961807267
2018-08-21,56.632904514
2018-08-22,55.1610598633
2018-08-23,57.5434339845
2018-08-24,57.9346208496
2018-08-25,57.9079405107
2018-08-26,57.2900829759
2018-08-27,60.3351832953
2018-08-28,63.0243660597
2018-08-29,61.8598373509
2018-08-30,60.1250070877
2018-08-31,61.9789419353
2018-09-01,66.2619808672
2018-09-02,65.9268654483
2018-09-03,65.3585626732
2018-09-04,67.5765424601
2018-09-05,58.4376721985
2018-09-06,57.3489950175
2018-09-07,56.2098737134
2018-09-08,53.2940083868
2018-09-09,54.9527663463
2018-09-10,54.5957663282
2018-09-11,52.3264038083
2018-09-12,51.7803952983
2018-09-13,54.5909804947
2018-09-14,56.5764850166
2018-09-15,56.7131450532
2018-09-16,56.9950995808
2018-09-17,52.540537556
2018-09-18,54.1709051159
2018-09-19,54.334532089
2018-09-20,56.630988392
2018-09-21,60.7228125338
2018-09-22,60.4365554958
2018-09-23,61.3910927834
2018-09-24,57.96913943
2018-09-25,57.5661743389
2018-09-26,57.4474531622
2018-09-27,62.979423681
2018-09-28,61.9152866686
2018-09-29,61.606913851
2018-09-30,61.1419206088
2018-10-01,60.273418099
2018-10-02,59.7053879101
2018-10-03,57.4774991073
2018-10-04,58.2577824667
2018-10-05,58.7661669808
2018-10-06,57.8441354876
2018-10-07,58.2452717033
2018-10-08,59.4126147686
2018-10-09,58.6976816193
2018-10-10,57.9315172531
2018-10-11,50.9802607962
2018-10-12,53.5774669133
2018-10-13,53.4118535555
2018-10-14,52.1198135486
2018-10-15,54.9728748767
2018-10-16,54.1724742231
2018-10-17,53.6735323955
2018-10-18,52.4641339347
2018-10-19,53.0784763489
2018-10-20,53.3433699514
2018-10-21,52.9138713065
2018-10-22,52.2441788833
2018-10-23,52.4544323997
2018-10-24,52.5150492276
2018-10-25,52.2345570606
2018-10-26,52.0988499393
2018-10-27,51.9319806075
2018-10-28,51.9487745294
2018-10-29,49.0130075374
2018-10-30,49.3549746048
2018-10-31,49.4119884567
2018-11-01,50.297644068
2018-11-02,51.2975594831
2018-11-03,50.984581546
2018-11-04,53.6124684928
2018-11-05,53.557305155
2018-11-06,55.931129242
2018-11-07,54.1745335389
2018-11-08,52.4592127962
2018-11-09,51.8871556876
2018-11-10,52.3306403777
2018-11-11,51.3820947746
2018-11-12,50.6077685425
2018-11-13,49.6703284309
2018-11-14,43.4928992945
2018-11-15,43.9482580432
2018-11-16,42.3758155203
2018-11-17,41.9095079408
2018-11-18,42.3222489151
2018-11-19,36.6968559245
2018-11-20,32.8331983691
2018-11-21,34.6705963713
2018-11-22,32.3396168771
2018-11-23,32.2455248634
2018-11-24,29.204562859
2018-11-25,30.9399199626
2018-11-26,29.3574131102
2018-11-27,31.0112268701
2018-11-28,34.6511678065
2018-11-29,33.7629140102
2018-11-30,32.0656918267
2018-12-01,34.448076523
2018-12-02,33.7119217302
2018-12-03,31.1132603332
2018-12-04,31.7227740137
2018-12-05,29.2952391188
2018-12-06,26.9436599533
2018-12-07,25.27258518
2018-12-08,24.8349977864
2018-12-09,25.9688097247
2018-12-10,24.6391452504
2018-12-11,23.8264820569
2018-12-12,24.4294422821
2018-12-13,23.6886723805
2018-12-14,23.4244067793
2018-12-15,23.7928950248
2018-12-16,25.6219837541
2018-12-17,29.2565596649
2018-12-18,30.077885821
2018-12-19,29.7201262169
2018-12-20,32.7997416702
2018-12-21,30.8051698356
2018-12-22,31.8713443198
2018-12-23,33.454023038
2018-12-24,33.1343697241
2018-12-25,31.1343275086
2018-12-26,30.9894291159
2018-12-27,28.3504171484
2018-12-28,32.3606419749
2018-12-29,31.5433449341
2018-12-30,31.98165029
2018-12-31,30.4424686563
2019-01-01,31.9125103164
2019-01-02,33.5524245024
2019-01-03,32.0766558363
2019-01-04,32.4061115025
2019-01-05,34.8448904654
2019-01-06,39.2168980942
2019-01-07,37.7837543384
2019-01-08,39.5156355151
2019-01-09,38.9661978078
2019-01-10,33.9818823788
2019-01-11,32.4301160188
2019-01-12,32.4335872084
2019-01-13,30.2959348884
2019-01-14,32.3582415857
2019-01-15,31.454259023
2019-01-16,31.8952043788
2019-01-17,31.8774947768
2019-01-18,31.2872041458
2019-01-19,32.5509704303
2019-01-20,31.1877684359
2019-01-21,31.2457180346
2019-01-22,31.6896538305
2019-01-23,32.0019575094
2019-01-24,32.8134896652
2019-01-25,33.0174687948
2019-01-26,33.1931483195
2019-01-27,32.6975415207
2019-01-28,31.2437724212
2019-01-29,31.1005883533
2019-01-30,31.9164822842
2019-01-31,31.6370106398
2019-02-01,32.8372629969
2019-02-02,34.4646058559
2019-02-03,33.5248219366
2019-02-04,34.0787507073
2019-02-05,34.2064459616
2019-02-06,32.9604929835
2019-02-07,33.2099977767
2019-02-08,43.2864615411
2019-02-09,44.8162618026
2019-02-10,46.8542799477
2019-02-11,43.2464619396
2019-02-12,44.0430076054
2019-02-13,41.942184248
2019-02-14,41.7953528828
2019-02-15,42.7050752552
2019-02-16,43.6357039005
2019-02-17,43.9618213755
2019-02-18,48.0779937046
2019-02-19,47.89130836
2019-02-20,51.7334020363
2019-02-21,49.1274042816
2019-02-22,49.8635358484
2019-02-23,51.7065477915
2019-02-24,44.7394103752
2019-02-25,46.2329670326
2019-02-26,45.4970320295
2019-02-27,45.6414982941
2019-02-28,46.2447484751
2019-03-01,47.4708027718
2019-03-02,49.0468008496
2019-03-03,48.3763649182
2019-03-04,46.435972688
2019-03-05,53.087420005
2019-03-06,55.8173384062
2019-03-07,57.2181296379
2019-03-08,56.0780921333
2019-03-09,57.9597059837
2019-03-10,57.1853425028
2019-03-11,55.4262925448
2019-03-12,56.99540813
2019-03-13,55.9894803642
2019-03-14,56.5912596902
2019-03-15,58.9519124381
2019-03-16,61.8901244696
2019-03-17,61.3126126427
2019-03-18,60.3332286798
2019-03-19,60.599555484
2019-03-20,60.9363812796
2019-03-21,59.3910479515
2019-03-22,59.7902642571
2019-03-23,61.3569168783
2019-03-24,60.1889565639
2019-03-25,59.4967372873
2019-03-26,59.3435287366
2019-03-27,62.2514288897
2019-03-28,61.1704861142
2019-03-29,61.3016125981
2019-03-30,60.9309572493
2019-03-31,
2019-04-01,60.7116903092
2019-04-02,76.1909896444
2019-04-03,85.1739312234
2019-04-04,85.0379499848
2019-04-05,88.7077740435
2019-04-06,92.4213696294
2019-04-07,92.3278951362
2019-04-08,89.4977366728
2019-04-09,86.7743315292
2019-04-10,88.3935302233
2019-04-11,79.6326417403
2019-04-12,78.9467074263
2019-04-13,78.2046726791
2019-04-14,83.0148902108
2019-04-15,79.0272606961
2019-04-16,81.4014077071
2019-04-17,79.3274682066
2019-04-18,82.0748782366
2019-04-19,82.5692227845
2019-04-20,81.5124986208
2019-04-21,77.331559117
2019-04-22,76.948077732
2019-04-23,74.8450217987
2019-04-24,73.3089431536
2019-04-25,71.2481178331
2019-04-26,73.1153465683
2019-04-27,72.1209037542
2019-04-28,69.7267999703
2019-04-29,67.9603802114
2019-04-30,74.28087406
2019-05-01,73.6577686214
2019-05-02,73.7771758525
2019-05-03,79.3265344093
2019-05-04,78.0638386356
2019-05-05,75.9843672914
2019-05-06,74.9827566128
2019-05-07,74.6930011516
2019-05-08,74.6202879446
2019-05-09,74.1771403698
2019-05-10,77.1666508
2019-05-11,89.2222559729
2019-05-12,84.5655110516
2019-05-13,88.0582361061
2019-05-14,91.6204061122
2019-05-15,101.744566017
2019-05-16,95.5855849808
2019-05-17,88.9952344815
2019-05-18,86.7001894258
2019-05-19,95.3212014721
2019-05-20,91.493678397
2019-05-21,91.5077485162
2019-05-22,88.2105722826
2019-05-23,88.9739462874
2019-05-24,100.045539418
2019-05-25,102.700590371
2019-05-26,111.435297724
2019-05-27,117.891893294
2019-05-28,114.925445645
2019-05-29,115.056772046
2019-05-30,108.950442418
2019-05-31,114.360347961
2019-06-01,112.465261799
2019-06-02,114.81999247
2019-06-03,107.486260989
2019-06-04,102.064309212
2019-06-05,103.990257772
2019-06-06,111.223694066
2019-06-07,117.928410893
2019-06-08,118.500558306
2019-06-09,115.274206993
2019-06-10,129.708819157
2019-06-11,136.006863934
2019-06-12,135.122555451
2019-06-13,131.250518328
2019-06-14,133.079426586
2019-06-15,138.074593146
2019-06-16,137.137829298
2019-06-17,134.372452502
2019-06-18,135.212196238
2019-06-19,136.604525536
2019-06-20,135.519727459
2019-06-21,138.727937017
2019-06-22,141.66533877
2019-06-23,136.803152907
2019-06-24,135.621950099
2019-06-25,136.350370394
2019-06-26,131.372592001
2019-06-27,113.875975022
2019-06-28,120.005960517
2019-06-29,133.565144845
2019-06-30,122.371887042
2019-07-01,122.493152433
2019-07-02,119.050484717
2019-07-03,122.564113507
2019-07-04,119.976923415
2019-07-05,118.427946562
2019-07-06,117.91189648
2019-07-07,120.32087848
2019-07-08,123.285484768
2019-07-09,119.432812474
2019-07-10,108.408431703
2019-07-11,102.644301431
2019-07-12,105.316004109
2019-07-13,101.024796062
2019-07-14,89.7313114451
2019-07-15,91.0011400869
2019-07-16,79.4974667679
2019-07-17,89.7698201312
2019-07-18,101.062312029
2019-07-19,98.3089865769
2019-07-20,100.609941111
2019-07-21,99.648271399
2019-07-22,95.4173879285
2019-07-23,90.6226298464
2019-07-24,94.309669008
2019-07-25,93.4463175535
2019-07-26,94.3050152256
2019-07-27,88.8890206443
2019-07-28,89.7693334037
2019-07-29,90.4264245332
2019-07-30,90.5669481151
2019-07-31,98.5666857013
2019-08-01,99.1995872524
2019-08-02,95.016814122
2019-08-03,94.5808806283
2019-08-04,93.0852839656
2019-08-05,96.8895988002
2019-08-06,93.0697157826
2019-08-07,90.9115641502
2019-08-08,90.0891976762
2019-08-09,84.4393774067
2019-08-10,85.4194762795
2019-08-11,89.7526674359
2019-08-12,85.7492298819
2019-08-13,84.4203493571
2019-08-14,76.133269541
2019-08-15,76.3152467724
2019-08-16,74.9050894123
2019-08-17,72.8395956325
2019-08-18,76.3371085513
2019-08-19,77.2983865879
2019-08-20,75.2442747135
2019-08-21,72.9507682337
2019-08-22,73.5773281737
2019-08-23,75.4078073409
2019-08-24,73.4700393683
2019-08-25,72.32022988
2019-08-26,73.9338649445
2019-08-27,72.9027687453
2019-08-28,67.3553379941
2019-08-29,64.0837359798
2019-08-30,64.3590885117
2019-08-31,64.5586076873
2019-09-01,66.1136231158
2019-09-02,66.9907722726
2019-09-03,69.1765010412
2019-09-04,67.3087409296
2019-09-05,65.3867292604
2019-09-06,65.2368801491
2019-09-07,69.0160636662
2019-09-08,70.619391981
2019-09-09,70.1321063315
2019-09-10,70.8761452947
2019-09-11,69.9585736361
2019-09-12,69.2332067522
2019-09-13,69.0219539922
2019-09-14,70.5872164693
2019-09-15,70.3233201671
2019-09-16,72.5910735248
2019-09-17,74.2285195219
2019-09-18,77.9192698904
2019-09-19,76.9578419291
2019-09-20,75.1818166733
2019-09-21,73.5092521612
2019-09-22,72.6132108664
2019-09-23,66.8441154893
2019-09-24,55.8342057611
2019-09-25,57.6577585977
2019-09-26,55.5664507293
2019-09-27,56.4165755539
2019-09-28,55.7066163631
2019-09-29,54.3143365735
2019-09-30,56.0892338337
2019-10-01,56.0133793078
2019-10-02,56.534791176
2019-10-03,56.5237112883
2019-10-04,56.8095425732
2019-10-05,56.8354283054
2019-10-06,55.3420271503
2019-10-07,57.7933835032
2019-10-08,57.4204830095
2019-10-09,59.401574968
2019-10-10,57.7174798965
2019-10-11,56.2662566442
2019-10-12,55.9832212869
2019-10-13,56.7228480298
2019-10-14,57.0012538804
2019-10-15,54.9503793761
2019-10-16,52.9563406667
2019-10-17,54.8409345195
2019-10-18,53.4289416327
2019-10-19,54.0633542948
2019-10-20,54.9291140156
2019-10-21,54.9769816967
2019-10-22,53.7321634912
2019-10-23,49.6427566816
2019-10-24,50.1521970733
2019-10-25,56.8786250148
2019-10-26,56.8320657451
2019-10-27,59.9733774408
2019-10-28,58.2695565427
2019-10-29,59.8464262653
2019-10-30,58.3766837229
2019-10-31,58.759201015
2019-11-01,58.5768803819
2019-11-02,58.6118977008
2019-11-03,58.6172334672
2019-11-04,61.5545213003
2019-11-05,63.2948193488
2019-11-06,64.1617865778
2019-11-07,61.9802050161
2019-11-08,60.5017433722
2019-11-09,61.9429957384
2019-11-10,63.6368830835
2019-11-11,61.8139714602
2019-11-12,61.2681875922
2019-11-13,61.1374197527
2019-11-14,59.4482706284
2019-11-15,57.8231654543
2019-11-16,58.5505599234
2019-11-17,59.5807250789
2019-11-18,56.8426280303
2019-11-19,55.6224203301
2019-11-20,55.2819184358
2019-11-21,50.8665460447
2019-11-22,47.6786698051
2019-11-23,48.6984090499
2019-11-24,44.9612622806
2019-11-25,45.860715372
2019-11-26,47.2351943467
2019-11-27,48.0778594712
2019-11-28,47.1237977155
2019-11-29,48.8186154648
2019-11-30,47.5406211512
2019-12-01,47.7599037423
2019-12-02,45.7859176455
2019-12-03,45.3780131113
2019-12-04,45.1750079348
2019-12-05,45.3296783338
2019-12-06,45.617085417
2019-12-07,45.62471166
2019-12-08,45.8469343061
2019-12-09,44.9769092652
2019-12-10,44.5945122396
2019-12-11,43.8986790609
2019-12-12,44.0508348376
2019-12-13,44.4682669086
2019-12-14,43.7515318268
2019-12-15,43.8440853831
2019-12-16,40.4094823115
2019-12-17,36.9251153874
2019-12-18,40.7394560005
2019-12-19,39.894550279
2019-12-20,40.2877461728
2019-12-21,40.0214101385
2019-12-22,42.0153628437
2019-12-23,40.8646256934
2019-12-24,40.6304344488
2019-12-25,40.6545348203
2019-12-26,40.2431152538
2019-12-27,41.2200708563
2019-12-28,42.7987540106
2019-12-29,43.7207298584
2019-12-30,42.790712069
2019-12-31,41.3423309245
2020-01-01,41.999753646
2020-01-02,39.8714739776
2020-01-03,42.4106688753
2020-01-04,43.3007041199
2020-01-05,43.5675133618
2020-01-06,45.7947400975
2020-01-07,46.4357300184
2020-01-08,45.6412305587
2020-01-09,45.2442129511
2020-01-10,48.7273277229
2020-01-11,49.2638537994
2020-01-12,51.0082657354
2020-01-13,49.6998061078
2020-01-14,58.478234758
2020-01-15,58.052849833
2020-01-16,57.6182557286
2020-01-17,61.4871259137
2020-01-18,59.4086438032
2020-01-19,57.8006936368
2020-01-20,57.2032610904
2020-01-21,57.6478813075
2020-01-22,58.3547245437
2020-01-23,54.63026014
2020-01-24,54.5317889377
2020-01-25,53.6977884457
2020-01-26,56.2127143837
2020-01-27,58.76326686
2020-01-28,60.6718157822
2020-01-29,60.0779327535
2020-01-30,68.1590625242
2020-01-31,67.8794926165
2020-02-01,70.8200175721
2020-02-02,70.2315417322
2020-02-03,69.7802193165
2020-02-04,68.1957800274
2020-02-05,72.4931038042
2020-02-06,73.3886861743
2020-02-07,74.4430956961
2020-02-08,76.608521582
2020-02-09,77.1227555099
2020-02-10,74.3647949507
2020-02-11,76.5626136854
2020-02-12,81.2855263456
2020-02-13,80.3436180216
2020-02-14,83.0016429286
2020-02-15,76.3908789046
2020-02-16,75.2863395716
2020-02-17,73.2900043194
2020-02-18,76.9374917252
2020-02-19,71.091376039
2020-02-20,69.6110056626
2020-02-21,73.4640101314
2020-02-22,75.1337824758
2020-02-23,79.3581363479
2020-02-24,75.5912920364
2020-02-25,71.3442833072
2020-02-26,61.1201529512
2020-02-27,61.3060194136
2020-02-28,59.8824897171
2020-02-29,58.6152056101
2020-03-01,57.8693531936
2020-03-02,61.0102249161
2020-03-03,61.226429682
2020-03-04,60.3231009364
2020-03-05,61.9471542418
2020-03-06,63.0937595598
2020-03-07,60.553951626
2020-03-08,51.8223086167
2020-03-09,50.0248122914
2020-03-10,50.3056393479
2020-03-11,48.4615224262
2020-03-12,31.2113649598
2020-03-13,37.275409647
2020-03-14,34.3977105053
2020-03-15,36.4769458137
2020-03-16,32.7071576816
2020-03-17,33.6545164189
2020-03-18,33.7036855847
2020-03-19,39.0407939383
2020-03-20,37.9733506887
2020-03-21,38.2943288331
2020-03-22,35.5844086594
2020-03-23,38.7544071709
2020-03-24,40.4552592054
2020-03-25,39.1180346212
2020-03-26,40.1614083573
2020-03-27,38.8926454796
2020-03-28,38.8571673488
2020-03-29,37.3178655007
2020-03-30,39.1276752551
2020-03-31,39.364343246
2020-04-01,39.2662680232
2020-04-02,39.7908907083
2020-04-03,40.3245252121
2020-04-04,40.6116384309
2020-04-05,40.6138468657
2020-04-06,44.3391938616
2020-04-07,44.6595912765
2020-04-08,46.350882595
2020-04-09,46.4690374974
2020-04-10,42.2487410483
2020-04-11,42.288002101
2020-04-12,42.620491184
2020-04-13,41.2561435313
2020-04-14,41.0375739042
2020-04-15,39.604246954
2020-04-16,42.6285056386
2020-04-17,42.7050228406
2020-04-18,44.3267748168
2020-04-19,42.6925482763
2020-04-20,40.8222547201
2020-04-21,40.9883251459
2020-04-22,41.8797817679
2020-04-23,42.8874165944
2020-04-24,44.8098288595
2020-04-25,44.7149101045
2020-04-26,44.6865065895
2020-04-27,44.7100643154
2020-04-28,46.0287034397
2020-04-29,49.1813018894
2020-04-30,46.7029007402
2020-05-01,47.6973925569
2020-05-02,49.4712878557
2020-05-03,48.2443132987
2020-05-04,47.4397125781
2020-05-05,46.7872593824
2020-05-06,45.942866373
2020-05-07,47.3301149861
2020-05-08,47.8822184783
2020-05-09,47.2741842844
2020-05-10,42.3676275585
2020-05-11,41.6816670859
2020-05-12,42.1118797172
2020-05-13,43.1199111439
2020-05-14,43.9453353481
2020-05-15,42.8560354045
2020-05-16,43.2128966229
2020-05-17,43.6408354331
2020-05-18,45.201073971
2020-05-19,45.3836115033
2020-05-20,44.151154496
2020-05-21,42.7427016799
2020-05-22,44.2091324797
2020-05-23,44.0437431597
2020-05-24,42.4875677694
2020-05-25,42.935484361
2020-05-26,42.4068633188
2020-05-27,43.840796534
2020-05-28,44.7439707543
2020-05-29,44.6665920195
2020-05-30,47.5128553317
2020-05-31,45.5565067497
2020-06-01,48.1843506827
2020-06-02,45.895628503
2020-06-03,47.1736110127
2020-06-04,47.666264816
2020-06-05,47.0865330313
2020-06-06,46.7361492365
2020-06-07,46.6593830418
2020-06-08,46.4525639155
2020-06-09,46.0726752935
2020-06-10,46.6985084205
2020-06-11,43.5334057809
2020-06-12,44.781686345
2020-06-13,45.0840864415
2020-06-14,44.1041017349
2020-06-15,43.9728073502
2020-06-16,43.8973620247
2020-06-17,44.0570111628
2020-06-18,43.572211422
2020-06-19,42.6203695991
2020-06-20,43.3577112676
2020-06-21,43.0805567055
2020-06-22,44.1863488408
2020-06-23,44.1871697138
2020-06-24,42.8059234828
2020-06-25,42.6098163749
2020-06-26,43.3251140682
2020-06-27,41.5949786987
2020-06-28,41.4480376695
2020-06-29,41.9377937825
2020-06-30,41.4660388226
2020-07-01,41.6995921642
2020-07-02,41.485733934
2020-07-03,41.2051361781
2020-07-04,41.9995818403
2020-07-05,41.6038147035
2020-07-06,44.1460433402
2020-07-07,43.3105791763
2020-07-08,45.134977943
2020-07-09,44.5911156111
2020-07-10,44.2461161011
2020-07-11,44.6770783243
2020-07-12,44.6357220459
2020-07-13,43.9197957494
2020-07-14,43.8028646234
2020-07-15,43.2789554995
2020-07-16,42.0609349612
2020-07-17,41.9126966433
2020-07-18,42.4396966407
2020-07-19,42.5289022973
2020-07-20,41.9448425874
2020-07-21,43.6133523635
2020-07-22,44.9252538536
2020-07-23,44.8416123775
2020-07-24,44.1137905896
2020-07-25,48.8047660378
2020-07-26,48.0157449571
2020-07-27,53.2165988404
2020-07-28,55.7464028258
2020-07-29,55.2311983617
2020-07-30,56.8655126396
2020-07-31,58.0509599728
2020-08-01,61.2315677314
2020-08-02,56.6505549687
2020-08-03,58.4646917193
2020-08-04,57.5522241487
2020-08-05,59.0198508197
2020-08-06,59.1567410983
2020-08-07,57.1350035818
2020-08-08,58.0023868689
2020-08-09,57.1001164354
2020-08-10,58.2535794809
2020-08-11,54.4214447959
2020-08-12,54.945954859
2020-08-13,57.7636346061
2020-08-14,56.7209639662
2020-08-15,59.9152957417
2020-08-16,63.8138711363
2020-08-17,67.0036754272
2020-08-18,65.4905645399
2020-08-19,62.1031164731
2020-08-20,62.9520962354
2020-08-21,59.3297463527
2020-08-22,60.3591393879
2020-08-23,60.7242657528
2020-08-24,62.3121294173
2020-08-25,58.6587564191
2020-08-26,58.3213620507
2020-08-27,56.0469253535
2020-08-28,57.3343583017
2020-08-29,57.2885474638
2020-08-30,62.744722169
2020-08-31,61.1671858952
2020-09-01,62.8877610586
2020-09-02,58.1266700244
2020-09-03,47.6825834001
2020-09-04,50.6119782328
2020-09-05,47.5893384612
2020-09-06,48.0535719514
2020-09-07,48.7701082231
2020-09-08,47.3838017713
2020-09-09,47.8976985244
2020-09-10,48.6507290341
2020-09-11,49.0897533924
2020-09-12,50.8171554475
2020-09-13,48.0660362632
2020-09-14,49.0901243898
2020-09-15,48.3900977394
2020-09-16,47.9334342191
2020-09-17,48.8770684161
2020-09-18,48.4628155663
2020-09-19,48.6768315998
2020-09-20,47.1005298007
2020-09-21,43.3902204952
2020-09-22,44.5450490029
2020-09-23,43.0846870076
2020-09-24,44.9610069196
2020-09-25,46.0087364974
2020-09-26,46.1312265137
2020-09-27,45.9990604932
2020-09-28,45.2706697162
2020-09-29,45.6980588347
2020-09-30,46.2840366545
2020-10-01,46.2766170494
2020-10-02,44.92396862240906
2020-10-03,45.58177105221077
2020-10-04,46.72969858031432
2020-10-05,46.36322605864407
2020-10-06,45.98552616130779
2020-10-07,46.6604950922133
2020-10-08,47.21839947092174
2020-10-09,47.83295548180348
2020-10-10,48.92109623734435
2020-10-11,50.72793378829182
2020-10-12,50.74375320153641
2020-10-13,49.94064065880134
2020-10-14,49.846586461545
2020-10-15,49.4870840904909
2020-10-16,47.69287005132809
2020-10-17,47.05130295137597
2020-10-18,47.61958604124738
2020-10-19,48.09895651877167
2020-10-20,47.05105282406197
2020-10-21,53.04498210204217
2020-10-22,54.26739312742221
2020-10-23,55.27764337049461
2020-10-24,58.97907691869165
2020-10-25,58.64562727969598
2020-10-26,56.7575782183744
2020-10-27,57.71039657411457
2020-10-28,55.76729113589632
2020-10-29,54.77171062602319
2020-10-30,53.90533805606636
2020-10-31,55.55453099278111
2020-11-01,55.58578330686611
2020-11-02,53.81446120128629
2020-11-03,53.81805555294755
2020-11-04,54.49759513024832
2020-11-05,58.67690056234071
2020-11-06,63.13061445888072
2020-11-07,59.14288226122272
2020-11-08,61.05225549948783
2020-11-09,59.36817820609751
2020-11-10,58.24114792282706
2020-11-11,59.51533086366207
2020-11-12,60.36500052896646
2020-11-13,65.45721992811212
2020-11-14,63.77103729443738
2020-11-15,62.28019991854427
2020-11-16,73.5503217476407
2020-11-17,75.84900001566211
2020-11-18,73.68760692175309
2020-11-19,81.68624905216913
2020-11-20,82.58657262497259
2020-11-21,86.77863257271868
2020-11-22,82.71512765522698
2020-11-23,88.62561124771685
2020-11-24,89.1311334526417
2020-11-25,82.34217013084086
2020-11-26,70.70801983451133
2020-11-27,69.05745192860984
2020-11-28,72.65960117739336
2020-11-29,79.21815674504516
2020-11-30,87.66024025987791
2020-12-01,85.6681647885024
2020-12-02,88.92049163291954
2020-12-03,89.04385261469938
2020-12-04,79.99328852086359
2020-12-05,83.17948665690672
2020-12-06,83.55561311207917
2020-12-07,83.65435579319039
2020-12-08,76.74107379173255
2020-12-09,77.40718988261689
2020-12-10,74.9672434296909
2020-12-11,72.12106955753787
2020-12-12,76.63751667958037
2020-12-13,82.06770021643096
2020-12-14,82.4637199188514
2020-12-15,81.5190804567021
2020-12-16,92.80979451022014
2020-12-17,101.56390122663242
2020-12-18,109.37948982295802
2020-12-19,120.57589124765259
2020-12-20,115.2199467505107
2020-12-21,105.34740760411005
2020-12-22,114.02090641216286
2020-12-23,102.69479091560216
2020-12-24,111.81822584817633
2020-12-25,127.35887865923094
2020-12-26,129.62099837259473
2020-12-27,128.0612782431534
2020-12-28,130.124238237838
2020-12-29,129.2405275019214
2020-12-30,129.69826993332595
2020-12-31,124.75588432509223
2021-01-01,126.23838233132093
2021-01-02,136.9326485837554
2021-01-03,160.8209893442296
2021-01-04,154.64545601875767
2021-01-05,158.90907954269684
2021-01-06,168.97078433810606
2021-01-07,169.56462036460525
2021-01-08,172.8092455276666
2021-01-09,179.09007581870964
2021-01-10,171.20183787994802
2021-01-11,140.14857592403413
2021-01-12,133.19694868590915
2021-01-13,147.36464439267553
2021-01-14,152.0690125040184
2021-01-15,144.24474130236305
2021-01-16,144.26541965438062
2021-01-17,142.4308212858621
2021-01-18,152.14408514387958
2021-01-19,153.48742764096696
2021-01-20,149.93142515699822
2021-01-21,130.13350488479662
2021-01-22,137.27145938139194
2021-01-23,137.7509901813377
2021-01-24,141.47731077892448
2021-01-25,137.4442004616244
2021-01-26,134.7552643326652
2021-01-27,122.94947331286501
2021-01-28,133.48693077113666
2021-01-29,135.0125704813464
2021-01-30,133.40001777616325
2021-01-31,129.57081529741987
2021-02-01,131.9519320225278
2021-02-02,142.50697498300806
2021-02-03,155.61203291478142
2021-02-04,145.14818702250048
2021-02-05,154.8522156684421
2021-02-06,155.71474238511536
2021-02-07,151.1400792163494
2021-02-08,167.25013500785755
2021-02-09,182.1505283494128
2021-02-10,181.76326010421698
2021-02-11,184.18222165127005
2021-02-12,196.67163495611473
2021-02-13,225.9680414098946
2021-02-14,214.48186768008563
2021-02-15,207.2158517158877
2021-02-16,210.45426353560998
2021-02-17,236.67038489781086
2021-02-18,227.007952002998
2021-02-19,236.6409210162924
2021-02-20,227.42934251433297
2021-02-21,227.36669783209337
2021-02-22,208.46343281238575
2021-02-23,175.13706149577573
2021-02-24,181.11758028384054
2021-02-25,181.37930802239845
2021-02-26,170.0697522433131
2021-02-27,172.5114247053449
2021-02-28,164.89491820038677
2021-03-01,175.3727237354624
2021-03-02,177.68259842904578
2021-03-03,188.90606404922187
2021-03-04,181.0008081243713
2021-03-05,180.61534318510098
2021-03-06,182.97915308519083
2021-03-07,191.7318058287891
2021-03-08,192.27704196516578
2021-03-09,203.53405479184806
2021-03-10,200.7281621047372
2021-03-11,200.9814078868993
2021-03-12,220.58032461555632
2021-03-13,226.65866904411723
2021-03-14,216.377867102527
2021-03-15,201.18312350761096
2021-03-16,200.23700574510417
2021-03-17,205.85550704984115
2021-03-18,200.52896222202665
2021-03-19,201.0712981834011
2021-03-20,200.9745660046146
2021-03-21,196.4072989220391
2021-03-22,187.36356384492424
2021-03-23,187.79405258919385
2021-03-24,177.65495514587647
2021-03-25,173.0611862520337
2021-03-26,184.27867316065604
2021-03-27,184.9523740730007
2021-03-28,185.16404258459224
2021-03-29,194.64096526239248
2021-03-30,196.76679221675147
2021-03-31,197.5120246261192
2021-04-01,204.40348212109902
2021-04-02,212.91561918329748
2021-04-03,197.55665147235075
2021-04-04,204.0604131402218
2021-04-05,220.13428396343852
2021-04-06,237.96395811082053
2021-04-07,220.106030349346
2021-04-08,226.85090599617465
2021-04-09,221.86236304612206
2021-04-10,255.62019754896738
2021-04-11,253.6651026066682
2021-04-12,244.49452191686728
2021-04-13,267.05097170124964
2021-04-14,279.19228531681415
2021-04-15,286.91312805865
2021-04-16,311.50091628446836
2021-04-17,305.28284497424954
2021-04-18,273.2644392253447
2021-04-19,260.83744452020596
2021-04-20,261.84632332177847
2021-04-21,257.6992746139768
2021-04-22,253.6918762713714
2021-04-23,240.42955762440047
2021-04-24,224.78496781055384
2021-04-25,223.86499900913378
2021-04-26,247.40504633084146
2021-04-27,259.4665274295191
2021-04-28,258.20213139091277
2021-04-29,255.63862986369543
2021-04-30,271.21766320604155
2021-05-01,276.77315902191793
2021-05-02,269.0604334944829
2021-05-03,294.70401602933913
2021-05-04,306.23450394776256
2021-05-05,356.0370789949225
2021-05-06,355.7301946904386
2021-05-07,347.40872710192934
2021-05-08,346.2997923128945
2021-05-09,385.70446606602525
2021-05-10,360.0204578561021
2021-05-11,377.4403387880171
2021-05-12,304.8718918088064
2021-05-13,316.4830315831025
2021-05-14,326.2347946373428
2021-05-15,299.9990749392572
2021-05-16,296.4937808985344
2021-05-17,280.9820138990708
2021-05-18,294.9142175010673
2021-05-19,190.18924626123788
2021-05-20,210.26079066525048
2021-05-21,179.8351302231116
2021-05-22,170.09906843445484
2021-05-23,144.37319396304764
2021-05-24,183.85577068982872
2021-05-25,182.10845938989092
2021-05-26,199.0925300659932
2021-05-27,194.22881066151996
2021-05-28,176.86448126517945
2021-05-29,163.87891254244988
2021-05-30,170.9255252921369
2021-05-31,187.51091159370492
2021-06-01,182.76555108748818
2021-06-02,187.920945787192
2021-06-03,193.18513977982332
2021-06-04,179.57203575513773
2021-06-05,173.18457007754745
2021-06-06,176.432528947312
2021-06-07,161.56499822645017
2021-06-08,161.0834474419909
2021-06-09,171.72586754131893
2021-06-10,168.27947033805555
2021-06-11,162.67024393765854
2021-06-12,162.05588549510736
2021-06-13,170.81077217076609
2021-06-14,179.41573174434424
2021-06-15,175.27102204711136
2021-06-16,166.16315614561194
2021-06-17,167.12646622484505
2021-06-18,156.2642373273425
2021-06-19,153.70867029256206
2021-06-20,155.16392417320446
2021-06-21,124.77837651517089
2021-06-22,119.50286629900889
2021-06-23,128.97976246549348
2021-06-24,134.30151397447847
2021-06-25,126.38335606856226
2021-06-26,125.75461339598768
2021-06-27,132.25461599751915
2021-06-28,137.276168239322
2021-06-29,143.85920096691208
2021-06-30,143.98959651721
2021-07-01,137.5024459394219
2021-07-02,136.95448548264173
2021-07-03,140.28044360808158
2021-07-04,145.07580918945294
2021-07-05,138.42205330819766
2021-07-06,138.8542071452436
2021-07-07,137.26809984368538
2021-07-08,132.32306801791782
2021-07-09,134.96914499859727
2021-07-10,133.9089997852818
2021-07-11,134.19692110120127
2021-07-12,133.6854583967389
2021-07-13,131.0288602411643
2021-07-14,131.00866543030105
2021-07-15,125.10695770901657
2021-07-16,121.15070116570091
2021-07-17,120.11152990233646
2021-07-18,119.73289022512022
2021-07-19,113.4028784628978
2021-07-20,107.40267622707593
2021-07-21,117.43465629183758
2021-07-22,120.72886536758303
2021-07-23,124.29553086824949
2021-07-24,126.17455851938877
2021-07-25,127.52686862798744
2021-07-26,131.6144358526521
2021-07-27,134.20021302512404
2021-07-28,139.9860845913405
2021-07-29,141.54224234518665
2021-07-30,145.6331800684218
2021-07-31,145.15435904459486
2021-08-01,141.42256628299788
2021-08-02,141.45922479432014
2021-08-03,138.49459546915983
2021-08-04,143.1105733884195
2021-08-05,143.25098117810367
2021-08-06,147.85794036977168
2021-08-07,156.3384287858337
2021-08-08,149.94099127496682
2021-08-09,166.3667870726876
2021-08-10,165.5548545298492
2021-08-11,170.9359423583604
2021-08-12,165.13102941899086
2021-08-13,183.47163084494866
2021-08-14,182.71126608779184
2021-08-15,184.75330961348956
2021-08-16,178.85449751085125
2021-08-17,168.84263001240777
2021-08-18,167.39660926559372
2021-08-19,175.4934007548625
2021-08-20,183.6285263698209
2021-08-21,179.73614226588478
2021-08-22,186.31309385575517
2021-08-23,187.1064276274149
2021-08-24,173.70930753546273
2021-08-25,177.64078325640435
2021-08-26,168.01290901938896
2021-08-27,175.69569615132383
2021-08-28,175.51433114434494
2021-08-29,175.15460529304855
2021-08-30,167.87270434389274
2021-08-31,171.926927062231
2021-09-01,181.08290096214856
2021-09-02,183.7201139166517
2021-09-03,212.4225979474939
2021-09-04,212.44987363635065
2021-09-05,230.45054602570363
2021-09-06,219.55392200123975
2021-09-07,177.30269987671548
2021-09-08,179.28863575149092
2021-09-09,180.24907226475318
2021-09-10,174.29647949651374
2021-09-11,178.3425160038159
2021-09-12,183.24599111560204
2021-09-13,179.68236084028308
2021-09-14,182.9901773942721
2021-09-15,188.8935460361505
2021-09-16,185.6690322051705
2021-09-17,179.5294367317254
2021-09-18,181.23587209835864
2021-09-19,175.60065024093095
2021-09-20,157.12692425128446
2021-09-21,148.39623635615746
2021-09-22,161.22388540922944
2021-09-23,163.81803783627262
2021-09-24,152.11226145668016
2021-09-25,151.4884681318865
2021-09-26,150.7408127461806
2021-09-27,145.34895509143303
2021-09-28,140.6555128112795
2021-09-29,144.70752454858513
2021-09-30,153.08093622766708
2021-10-01,166.11188318240178
2021-10-02,169.37972337642552
2021-10-03,170.77162634057686
2021-10-04,167.50557397075542
2021-10-05,173.914929336176
2021-10-06,179.03369890552804
2021-10-07,178.8179455748498
2021-10-08,175.1930932031419
2021-10-09,179.72734992955216
2021-10-10,175.3026558382286
2021-10-11,179.41282634934677
2021-10-12,172.12071284106733
2021-10-13,177.5192225558381
2021-10-14,180.23622382292146
2021-10-15,189.0852378759366
2021-10-16,186.3046568791438
2021-10-17,183.89782926743692
2021-10-18,185.43140644483296
2021-10-19,188.85225997202133
2021-10-20,206.63045781892913
2021-10-21,197.6034029063376
2021-10-22,191.00648547918448
2021-10-23,196.33941331762816
2021-10-24,190.40598991050018
2021-10-25,195.20516377367068
2021-10-26,198.20072046951768
2021-10-27,180.1614964184943
2021-10-28,189.83738137277714
2021-10-29,196.4852042292609
2021-10-30,190.18730058491113
2021-10-31,191.9637601327028
2021-11-01,197.67952747914956
2021-11-02,200.81714432021968
2021-11-03,206.94738893724522
2021-11-04,202.85949760225753
2021-11-05,199.59045741378216
2021-11-06,197.9952853692589
2021-11-07,201.87236892968386
2021-11-08,228.77734737958758
2021-11-09,262.87904008200104
2021-11-10,261.21778287327476
2021-11-11,262.6327588613497
2021-11-12,252.41101489124412
2021-11-13,258.2067356728427
2021-11-14,278.06357926157705
2021-11-15,263.7362025198985
2021-11-16,231.43001001099321
2021-11-17,229.98148666470144
2021-11-18,203.80011083819304
2021-11-19,218.12937753472684
2021-11-20,226.17798249918522
2021-11-21,221.21471888355453
2021-11-22,209.59667170379797
2021-11-23,216.5956130240636
2021-11-24,212.43992269114253
2021-11-25,222.86799786538114
2021-11-26,195.54168167860456
2021-11-27,193.97386799744314
2021-11-28,198.94107799330337
2021-11-29,206.30667362859586
2021-11-30,208.13120807293927
2021-12-01,208.80770316349324
2021-12-02,203.339276690629
2021-12-03,188.85177173208857
2021-12-04,161.78004891113557
2021-12-05,155.98689054429198
2021-12-06,162.3917277484514
2021-12-07,161.54572980193814
2021-12-08,165.35706507585226
2021-12-09,152.81211041775262
2021-12-10,149.19144817966335
2021-12-11,158.101951925306
2021-12-12,159.14945690617463
2021-12-13,144.82966723366974
2021-12-14,150.76363329371532
2021-12-15,153.21932933681697
2021-12-16,149.17952991124653
2021-12-17,144.55659085033795
2021-12-18,149.13829665580508
2021-12-19,153.32398623441358
2021-12-20,152.43513806418858
2021-12-21,155.1012099615416
2021-12-22,155.49636600251725
2021-12-23,163.45215062254616
2021-12-24,161.38917480512188
2021-12-25,158.55315362590463
2021-12-26,156.1765204089581
2021-12-27,155.6342923775631
2021-12-28,146.27384337737024
2021-12-29,145.3132541869143
2021-12-30,148.21688918460137
2021-12-31,146.58831431561802
2022-01-01,150.40742729045786
2022-01-02,151.2555991325156
2022-01-03,148.4887208009685
2022-01-04,146.84489000539602
2022-01-05,136.14057125278686
2022-01-06,136.51993264961865
2022-01-07,131.50420612797788
2022-01-08,130.15220212662834
2022-01-09,131.30066702408863
2022-01-10,126.83323559532437
2022-01-11,131.45662066407215
2022-01-12,141.61880995426102
2022-01-13,136.6499464855403
2022-01-14,144.7142135278727
2022-01-15,147.9206744942301
2022-01-16,146.6191159674655
2022-01-17,151.59362614492088
2022-01-18,141.88322349721523
2022-01-19,136.9950345835855
2022-01-20,130.79725347372377
2022-01-21,114.24862413180615
2022-01-22,108.4278673449537
2022-01-23,112.08173027595915
2022-01-24,109.59239480182494
2022-01-25,108.05937099349687
2022-01-26,107.28752324549933
2022-01-27,106.96590796199554
2022-01-28,109.43154774539522
2022-01-29,110.81912345556519
2022-01-30,108.84169976357745
2022-01-31,109.51399846970492
2022-02-01,115.55261151665273
2022-02-02,108.45164490624326
2022-02-03,109.92793560305756
2022-02-04,120.84805942241252
2022-02-05,121.85969985097587
2022-02-06,127.33847166509031
2022-02-07,137.19507666627263
2022-02-08,134.0201598952722
2022-02-09,140.47630607847617
2022-02-10,135.18417721955018
2022-02-11,126.17816857613875
2022-02-12,126.53591495791258
2022-02-13,126.2531047704769
2022-02-14,124.82693591421763
2022-02-15,131.82677489691054
2022-02-16,128.30566776787856
2022-02-17,116.28289299819282
2022-02-18,115.2187205580102
2022-02-19,115.72057433530661
2022-02-20,110.88030543484757
2022-02-21,103.444057414095
2022-02-22,107.55505932633396
2022-02-23,105.977072019971
2022-02-24,104.10921111561021
2022-02-25,109.3154622332435
2022-02-26,108.06397014510108
2022-02-27,103.1648388709771
2022-02-28,113.34739106408391
2022-03-01,112.52063352432003
2022-03-02,110.32780160166554
2022-03-03,111.37402871314755
2022-03-04,101.34549514801007
2022-03-05,105.01455093283454
2022-03-06,101.56037065610533
2022-03-07,98.7875381503484
2022-03-08,100.50290706885964
2022-03-09,106.91314997873303
2022-03-10,102.6644596232569
2022-03-11,105.07678513818468
2022-03-12,105.89863062873893
2022-03-13,102.03292875833368
2022-03-14,105.62678943716666
2022-03-15,106.96875519990593
2022-03-16,111.32498611860133
2022-03-17,110.30135945896438
2022-03-18,112.13165960125336
2022-03-19,116.36197054426522
2022-03-20,114.82830954423088
2022-03-21,116.1591066885799
2022-03-22,122.93388406188589
2022-03-23,122.47368994213255
2022-03-24,126.5812101551171
2022-03-25,124.19938760915825
2022-03-26,124.92395393860843
2022-03-27,129.2414378701157
2022-03-28,127.90414459790648
2022-03-29,130.13684770200845
2022-03-30,131.27103600072573
2022-03-31,123.64324319277065
2022-04-01,124.86590386993223
2022-04-02,124.95180295468514
2022-04-03,128.92629217958188
2022-04-04,124.85702440628623
2022-04-05,123.36477546497385
2022-04-06,112.77456762558617
2022-04-07,114.25117561539034
2022-04-08,114.43759797530647
