t,v
2011-10-13,0.0
2011-10-14,0.0
2011-10-15,0.0
2011-10-16,0.0
2011-10-17,0.0
2011-10-18,0.0
2011-10-19,0.0
2011-10-20,0.0
2011-10-21,0.0
2011-10-22,0.0
2011-10-23,0.0
2011-10-24,0.0
2011-10-25,0.0
2011-10-26,0.0
2011-10-27,0.0
2011-10-28,0.0
2011-10-29,0.0
2011-10-30,0.0
2011-10-31,0.0
2011-11-01,0.0
2011-11-02,0.0
2011-11-03,0.0
2011-11-04,0.0
2011-11-05,0.0
2011-11-06,0.0
2011-11-07,0.0
2011-11-08,0.0
2011-11-09,0.0
2011-11-10,0.0
2011-11-11,0.0
2011-11-12,0.0
2011-11-13,0.0
2011-11-14,0.0
2011-11-15,0.0
2011-11-16,0.0
2011-11-17,0.0
2011-11-18,0.0
2011-11-19,0.0
2011-11-20,0.0
2011-11-21,0.0
2011-11-22,0.0
2011-11-23,0.0
2011-11-24,0.0
2011-11-25,0.0
2011-11-26,0.0
2011-11-27,0.0
2011-11-28,0.0
2011-11-29,0.0
2011-11-30,0.0
2011-12-01,0.0
2011-12-02,0.0
2011-12-03,0.0
2011-12-04,0.0
2011-12-05,0.0
2011-12-06,0.0
2011-12-07,0.0
2011-12-08,0.0
2011-12-09,0.0
2011-12-10,0.0
2011-12-11,0.0
2011-12-12,0.0
2011-12-13,0.0
2011-12-14,0.0
2011-12-15,0.0
2011-12-16,0.0
2011-12-17,0.0
2011-12-18,0.0
2011-12-19,0.0
2011-12-20,0.0
2011-12-21,0.0
2011-12-22,0.0
2011-12-23,0.0
2011-12-24,0.0
2011-12-25,0.0
2011-12-26,0.0
2011-12-27,0.0
2011-12-28,0.0
2011-12-29,0.0
2011-12-30,0.0
2011-12-31,0.0
2012-01-01,0.0
2012-01-02,0.0
2012-01-03,0.0
2012-01-04,0.0
2012-01-05,0.0
2012-01-06,0.0
2012-01-07,0.0
2012-01-08,0.0
2012-01-09,0.0
2012-01-10,0.0
2012-01-11,0.0
2012-01-12,0.0
2012-01-13,0.0
2012-01-14,0.0
2012-01-15,0.0
2012-01-16,0.0
2012-01-17,0.0
2012-01-18,0.0
2012-01-19,816.98580242
2012-01-20,0.0
2012-01-21,1022.73419589
2012-01-22,1.44663887
2012-01-23,8.96634316
2012-01-24,0.0
2012-01-25,60.0
2012-01-26,0.0
2012-01-27,106.4910857
2012-01-28,103.0
2012-01-29,0.0
2012-01-30,0.0
2012-01-31,14996.93053253
2012-02-01,20621.26861863
2012-02-02,2017.71020413
2012-02-03,857.49141077
2012-02-04,2102.00776115
2012-02-05,41.87292086
2012-02-06,329.01910523
2012-02-07,768.43378266
2012-02-08,13.76313153
2012-02-09,0.0
2012-02-10,33.57364147
2012-02-11,39.31290278
2012-02-12,167.50711982
2012-02-13,242.99547294
2012-02-14,5425.38362522
2012-02-15,55.94746447
2012-02-16,186.17042732
2012-02-17,461.39350045
2012-02-18,455.296783
2012-02-19,904.4122263
2012-02-20,140.60828198
2012-02-21,50210.43877
2012-02-22,263.0
2012-02-23,67626.86619348
2012-02-24,76.58017021
2012-02-25,61903.9990359101
2012-02-26,1571.3558282
2012-02-27,3658.32490731
2012-02-28,27.11
2012-02-29,249.96402814
2012-03-01,1933.4629795
2012-03-02,201.33484787
2012-03-03,480.73368714
2012-03-04,47.14136826
2012-03-05,4.99064044
2012-03-06,11.66041801
2012-03-07,86.97625858
2012-03-08,630.02858489
2012-03-09,0.71832461
2012-03-10,72.44128904
2012-03-11,211.18184846
2012-03-12,48.6372639
2012-03-13,25.39157294
2012-03-14,72.58135378
2012-03-15,2542.711476
2012-03-16,691.25814903
2012-03-17,70.01337
2012-03-18,4699.05566671
2012-03-19,9155.67134626
2012-03-20,10.71852321
2012-03-21,13381.98978726
2012-03-22,79.78341001
2012-03-23,6828.82145082
2012-03-24,168.50888295
2012-03-25,66.20764456
2012-03-26,13.82114013
2012-03-27,6983.71458563
2012-03-28,306.99876146
2012-03-29,2629.99271654
2012-03-30,22180.05144189
2012-03-31,3822.95226477
2012-04-01,7299.30828059
2012-04-02,997.01418707
2012-04-03,2256.67388858
2012-04-04,55.09219232
2012-04-05,21.81869998
2012-04-06,7.30439099
2012-04-07,492.0325509
2012-04-08,53.66153219
2012-04-09,0.0
2012-04-10,16.6855404
2012-04-11,300.59453706
2012-04-12,3263.26017084
2012-04-13,122.4622675
2012-04-14,2514.1941699
2012-04-15,457.473241
2012-04-16,667.01659614
2012-04-17,91.86308983
2012-04-18,1455.81287281
2012-04-19,219.23472863
2012-04-20,706.69543017
2012-04-21,914.91455582
2012-04-22,546.5460218
2012-04-23,3764.42980215
2012-04-24,50.1
2012-04-25,70.29809645
2012-04-26,387.95505966
2012-04-27,1.32698249
2012-04-28,146.09328852
2012-04-29,0.0
2012-04-30,1936.32548502
2012-05-01,3380.42848782
2012-05-02,29224.20012296
2012-05-03,2819.53303865
2012-05-04,2683.88671595
2012-05-05,79.68023383
2012-05-06,37.55869452
2012-05-07,11.901025
2012-05-08,698.35434182
2012-05-09,154.45791657
2012-05-10,9.0
2012-05-11,383.75747051
2012-05-12,250.25109432
2012-05-13,2736.72382701
2012-05-14,22788.27976593
2012-05-15,52.27124599
2012-05-16,902.25265664
2012-05-17,11129.4801475
2012-05-18,3.66279349
2012-05-19,41.93740171
2012-05-20,6.00999164
2012-05-21,2.01
2012-05-22,0.0
2012-05-23,1024.09808141
2012-05-24,0.0
2012-05-25,0.0
2012-05-26,184.5676553
2012-05-27,0.0
2012-05-28,10.39788
2012-05-29,830.38609702
2012-05-30,22.44166722
2012-05-31,0.0
2012-06-01,236.91898469
2012-06-02,414.07994538
2012-06-03,6551.815904
2012-06-04,4565.000426
2012-06-05,44.82044046
2012-06-06,346.28307547
2012-06-07,9.61778898
2012-06-08,490.01001081
2012-06-09,0.0
2012-06-10,43.68390196
2012-06-11,577.02083902
2012-06-12,101.35586065
2012-06-13,43.71195675
2012-06-14,439.23719367
2012-06-15,4700.48501017
2012-06-16,206.97668762
2012-06-17,3.04442532
2012-06-18,0.0
2012-06-19,38.0015961
2012-06-20,0.0
2012-06-21,34.63
2012-06-22,16676.29931183
2012-06-23,115.61580381
2012-06-24,31188.18481228
2012-06-25,5098.88170226
2012-06-26,156.23421221
2012-06-27,177.58334664
2012-06-28,150.43514747
2012-06-29,1050.68395204
2012-06-30,2230.85926194
2012-07-01,29.9479263
2012-07-02,35.04863638
2012-07-03,473.4851419
2012-07-04,194624.77121404
2012-07-05,6420.57665914
2012-07-06,9973.68026403001
2012-07-07,15608.75156924
2012-07-08,239306.83285395
2012-07-09,99384.8081155099
2012-07-10,13147.4064047
2012-07-11,6617.79127288
2012-07-12,313.62065278
2012-07-13,442.22253793
2012-07-14,606.16411911
2012-07-15,9124.94677408
2012-07-16,6509.87401987
2012-07-17,80860.1829952997
2012-07-18,97300.97572803
2012-07-19,6342.8800671
2012-07-20,14145.58540416
2012-07-21,1029.82733374
2012-07-22,251.06906116
2012-07-23,7449.26194849
2012-07-24,16714.46789964
2012-07-25,19770.28710374
2012-07-26,102.47354
2012-07-27,6882.06069685
2012-07-28,3631.81468711
2012-07-29,10306.3464155
2012-07-30,2151.73368468
2012-07-31,57928.1470895497
2012-08-01,588.45553132
2012-08-02,103654.77638932
2012-08-03,455226.0135919
2012-08-04,6291.28877924999
2012-08-05,555.77975919
2012-08-06,1156.89041736
2012-08-07,1483.3755009
2012-08-08,19237.64804231
2012-08-09,720.38356986
2012-08-10,0.0
2012-08-11,403.90149169
2012-08-12,35.74366909
2012-08-13,53.55667625
2012-08-14,3216.8935926
2012-08-15,2167.73646041
2012-08-16,4200.4608818
2012-08-17,79.38511278
2012-08-18,723.74172469
2012-08-19,2038.04808527
2012-08-20,91.95997896
2012-08-21,173.21430767
2012-08-22,138.42914259
2012-08-23,51.5534521
2012-08-24,8.08144348
2012-08-25,0.12851554
2012-08-26,49.98022285
2012-08-27,55.79502317
2012-08-28,931.15236656
2012-08-29,28.721285
2012-08-30,1.71151105
2012-08-31,238.53072144
2012-09-01,0.0
2012-09-02,923.62920777
2012-09-03,2453.25784649
2012-09-04,1.88640979
2012-09-05,0.0
2012-09-06,219.03666046
2012-09-07,68.05643789
2012-09-08,4.86634536
2012-09-09,616.26260909
2012-09-10,0.0
2012-09-11,1288.1872327
2012-09-12,0.0
2012-09-13,52120.098095
2012-09-14,11210.83179733
2012-09-15,19097.31042014
2012-09-16,170.04334082
2012-09-17,956.09555388
2012-09-18,6.13661919
2012-09-19,123.35212581
2012-09-20,136.02463929
2012-09-21,88.83079673
2012-09-22,319.86370261
2012-09-23,171.51020987
2012-09-24,1001.99840252
2012-09-25,7386.35964345
2012-09-26,87.15356056
2012-09-27,143034.73802726
2012-09-28,11012.19105114
2012-09-29,7559.34357347
2012-09-30,787.79176303
2012-10-01,2499.24567951
2012-10-02,2610.08743796
2012-10-03,251.20701034
2012-10-04,1069.79274291
2012-10-05,1.00593431
2012-10-06,0.8
2012-10-07,574.25297964
2012-10-08,380.9296829
2012-10-09,3425.51035553
2012-10-10,2806.37254616
2012-10-11,11094.80564859
2012-10-12,20137.16940942
2012-10-13,10568.12121632
2012-10-14,10066.49510629
2012-10-15,97.93980764
2012-10-16,4645.58801234
2012-10-17,193.2925453
2012-10-18,21.8250292
2012-10-19,4215.94546049
2012-10-20,8096.9015912
2012-10-21,14181.61378456
2012-10-22,1857.34981804
2012-10-23,3.89861712
2012-10-24,7280.52229959
2012-10-25,2488.00087054
2012-10-26,3610.53086741
2012-10-27,2301.34946972
2012-10-28,1274.37979167
2012-10-29,7153.69974169
2012-10-30,103.43799474
2012-10-31,127.65877424
2012-11-01,15233.23984788
2012-11-02,16.92728073
2012-11-03,5910.93061391
2012-11-04,4491.30120775
2012-11-05,14136.59470822
2012-11-06,3578.11288056
2012-11-07,8234.89732691001
2012-11-08,1395.09061859
2012-11-09,2459.8981693
2012-11-10,2280.42045168
2012-11-11,14444.37853543
2012-11-12,28210.39756531
2012-11-13,11265.59226076
2012-11-14,36.27171142
2012-11-15,5820.64019803
2012-11-16,26.37982469
2012-11-17,10981.01356605
2012-11-18,45.67032092
2012-11-19,5718.11846893
2012-11-20,893.57260309
2012-11-21,340.21683908
2012-11-22,4859.63824942
2012-11-23,63.64542186
2012-11-24,560.70630787
2012-11-25,40.19932612
2012-11-26,924.969499430001
2012-11-27,3660.81453054
2012-11-28,12844.00830423
2012-11-29,2468.94983525
2012-11-30,7441.44723025
2012-12-01,147.08573767
2012-12-02,357.70455655
2012-12-03,12864.03835993
2012-12-04,34.57264758
2012-12-05,603.73167196
2012-12-06,2375.99441926
2012-12-07,39693.9027336
2012-12-08,0.59440276
2012-12-09,1690.74226956
2012-12-10,2722.82203448
2012-12-11,17.73276634
2012-12-12,5.16792066
2012-12-13,597.12551928
2012-12-14,270.91962236
2012-12-15,290.11301238
2012-12-16,622.12395191
2012-12-17,287.05313457
2012-12-18,343.13268636
2012-12-19,387.20960899
2012-12-20,31229.91400937
2012-12-21,516.93416428
2012-12-22,1976.97063579
2012-12-23,256.5683548
2012-12-24,662.89896273
2012-12-25,376.99154614
2012-12-26,10260.75990309
2012-12-27,484.56834555
2012-12-28,0.64629932
2012-12-29,125.29484621
2012-12-30,506.81691703
2012-12-31,10.03772628
2013-01-01,1822.20914535
2013-01-02,40.32923052
2013-01-03,55807.57393949
2013-01-04,20090.64879876
2013-01-05,25015.04921562
2013-01-06,9293.02432117
2013-01-07,849.56151317
2013-01-08,324.12307212
2013-01-09,77.54138494
2013-01-10,2.24893272
2013-01-11,18026.26228704
2013-01-12,17.89584277
2013-01-13,112.45294858
2013-01-14,35.89745071
2013-01-15,50020.23404282
2013-01-16,1.58346134
2013-01-17,7452.88599873
2013-01-18,61355.46341205
2013-01-19,811.52331878
2013-01-20,230.91696188
2013-01-21,4850.6696265
2013-01-22,978.35986967
2013-01-23,874.26874931
2013-01-24,418.45612362
2013-01-25,5186.55331467
2013-01-26,167.66374266
2013-01-27,2871.43384868
2013-01-28,15635.15213161
2013-01-29,3288.58355628
2013-01-30,1165.38712214
2013-01-31,3889.13324289
2013-02-01,19239.96980376
2013-02-02,27252.38296928
2013-02-03,11431.30859006
2013-02-04,12870.50967807
2013-02-05,292.90808088
2013-02-06,599.4393884
2013-02-07,7.0261294
2013-02-08,7009.80961836
2013-02-09,13673.24307378
2013-02-10,6923.39619551
2013-02-11,5744.11887345
2013-02-12,2520.23794549
2013-02-13,1427.49706843
2013-02-14,3842.34719113
2013-02-15,8.27569042
2013-02-16,105.17287346
2013-02-17,87.96865547
2013-02-18,10262.04677775
2013-02-19,25185.98309584
2013-02-20,156394.19421797
2013-02-21,5870.34639946
2013-02-22,27426.22633558
2013-02-23,4864.8379595
2013-02-24,135.61169567
2013-02-25,5624.56377273
2013-02-26,9781.78663125
2013-02-27,7566.88838277
2013-02-28,3232.05987421
2013-03-01,1669.63145045
2013-03-02,7998.66273296
2013-03-03,18124.35432332
2013-03-04,40493.43352031
2013-03-05,42511.18108283
2013-03-06,18950.68859101
2013-03-07,12950.30392875
2013-03-08,21607.93790723
2013-03-09,605656.73499384
2013-03-10,625092.096171729
2013-03-11,80886.74741027
2013-03-12,36831.52418876
2013-03-13,200703.87496269
2013-03-14,118430.01557682
2013-03-15,66034.1346592
2013-03-16,30883.77103086
2013-03-17,112939.96035442
2013-03-18,217154.15564788
2013-03-19,153604.11656749
2013-03-20,1184.9921414
2013-03-21,9157.53816926
2013-03-22,3374.14671006
2013-03-23,3640.06949606
2013-03-24,17957.34206888
2013-03-25,2592.88858164
2013-03-26,6516.75015201999
2013-03-27,2251.56749687
2013-03-28,32532.46770958
2013-03-29,66225.39377812
2013-03-30,1279.56898395
2013-03-31,113801.387380721
2013-04-01,33372.34913006
2013-04-02,143012.74224565
2013-04-03,40425.26727922
2013-04-04,22318.37724001
2013-04-05,36195.7369156
2013-04-06,17348.52017139
2013-04-07,3892.42518687
2013-04-08,9813.19818730001
2013-04-09,1383.47497224
2013-04-10,9586.99704608999
2013-04-11,986.113153
2013-04-12,20913.62474281
2013-04-13,1126.65556671
2013-04-14,21397.37565131
2013-04-15,56704.36743364
2013-04-16,2218.27938843
2013-04-17,5870.48883455
2013-04-18,239.07611905
2013-04-19,2192.69635796
2013-04-20,30.03606042
2013-04-21,34067.98203264
2013-04-22,2072.9746582
2013-04-23,238.03234856
2013-04-24,7289.56104457
2013-04-25,7710.80244114
2013-04-26,161.35431064
2013-04-27,20459.1060713
2013-04-28,2376.36919877
2013-04-29,5341.11763321
2013-04-30,35356.25937649
2013-05-01,73654.24984959
2013-05-02,893.470594079999
2013-05-03,3073.58407744
2013-05-04,955.20569821
2013-05-05,867.04715313
2013-05-06,12116.96263837
2013-05-07,261.38214549
2013-05-08,730.36917374
2013-05-09,15929.29273386
2013-05-10,1109.89786718
2013-05-11,13261.90266534
2013-05-12,697.8170443
2013-05-13,19707.96620503
2013-05-14,19009.50681236
2013-05-15,3350.87828537
2013-05-16,29213.34457755
2013-05-17,17.87318624
2013-05-18,366.431101
2013-05-19,350.85219795
2013-05-20,2538.79712749
2013-05-21,1135.64112618
2013-05-22,16.04141903
2013-05-23,884.60426183
2013-05-24,73.16401032
2013-05-25,552.78286312
2013-05-26,2238.77013171
2013-05-27,46.05766423
2013-05-28,693.56709007
2013-05-29,14311.34601674
2013-05-30,504.18896695
2013-05-31,875.70034434
2013-06-01,328.422365770001
2013-06-02,595.36409353
2013-06-03,8190.68444707
2013-06-04,795.83831069
2013-06-05,214.88517891
2013-06-06,1271.51661003
2013-06-07,502.42839945
2013-06-08,4691.94582638
2013-06-09,603.5572708
2013-06-10,90001.94337467
2013-06-11,131483.493481791
2013-06-12,530.57341877
2013-06-13,2357.07651729
2013-06-14,3888.5000562
2013-06-15,1176.366924
2013-06-16,1109.46026377
2013-06-17,111.52066911
2013-06-18,1801.22363937
2013-06-19,84.1555687
2013-06-20,807.97789146
2013-06-21,1489.71125001
2013-06-22,1945.85126792
2013-06-23,16746.15104466
2013-06-24,140821.38551157
2013-06-25,1130.54019869
2013-06-26,30306.04306056
2013-06-27,13568.68763246
2013-06-28,922.94935869
2013-06-29,24316.40749871
2013-06-30,34337.05490911
2013-07-01,28178.4364824
2013-07-02,27922.21017448
2013-07-03,6917.23647868
2013-07-04,2858.77264437
2013-07-05,6327.15817651
2013-07-06,1905.38130347
2013-07-07,2879.87523078
2013-07-08,7662.70917374
2013-07-09,6269.19891689
2013-07-10,5544.83664221
2013-07-11,2976.2986
2013-07-12,4312.71845963
2013-07-13,2075.14391896
2013-07-14,599611.59690405
2013-07-15,27515.81281284
2013-07-16,21209.72668339
2013-07-17,2079.57662096
2013-07-18,21628.23533978
2013-07-19,3047.17589099
2013-07-20,8585.29461082
2013-07-21,21428.5477734
2013-07-22,11756.8199981
2013-07-23,27782.80777125
2013-07-24,10225.28321165
2013-07-25,4292.4651964
2013-07-26,19893.17684985
2013-07-27,3678.13818545
2013-07-28,7707.10201649
2013-07-29,2332.24350957
2013-07-30,6838.17409684
2013-07-31,1678.2575009
2013-08-01,62177.8796802101
2013-08-02,1417.99909376
2013-08-03,8457.94292791001
2013-08-04,1558.93437327
2013-08-05,6574.64822907
2013-08-06,1702.95639929
2013-08-07,7262.18889763999
2013-08-08,119333.82690852
2013-08-09,13168.03609551
2013-08-10,29679.2155266701
2013-08-11,41228.79364934
2013-08-12,15412.66029921
2013-08-13,4849.10870897
2013-08-14,509951.45952644
2013-08-15,4257.89015681001
2013-08-16,1000660.07341094
2013-08-17,1971.17689251
2013-08-18,2557.93786861
2013-08-19,3728.98212141
2013-08-20,4817.53397135001
2013-08-21,7783.16357574
2013-08-22,6585.13296098001
2013-08-23,1993.82635048
2013-08-24,2857.97251514
2013-08-25,126798.18737206
2013-08-26,2558.36725709
2013-08-27,8172.66365478001
2013-08-28,6025.88283545
2013-08-29,9956.56306335999
2013-08-30,2385.32290128
2013-08-31,9133.12740279001
2013-09-01,3195.37107955
2013-09-02,7742.84874738
2013-09-03,24919.18610157
2013-09-04,8982.43089212
2013-09-05,12286.23699143
2013-09-06,24890.97488729
2013-09-07,9236.33222105999
2013-09-08,4525.15848037
2013-09-09,4193.90408217
2013-09-10,12525.59157397
2013-09-11,2026.79843452
2013-09-12,4041.94333734
2013-09-13,29515.85527951
2013-09-14,5787.52066337
2013-09-15,14542.75311662
2013-09-16,2414.24447681
2013-09-17,3349.23206818
2013-09-18,12582.77662815
2013-09-19,2705.17927373
2013-09-20,3437.71498657
2013-09-21,2517.24106266
2013-09-22,16722.85355731
2013-09-23,15039.95020465
2013-09-24,36458.01436321
2013-09-25,33481.47030252
2013-09-26,18952.13784056
2013-09-27,14043.09026012
2013-09-28,70333.54249689
2013-09-29,19444.18785461
2013-09-30,2902.08396902
2013-10-01,5527.74971971999
2013-10-02,52018.1706072201
2013-10-03,3660.43355094
2013-10-04,16519.33929161
2013-10-05,2274.64019359
2013-10-06,2180.36023689
2013-10-07,2709.51947832
2013-10-08,3343.35565939
2013-10-09,5950.47501979
2013-10-10,30728.5012247701
2013-10-11,7869.15096462
2013-10-12,5343.68975587
2013-10-13,11274.10796874
2013-10-14,3860.67221985
2013-10-15,24707.39805332
2013-10-16,16803.250913
2013-10-17,20086.11035679
2013-10-18,12033.19192682
2013-10-19,75468.4856903001
2013-10-20,13858.98338851
2013-10-21,28189.73962801
2013-10-22,49893.6262962499
2013-10-23,18189.64113497
2013-10-24,14082.2054394
2013-10-25,29627.38701977
2013-10-26,11828.39293384
2013-10-27,7435.96039037
2013-10-28,5951.84758928
2013-10-29,2854.14545526
2013-10-30,5713.18545815
2013-10-31,12325.41982981
2013-11-01,9337.38061880999
2013-11-02,14204.07401686
2013-11-03,75150.92728278
2013-11-04,27326.42297481
2013-11-05,76860.01751861
2013-11-06,98349.1987986603
2013-11-07,116049.83143981
2013-11-08,48530.6938008398
2013-11-09,27277.7577919001
2013-11-10,21602.95005979
2013-11-11,13895.40381005
2013-11-12,24750.9857299301
2013-11-13,29899.6994275299
2013-11-14,43484.7978359999
2013-11-15,510244.791704829
2013-11-16,141539.13890058
2013-11-17,19355.17919865
2013-11-18,125767.49631
2013-11-19,75299.9218785199
2013-11-20,97642.2301103
2013-11-21,14014.93005883
2013-11-22,9880.69410124998
2013-11-23,13028.19067963
2013-11-24,239638.02394299
2013-11-25,25046.73023914
2013-11-26,80780.4526454801
2013-11-27,161095.360829181
2013-11-28,105029.11702096
2013-11-29,44657.62757854
2013-11-30,22424.97615632
2013-12-01,19602.26669783
2013-12-02,22796.87895355
2013-12-03,12972.27682466
2013-12-04,43029.552163
2013-12-05,18936.92970742
2013-12-06,11890.75100983
2013-12-07,9346.62401087999
2013-12-08,2924.97664711
2013-12-09,5619.95434509
2013-12-10,2572.21953611
2013-12-11,2342.515075
2013-12-12,1238.41200109
2013-12-13,20358.84517415
2013-12-14,197691.02593558
2013-12-15,4806.99801830001
2013-12-16,4885.0042538
2013-12-17,4461.17904749
2013-12-18,56899.8919615299
2013-12-19,4843.78498691
2013-12-20,2240.00494419
2013-12-21,2822.87661074
2013-12-22,19257.31792244
2013-12-23,15710.87843885
2013-12-24,4116.64093862
2013-12-25,13500.02166556
2013-12-26,2165.82046381
2013-12-27,2494.13978942
2013-12-28,1052.66652232
2013-12-29,5632.21670181
2013-12-30,602.349631890001
2013-12-31,285.91950131
2014-01-01,4787.78534058
2014-01-02,7842.92969095
2014-01-03,766.10128765
2014-01-04,5982.49053202
2014-01-05,4176.34815088
2014-01-06,9250.38223253001
2014-01-07,983.48509416
2014-01-08,850.16785885
2014-01-09,6752.08433165
2014-01-10,928.61867593
2014-01-11,1685.38437379
2014-01-12,2062.19135235
2014-01-13,1873.1510277
2014-01-14,1143.91480222
2014-01-15,946.405947359999
2014-01-16,473.01345537
2014-01-17,966.0564339
2014-01-18,829.48461899
2014-01-19,52351.7488912
2014-01-20,1681.09261663
2014-01-21,5402.77138791
2014-01-22,51858.1055795
2014-01-23,84739.8370880101
2014-01-24,5827.55826686
2014-01-25,586.01893641
2014-01-26,7799.64124881
2014-01-27,2505.21217044
2014-01-28,1908.62575748
2014-01-29,2757.62994634
2014-01-30,2253.20395369
2014-01-31,585.42264115
2014-02-01,1095.28360201
2014-02-02,3187.20143654
2014-02-03,11784.25502784
2014-02-04,570.96758128
2014-02-05,1088557.98438186
2014-02-06,7007.36614556001
2014-02-07,16986.41930953
2014-02-08,300.49367666
2014-02-09,792.203281890001
2014-02-10,14577.35292965
2014-02-11,1270.66100752
2014-02-12,4337.8494893
2014-02-13,12057.37205452
2014-02-14,31235.95857271
2014-02-15,13933.95280355
2014-02-16,1536.54517315
2014-02-17,5362.31619010001
2014-02-18,14551.87488431
2014-02-19,15531.3906441
2014-02-20,4789.2626983
2014-02-21,6938.00617205001
2014-02-22,8436.70592459
2014-02-23,7941.45053014
2014-02-24,5868.58142543
2014-02-25,40880.5690257701
2014-02-26,21527.70453124
2014-02-27,5314.97226983
2014-02-28,25935.91719686
2014-03-01,19884.56605038
2014-03-02,12981.67827997
2014-03-03,32091.93811216
2014-03-04,49954.61756895
2014-03-05,4247.3621851
2014-03-06,12776.19322981
2014-03-07,19319.7944911699
2014-03-08,14106.50530302
2014-03-09,3064.603756
2014-03-10,2933.97750995
2014-03-11,2124.30286966
2014-03-12,17340.11511771
2014-03-13,4658.61241154
2014-03-14,1804.12814513
2014-03-15,15794.71584098
2014-03-16,60352.8886916701
2014-03-17,8124.53576632
2014-03-18,30550.12399017
2014-03-19,57697.39556325
2014-03-20,13151.27232561
2014-03-21,7551.23777723
2014-03-22,7542.48542637
2014-03-23,4950.64920321
2014-03-24,3813.14911399
2014-03-25,4786.93774708
2014-03-26,9494.21055438
2014-03-27,72969.66409911
2014-03-28,13596.80866293
2014-03-29,12164.64948758
2014-03-30,45166.79611187
2014-03-31,15546.73857996
2014-04-01,21543.66764063
2014-04-02,70725.1276468201
2014-04-03,321128.80853478
2014-04-04,4471.61639077
2014-04-05,2984.69645241
2014-04-06,27894.29493152
2014-04-07,4759.09370431
2014-04-08,5767.61178207
2014-04-09,10320.19757904
2014-04-10,23862.3603726
2014-04-11,8785.10251251001
2014-04-12,56399.4320040999
2014-04-13,2922.23361898
2014-04-14,11730.07512851
2014-04-15,20756.1077010801
2014-04-16,13398.43680941
2014-04-17,3428.46050348
2014-04-18,55809.2907375701
2014-04-19,14492.73824241
2014-04-20,14888.55381328
2014-04-21,3979.79007722
2014-04-22,10476.90876526
2014-04-23,5161.63167841
2014-04-24,20740.94840724
2014-04-25,37538.07173926
2014-04-26,15472.00703498
2014-04-27,3255.21529673
2014-04-28,8234.864467
2014-04-29,3928.99288965
2014-04-30,3097.88405579999
2014-05-01,2483.22148626
2014-05-02,12203.66570701
2014-05-03,9497.88140651006
2014-05-04,3016.27544729999
2014-05-05,3750.82935733999
2014-05-06,30812.34485757
2014-05-07,4861.97110811
2014-05-08,2778.42407958
2014-05-09,8909.51788593999
2014-05-10,18180.29751232
2014-05-11,4512.83923384999
2014-05-12,22175.5744819699
2014-05-13,5862.71218738001
2014-05-14,2919.89339276
2014-05-15,8757.39127876
2014-05-16,7823.36283927001
2014-05-17,4990.95941517
2014-05-18,21371.9687479897
2014-05-19,3695.60698767
2014-05-20,82556.4463443201
2014-05-21,19181.01453374
2014-05-22,26141.15393348
2014-05-23,43883.9854780498
2014-05-24,97178.7007567001
2014-05-25,16201.96589652
2014-05-26,8830.75781494998
2014-05-27,15577.24920058
2014-05-28,11394.31635336
2014-05-29,13020.22861556
2014-05-30,17629.0299813
2014-05-31,29183.28533171
2014-06-01,10597.1078261399
2014-06-02,6443.80717423
2014-06-03,21165.8040373899
2014-06-04,40190.07578517
2014-06-05,4005.50093607
2014-06-06,8842.09686357999
2014-06-07,9029.89894287
2014-06-08,10233.30711749
2014-06-09,7599.19469510998
2014-06-10,69323.2054293799
2014-06-11,6597.46531580999
2014-06-12,7257.86065363001
2014-06-13,12796.49098124
2014-06-14,2869.14484246
2014-06-15,4981.11033355
2014-06-16,8481.86681486002
2014-06-17,3802.05887492999
2014-06-18,3410.32600727
2014-06-19,18769.17490937
2014-06-20,15592.39745178
2014-06-21,7202.10457101
2014-06-22,8495.89022422003
2014-06-23,3894.76710721001
2014-06-24,11051.45246551
2014-06-25,27509.446282
2014-06-26,12684.48734337
2014-06-27,5390.10900807001
2014-06-28,20337.28995731
2014-06-29,3604.95451677
2014-06-30,19568.7131266999
2014-07-01,28462.06736057
2014-07-02,206971.28711955
2014-07-03,7338.70052017
2014-07-04,7363.11759689
2014-07-05,8243.74360759
2014-07-06,4742.55067214
2014-07-07,15445.73121013
2014-07-08,14452.41148114
2014-07-09,14678.39174556
2014-07-10,12559.01444177
2014-07-11,11951.4970760601
2014-07-12,11735.17619981
2014-07-13,13313.69215124
2014-07-14,9782.26844301998
2014-07-15,11714.80230018
2014-07-16,10958.58231638
2014-07-17,12791.02470247
2014-07-18,25503.2076092599
2014-07-19,79366.6619982901
2014-07-20,2333.54017383
2014-07-21,203998.60425563
2014-07-22,2714.08570329
2014-07-23,2204.04977662
2014-07-24,12548.80616603
2014-07-25,6279.70915175001
2014-07-26,11619.26029418
2014-07-27,22710.50323559
2014-07-28,2246.64201236
2014-07-29,5043.66306223
2014-07-30,14844.80876282
2014-07-31,14269.99309514
2014-08-01,4708.26062601001
2014-08-02,3065.07152197001
2014-08-03,6831.19290045
2014-08-04,5141.95851413001
2014-08-05,5336.66887272
2014-08-06,7955.67843518
2014-08-07,8556.8746203
2014-08-08,1472.23050628
2014-08-09,75836.4866816199
2014-08-10,40820.4515532799
2014-08-11,14073.64122694
2014-08-12,9392.07157388
2014-08-13,15525.36233946
2014-08-14,22926.89953152
2014-08-15,9317.09861941001
2014-08-16,2587.46379418
2014-08-17,5231.69616439001
2014-08-18,49233.34304311
2014-08-19,159558.682920389
2014-08-20,5010.85304715
2014-08-21,9538.51644708001
2014-08-22,9210.64863677
2014-08-23,1892.63412612
2014-08-24,5369.30389545
2014-08-25,7126.57673737
2014-08-26,9880.71298743001
2014-08-27,12762.23020852
2014-08-28,6336.40011704
2014-08-29,5906.19143704999
2014-08-30,5173.39131829999
2014-08-31,1745.35600211
2014-09-01,28457.14554461
2014-09-02,2880.35762877
2014-09-03,9438.65408877
2014-09-04,22550.94858552
2014-09-05,15225.727728
2014-09-06,53080.45049168
2014-09-07,17844.03450231
2014-09-08,5489.73310528001
2014-09-09,4769.10521786
2014-09-10,21212.69519636
2014-09-11,3546.12085664
2014-09-12,11657.16229789
2014-09-13,5660.67479225001
2014-09-14,11502.62001214
2014-09-15,34426.61341177
2014-09-16,2139.61573043
2014-09-17,13705.41492476
2014-09-18,12985.98089976
2014-09-19,4087.56479104
2014-09-20,4131.02092476
2014-09-21,9925.94730420999
2014-09-22,10386.27054985
2014-09-23,11829.18711476
2014-09-24,5091.82487628
2014-09-25,5481.05427593
2014-09-26,6804.24520806
2014-09-27,4097.68947909
2014-09-28,20165.18292645
2014-09-29,8205.34947024001
2014-09-30,8549.72125568
2014-10-01,4236.51859201
2014-10-02,4390.29729414
2014-10-03,6769.68692332001
2014-10-04,6365.81943915
2014-10-05,11185.87872086
2014-10-06,24463.05263451
2014-10-07,7878.70388778
2014-10-08,11735.37003296
2014-10-09,4251.20801257
2014-10-10,12893.08749114
2014-10-11,8538.74129311
2014-10-12,4794.35102277
2014-10-13,6699.93714884001
2014-10-14,9636.31053177
2014-10-15,3595.68130792
2014-10-16,3052.49883158
2014-10-17,8568.05450303001
2014-10-18,144877.56692115
2014-10-19,7918.35322557998
2014-10-20,1952.65272839
2014-10-21,2023.8128933
2014-10-22,381616.61246863
2014-10-23,6685.84484078
2014-10-24,636.32934844
2014-10-25,9274.14479282999
2014-10-26,4664.04272407
2014-10-27,3232.28930253
2014-10-28,6727.20346885
2014-10-29,30043.99842057
2014-10-30,2440.08883608
2014-10-31,4075.56357098
2014-11-01,1375.80813898
2014-11-02,6297.60210999001
2014-11-03,895.57292887
2014-11-04,1656.86579462999
2014-11-05,1436.41187236
2014-11-06,4066.26984625
2014-11-07,1562.35204285
2014-11-08,6020.71048252
2014-11-09,1130.80697939
2014-11-10,928.04536212
2014-11-11,1288.88190965
2014-11-12,3526.89560296
2014-11-13,14011.6262398
2014-11-14,1622.15384064
2014-11-15,1766.96742948
2014-11-16,9689.78965944001
2014-11-17,3660.76420086001
2014-11-18,3199.32890951
2014-11-19,9409.31167759996
2014-11-20,1461.10733552
2014-11-21,3609.52221025
2014-11-22,1405.96460744
2014-11-23,150872.60717238
2014-11-24,1863.96395909
2014-11-25,17658.34532772
2014-11-26,2635.40067618
2014-11-27,7070.59750209
2014-11-28,2417.37959394
2014-11-29,4481.50054624
2014-11-30,3183.96675112
2014-12-01,2967.75767115
2014-12-02,18669.34215021
2014-12-03,4325.85616806
2014-12-04,125067.97081425
2014-12-05,2229.57178541
2014-12-06,725.65114402
2014-12-07,85716.87715397
2014-12-08,5716.44923387
2014-12-09,9641.32242788
2014-12-10,3327.32718332
2014-12-11,11682.46283672
2014-12-12,8676.08392054
2014-12-13,762.74893952
2014-12-14,10638.33724683
2014-12-15,17585.54192349
2014-12-16,39319.54609759
2014-12-17,2694.44649538
2014-12-18,14242.14612486
2014-12-19,14774.92332481
2014-12-20,1726.8668062
2014-12-21,938.80995137
2014-12-22,1997.38197135
2014-12-23,7146.32990277
2014-12-24,8661.59676555
2014-12-25,25318.05071705
2014-12-26,8399.03076586
2014-12-27,901027.0641102
2014-12-28,1143.22109513
2014-12-29,6324.88228615
2014-12-30,8357.71973534
2014-12-31,2947.4926433
2015-01-01,9551.99296039
2015-01-02,1479.50856419
2015-01-03,40905.53068686
2015-01-04,54411.94931377
2015-01-05,3478.99054931
2015-01-06,670.03135397
2015-01-07,3217.95132695
2015-01-08,6272.84415773
2015-01-09,24323.64497287
2015-01-10,18462.53103741
2015-01-11,261028.27953555
2015-01-12,2714.93687175
2015-01-13,5054.60721302
2015-01-14,40802.5219071501
2015-01-15,8240.47093744999
2015-01-16,14489.33505298
2015-01-17,4813.24522587
2015-01-18,974.79266966
2015-01-19,805.60910892
2015-01-20,51210.80808891
2015-01-21,1478.14464695
2015-01-22,10728.86207102
2015-01-23,535.26127499
2015-01-24,6354.0563926
2015-01-25,29299.38590346
2015-01-26,6839.29437697
2015-01-27,13530.56850278
2015-01-28,7999.07110058
2015-01-29,16864.09811881
2015-01-30,1241.94403077
2015-01-31,4818.09596217
2015-02-01,1795.15383041
2015-02-02,102382.2029668
2015-02-03,2549.98735077
2015-02-04,1959.07451818
2015-02-05,562.59590493
2015-02-06,9578.39923978999
2015-02-07,247.31861551
2015-02-08,2120.15919994
2015-02-09,1785.57777231
2015-02-10,733.88161368
2015-02-11,151.75047509
2015-02-12,2119.77739934
2015-02-13,3342.22266342
2015-02-14,530.35745786
2015-02-15,6307.9052886
2015-02-16,2074.86208718
2015-02-17,214.71376394
2015-02-18,172.91493691
2015-02-19,151.01358718
2015-02-20,142.77791044
2015-02-21,1799.24223449
2015-02-22,11647.66081854
2015-02-23,142.61474106
2015-02-24,106.37759418
2015-02-25,470.30977481
2015-02-26,864.11369269
2015-02-27,4444.30009189
2015-02-28,594.52188946
2015-03-01,1520.34076767
2015-03-02,2228.79712777
2015-03-03,9733.10031961
2015-03-04,3931.06321195
2015-03-05,4421.99500891
2015-03-06,459.60965808
2015-03-07,277.24465979
2015-03-08,739.60530042
2015-03-09,5730.42439368
2015-03-10,6417.72934534
2015-03-11,3420.51470631
2015-03-12,3026.72502333
2015-03-13,10278.93759466
2015-03-14,716.70228017
2015-03-15,130.12215398
2015-03-16,2376.36810926
2015-03-17,3001.85789612
2015-03-18,2661.04372473
2015-03-19,716.63254453
2015-03-20,696.42065926
2015-03-21,683.92417175
2015-03-22,925.86140611
2015-03-23,71639.70074673
2015-03-24,117821.33116314
2015-03-25,48565.84504008
2015-03-26,637.155390199999
2015-03-27,3096.3437864
2015-03-28,6226.62116253
2015-03-29,2866.66841273
2015-03-30,90537.01620013
2015-03-31,1291.59114395
2015-04-01,580.09655125
2015-04-02,385.11719897
2015-04-03,27553.11859975
2015-04-04,2704.88581563
2015-04-05,12450.27021109
2015-04-06,1104.54691275
2015-04-07,930.322155990001
2015-04-08,1288.70733867
2015-04-09,15361.1896144
2015-04-10,4101.20240655
2015-04-11,1416.29093259
2015-04-12,2258.03697455
2015-04-13,47529.78302001
2015-04-14,21366.36443528
2015-04-15,1163.75407288
2015-04-16,8194.63650869
2015-04-17,3293.6512451
2015-04-18,8239.78005429001
2015-04-19,3815.3178923
2015-04-20,1724.33337373
2015-04-21,4932.93542243
2015-04-22,15007.03492777
2015-04-23,22072.06503764
2015-04-24,5630.39897434
2015-04-25,4256.41423341
2015-04-26,4489.32240785
2015-04-27,47630.63875564
2015-04-28,8739.05585737
2015-04-29,18066.28668292
2015-04-30,7543.33312258
2015-05-01,2456.09367923
2015-05-02,7862.71637609
2015-05-03,16307.70411879
2015-05-04,12139.42099378
2015-05-05,4475.84019658
2015-05-06,9187.41279612999
2015-05-07,8309.48033146
2015-05-08,18995.53449407
2015-05-09,18865.93402598
2015-05-10,13374.49394129
2015-05-11,28275.32110966
2015-05-12,36790.79014816
2015-05-13,3729.60620673
2015-05-14,2597.60345499
2015-05-15,5731.37355060001
2015-05-16,18024.10213155
2015-05-17,5453.99567238
2015-05-18,3436.87957772001
2015-05-19,6844.28081738001
2015-05-20,2353.31935635
2015-05-21,12158.39667393
2015-05-22,391680.4150361
2015-05-23,13701.27347
2015-05-24,6559.04036000001
2015-05-25,40453.85221026
2015-05-26,6182.74829146
2015-05-27,110377.00399429
2015-05-28,5781.95730558002
2015-05-29,2591.75379373
2015-05-30,1100.65218717
2015-05-31,49728.33505084
2015-06-01,21446.3823374
2015-06-02,6117.63844367
2015-06-03,5458.70940245
2015-06-04,16966.08428306
2015-06-05,17391.54510886
2015-06-06,7174.61529417
2015-06-07,21742.02917491
2015-06-08,14710.00049476
2015-06-09,10840.7544033
2015-06-10,109473.66239902
2015-06-11,4648.47237459
2015-06-12,4636.37529972
2015-06-13,125545.9183373
2015-06-14,49134.10594799
2015-06-15,164274.35834692
2015-06-16,353811.49263575
2015-06-17,61044.50722597
2015-06-18,374983.673731325
2015-06-19,21536.20410735
2015-06-20,58234.1921321299
2015-06-21,5854.08233516
2015-06-22,52722.55881983
2015-06-23,8233.65706707
2015-06-24,8489.01989325001
2015-06-25,120941.78236231
2015-06-26,1830.21460196
2015-06-27,1109.33702122
2015-06-28,5445.12333185001
2015-06-29,24421.95081236
2015-06-30,551939.68028114
2015-07-01,5042.26831601
2015-07-02,32777.14064078
2015-07-03,11259.36169398
2015-07-04,9218.63569674
2015-07-05,118647.00404133
2015-07-06,455371.36247169
2015-07-07,21633.23396495
2015-07-08,110712.3759342
2015-07-09,72243.1143159697
2015-07-10,154831.74399623
2015-07-11,12097.3648838
2015-07-12,60770.74957788
2015-07-13,60839.08560538
2015-07-14,3500.28976412001
2015-07-15,6115.09411785
2015-07-16,11369.25969195
2015-07-17,55920.65449212
2015-07-18,1459.8452989
2015-07-19,1767.36059626
2015-07-20,2694.29540528
2015-07-21,1881.76926219
2015-07-22,326.6894831
2015-07-23,791.79891041
2015-07-24,9242.38359607
2015-07-25,1805.42989496
2015-07-26,3502.46883381
2015-07-27,3991.05466199
2015-07-28,7975.40556262
2015-07-29,788.908552660004
2015-07-30,8677.40278164999
2015-07-31,1109.17798206
2015-08-01,5670.19618356
2015-08-02,341.23479436
2015-08-03,490.89324295
2015-08-04,2124.35896508
2015-08-05,11085.56670037
2015-08-06,10726.75786239
2015-08-07,662.280472559997
2015-08-08,15638.67660943
2015-08-09,1342.47544404
2015-08-10,670.95487944
2015-08-11,4248.57055206
2015-08-12,1153.11362983
2015-08-13,2369.03932021
2015-08-14,1736.81669805
2015-08-15,354.34107967
2015-08-16,1935.01591896
2015-08-17,7825.25207976
2015-08-18,7454.90552290001
2015-08-19,2463.69960164
2015-08-20,1968.30290058
2015-08-21,5252.03359355001
2015-08-22,1473.28138475997
2015-08-23,1385.64902239
2015-08-24,6666.16613072002
2015-08-25,6553.14744367003
2015-08-26,3819.86771109
2015-08-27,49.07738022
2015-08-28,169.31954498
2015-08-29,337.66661496
2015-08-30,336.28927869
2015-08-31,2585.21945345
2015-09-01,1136.82174117
2015-09-02,211.89472592
2015-09-03,100689.72011803
2015-09-04,1083.56807034
2015-09-05,5262.56636401
2015-09-06,4737.5803278
2015-09-07,2597.89476925
2015-09-08,7740.53551288
2015-09-09,2182.67755886
2015-09-10,404.91376376
2015-09-11,848.25108345
2015-09-12,185.41836632
2015-09-13,137.38955996
2015-09-14,1572.47651526
2015-09-15,2593.86015012
2015-09-16,22139.89726472
2015-09-17,518.13923575
2015-09-18,2465.22924121
2015-09-19,35.70621741
2015-09-20,1318.07753875
2015-09-21,674.712746749995
2015-09-22,593.47584154
2015-09-23,1223.9018488
2015-09-24,5248.73661376
2015-09-25,4557.04383405
2015-09-26,430.05345533
2015-09-27,3293.06517248
2015-09-28,646.304912389998
2015-09-29,2612.40779589
2015-09-30,14350.53772792
2015-10-01,112.10364671
2015-10-02,587.0109947
2015-10-03,108.0707302
2015-10-04,110.29949617
2015-10-05,32057.46436047
2015-10-06,68095.57566437
2015-10-07,5063.91760712001
2015-10-08,32234.94906905
2015-10-09,954.293051289997
2015-10-10,1122.96632518
2015-10-11,31328.4004291
2015-10-12,9292.60247190999
2015-10-13,11567.7059595
2015-10-14,1851.67800815
2015-10-15,917.38651312
2015-10-16,3136.59636737
2015-10-17,4896.67061867
2015-10-18,5876.20829099
2015-10-19,2601.80259989
2015-10-20,30366.30900234
2015-10-21,4105.50715029
2015-10-22,12568.08838067
2015-10-23,7705.49725230002
2015-10-24,11510.5421374
2015-10-25,17528.99907469
2015-10-26,13442.25972596
2015-10-27,7945.45177332
2015-10-28,10077.29323654
2015-10-29,64186.66323628
2015-10-30,91265.84898822
2015-10-31,17020.50082787
2015-11-01,9148.51045189002
2015-11-02,54636.79708007
2015-11-03,211475.813406529
2015-11-04,128155.41308188
2015-11-05,41533.18204153
2015-11-06,8182.01818304
2015-11-07,3892.78237675
2015-11-08,21137.39140667
2015-11-09,14214.59780982
2015-11-10,1735.09225473
2015-11-11,11504.72675295
2015-11-12,3666.98689959
2015-11-13,40334.05921842
2015-11-14,19734.17633263
2015-11-15,7741.45091502
2015-11-16,330798.71031299
2015-11-17,21129.51860666
2015-11-18,2776.5072685
2015-11-19,6852.89927155
2015-11-20,2902.73879535
2015-11-21,68840.9915438101
2015-11-22,1182.29682461
2015-11-23,3120.35819515
2015-11-24,147183.80934292
2015-11-25,11598.54709887
2015-11-26,68538.2180289099
2015-11-27,25527.71181893
2015-11-28,3434.58519931
2015-11-29,7547.69691730999
2015-11-30,2836.98609206
2015-12-01,13158.34431148
2015-12-02,600650.55827137
2015-12-03,1968.41263419
2015-12-04,103271.11005293
2015-12-05,42753.25341517
2015-12-06,7917.39907269
2015-12-07,87364.37445719
2015-12-08,5588.46090114
2015-12-09,17494.84168966
2015-12-10,4632.58875959
2015-12-11,42701.12056315
2015-12-12,43056.33850797
2015-12-13,15852.73135145
2015-12-14,8180.04363545
2015-12-15,48880.64409556
2015-12-16,3486.16272224
2015-12-17,2651.74248624
2015-12-18,2997.10713913
2015-12-19,4447.75007151
2015-12-20,1216.34374583
2015-12-21,3998.73118173
2015-12-22,1064.07177503
2015-12-23,7181.81790293
2015-12-24,6486.08206023001
2015-12-25,1759.9153771
2015-12-26,2115.53660221
2015-12-27,725.01164736
2015-12-28,14680.96489287
2015-12-29,5174.01428866
2015-12-30,9040.02065719
2015-12-31,3612.36624988
2016-01-01,6708.51269141
2016-01-02,511.02296724
2016-01-03,2269.61782574
2016-01-04,2349.82502817
2016-01-05,6085.2144203
2016-01-06,3003.3702091
2016-01-07,43949.06938558
2016-01-08,4681.46788355
2016-01-09,4242.05536785
2016-01-10,4492.84321608
2016-01-11,249.77631826
2016-01-12,2495.42237909
2016-01-13,7360.40418201
2016-01-14,393.51429249
2016-01-15,74343.83218762
2016-01-16,3934.3403775
2016-01-17,4420.17274592
2016-01-18,1454.85585828
2016-01-19,33426.65113385
2016-01-20,2092.72278863
2016-01-21,1665.23039527
2016-01-22,34023.21390356
2016-01-23,1434.20320495
2016-01-24,1645.25012047
2016-01-25,20090.71798828
2016-01-26,26581.22156466
2016-01-27,48047.90655353
2016-01-28,1247.96955007
2016-01-29,22600.134351
2016-01-30,4712.62695886
2016-01-31,2766.81473733
2016-02-01,3228.32895451
2016-02-02,14104.5533593
2016-02-03,3601.7224008
2016-02-04,25742.2612708
2016-02-05,4766.32374762
2016-02-06,8185.92093441
2016-02-07,10584.99991802
2016-02-08,18441.13709231
2016-02-09,26839.05990718
2016-02-10,32386.1774266
2016-02-11,76444.4496815
2016-02-12,24845.71781812
2016-02-13,1659.52983927
2016-02-14,1484.09161864
2016-02-15,6793.95403454
2016-02-16,11723.12470075
2016-02-17,2716.43584079
2016-02-18,1602.55496048
2016-02-19,1235.91551489
2016-02-20,106016.62918562
2016-02-21,26447.4775587
2016-02-22,7624.41689028
2016-02-23,48569.23595332
2016-02-24,4416.16289289
2016-02-25,675.5572497
2016-02-26,788.53379618
2016-02-27,2200.76934873
2016-02-28,7182.59796034
2016-02-29,3638.2952789
2016-03-01,17874.56006347
2016-03-02,3155.06024566
2016-03-03,12813.46110173
2016-03-04,1520.98069891
2016-03-05,3532.43725759
2016-03-06,1919.95324119
2016-03-07,14713.09706477
2016-03-08,3255.57688713
2016-03-09,5463.83139896
2016-03-10,1175.75577704
2016-03-11,2555.60488245
2016-03-12,6928.55494306
2016-03-13,58366.99695198
2016-03-14,3284.39174025
2016-03-15,1265.13069664
2016-03-16,16505.9476631
2016-03-17,9243.72027706001
2016-03-18,7374.68429103
2016-03-19,31222.15863214
2016-03-20,24406.04968453
2016-03-21,437.15776204
2016-03-22,3656.42425299
2016-03-23,5627.69854813003
2016-03-24,12070.72015995
2016-03-25,22077.38103263
2016-03-26,740.78964732
2016-03-27,13827.45575741
2016-03-28,1703.56291522
2016-03-29,2167.90617935
2016-03-30,2580.35976564
2016-03-31,6183.16204881001
2016-04-01,26123.34606982
2016-04-02,6620.83638972
2016-04-03,226.74489666
2016-04-04,7262.22611831
2016-04-05,10067.25902328
2016-04-06,83293.03372169
2016-04-07,569.189310370001
2016-04-08,20431.56813518
2016-04-09,10341.54519503
2016-04-10,3620.45727666
2016-04-11,7263.90149309
2016-04-12,10688.98271874
2016-04-13,279.30114611
2016-04-14,1963.43408419
2016-04-15,3108.85119334
2016-04-16,10750.84515113
2016-04-17,14697.37450517
2016-04-18,5450.67732466001
2016-04-19,3932.54402011
2016-04-20,35093.49659173
2016-04-21,12712.46330113
2016-04-22,25131.06927076
2016-04-23,275.03592159
2016-04-24,107296.74456236
2016-04-25,89689.86405571
2016-04-26,35396.87230691
2016-04-27,71253.0099518499
2016-04-28,54926.28358513
2016-04-29,13727.04439283
2016-04-30,1723.30068819
2016-05-01,1528.8224698
2016-05-02,36131.42689177
2016-05-03,19835.97720067
2016-05-04,15468.18049386
2016-05-05,9219.14063846
2016-05-06,2355.942644
2016-05-07,4250.44954366
2016-05-08,1914.85747942
2016-05-09,6315.00035889
2016-05-10,39381.3785308799
2016-05-11,6692.41678234
2016-05-12,1068.84511895
2016-05-13,4221.40981898
2016-05-14,1700.79039164
2016-05-15,45735.85461143
2016-05-16,5310.31197304
2016-05-17,36283.05255783
2016-05-18,2171.54367811
2016-05-19,44906.97710148
2016-05-20,7457.72573341
2016-05-21,13886.06196121
2016-05-22,1201.09913237
2016-05-23,22350.82132864
2016-05-24,13268.70453345
2016-05-25,268846.49313205
2016-05-26,12908.15336428
2016-05-27,79148.8018011999
2016-05-28,18396.28963694
2016-05-29,94669.73800984
2016-05-30,39998.29387315
2016-05-31,114235.48610113
2016-06-01,1911.01181988
2016-06-02,1195.92675062999
2016-06-03,3698.79238918001
2016-06-04,7938.68888315999
2016-06-05,4681.78361762
2016-06-06,26137.0215127799
2016-06-07,5384.61364514999
2016-06-08,5129.12285435
2016-06-09,441.95078193
2016-06-10,5471.79229406
2016-06-11,17555.84734359
2016-06-12,5515.94641089001
2016-06-13,6563.35536971001
2016-06-14,12891.27352965
2016-06-15,14756.33505128
2016-06-16,14361.99761172
2016-06-17,36511.84611347
2016-06-18,7598.39450139
2016-06-19,7362.42054577999
2016-06-20,5315.17445142
2016-06-21,37631.82127004
2016-06-22,8636.19031219001
2016-06-23,617587.42456868
2016-06-24,23898.42403584
2016-06-25,4974.54536074
2016-06-26,1457.85742016
2016-06-27,439.43239681
2016-06-28,1356.44269147
2016-06-29,865.47778515
2016-06-30,2342.26543164
2016-07-01,1514.68615754
2016-07-02,5237.5649195
2016-07-03,1521.55504822
2016-07-04,6233.63452993001
2016-07-05,4785.57672878
2016-07-06,5326.97462405
2016-07-07,22451.57005637
2016-07-08,570.8328692
2016-07-09,348.71710127
2016-07-10,1352.69694588
2016-07-11,1943.58526036
2016-07-12,293.05354203
2016-07-13,442.36831395
2016-07-14,622.09558489
2016-07-15,1591.11170569
2016-07-16,1301.96487625
2016-07-17,317.58948455
2016-07-18,187.16731051
2016-07-19,681.28401953
2016-07-20,706.78853109
2016-07-21,2209.32501041
2016-07-22,3239.8430581
2016-07-23,408.35528693
2016-07-24,2634.84131339
2016-07-25,4875.84959308
2016-07-26,2243.07833809
2016-07-27,8645.51634922
2016-07-28,3055.16478229
2016-07-29,204.95191177
2016-07-30,51.68936864
2016-07-31,1218.33073751
2016-08-01,661.85061884
2016-08-02,12666.18699095
2016-08-03,1875.8411835
2016-08-04,1656.02973027
2016-08-05,1156.93095015
2016-08-06,1269.37027392
2016-08-07,7516.89422693001
2016-08-08,1428.46338944
2016-08-09,203545.49363024
2016-08-10,10657.40276444
2016-08-11,17193.73205078
2016-08-12,11164.38450059
2016-08-13,7904.29316385
2016-08-14,5536.36886496
2016-08-15,1141.14479837
2016-08-16,2735.12598167
2016-08-17,1157.53575922
2016-08-18,1515.33987074
2016-08-19,3979.82499864
2016-08-20,46599.95357199
2016-08-21,11999.63859373
2016-08-22,862.64105181
2016-08-23,197770.20312931
2016-08-24,7838.59462290001
2016-08-25,4653.12877597
2016-08-26,568.31361354
2016-08-27,7475.73666625
2016-08-28,454.7361626
2016-08-29,931.09015401
2016-08-30,2780.75296876
2016-08-31,3172.26754399
2016-09-01,310.87846892
2016-09-02,20861.20478623
2016-09-03,21151.13992366
2016-09-04,286.31671441
2016-09-05,3601.25617872
2016-09-06,376.85613246
2016-09-07,1700.22078133
2016-09-08,4282.87842053
2016-09-09,1577.06068744
2016-09-10,67.23496928
2016-09-11,3790.65669553
2016-09-12,27422.25556628
2016-09-13,2096.99766512
2016-09-14,4595.65126213
2016-09-15,3134.29556108
2016-09-16,9668.74504579
2016-09-17,13638.56417078
2016-09-18,222.8370367
2016-09-19,1317.90696118
2016-09-20,3073.13990961
2016-09-21,3918.67072571
2016-09-22,17562.19592667
2016-09-23,1747.23752446
2016-09-24,16048.99307103
2016-09-25,521.12015518
2016-09-26,10939.5716418
2016-09-27,1380.39088957
2016-09-28,60458.68766185
2016-09-29,3491.61411296
2016-09-30,5465.63413254
2016-10-01,5172.60002204
2016-10-02,379.71114538
2016-10-03,616.68004472
2016-10-04,3359.51856392
2016-10-05,13195.92771909
2016-10-06,11508.43533315
2016-10-07,4264.0966041
2016-10-08,71031.3908432599
2016-10-09,3477.32299583
2016-10-10,4072.13906903
2016-10-11,3392.72636942
2016-10-12,14143.02424143
2016-10-13,8850.07100602001
2016-10-14,2240.00775607
2016-10-15,7335.60970782
2016-10-16,5320.83065127
2016-10-17,4035.67249511
2016-10-18,10428.89562173
2016-10-19,1774.08796512
2016-10-20,2031.77779935
2016-10-21,651.61827184
2016-10-22,7911.72014814
2016-10-23,20735.63270691
2016-10-24,2610.78690452
2016-10-25,17206.02990187
2016-10-26,3021.9031198
2016-10-27,8770.51080764
2016-10-28,8092.00888258
2016-10-29,13045.88140152
2016-10-30,22762.92689702
2016-10-31,3716.93501243
2016-11-01,9235.23613214
2016-11-02,6776.69924051
2016-11-03,51841.74144783
2016-11-04,20965.6962655
2016-11-05,4568.28510232
2016-11-06,7206.37269066
2016-11-07,13036.01097693
2016-11-08,9961.08524095
2016-11-09,7482.15834014
2016-11-10,2888.69745496
2016-11-11,3235.86620295
2016-11-12,6218.54288267
2016-11-13,36936.80819536
2016-11-14,1202.62630638
2016-11-15,13655.3371949
2016-11-16,40375.26373195
2016-11-17,18966.95609889
2016-11-18,11348.6973537
2016-11-19,4468.84665788
2016-11-20,13192.67702828
2016-11-21,7367.78641728
2016-11-22,2430.46268281
2016-11-23,16409.20811294
2016-11-24,1822.98110266
2016-11-25,13152.9397107
2016-11-26,1011.35074542
2016-11-27,4308.68197184
2016-11-28,4355.4216961
2016-11-29,4810.52336132
2016-11-30,15348.9071656
2016-12-01,6341.89959484
2016-12-02,9030.72566668
2016-12-03,3998.06733736
2016-12-04,10631.8341
2016-12-05,95243.19137316
2016-12-06,17900.67001138
2016-12-07,1976.88699699
2016-12-08,36258.56143997
2016-12-09,2689.7484548
2016-12-10,27922.34901673
2016-12-11,7450.059497
2016-12-12,8294.43128759
2016-12-13,5462.07261493
2016-12-14,25060.90533081
2016-12-15,59854.99342991
2016-12-16,51921.1159531
2016-12-17,3856.88979447
2016-12-18,10085.37654036
2016-12-19,2625.83035636
2016-12-20,6146.1370634
2016-12-21,15142.94379855
2016-12-22,11050.98327978
2016-12-23,104030.00894019
2016-12-24,60918.11966032
2016-12-25,50786.1115215
2016-12-26,10213.6191119
2016-12-27,102127.3566133
2016-12-28,21900.18644186
2016-12-29,40795.07563985
2016-12-30,10009.97855279
2016-12-31,1933.10524515
2017-01-01,8373.83264763
2017-01-02,38347.42591007
2017-01-03,10632.26062856
2017-01-04,17237.64363124
2017-01-05,39090.18270848
2017-01-06,68258.5955684699
2017-01-07,5049.71137865
2017-01-08,2488.59411105
2017-01-09,35682.5962357
2017-01-10,127906.29471579
2017-01-11,70733.98714713
2017-01-12,795.86736884
2017-01-13,74504.08020262
2017-01-14,24081.15634552
2017-01-15,2389.01969332001
2017-01-16,155572.52924024
2017-01-17,877.87496348
2017-01-18,1058.90490319
2017-01-19,11135.56939786
2017-01-20,2521.19841294
2017-01-21,16518.11677081
2017-01-22,23516.58959304
2017-01-23,378.55293213
2017-01-24,3121.28683003
2017-01-25,24698.04925315
2017-01-26,557.40306591
2017-01-27,3458.85291399
2017-01-28,283.83657895
2017-01-29,25225.18942713
2017-01-30,23008.99973436
2017-01-31,73867.063917
2017-02-01,65537.55666223
2017-02-02,383.62708996
2017-02-03,2256.75718942
2017-02-04,915.17883495
2017-02-05,249.73883701
2017-02-06,9754.06989311
2017-02-07,2860.07558399
2017-02-08,2213.3431147
2017-02-09,1219.12776891
2017-02-10,139.70201635
2017-02-11,38.72967791
2017-02-12,482.13851147
2017-02-13,3954.18267616
2017-02-14,1243.56134443
2017-02-15,1356.41880826
2017-02-16,885.76293879
2017-02-17,1323.39894447
2017-02-18,1088.22916457
2017-02-19,1113.7170833
2017-02-20,656.49896557
2017-02-21,5409.49390525
2017-02-22,4594.30951963001
2017-02-23,1274.90273485
2017-02-24,31301.99801573
2017-02-25,1020.35068838
2017-02-26,1787.89581494
2017-02-27,286.91419999
2017-02-28,17656.44715495
2017-03-01,2160.34907832
2017-03-02,8867.94090398
2017-03-03,4100.52087131001
2017-03-04,114.62855458
2017-03-05,6250.80204129
2017-03-06,1469.23186599
2017-03-07,2198.55630661
2017-03-08,1831.03158109
2017-03-09,6999.36364473
2017-03-10,938.16827632
2017-03-11,1030.90853428
2017-03-12,816.063524899997
2017-03-13,4816.26224458004
2017-03-14,24875.58130049
2017-03-15,438521.129085911
2017-03-16,3398.01663165
2017-03-17,10026.76919447
2017-03-18,5586.80805286
2017-03-19,779.54887985
2017-03-20,3388.01826213
2017-03-21,492.227984119999
2017-03-22,1227.96918955
2017-03-23,1456.44973775
2017-03-24,15522.1949336701
2017-03-25,7194.24804035
2017-03-26,536.23792622
2017-03-27,2744.66767091
2017-03-28,2452.10103946
2017-03-29,541.94928279
2017-03-30,185083.24154534
2017-03-31,419733.09965271
2017-04-01,95466.4243327999
2017-04-02,7909.71383475
2017-04-03,27758.2788220999
2017-04-04,366153.058313
2017-04-05,314349.56283433
2017-04-06,35482.25136081
2017-04-07,3427.87866428
2017-04-08,6563.77782808
2017-04-09,10558.7421876
2017-04-10,4297.72331768
2017-04-11,7682.40285209
2017-04-12,7054.22705090001
2017-04-13,7997.49874865998
2017-04-14,2777.64638112
2017-04-15,1664.19065123
2017-04-16,5867.70043555
2017-04-17,10285.54928724
2017-04-18,10762.26999202
2017-04-19,3406.58842762
2017-04-20,3107.69998862001
2017-04-21,1681.26373041
2017-04-22,11030.59090506
2017-04-23,35018.74664619
2017-04-24,54404.62352727
2017-04-25,121432.62204652
2017-04-26,51430.3099401599
2017-04-27,164365.55097537
2017-04-28,33510.38458041
2017-04-29,1071.87789378
2017-04-30,2767.60675514
2017-05-01,9131.06565341999
2017-05-02,46668.95385911
2017-05-03,41140.46397673
2017-05-04,94042.81526324
2017-05-05,81869.7276796099
2017-05-06,14313.25147549
2017-05-07,18509.64880416
2017-05-08,18195.1988204
2017-05-09,81169.0766031499
2017-05-10,130050.89529105
2017-05-11,37161.90167607
2017-05-12,2752.57326434999
2017-05-13,21947.98395088
2017-05-14,5469.46758775001
2017-05-15,8385.93271734999
2017-05-16,51694.10451815
2017-05-17,4162.76896226
2017-05-18,1100.01069233
2017-05-19,2578.01308368
2017-05-20,11256.12541264
2017-05-21,6262.55000007
2017-05-22,4506.91935111001
2017-05-23,8799.33828682999
2017-05-24,16037.02876422
2017-05-25,8437.6480738
2017-05-26,6129.07913028
2017-05-27,94854.96176245
2017-05-28,299.34178421
2017-05-29,2816.74337122
2017-05-30,5454.21938301
2017-05-31,7330.47073131002
2017-06-01,3039.58392380001
2017-06-02,1997.69140767
2017-06-03,4904.52776923999
2017-06-04,2068.18152028
2017-06-05,2821.64969339
2017-06-06,10603.89135301
2017-06-07,7996.24284302999
2017-06-08,12992.30554093
2017-06-09,25407.81304938
2017-06-10,22185.66369095
2017-06-11,2095.08085229
2017-06-12,360.32080927
2017-06-13,506.49476838
2017-06-14,2672.95854406
2017-06-15,1634.92098815
2017-06-16,3270.81095562
2017-06-17,185630.07526945
2017-06-18,7672.8818139
2017-06-19,118250.76005218
2017-06-20,3663.8193462
2017-06-21,1200.53612187
2017-06-22,3556.40803519
2017-06-23,4251.44602656
2017-06-24,50791.14533772
2017-06-25,54307.44021776
2017-06-26,95339.1718830401
2017-06-27,15038.72439631
2017-06-28,1984.96565911
2017-06-29,8264.38735377
2017-06-30,1586.46145409
2017-07-01,728.73644742
2017-07-02,4174.16817009
2017-07-03,10490.62192083
2017-07-04,25252.08543653
2017-07-05,23733.4003551199
2017-07-06,352287.573954181
2017-07-07,439312.53335562
2017-07-08,73638.01217886
2017-07-09,2727.89853757
2017-07-10,2900.17405405
2017-07-11,11467.1759943
2017-07-12,26122.51360327
2017-07-13,93775.2401381499
2017-07-14,1378.91044227
2017-07-15,6604.20548011
2017-07-16,15981.21017329
2017-07-17,6940.76162765
2017-07-18,10237.68156263
2017-07-19,3468.11243010001
2017-07-20,1739.73321876
2017-07-21,3745.12843295
2017-07-22,3364.18694604
2017-07-23,2781.43421429
2017-07-24,4073.16614694
2017-07-25,2113.58428742
2017-07-26,2003.24544885
2017-07-27,6409.65994654
2017-07-28,10781.47158855
2017-07-29,5797.76752311
2017-07-30,251270.50719235
2017-07-31,503578.61090915
2017-08-01,3709.71603431
2017-08-02,5196.29797364
2017-08-03,267172.99443031
2017-08-04,8363.84747402001
2017-08-05,6714.75487134
2017-08-06,14560.43053757
2017-08-07,273722.14085715
2017-08-08,543595.10600163
2017-08-09,38294.98171088
2017-08-10,12295.31624621
2017-08-11,256990.26365635
2017-08-12,21842.44912626
2017-08-13,14115.48788583
2017-08-14,25508.64417015
2017-08-15,6181.17257561
2017-08-16,28924.96710983
2017-08-17,6437.64324475
2017-08-18,66952.3626210599
2017-08-19,43886.76546693
2017-08-20,10093.9670767
2017-08-21,18479.00242802
2017-08-22,6768.74852131
2017-08-23,11296.3592491
2017-08-24,23220.5046123
2017-08-25,4806.90188252
2017-08-26,5201.37618184
2017-08-27,17479.41430503
2017-08-28,28031.75860303
2017-08-29,15592.14588078
2017-08-30,264134.89918531
2017-08-31,12984.51508747
2017-09-01,207372.19084385
2017-09-02,33431.25728228
2017-09-03,72116.56673694
2017-09-04,25112.36786966
2017-09-05,34421.43421257
2017-09-06,13997.69159269
2017-09-07,77330.9233455299
2017-09-08,33581.57591694
2017-09-09,28174.29858312
2017-09-10,258847.035499401
2017-09-11,45932.91553741
2017-09-12,13406.12350796
2017-09-13,8678.07691141
2017-09-14,42154.24761271
2017-09-15,94950.17682885
2017-09-16,19778.08853957
2017-09-17,15626.58292042
2017-09-18,153043.02361189
2017-09-19,38424.13013792
2017-09-20,7472.90254142001
2017-09-21,20167.73493296
2017-09-22,11957.90584015
2017-09-23,5536.91099219001
2017-09-24,7291.60541498
2017-09-25,19462.27025176
2017-09-26,49509.55694115
2017-09-27,89540.92002328
2017-09-28,97844.3570797301
2017-09-29,7108.15124743001
2017-09-30,8209.13135528
2017-10-01,247747.95643205
2017-10-02,7024.72825250001
2017-10-03,7702.72834824
2017-10-04,11073.50537214
2017-10-05,23917.8501568
2017-10-06,5394.90455272001
2017-10-07,8847.05966737999
2017-10-08,11835.943622
2017-10-09,55554.9098688401
2017-10-10,12955.54778078
2017-10-11,13046.56560784
2017-10-12,14507.8821784
2017-10-13,13822.36512331
2017-10-14,14354.37881538
2017-10-15,18493.11387565
2017-10-16,16478.3046686
2017-10-17,19315.64420561
2017-10-18,37832.57721393
2017-10-19,12472.76223468
2017-10-20,11005.47615732
2017-10-21,14931.89421229
2017-10-22,13682.58503318
2017-10-23,40080.88766937
2017-10-24,14090.46107094
2017-10-25,10200.08941122
2017-10-26,20105.86352347
2017-10-27,12169.16212938
2017-10-28,46264.6618046298
2017-10-29,438337.96193915
2017-10-30,32987.45096462
2017-10-31,65619.7045857901
2017-11-01,26931.08842463
2017-11-02,26681.37683637
2017-11-03,16909.10454124
2017-11-04,14005.09492886
2017-11-05,18653.13805569
2017-11-06,34291.24317519
2017-11-07,51055.86607033
2017-11-08,75735.3100148799
2017-11-09,33939.81222554
2017-11-10,42548.6233843601
2017-11-11,23052.36026633
2017-11-12,20377.69934218
2017-11-13,29259.5713889199
2017-11-14,16057.59821365
2017-11-15,19166.33937704
2017-11-16,66025.20208402
2017-11-17,19319.14691874
2017-11-18,20849.72649376
2017-11-19,77130.59815634
2017-11-20,20750.1230125
2017-11-21,18763.99463287
2017-11-22,49056.63658482
2017-11-23,70099.71248503
2017-11-24,35792.5530741
2017-11-25,52505.7722617999
2017-11-26,23642.14930915
2017-11-27,49824.30928731
2017-11-28,46870.87226576
2017-11-29,78124.01325983
2017-11-30,83005.62130204
2017-12-01,63332.7275658001
2017-12-02,33898.2460495299
2017-12-03,40150.66974044
2017-12-04,68179.8572748801
2017-12-05,107854.05785595
2017-12-06,56157.6864411399
2017-12-07,60548.2272854599
2017-12-08,72726.7338724101
2017-12-09,210817.717983731
2017-12-10,165909.01143831
2017-12-11,193245.11744769
2017-12-12,557338.564249515
2017-12-13,129668.11646689
2017-12-14,65603.5252844802
2017-12-15,57072.1147259803
2017-12-16,74307.86876168
2017-12-17,57427.1453498198
2017-12-18,71240.77141589
2017-12-19,319069.24994419
2017-12-20,60130.4254605698
2017-12-21,52139.9692009702
2017-12-22,46016.4453549801
2017-12-23,995940.274204339
2017-12-24,39458.2676664701
2017-12-25,27006.21338561
2017-12-26,14583.38480925
2017-12-27,35622.35869814
2017-12-28,18849.49656338
2017-12-29,18993.12459348
2017-12-30,33581.79516111
2017-12-31,9870.26697862003
2018-01-01,8929.77055623002
2018-01-02,20729.84840774
2018-01-03,30528.4931587299
2018-01-04,22401.81830598
2018-01-05,47274.6497558795
2018-01-06,76264.13918285
2018-01-07,71814.6042972902
2018-01-08,14565.85659934
2018-01-09,15075.16207347
2018-01-10,10242.85000941
2018-01-11,7969.66702739001
2018-01-12,15160.53648358
2018-01-13,8588.90808458999
2018-01-14,12942.71786215
2018-01-15,9179.13619969999
2018-01-16,29690.71379506
2018-01-17,13488.6051882
2018-01-18,12987.81100366
2018-01-19,11408.95358195
2018-01-20,6387.18971899001
2018-01-21,5615.64626083
2018-01-22,6834.25627295001
2018-01-23,26230.67183172
2018-01-24,14873.2192834
2018-01-25,3991.63549855999
2018-01-26,53990.7202336901
2018-01-27,15558.22840406
2018-01-28,6151.17767098
2018-01-29,28634.94077031
2018-01-30,124952.12334032
2018-01-31,11111.98531836
2018-02-01,24997.65634048
2018-02-02,41057.8921863299
2018-02-03,5299.53036918
2018-02-04,16990.1942365
2018-02-05,257168.81174238
2018-02-06,23091.31588005
2018-02-07,14067.90777283
2018-02-08,15255.69461594
2018-02-09,58361.5134982
2018-02-10,11245.22353201
2018-02-11,12662.80386743
2018-02-12,13699.2498798299
2018-02-13,25128.12621535
2018-02-14,35952.86448613
2018-02-15,29495.70836121
2018-02-16,30336.3944120699
2018-02-17,68043.9029850301
2018-02-18,59778.34970393
2018-02-19,22647.06999192
2018-02-20,35951.0011622
2018-02-21,19046.9469324999
2018-02-22,22742.60234675
2018-02-23,28791.40401141
2018-02-24,16330.11997915
2018-02-25,38856.58972626
2018-02-26,20684.15553364
2018-02-27,64144.3891787801
2018-02-28,16299.2386386101
2018-03-01,11881.83344774
2018-03-02,9541.9789852
2018-03-03,5616.2410695
2018-03-04,18936.72846577
2018-03-05,20333.09820719
2018-03-06,14293.69014716
2018-03-07,20129.0204993201
2018-03-08,17419.51561528
2018-03-09,18144.52009201
2018-03-10,5366.12017162002
2018-03-11,5075.50846844
2018-03-12,21280.92093118
2018-03-13,24346.58432746
2018-03-14,19831.91595986
2018-03-15,20208.00485028
2018-03-16,9267.14448088002
2018-03-17,21113.73772354
2018-03-18,27833.05922395
2018-03-19,10779.84616424
2018-03-20,15258.41225462
2018-03-21,9035.00423260001
2018-03-22,8999.74934506
2018-03-23,15026.99480925
2018-03-24,8863.31637692001
2018-03-25,19977.19261249
2018-03-26,16126.58549149
2018-03-27,79037.1443011101
2018-03-28,21328.68867474
2018-03-29,21869.82933467
2018-03-30,27900.1597997701
2018-03-31,10900.1520431302
2018-04-01,11499.84145985
2018-04-02,14969.18373521
2018-04-03,17145.86004553
2018-04-04,19298.76762268
2018-04-05,9737.72114433
2018-04-06,14417.30718148
2018-04-07,6693.05855944
2018-04-08,6184.76733954
2018-04-09,11369.22814244
2018-04-10,13379.4123591
2018-04-11,15767.31220742
2018-04-12,13603.2441794001
2018-04-13,19994.8391759101
2018-04-14,8583.30050235006
2018-04-15,7959.33831767009
2018-04-16,9138.35461815002
2018-04-17,21922.48170944
2018-04-18,16359.3979687899
2018-04-19,678155.473782049
2018-04-20,16459.23302235
2018-04-21,11826.25379024
2018-04-22,10958.19850889
2018-04-23,14112.83410082
2018-04-24,32582.0447069301
2018-04-25,13653.49412415
2018-04-26,31327.76111195
2018-04-27,17598.38832891
2018-04-28,10848.52680624
2018-04-29,9456.62306673997
2018-04-30,9749.52664069002
2018-05-01,18423.26368668
2018-05-02,15627.3393840701
2018-05-03,21060.54208196
2018-05-04,17056.33784184
2018-05-05,23449.9982390397
2018-05-06,20640.8573335198
2018-05-07,18426.4376694699
2018-05-08,23801.91663149
2018-05-09,21683.0741492701
2018-05-10,22650.8820080301
2018-05-11,13686.3021642101
2018-05-12,9062.82055986003
2018-05-13,8452.67741334001
2018-05-14,12295.7349940201
2018-05-15,201965.694711642
2018-05-16,15747.8132235501
2018-05-17,47694.1673939992
2018-05-18,14359.4272984701
2018-05-19,13202.0324211601
2018-05-20,13487.61978611
2018-05-21,17643.6474458401
2018-05-22,80603.86165639
2018-05-23,22847.5673222698
2018-05-24,38254.27229079
2018-05-25,17457.2143263401
2018-05-26,12421.17723056
2018-05-27,8922.93246009003
2018-05-28,49255.4131389398
2018-05-29,26601.4871776397
2018-05-30,20568.7625017292
2018-05-31,21861.3879878299
2018-06-01,29411.2874429892
2018-06-02,45069.8384658299
2018-06-03,15243.74141523
2018-06-04,18758.1981055
2018-06-05,26753.77350014
2018-06-06,29115.2006518098
2018-06-07,29763.0190112698
2018-06-08,41968.9020778097
2018-06-09,13765.6215481001
2018-06-10,24004.4426312699
2018-06-11,30069.2135422
2018-06-12,30345.8410502797
2018-06-13,75115.1493740201
2018-06-14,18837.4640892
2018-06-15,17976.32276723
2018-06-16,26131.4517756601
2018-06-17,8452.67309520001
2018-06-18,13300.8580108
2018-06-19,40699.5732007901
2018-06-20,66990.3866112697
2018-06-21,52684.6507076999
2018-06-22,31303.3121903698
2018-06-23,16448.55252321
2018-06-24,25947.03499791
2018-06-25,32491.6322819599
2018-06-26,56444.3617970401
2018-06-27,25767.9790910892
2018-06-28,13571.1752278901
2018-06-29,28166.9526647699
2018-06-30,17983.45625239
2018-07-01,9181.64802277005
2018-07-02,14313.1994347401
2018-07-03,22772.8852967499
2018-07-04,15476.9843167401
2018-07-05,11394.9023464
2018-07-06,19228.9960307799
2018-07-07,41350.9397823401
2018-07-08,28824.1012428899
2018-07-09,23882.81897433
2018-07-10,34381.9912812598
2018-07-11,19705.4348867601
2018-07-12,20715.2836758499
2018-07-13,10895.41554209
2018-07-14,7798.84372827003
2018-07-15,6837.34365981999
2018-07-16,37757.04189226
2018-07-17,14706.9534328001
2018-07-18,52680.6947852596
2018-07-19,8460.49700710003
2018-07-20,12147.76677044
2018-07-21,18836.03471996
2018-07-22,47714.2199794204
2018-07-23,24030.60246092
2018-07-24,25221.9198954199
2018-07-25,27007.89079094
2018-07-26,12567.16965831
2018-07-27,14726.1330395901
2018-07-28,7388.67330139001
2018-07-29,10375.76251799
2018-07-30,11904.6740356
2018-07-31,10490.6355494301
2018-08-01,41776.2593686399
2018-08-02,21744.24250385
2018-08-03,17306.65931184
2018-08-04,86379.9196671102
2018-08-05,12155.39975395
2018-08-06,31709.0458351499
2018-08-07,26327.2103280599
2018-08-08,604559.322752148
2018-08-09,78766.4322291401
2018-08-10,18891.4169671401
2018-08-11,26690.1384216299
2018-08-12,15196.4803824
2018-08-13,22117.69865279
2018-08-14,34025.73053213
2018-08-15,119414.10115693
2018-08-16,7640.97886999001
2018-08-17,8066.41743402999
2018-08-18,7298.47990553009
2018-08-19,5996.98619654018
2018-08-20,22212.8173999501
2018-08-21,13210.09386468
2018-08-22,15097.8809816601
2018-08-23,10313.88272166
2018-08-24,8767.71258284
2018-08-25,6987.56611899
2018-08-26,4779.08061898
2018-08-27,11476.68720627
2018-08-28,16294.09545688
2018-08-29,9262.51280440001
2018-08-30,6934.64603542002
2018-08-31,11697.6561044201
2018-09-01,9915.47943215003
2018-09-02,12764.65399434
2018-09-03,10287.54985903
2018-09-04,14254.57379138
2018-09-05,14364.84446224
2018-09-06,12432.25267781
2018-09-07,20078.02636122
2018-09-08,6659.01421564002
2018-09-09,3109.27695521999
2018-09-10,211023.29035472
2018-09-11,7969.87616525002
2018-09-12,11690.4031472601
2018-09-13,16837.65593774
2018-09-14,8498.27749522002
2018-09-15,14606.1217511103
2018-09-16,18426.81520883
2018-09-17,12486.4926992
2018-09-18,7218.46440855001
2018-09-19,67116.2385766298
2018-09-20,447547.87861288
2018-09-21,21059.6077888299
2018-09-22,113243.77548638
2018-09-23,6358.54181286002
2018-09-24,15315.50281297
2018-09-25,21184.32715427
2018-09-26,34119.6414526799
2018-09-27,13694.4534538499
2018-09-28,12588.4565402102
2018-09-29,11242.99390289
2018-09-30,10697.4362606901
2018-10-01,9032.96098777001
2018-10-02,11469.77217407
2018-10-03,25061.9032682999
2018-10-04,4078.93119165
2018-10-05,5666.56080062001
2018-10-06,4320.05951279004
2018-10-07,4208.70470095008
2018-10-08,14805.00040352
2018-10-09,33340.6307196699
2018-10-10,34620.14117781
2018-10-11,7314.02893585004
2018-10-12,19426.49961397
2018-10-13,4136.97205969001
2018-10-14,7510.17814797004
2018-10-15,7054.66028726001
2018-10-16,35374.0894439901
2018-10-17,16291.7399231912
2018-10-18,10426.5249005602
2018-10-19,10431.6282695406
2018-10-20,6455.22847286041
2018-10-21,4922.12423113002
2018-10-22,8288.24257602001
2018-10-23,83875.1097571805
2018-10-24,5919.24332790003
2018-10-25,5064.52863406999
2018-10-26,11442.1433983301
2018-10-27,4125.96278054001
2018-10-28,6666.43044893
2018-10-29,14908.5573471
2018-10-30,8928.81406586003
2018-10-31,5555.15510389001
2018-11-01,9819.67754953002
2018-11-02,4268.57281865
2018-11-03,8620.18379169999
2018-11-04,6741.67982800001
2018-11-05,5138.60127562
2018-11-06,7696.07499158999
2018-11-07,8292.89480381003
2018-11-08,10312.27731552
2018-11-09,4481.75549816001
2018-11-10,2092.8068426
2018-11-11,3780.64311735004
2018-11-12,10642.67222006
2018-11-13,12029.8769866901
2018-11-14,14428.5390037401
2018-11-15,11238.09858596
2018-11-16,6148.57201918
2018-11-17,4423.25779331
2018-11-18,10585.26030386
2018-11-19,25861.99219132
2018-11-20,33350.7418070298
2018-11-21,34515.7878535896
2018-11-22,5622.90151880003
2018-11-23,20412.68668835
2018-11-24,7788.60905443001
2018-11-25,20271.33696474
2018-11-26,38664.9083895201
2018-11-27,19263.22148685
2018-11-28,10871.52372339
2018-11-29,379406.01703789
2018-11-30,330189.26952453
2018-12-01,6335.82412531
2018-12-02,3221.8091787
2018-12-03,29764.9173197299
2018-12-04,10975.38936709
2018-12-05,28737.71471885
2018-12-06,10011.9278273501
2018-12-07,39371.27907764
2018-12-08,37418.32212715
2018-12-09,4896.5607942
2018-12-10,7790.49768260001
2018-12-11,8193.52969251002
2018-12-12,13009.09988244
2018-12-13,29481.5238459798
2018-12-14,12229.1248271801
2018-12-15,4644.9748994
2018-12-16,6473.63386132
2018-12-17,9971.19045051007
2018-12-18,5056.29164329002
2018-12-19,24154.51653891
2018-12-20,5732.18713983001
2018-12-21,9466.53956856001
2018-12-22,4620.68383610999
2018-12-23,4989.09539976999
2018-12-24,8207.52849200004
2018-12-25,10039.289817
2018-12-26,13653.1895520001
2018-12-27,3888.31327035
2018-12-28,13643.47258085
2018-12-29,3458.59012662
2018-12-30,4724.42679382
2018-12-31,7773.20274930004
2019-01-01,6937.37165265
2019-01-02,6944.84780355003
2019-01-03,14984.6693173
2019-01-04,3070.4637803
2019-01-05,25401.69094962
2019-01-06,12431.4514446201
2019-01-07,198160.10420141
2019-01-08,5979.08670091001
2019-01-09,7229.94070908002
2019-01-10,5625.13956846001
2019-01-11,148918.34674585
2019-01-12,2456.23786627
2019-01-13,16936.72457631
2019-01-14,7392.1688543
2019-01-15,8091.20084340003
2019-01-16,10331.58898711
2019-01-17,3987.47828996001
2019-01-18,2946.53114601999
2019-01-19,1331.64048967
2019-01-20,3005.73911883
2019-01-21,5923.75439908
2019-01-22,3672.23670599
2019-01-23,5557.63331401001
2019-01-24,4182.21091489001
2019-01-25,21938.10586621
2019-01-26,5786.52454599002
2019-01-27,3088.69994472
2019-01-28,32326.2748056796
2019-01-29,3997.53020097998
2019-01-30,9403.58838978001
2019-01-31,13440.1900998001
2019-02-01,11742.0804876201
2019-02-02,7518.39791990997
2019-02-03,8328.10250256002
2019-02-04,3916.88229035
2019-02-05,3000.87446331002
2019-02-06,2380.70940388
2019-02-07,8285.65555499999
2019-02-08,18449.5461107801
2019-02-09,91615.1222069493
2019-02-10,8414.01594680011
2019-02-11,22013.2708718399
2019-02-12,4540.74789844
2019-02-13,87149.4760605197
2019-02-14,4717.25244636001
2019-02-15,10333.71934707
2019-02-16,9068.83888905001
2019-02-17,3207.11141487998
2019-02-18,11828.04538922
2019-02-19,7669.62652246
2019-02-20,36141.2915986999
2019-02-21,13417.54708471
2019-02-22,9765.45581340002
2019-02-23,8445.67595711003
2019-02-24,6963.35124552005
2019-02-25,103174.2442095
2019-02-26,8233.88782379
2019-02-27,17977.17555769
2019-02-28,4540.23981355001
2019-03-01,11772.07708851
2019-03-02,4144.76469231999
2019-03-03,5730.53275561
2019-03-04,8709.30303299033
2019-03-05,16756.92547718
2019-03-06,20136.62384104
2019-03-07,31544.48929047
2019-03-08,43843.0123743498
2019-03-09,10494.55543378
2019-03-10,4280.22790318001
2019-03-11,10437.7107201803
2019-03-12,36612.23447442
2019-03-13,7434.96042707031
2019-03-14,5847.30948305001
2019-03-15,9657.28098038004
2019-03-16,11206.96554302
2019-03-17,7765.78249465004
2019-03-18,12320.6769168401
2019-03-19,27958.53299714
2019-03-20,4721.75079474
2019-03-21,6809.62904837
2019-03-22,5717.15925279
2019-03-23,5076.95780282002
2019-03-24,17423.72912404
2019-03-25,10233.46224457
2019-03-26,27413.0262822599
2019-03-27,8313.42790556001
2019-03-28,6558.4083236
2019-03-29,80555.12586498
2019-03-30,3617.65488958001
2019-03-31,6503.40625401
2019-04-01,62131.60192654
2019-04-02,50159.5565632399
2019-04-03,127053.444533693
2019-04-04,59810.4290083198
2019-04-05,23567.01208189
2019-04-06,38149.2661432799
2019-04-07,5216.3740091
2019-04-08,17818.31064986
2019-04-09,8050.76639146002
2019-04-10,13556.14997286
2019-04-11,18189.25964447
2019-04-12,2752.99030349
2019-04-13,173344.71179655
2019-04-14,3464.65252706
2019-04-15,9041.98462171001
2019-04-16,10407.9716410201
2019-04-17,6576.47314336999
2019-04-18,8446.64141648003
2019-04-19,14391.79218402
2019-04-20,6935.30137973
2019-04-21,5502.29969401002
2019-04-22,7988.64741038
2019-04-23,4539.78852130999
2019-04-24,9183.85490303001
2019-04-25,4990.70592931001
2019-04-26,5184.11410394002
2019-04-27,3160.50053205999
2019-04-28,4170.50970388
2019-04-29,9020.16374814002
2019-04-30,3116.31625662999
2019-05-01,6512.7743198
2019-05-02,3355.96518087
2019-05-03,4463.65883847002
2019-05-04,61581.91248721
2019-05-05,6213.00740510001
2019-05-06,7758.43508199008
2019-05-07,4860.54010345
2019-05-08,17316.76824032
2019-05-09,23807.3980662099
2019-05-10,76400.52245811
2019-05-11,10609.756645
2019-05-12,17163.84074678
2019-05-13,34184.1444321499
2019-05-14,13736.5069499801
2019-05-15,32447.1887789097
2019-05-16,125589.4855183
2019-05-17,8123.50806562001
2019-05-18,6409.22293734
2019-05-19,6403.35013271002
2019-05-20,6468.49144244003
2019-05-21,10243.5167709701
2019-05-22,6204.99469291
2019-05-23,21444.80560914
2019-05-24,12348.3340273703
2019-05-25,7490.16865584999
2019-05-26,6601.00999226001
2019-05-27,32389.85721882
2019-05-28,10864.87577049
2019-05-29,12695.5794878601
2019-05-30,13004.7901565401
2019-05-31,8014.97570515014
2019-06-01,8229.95602459001
2019-06-02,6897.05295206996
2019-06-03,5030.83786395002
2019-06-04,16339.2622819601
2019-06-05,33204.62045052
2019-06-06,5821.94014740004
2019-06-07,8333.0158256301
2019-06-08,6783.08254529003
2019-06-09,5173.7364889
2019-06-10,14602.8481609402
2019-06-11,15019.6550197201
2019-06-12,60099.8353676103
2019-06-13,16371.39178805
2019-06-14,7964.88515854003
2019-06-15,12899.6140814901
2019-06-16,3964.87414253998
2019-06-17,11679.34155862
2019-06-18,352083.91001153
2019-06-19,8951.22030216003
2019-06-20,8242.30167002008
2019-06-21,10067.79131822
2019-06-22,8963.84758742003
2019-06-23,10076.2283328001
2019-06-24,11313.5959252601
2019-06-25,10984.66846227
2019-06-26,20502.4517171901
2019-06-27,11333.31416612
2019-06-28,11807.1382672
2019-06-29,6265.54711060002
2019-06-30,12255.58149744
2019-07-01,17549.5421503795
2019-07-02,5099.13880852
2019-07-03,5515.23701201002
2019-07-04,36489.6985655586
2019-07-05,10936.2665276002
2019-07-06,8215.95020759005
2019-07-07,7449.91438353003
2019-07-08,10859.0646429401
2019-07-09,5438.56217120001
2019-07-10,10505.40922811
2019-07-11,10906.4738530001
2019-07-12,6089.56864898002
2019-07-13,5283.10162945
2019-07-14,6864.79677788998
2019-07-15,23581.29476062
2019-07-16,6946.49172258
2019-07-17,17274.76471091
2019-07-18,10246.47193036
2019-07-19,4816.58967184
2019-07-20,2252.4616931
2019-07-21,2872.60142798
2019-07-22,5954.17820173
2019-07-23,3529.30457642999
2019-07-24,3036.00337937
2019-07-25,3180.13790816
2019-07-26,6539.06193745
2019-07-27,2567.8156188
2019-07-28,2484.95011805
2019-07-29,3804.05733743
2019-07-30,4417.47506376
2019-07-31,8763.12505953
2019-08-01,8070.89660028
2019-08-02,7084.41856239
2019-08-03,3845.90567993
2019-08-04,15916.91088019
2019-08-05,9448.72876222999
2019-08-06,53906.62312021
2019-08-07,78881.9522601598
2019-08-08,6276.62386012003
2019-08-09,4733.15600797
2019-08-10,6745.36845421
2019-08-11,4975.81801412999
2019-08-12,7765.70849135003
2019-08-13,27462.9762561101
2019-08-14,6163.8495515201
2019-08-15,8650.41583196002
2019-08-16,4456.63932743001
2019-08-17,9227.80376176001
2019-08-18,2692.68756292
2019-08-19,10601.36838407
2019-08-20,6068.27507364999
2019-08-21,2204.74406542999
2019-08-22,12186.95588424
2019-08-23,1817.84765794
2019-08-24,3672.15224112
2019-08-25,32107.45095876
2019-08-26,14468.77221986
2019-08-27,6164.23803541999
2019-08-28,8058.31141902
2019-08-29,30391.70665609
2019-08-30,10848.63526105
2019-08-31,11698.11682992
2019-09-01,2042.85182907
2019-09-02,2702.75577964
2019-09-03,4885.59323264003
2019-09-04,6728.02503755001
2019-09-05,5045.69050947999
2019-09-06,3625.55614756002
2019-09-07,2591.50570316
2019-09-08,585384.779826764
2019-09-09,4929.95843683001
2019-09-10,6520.74812584005
2019-09-11,18598.98565936
2019-09-12,23888.95535787
2019-09-13,8429.94563802002
2019-09-14,4982.62888634
2019-09-15,2370.19372373
2019-09-16,4540.16804621001
2019-09-17,117894.3527969
2019-09-18,9042.43756289
2019-09-19,31366.13907215
2019-09-20,2363.52171028
2019-09-21,2572.88221008
2019-09-22,64724.0869869799
2019-09-23,9262.15053384002
2019-09-24,144492.79983991
2019-09-25,11599.6066
2019-09-26,16503.1262990901
2019-09-27,15420.05176644
2019-09-28,1823.08115269
2019-09-29,3941.37756228
2019-09-30,11463.0545596701
2019-10-01,14666.58470787
2019-10-02,7319.29018928
2019-10-03,9093.51543851001
2019-10-04,16115.41596137
2019-10-05,2940.65506138001
2019-10-06,2911.21363363001
2019-10-07,6139.98834266002
2019-10-08,82125.8670615498
2019-10-09,6635.99147905
2019-10-10,10987.75165405
2019-10-11,93286.3093430901
2019-10-12,4074.65119744001
2019-10-13,7685.35559531999
2019-10-14,7603.15792625002
2019-10-15,5816.18193416
2019-10-16,25747.06617724
2019-10-17,9019.68088073001
2019-10-18,5007.72309177999
2019-10-19,6988.63239201
2019-10-20,2246.37282167
2019-10-21,36791.4001830199
2019-10-22,4087.01134403999
2019-10-23,20705.69332862
2019-10-24,25365.9670497999
2019-10-25,195214.48211455
2019-10-26,8805.38771522
2019-10-27,6471.79086666
2019-10-28,7452.97241153001
2019-10-29,28324.10897827
2019-10-30,4972.59121016003
2019-10-31,7602.17543251003
2019-11-01,4958.18070985
2019-11-02,5726.19924305001
2019-11-03,7387.74788897999
2019-11-04,8624.53193929001
2019-11-05,38971.7570646898
2019-11-06,41626.18021349
2019-11-07,5350.77622224001
2019-11-08,16003.9898572802
2019-11-09,7461.02151163022
2019-11-10,7516.59429460007
2019-11-11,5196.7696721
2019-11-12,30647.4894010099
2019-11-13,9407.6595093801
2019-11-14,4632.91489083001
2019-11-15,8077.91361812003
2019-11-16,4116.68593641
2019-11-17,2136.51971044
2019-11-18,5003.99112284999
2019-11-19,3508.07915439
2019-11-20,12597.88810029
2019-11-21,13056.0696812
2019-11-22,34342.6525493201
2019-11-23,2572.94104609001
2019-11-24,10644.19528072
2019-11-25,11604.09261366
2019-11-26,3978.65329911
2019-11-27,4588.66729218
2019-11-28,8237.35023232
2019-11-29,5841.71492116001
2019-11-30,16506.12283907
2019-12-01,16644.79535886
2019-12-02,6724.83231874
2019-12-03,11630.95895343
2019-12-04,36375.8067979799
2019-12-05,4877.69343947001
2019-12-06,7000.56343843001
2019-12-07,6142.90501671
2019-12-08,10300.17180405
2019-12-09,6470.17145446001
2019-12-10,11976.43289221
2019-12-11,6059.53117110001
2019-12-12,18060.0770118899
2019-12-13,6209.42297522001
2019-12-14,3232.23628733
2019-12-15,3252.85347480024
2019-12-16,3921.97362512999
2019-12-17,7476.81211662001
2019-12-18,13343.35981386
2019-12-19,8520.41621178999
2019-12-20,13795.56376876
2019-12-21,4313.98827086
2019-12-22,3489.93069382001
2019-12-23,3294.46043830001
2019-12-24,9324.83811491001
2019-12-25,3291.86138232
2019-12-26,21678.48474961
2019-12-27,5441.90846336001
2019-12-28,11077.8636237
2019-12-29,3575.05077524
2019-12-30,7495.55533096002
2019-12-31,9782.97844978
2020-01-01,2686.32976847
2020-01-02,6208.99588217001
2020-01-03,5956.01121338
2020-01-04,2945.33133635
2020-01-05,22462.09094912
2020-01-06,18853.01347523
2020-01-07,7379.18225869999
2020-01-08,9127.11463584001
2020-01-09,4301.04263049999
2020-01-10,8661.17926836993
2020-01-11,6301.45856034
2020-01-12,4426.47320286998
2020-01-13,15576.27348604
2020-01-14,33144.8225815399
2020-01-15,34290.3219516699
2020-01-16,14142.41014523
2020-01-17,6576.45601743001
2020-01-18,6691.42698766002
2020-01-19,6381.45631868
2020-01-20,6160.27111872002
2020-01-21,6463.04783362
2020-01-22,3010.46858587001
2020-01-23,5198.19254111
2020-01-24,5126.90890470999
2020-01-25,2432.85330999
2020-01-26,2964.46636258
2020-01-27,2907.6193178
2020-01-28,6859.16833887006
2020-01-29,9023.13428056
2020-01-30,18125.3322416301
2020-01-31,12868.6131466301
2020-02-01,15337.3032274699
2020-02-02,17573.5943314
2020-02-03,144848.745895197
2020-02-04,16280.86900418
2020-02-05,8793.85269731003
2020-02-06,15143.8672610801
2020-02-07,6141.82396299002
2020-02-08,5984.57424247002
2020-02-09,7703.50226336011
2020-02-10,5283.73409420999
2020-02-11,8696.04143104003
2020-02-12,11182.85238867
2020-02-13,62640.3792406199
2020-02-14,18485.14415323
2020-02-15,6216.43975110005
2020-02-16,11333.34708199
2020-02-17,12850.7182770101
2020-02-18,9983.46094653999
2020-02-19,10996.41178936
2020-02-20,95592.73859197
2020-02-21,7369.56365004001
2020-02-22,4946.71533544999
2020-02-23,4846.03320169001
2020-02-24,13515.93859322
2020-02-25,7870.32501127003
2020-02-26,66850.3998405201
2020-02-27,5068.22182205003
2020-02-28,7706.96327777001
2020-02-29,8039.10577623013
2020-03-01,1386.00970189
2020-03-02,12740.11230494
2020-03-03,11494.1073169701
2020-03-04,41288.696065032
2020-03-05,6552.41071211029
2020-03-06,4464.7169586401
2020-03-07,4271.10475623999
2020-03-08,3796.37699927993
2020-03-09,35692.03990364
2020-03-10,3082.21328117
2020-03-11,15748.7018567799
2020-03-12,71770.0329302901
2020-03-13,66816.3020333802
2020-03-14,7724.06083337
2020-03-15,11730.57010913
2020-03-16,9419.54001485001
2020-03-17,5088.13251341
2020-03-18,6242.99986493003
2020-03-19,50342.06242308
2020-03-20,15743.55363338
2020-03-21,2185.19344887
2020-03-22,6308.76923197001
2020-03-23,4610.41241032
2020-03-24,6637.2342245
2020-03-25,8427.63798282
2020-03-26,5401.50026137
2020-03-27,4450.12815948
2020-03-28,3688.12824123
2020-03-29,1994.89665651
2020-03-30,2299.35342945
2020-03-31,5150.20452602003
2020-04-01,6987.09189081
2020-04-02,3962.60539027
2020-04-03,5320.08079539999
2020-04-04,3871.02235655
2020-04-05,956.04933068
2020-04-06,3514.95867372
2020-04-07,4040.76874144
2020-04-08,1941.41286341
2020-04-09,2476.8575019
2020-04-10,2363.56114419
2020-04-11,1903.44592134
2020-04-12,5420.61672294
2020-04-13,5975.81759099001
2020-04-14,1956.54306863
2020-04-15,9015.32485428
2020-04-16,5267.59932456999
2020-04-17,4572.36151397
2020-04-18,2137.55031788
2020-04-19,4311.34575633005
2020-04-20,2164.22140631
2020-04-21,4742.83737916
2020-04-22,2136.10346823
2020-04-23,5863.17565574002
2020-04-24,4195.44701929005
2020-04-25,10905.3840066909
2020-04-26,6780.26441273059
2020-04-27,2958.59652152011
2020-04-28,5074.30757273008
2020-04-29,9684.60793894002
2020-04-30,36992.2230496101
2020-05-01,6986.83760997022
2020-05-02,5740.84980420002
2020-05-03,2196.42617128999
2020-05-04,5325.43648570003
2020-05-05,6293.49963150002
2020-05-06,5145.47527732
2020-05-07,7177.67594888
2020-05-08,7909.52665757004
2020-05-09,12849.88927527
2020-05-10,5327.2551688
2020-05-11,7165.87688869008
2020-05-12,4525.61246431001
2020-05-13,3013.02691546
2020-05-14,4899.45349368003
2020-05-15,5565.42792442
2020-05-16,4010.71889924
2020-05-17,16386.14900181
2020-05-18,10657.85359683
2020-05-19,4557.38670935999
2020-05-20,4503.94343284001
2020-05-21,7408.79906366001
2020-05-22,7312.39195338013
2020-05-23,7142.72056595004
2020-05-24,2908.82564607999
2020-05-25,5607.58931977001
2020-05-26,32472.04342913
2020-05-27,3567.87557767001
2020-05-28,6237.80063580002
2020-05-29,2650.48845290999
2020-05-30,14246.2897116501
2020-05-31,6274.76464311988
2020-06-01,4080.53409835
2020-06-02,9209.45668432008
2020-06-03,2940.16747809001
2020-06-04,28358.7068780497
2020-06-05,6226.70275453001
2020-06-06,4085.97705428
2020-06-07,4733.02969560003
2020-06-08,3839.12584702003
2020-06-09,8489.79341758007
2020-06-10,3115.95635485004
2020-06-11,4439.76164348998
2020-06-12,5240.22086481002
2020-06-13,80550.8164439695
2020-06-14,2134.50509297003
2020-06-15,21718.2910808791
2020-06-16,18351.32309329
2020-06-17,17103.84599428
2020-06-18,6681.81087674004
2020-06-19,8019.11280231998
2020-06-20,8387.29176182
2020-06-21,3965.59481213
2020-06-22,4643.79420941
2020-06-23,5653.11176285001
2020-06-24,7812.04903700003
2020-06-25,5244.42251224003
2020-06-26,6094.74196554001
2020-06-27,4599.67335649999
2020-06-28,6594.13665483
2020-06-29,7322.8087665
2020-06-30,9704.30144017001
2020-07-01,4992.40689571
2020-07-02,8113.11267546001
2020-07-03,4601.73073317002
2020-07-04,3388.88586737
2020-07-05,1922.33124901
2020-07-06,10373.67580035
2020-07-07,10239.83847031
2020-07-08,24575.0843917499
2020-07-09,17095.9074573
2020-07-10,3388.42048213001
2020-07-11,1637.46040978
2020-07-12,4660.99419251006
2020-07-13,37267.2447042499
2020-07-14,10556.76691422
2020-07-15,13550.94360681
2020-07-16,26222.4562797
2020-07-17,12197.6468265801
2020-07-18,2805.69629717
2020-07-19,1914.30667287
2020-07-20,49476.9095401801
2020-07-21,6729.23570625003
2020-07-22,4409.16827410999
2020-07-23,4558.36862350002
2020-07-24,5125.33632727
2020-07-25,10943.51172541
2020-07-26,11460.24830219
2020-07-27,76731.6943910298
2020-07-28,38236.27150605
2020-07-29,12427.46531061
2020-07-30,17093.19134712
2020-07-31,11484.68314579
2020-08-01,27742.7128780199
2020-08-02,11846.67483899
2020-08-03,8444.73357686001
2020-08-04,9395.2047247
2020-08-05,16304.71193433
2020-08-06,7535.68673868005
2020-08-07,9078.96118503001
2020-08-08,5410.14958209001
2020-08-09,43401.0335208198
2020-08-10,10263.48268708
2020-08-11,21559.95352154
2020-08-12,9324.48160682006
2020-08-13,9241.49563798998
2020-08-14,59246.0616409902
2020-08-15,9454.17068066001
2020-08-16,12134.76769312
2020-08-17,208966.365416833
2020-08-18,21324.6552932596
2020-08-19,11453.6260579102
2020-08-20,6545.11687746001
2020-08-21,10904.87873128
2020-08-22,4531.85468143
2020-08-23,120822.76532933
2020-08-24,10178.45612574
2020-08-25,6576.34779351
2020-08-26,12628.47687722
2020-08-27,29463.95827923
2020-08-28,5932.92426743001
2020-08-29,3506.99315478
2020-08-30,21241.16019583
2020-08-31,9731.70240485001
2020-09-01,13414.1145099201
2020-09-02,20858.52705518
2020-09-03,11449.6608766301
2020-09-04,221870.60538451
2020-09-05,5942.57582363
2020-09-06,5166.27819652
2020-09-07,93367.9098114599
2020-09-08,4837.52043726
2020-09-09,5636.95540593
2020-09-10,6306.16912326
2020-09-11,3931.05783746
2020-09-12,4479.85714056999
2020-09-13,3828.90974308001
2020-09-14,4789.64619491
2020-09-15,4405.17016135
2020-09-16,180228.30778521
2020-09-17,11092.06980416
2020-09-18,5100.35760049001
2020-09-19,3422.48233619006
2020-09-20,6161.34255121001
2020-09-21,3593.02971635002
2020-09-22,3671.87361848003
2020-09-23,8211.18161337002
2020-09-24,15500.35732263
2020-09-25,1614.03778992
2020-09-26,2753.90938456
2020-09-27,12452.95557935
2020-09-28,1765.2400877
2020-09-29,34148.8730593796
2020-09-30,2703.86771259
2020-10-01,4017.6799378
2020-10-02,3614.13432368
2020-10-03,2697.64354268999
2020-10-04,3502.73257814
2020-10-05,1009.504819
2020-10-06,3138.71431055
2020-10-07,60732.4771470901
2020-10-08,2228.38065116
2020-10-09,3651.28325785
2020-10-10,113642.22419862
2020-10-11,13568.51331522
2020-10-12,9101.42849452001
2020-10-13,3327.89341352
2020-10-14,4419.02746256
2020-10-15,9029.46962733001
2020-10-16,9644.88120871999
2020-10-17,3439.12578298
2020-10-18,2205.37862009
2020-10-19,7472.18926371
2020-10-20,2316.16756658
2020-10-21,9751.77829248001
2020-10-22,8866.83262634001
2020-10-23,16197.13281902
2020-10-24,6661.42533622001
2020-10-25,6489.68811725
2020-10-26,6649.10071814003
2020-10-27,11693.60403145
2020-10-28,8313.33236730002
2020-10-29,8375.87035514001
2020-10-30,4409.20854444
2020-10-31,3575.2235835
2020-11-01,3686.55165824001
2020-11-02,54221.39003066
2020-11-03,30567.92704006
2020-11-04,20190.51246711
2020-11-05,34482.66475454
2020-11-06,20379.4865263499
2020-11-07,21122.72789756
2020-11-08,7490.52352690009
2020-11-09,9210.26685697003
2020-11-10,3937.90526288
2020-11-11,15039.7210291
2020-11-12,10985.41269954
2020-11-13,14259.4303277101
2020-11-14,6124.84124648
2020-11-15,4168.30743501
2020-11-16,58730.15030344
2020-11-17,104762.35867074
2020-11-18,14205.6855965799
2020-11-19,42121.1758508898
2020-11-20,47606.0838634
2020-11-21,29283.77256043
2020-11-22,267588.00004778
2020-11-23,12386.6673295402
2020-11-24,16352.2500169
2020-11-25,60311.9969963399
2020-11-26,9330.88421787001
2020-11-27,3955.08024899001
2020-11-28,3907.70792719
2020-11-29,3941.71868034002
2020-11-30,8208.39244171002
2020-12-01,15579.4405656234
2020-12-02,6739.55684971002
2020-12-03,11239.22228251
2020-12-04,7766.98762862001
2020-12-05,5085.53460606001
2020-12-06,5054.95029033001
2020-12-07,5643.10751245001
2020-12-08,8615.41659042002
2020-12-09,3179.11068413
2020-12-10,168021.35410312
2020-12-11,10092.4217937
2020-12-12,1741.33155452
2020-12-13,3921.95852317001
2020-12-14,12883.56946958
2020-12-15,5440.67719414002
2020-12-16,25392.09799186
2020-12-17,82084.2003549396
2020-12-18,120672.398325431
2020-12-19,24563.48951014
2020-12-20,36079.35409912
2020-12-21,40114.5391638793
2020-12-22,9174.94256218001
2020-12-23,24986.1177426396
2020-12-24,9000.62693418
2020-12-25,8747.68314264001
2020-12-26,18142.08256734
2020-12-27,35171.4677960697
2020-12-28,22549.13679642
2020-12-29,10574.209882
2020-12-30,13239.04684078
2020-12-31,36669.8795805701
2021-01-01,12418.08864235
2021-01-02,20834.77817844
2021-01-03,10953.42017892
2021-01-04,23797.6807393499
2021-01-05,18072.3786888299
2021-01-06,14927.59635887
2021-01-07,39448.5535999199
2021-01-08,13745.9616054999
2021-01-09,15844.4148303799
2021-01-10,6755.03506249998
2021-01-11,14163.02761242
2021-01-12,40065.1525509999
2021-01-13,6985.66498899001
2021-01-14,6178.78002613004
2021-01-15,7711.03742694003
2021-01-16,3671.31251853002
2021-01-17,4203.11327025001
2021-01-18,21460.62953683
2021-01-19,13345.70789189
2021-01-20,17784.2556629299
2021-01-21,3313.79424968001
2021-01-22,6708.30618647001
2021-01-23,18844.55430137
2021-01-24,7730.05239516
2021-01-25,14783.21008674
2021-01-26,5657.06677765
2021-01-27,4395.93210564001
2021-01-28,9881.48245337997
2021-01-29,7760.23816161002
2021-01-30,2350.62953860001
2021-01-31,3920.11616972001
2021-02-01,9464.37608116
2021-02-02,7136.28341415002
2021-02-03,8402.32670672
2021-02-04,5155.86246761
2021-02-05,9206.58528144999
2021-02-06,19359.0010049
2021-02-07,4246.48607587003
2021-02-08,4984.87568296003
2021-02-09,8479.35171952002
2021-02-10,25224.2492748301
2021-02-11,7819.59243357003
2021-02-12,8561.32735560002
2021-02-13,11909.34285546
2021-02-14,9072.17089941996
2021-02-15,11701.5782384799
2021-02-16,2735.91942796
2021-02-17,71929.4980127091
2021-02-18,510870.391742251
2021-02-19,27092.0594372699
2021-02-20,15929.0639285597
2021-02-21,184649.1361341
2021-02-22,20076.7590928899
2021-02-23,50969.9997204398
2021-02-24,11189.1024191199
2021-02-25,4358.316066
2021-02-26,25986.8538326399
2021-02-27,3428.74588412
2021-02-28,129675.91005381
2021-03-01,5001.77216993
2021-03-02,13662.5716030199
2021-03-03,12439.0871433799
2021-03-04,7277.62276416
2021-03-05,7094.50009516001
2021-03-06,3523.09331031001
2021-03-07,2539.63299708001
2021-03-08,3008.83561156001
2021-03-09,9891.57122254995
2021-03-10,25932.0777095301
2021-03-11,7255.77794858003
2021-03-12,18774.7585736495
2021-03-13,24793.6489551
2021-03-14,41577.6932960298
2021-03-15,17330.59032966
2021-03-16,10939.38953843
2021-03-17,4008.01664076002
2021-03-18,5559.76005604
2021-03-19,6416.91777539004
2021-03-20,15080.0932727999
2021-03-21,5185.11304411001
2021-03-22,4767.37542542001
2021-03-23,7659.35726118003
2021-03-24,119320.28203839
2021-03-25,15479.6537143899
2021-03-26,7658.26173444001
2021-03-27,14648.6466994299
2021-03-28,2922.78171022
2021-03-29,2616.8110595
2021-03-30,103166.4018379
2021-03-31,9169.85709358999
2021-04-01,16283.1845822197
2021-04-02,11629.43389456
2021-04-03,5948.18352033001
2021-04-04,11327.98587269
2021-04-05,14708.5027234101
2021-04-06,94056.5668636498
2021-04-07,14960.6703208697
