t,v
2011-10-13,0
2011-10-14,0
2011-10-15,0
2011-10-16,0
2011-10-17,0
2011-10-18,0
2011-10-19,0
2011-10-20,0
2011-10-21,0
2011-10-22,0
2011-10-23,0
2011-10-24,0
2011-10-25,0
2011-10-26,0
2011-10-27,0
2011-10-28,0
2011-10-29,0
2011-10-30,0
2011-10-31,0
2011-11-01,0
2011-11-02,0
2011-11-03,0
2011-11-04,0
2011-11-05,0
2011-11-06,0
2011-11-07,0
2011-11-08,0
2011-11-09,0
2011-11-10,0
2011-11-11,0
2011-11-12,0
2011-11-13,0
2011-11-14,0
2011-11-15,0
2011-11-16,0
2011-11-17,0
2011-11-18,0
2011-11-19,0
2011-11-20,0
2011-11-21,0
2011-11-22,0
2011-11-23,0
2011-11-24,0
2011-11-25,0
2011-11-26,0
2011-11-27,0
2011-11-28,0
2011-11-29,0
2011-11-30,0
2011-12-01,0
2011-12-02,0
2011-12-03,0
2011-12-04,0
2011-12-05,0
2011-12-06,0
2011-12-07,0
2011-12-08,0
2011-12-09,0
2011-12-10,0
2011-12-11,0
2011-12-12,0
2011-12-13,0
2011-12-14,0
2011-12-15,0
2011-12-16,0
2011-12-17,0
2011-12-18,0
2011-12-19,0
2011-12-20,0
2011-12-21,0
2011-12-22,0
2011-12-23,0
2011-12-24,0
2011-12-25,0
2011-12-26,0
2011-12-27,0
2011-12-28,0
2011-12-29,0
2011-12-30,0
2011-12-31,0
2012-01-01,0
2012-01-02,0
2012-01-03,0
2012-01-04,0
2012-01-05,0
2012-01-06,0
2012-01-07,0
2012-01-08,0
2012-01-09,0
2012-01-10,0
2012-01-11,0
2012-01-12,0
2012-01-13,0
2012-01-14,0
2012-01-15,0
2012-01-16,0
2012-01-17,0
2012-01-18,0
2012-01-19,0
2012-01-20,0
2012-01-21,0
2012-01-22,0
2012-01-23,0
2012-01-24,0
2012-01-25,0
2012-01-26,0
2012-01-27,0
2012-01-28,0
2012-01-29,0
2012-01-30,0
2012-01-31,0
2012-02-01,0
2012-02-02,0
2012-02-03,0
2012-02-04,0
2012-02-05,0
2012-02-06,0
2012-02-07,0
2012-02-08,0
2012-02-09,0
2012-02-10,0
2012-02-11,0
2012-02-12,0
2012-02-13,0
2012-02-14,0
2012-02-15,0
2012-02-16,0
2012-02-17,0
2012-02-18,0
2012-02-19,0
2012-02-20,0
2012-02-21,0
2012-02-22,0
2012-02-23,0
2012-02-24,0
2012-02-25,0
2012-02-26,0
2012-02-27,0
2012-02-28,0
2012-02-29,0
2012-03-01,0
2012-03-02,0
2012-03-03,0
2012-03-04,0
2012-03-05,0
2012-03-06,0
2012-03-07,0
2012-03-08,0
2012-03-09,0
2012-03-10,0
2012-03-11,0
2012-03-12,0
2012-03-13,0
2012-03-14,0
2012-03-15,0
2012-03-16,0
2012-03-17,0
2012-03-18,0
2012-03-19,0
2012-03-20,0
2012-03-21,0
2012-03-22,0
2012-03-23,0
2012-03-24,0
2012-03-25,0
2012-03-26,0
2012-03-27,0
2012-03-28,0
2012-03-29,0
2012-03-30,0
2012-03-31,0
2012-04-01,0
2012-04-02,0
2012-04-03,0
2012-04-04,0
2012-04-05,0
2012-04-06,0
2012-04-07,0
2012-04-08,0
2012-04-09,0
2012-04-10,0
2012-04-11,0
2012-04-12,0
2012-04-13,0
2012-04-14,0
2012-04-15,0
2012-04-16,0
2012-04-17,0
2012-04-18,0
2012-04-19,0
2012-04-20,0
2012-04-21,0
2012-04-22,0
2012-04-23,0
2012-04-24,0
2012-04-25,0
2012-04-26,0
2012-04-27,0
2012-04-28,0
2012-04-29,0
2012-04-30,0
2012-05-01,0
2012-05-02,0
2012-05-03,0
2012-05-04,0
2012-05-05,0
2012-05-06,0
2012-05-07,0
2012-05-08,0
2012-05-09,0
2012-05-10,0
2012-05-11,0
2012-05-12,0
2012-05-13,0
2012-05-14,0
2012-05-15,0
2012-05-16,0
2012-05-17,0
2012-05-18,0
2012-05-19,0
2012-05-20,0
2012-05-21,0
2012-05-22,0
2012-05-23,0
2012-05-24,0
2012-05-25,0
2012-05-26,0
2012-05-27,0
2012-05-28,0
2012-05-29,0
2012-05-30,0
2012-05-31,0
2012-06-01,0
2012-06-02,0
2012-06-03,0
2012-06-04,0
2012-06-05,0
2012-06-06,0
2012-06-07,0
2012-06-08,0
2012-06-09,0
2012-06-10,0
2012-06-11,0
2012-06-12,0
2012-06-13,0
2012-06-14,0
2012-06-15,0
2012-06-16,0
2012-06-17,0
2012-06-18,0
2012-06-19,0
2012-06-20,0
2012-06-21,0
2012-06-22,0
2012-06-23,0
2012-06-24,0
2012-06-25,0
2012-06-26,0
2012-06-27,0
2012-06-28,0
2012-06-29,0
2012-06-30,0
2012-07-01,0
2012-07-02,0
2012-07-03,0
2012-07-04,0
2012-07-05,0
2012-07-06,0
2012-07-07,0
2012-07-08,0
2012-07-09,0
2012-07-10,0
2012-07-11,0
2012-07-12,0
2012-07-13,0
2012-07-14,0
2012-07-15,0
2012-07-16,0
2012-07-17,0
2012-07-18,0
2012-07-19,0
2012-07-20,0
2012-07-21,0
2012-07-22,0
2012-07-23,0
2012-07-24,0
2012-07-25,0
2012-07-26,0
2012-07-27,0
2012-07-28,0
2012-07-29,0
2012-07-30,0
2012-07-31,0
2012-08-01,0
2012-08-02,0
2012-08-03,0
2012-08-04,0
2012-08-05,0
2012-08-06,0
2012-08-07,0
2012-08-08,0
2012-08-09,0
2012-08-10,0
2012-08-11,0
2012-08-12,0
2012-08-13,0
2012-08-14,0
2012-08-15,0
2012-08-16,0
2012-08-17,0
2012-08-18,0
2012-08-19,0
2012-08-20,0
2012-08-21,0
2012-08-22,0
2012-08-23,0
2012-08-24,0
2012-08-25,0
2012-08-26,0
2012-08-27,0
2012-08-28,0
2012-08-29,0
2012-08-30,0
2012-08-31,0
2012-09-01,0
2012-09-02,0
2012-09-03,0
2012-09-04,0
2012-09-05,0
2012-09-06,0
2012-09-07,0
2012-09-08,0
2012-09-09,0
2012-09-10,0
2012-09-11,0
2012-09-12,0
2012-09-13,0
2012-09-14,0
2012-09-15,0
2012-09-16,0
2012-09-17,0
2012-09-18,0
2012-09-19,0
2012-09-20,0
2012-09-21,0
2012-09-22,0
2012-09-23,0
2012-09-24,0
2012-09-25,0
2012-09-26,0
2012-09-27,0
2012-09-28,0
2012-09-29,0
2012-09-30,0
2012-10-01,0
2012-10-02,0
2012-10-03,0
2012-10-04,0
2012-10-05,0
2012-10-06,0
2012-10-07,0
2012-10-08,0
2012-10-09,0
2012-10-10,0
2012-10-11,0
2012-10-12,45
2012-10-13,0
2012-10-14,0
2012-10-15,0
2012-10-16,0
2012-10-17,0
2012-10-18,0
2012-10-19,0
2012-10-20,0
2012-10-21,0
2012-10-22,0
2012-10-23,0
2012-10-24,0
2012-10-25,3
2012-10-26,0
2012-10-27,0
2012-10-28,3
2012-10-29,0
2012-10-30,1
2012-10-31,0
2012-11-01,0
2012-11-02,0
2012-11-03,0
2012-11-04,6
2012-11-05,0
2012-11-06,0
2012-11-07,0
2012-11-08,0
2012-11-09,0
2012-11-10,0
2012-11-11,1
2012-11-12,0
2012-11-13,1
2012-11-14,0
2012-11-15,0
2012-11-16,0
2012-11-17,0
2012-11-18,4
2012-11-19,0
2012-11-20,0
2012-11-21,0
2012-11-22,0
2012-11-23,0
2012-11-24,67
2012-11-25,3
2012-11-26,0
2012-11-27,0
2012-11-28,0
2012-11-29,0
2012-11-30,0
2012-12-01,0
2012-12-02,0
2012-12-03,0
2012-12-04,5
2012-12-05,0
2012-12-06,1
2012-12-07,42
2012-12-08,0
2012-12-09,0
2012-12-10,0
2012-12-11,0
2012-12-12,0
2012-12-13,0
2012-12-14,0
2012-12-15,0
2012-12-16,13
2012-12-17,0
2012-12-18,0
2012-12-19,1
2012-12-20,0
2012-12-21,0
2012-12-22,0
2012-12-23,3
2012-12-24,2
2012-12-25,8
2012-12-26,0
2012-12-27,0
2012-12-28,0
2012-12-29,0
2012-12-30,0
2012-12-31,0
2013-01-01,0
2013-01-02,0
2013-01-03,2
2013-01-04,0
2013-01-05,0
2013-01-06,1
2013-01-07,0
2013-01-08,0
2013-01-09,0
2013-01-10,0
2013-01-11,0
2013-01-12,0
2013-01-13,0
2013-01-14,0
2013-01-15,0
2013-01-16,0
2013-01-17,0
2013-01-18,0
2013-01-19,4
2013-01-20,17
2013-01-21,0
2013-01-22,12
2013-01-23,0
2013-01-24,2
2013-01-25,0
2013-01-26,0
2013-01-27,0
2013-01-28,1
2013-01-29,1
2013-01-30,0
2013-01-31,1
2013-02-01,6
2013-02-02,0
2013-02-03,0
2013-02-04,0
2013-02-05,0
2013-02-06,0
2013-02-07,0
2013-02-08,0
2013-02-09,3
2013-02-10,0
2013-02-11,32
2013-02-12,9
2013-02-13,0
2013-02-14,0
2013-02-15,0
2013-02-16,0
2013-02-17,2
2013-02-18,0
2013-02-19,18
2013-02-20,9
2013-02-21,6
2013-02-22,0
2013-02-23,4
2013-02-24,3
2013-02-25,0
2013-02-26,0
2013-02-27,0
2013-02-28,0
2013-03-01,0
2013-03-02,3
2013-03-03,2
2013-03-04,9
2013-03-05,38
2013-03-06,108
2013-03-07,29
2013-03-08,173
2013-03-09,53
2013-03-10,10
2013-03-11,158
2013-03-12,40
2013-03-13,188
2013-03-14,76
2013-03-15,297
2013-03-16,10
2013-03-17,308
2013-03-18,171
2013-03-19,67
2013-03-20,8
2013-03-21,6
2013-03-22,42
2013-03-23,86
2013-03-24,43
2013-03-25,43
2013-03-26,2
2013-03-27,2
2013-03-28,6
2013-03-29,22
2013-03-30,18
2013-03-31,7
2013-04-01,233
2013-04-02,429
2013-04-03,285
2013-04-04,1089
2013-04-05,1918
2013-04-06,861
2013-04-07,106
2013-04-08,374
2013-04-09,94
2013-04-10,160
2013-04-11,9
2013-04-12,122
2013-04-13,636
2013-04-14,39
2013-04-15,108
2013-04-16,31
2013-04-17,195
2013-04-18,238
2013-04-19,86
2013-04-20,11
2013-04-21,149
2013-04-22,8
2013-04-23,45
2013-04-24,31
2013-04-25,9
2013-04-26,45
2013-04-27,238
2013-04-28,13
2013-04-29,76
2013-04-30,6
2013-05-01,3
2013-05-02,114
2013-05-03,128
2013-05-04,22
2013-05-05,67
2013-05-06,1
2013-05-07,0
2013-05-08,2
2013-05-09,3
2013-05-10,40
2013-05-11,16
2013-05-12,0
2013-05-13,258
2013-05-14,326
2013-05-15,27
2013-05-16,0
2013-05-17,43
2013-05-18,1
2013-05-19,0
2013-05-20,37
2013-05-21,2
2013-05-22,38
2013-05-23,16
2013-05-24,440
2013-05-25,0
2013-05-26,1
2013-05-27,1
2013-05-28,0
2013-05-29,0
2013-05-30,13
2013-05-31,98
2013-06-01,11
2013-06-02,1
2013-06-03,19
2013-06-04,31
2013-06-05,26
2013-06-06,5
2013-06-07,3
2013-06-08,3
2013-06-09,0
2013-06-10,21
2013-06-11,27
2013-06-12,0
2013-06-13,11
2013-06-14,0
2013-06-15,0
2013-06-16,18
2013-06-17,11
2013-06-18,28
2013-06-19,33
2013-06-20,5
2013-06-21,0
2013-06-22,8
2013-06-23,165
2013-06-24,162
2013-06-25,9
2013-06-26,0
2013-06-27,128
2013-06-28,104
2013-06-29,0
2013-06-30,4
2013-07-01,17
2013-07-02,107
2013-07-03,0
2013-07-04,19
2013-07-05,1
2013-07-06,3
2013-07-07,74
2013-07-08,2
2013-07-09,0
2013-07-10,0
2013-07-11,52
2013-07-12,0
2013-07-13,55
2013-07-14,5
2013-07-15,0
2013-07-16,9
2013-07-17,0
2013-07-18,1
2013-07-19,3
2013-07-20,0
2013-07-21,4
2013-07-22,77
2013-07-23,46
2013-07-24,8
2013-07-25,0
2013-07-26,95
2013-07-27,0
2013-07-28,0
2013-07-29,1
2013-07-30,0
2013-07-31,1
2013-08-01,1
2013-08-02,1
2013-08-03,452
2013-08-04,0
2013-08-05,4
2013-08-06,11
2013-08-07,0
2013-08-08,562
2013-08-09,25
2013-08-10,0
2013-08-11,0
2013-08-12,4
2013-08-13,0
2013-08-14,0
2013-08-15,7
2013-08-16,0
2013-08-17,2
2013-08-18,0
2013-08-19,0
2013-08-20,0
2013-08-21,4
2013-08-22,2
2013-08-23,0
2013-08-24,5
2013-08-25,0
2013-08-26,0
2013-08-27,135
2013-08-28,0
2013-08-29,3
2013-08-30,3
2013-08-31,2
2013-09-01,1
2013-09-02,8
2013-09-03,16
2013-09-04,2
2013-09-05,0
2013-09-06,2
2013-09-07,39
2013-09-08,0
2013-09-09,1
2013-09-10,1
2013-09-11,4
2013-09-12,1
2013-09-13,0
2013-09-14,9
2013-09-15,0
2013-09-16,4
2013-09-17,2
2013-09-18,7
2013-09-19,3
2013-09-20,0
2013-09-21,59
2013-09-22,0
2013-09-23,0
2013-09-24,17
2013-09-25,5
2013-09-26,9
2013-09-27,0
2013-09-28,2
2013-09-29,273
2013-09-30,3
2013-10-01,0
2013-10-02,9
2013-10-03,0
2013-10-04,10
2013-10-05,0
2013-10-06,43
2013-10-07,51
2013-10-08,43
2013-10-09,73
2013-10-10,12
2013-10-11,22
2013-10-12,0
2013-10-13,3
2013-10-14,4
2013-10-15,0
2013-10-16,25
2013-10-17,7
2013-10-18,10
2013-10-19,9
2013-10-20,1
2013-10-21,1
2013-10-22,9
2013-10-23,14
2013-10-24,0
2013-10-25,7
2013-10-26,0
2013-10-27,7
2013-10-28,3
2013-10-29,0
2013-10-30,3
2013-10-31,14
2013-11-01,8
2013-11-02,1
2013-11-03,20
2013-11-04,16
2013-11-05,25
2013-11-06,12
2013-11-07,85
2013-11-08,137
2013-11-09,14
2013-11-10,72
2013-11-11,15
2013-11-12,31
2013-11-13,18
2013-11-14,76
2013-11-15,41
2013-11-16,39
2013-11-17,37
2013-11-18,625
2013-11-19,191
2013-11-20,32
2013-11-21,134
2013-11-22,72
2013-11-23,28
2013-11-24,70
2013-11-25,20
2013-11-26,504
2013-11-27,437
2013-11-28,862
2013-11-29,175
2013-11-30,56
2013-12-01,37
2013-12-02,27
2013-12-03,13
2013-12-04,414
2013-12-05,209
2013-12-06,169
2013-12-07,177
2013-12-08,140
2013-12-09,12
2013-12-10,139
2013-12-11,1
2013-12-12,32
2013-12-13,11
2013-12-14,26
2013-12-15,13
2013-12-16,347
2013-12-17,472
2013-12-18,652
2013-12-19,58
2013-12-20,22
2013-12-21,17
2013-12-22,0
2013-12-23,5
2013-12-24,5
2013-12-25,47
2013-12-26,11
2013-12-27,239
2013-12-28,23
2013-12-29,17
2013-12-30,11
2013-12-31,288
2014-01-01,1
2014-01-02,22
2014-01-03,29
2014-01-04,142
2014-01-05,22
2014-01-06,168
2014-01-07,12
2014-01-08,12
2014-01-09,9
2014-01-10,2
2014-01-11,9
2014-01-12,10
2014-01-13,86
2014-01-14,46
2014-01-15,4
2014-01-16,2
2014-01-17,27
2014-01-18,129
2014-01-19,7
2014-01-20,531
2014-01-21,3
2014-01-22,8
2014-01-23,5
2014-01-24,280
2014-01-25,9
2014-01-26,82
2014-01-27,26
2014-01-28,81
2014-01-29,35
2014-01-30,138
2014-01-31,1
2014-02-01,2
2014-02-02,1
2014-02-03,61
2014-02-04,21
2014-02-05,13
2014-02-06,5
2014-02-07,9
2014-02-08,10
2014-02-09,18
2014-02-10,32
2014-02-11,23
2014-02-12,127
2014-02-13,1
2014-02-14,3
2014-02-15,87
2014-02-16,24
2014-02-17,330
2014-02-18,32
2014-02-19,1
2014-02-20,0
2014-02-21,44
2014-02-22,3
2014-02-23,1
2014-02-24,11
2014-02-25,15
2014-02-26,3
2014-02-27,4
2014-02-28,0
2014-03-01,1
2014-03-02,2
2014-03-03,1
2014-03-04,11
2014-03-05,22
2014-03-06,11
2014-03-07,1
2014-03-08,11
2014-03-09,2
2014-03-10,37
2014-03-11,7
2014-03-12,464
2014-03-13,105
2014-03-14,15
2014-03-15,35
2014-03-16,91
2014-03-17,6
2014-03-18,153
2014-03-19,20
2014-03-20,33
2014-03-21,9
2014-03-22,184
2014-03-23,3
2014-03-24,22
2014-03-25,1
2014-03-26,474
2014-03-27,96
2014-03-28,127
2014-03-29,218
2014-03-30,159
2014-03-31,244
2014-04-01,1
2014-04-02,260
2014-04-03,149
2014-04-04,11
2014-04-05,27
2014-04-06,401
2014-04-07,17
2014-04-08,4
2014-04-09,3
2014-04-10,43
2014-04-11,11
2014-04-12,26
2014-04-13,9
2014-04-14,14
2014-04-15,103
2014-04-16,432
2014-04-17,485
2014-04-18,1
2014-04-19,7
2014-04-20,123
2014-04-21,35
2014-04-22,205
2014-04-23,44
2014-04-24,415
2014-04-25,21
2014-04-26,150
2014-04-27,11
2014-04-28,87
2014-04-29,14
2014-04-30,421
2014-05-01,40
2014-05-02,225
2014-05-03,82
2014-05-04,16
2014-05-05,182
2014-05-06,39
2014-05-07,375
2014-05-08,8
2014-05-09,21
2014-05-10,14
2014-05-11,15
2014-05-12,19
2014-05-13,231
2014-05-14,161
2014-05-15,151
2014-05-16,131
2014-05-17,56
2014-05-18,476
2014-05-19,193
2014-05-20,67
2014-05-21,80
2014-05-22,614
2014-05-23,358
2014-05-24,122
2014-05-25,84
2014-05-26,114
2014-05-27,32
2014-05-28,140
2014-05-29,24
2014-05-30,1105
2014-05-31,36
2014-06-01,56
2014-06-02,44
2014-06-03,27
2014-06-04,92
2014-06-05,49
2014-06-06,138
2014-06-07,46
2014-06-08,264
2014-06-09,31
2014-06-10,78
2014-06-11,34
2014-06-12,75
2014-06-13,289
2014-06-14,44
2014-06-15,11
2014-06-16,1201
2014-06-17,302
2014-06-18,167
2014-06-19,113
2014-06-20,48
2014-06-21,45
2014-06-22,163
2014-06-23,293
2014-06-24,36
2014-06-25,2104
2014-06-26,64
2014-06-27,402
2014-06-28,458
2014-06-29,183
2014-06-30,594
2014-07-01,1673
2014-07-02,1763
2014-07-03,48
2014-07-04,59
2014-07-05,37
2014-07-06,80
2014-07-07,112
2014-07-08,5
2014-07-09,293
2014-07-10,54
2014-07-11,34
2014-07-12,36
2014-07-13,119
2014-07-14,259
2014-07-15,17
2014-07-16,73
2014-07-17,133
2014-07-18,174
2014-07-19,58184
2014-07-20,9
2014-07-21,38
2014-07-22,37
2014-07-23,15
2014-07-24,13
2014-07-25,148
2014-07-26,454
2014-07-27,129
2014-07-28,70
2014-07-29,115
2014-07-30,31
2014-07-31,934
2014-08-01,76
2014-08-02,235
2014-08-03,26
2014-08-04,69
2014-08-05,20
2014-08-06,1858
2014-08-07,63
2014-08-08,9
2014-08-09,33
2014-08-10,18
2014-08-11,23
2014-08-12,165
2014-08-13,846
2014-08-14,63
2014-08-15,868
2014-08-16,86
2014-08-17,39
2014-08-18,351
2014-08-19,668
2014-08-20,51
2014-08-21,161
2014-08-22,69
2014-08-23,13
2014-08-24,48
2014-08-25,65
2014-08-26,34
2014-08-27,32
2014-08-28,12
2014-08-29,97
2014-08-30,83
2014-08-31,790
2014-09-01,85
2014-09-02,25
2014-09-03,106
2014-09-04,83
2014-09-05,600
2014-09-06,658
2014-09-07,58
2014-09-08,23
2014-09-09,103
2014-09-10,93
2014-09-11,53
2014-09-12,331
2014-09-13,240
2014-09-14,31
2014-09-15,60
2014-09-16,57
2014-09-17,99
2014-09-18,164
2014-09-19,80
2014-09-20,19
2014-09-21,106
2014-09-22,24
2014-09-23,26
2014-09-24,190
2014-09-25,38
2014-09-26,36
2014-09-27,13
2014-09-28,448
2014-09-29,118
2014-09-30,24
2014-10-01,19
2014-10-02,190
2014-10-03,120
2014-10-04,20
2014-10-05,67
2014-10-06,14
2014-10-07,17
2014-10-08,29
2014-10-09,68
2014-10-10,73
2014-10-11,92
2014-10-12,151
2014-10-13,54
2014-10-14,13
2014-10-15,18
2014-10-16,12
2014-10-17,8
2014-10-18,68
2014-10-19,1028
2014-10-20,12
2014-10-21,1099
2014-10-22,745
2014-10-23,34
2014-10-24,8
2014-10-25,264
2014-10-26,36
2014-10-27,59
2014-10-28,46
2014-10-29,7
2014-10-30,18
2014-10-31,11
2014-11-01,6
2014-11-02,6
2014-11-03,97
2014-11-04,3
2014-11-05,726
2014-11-06,19
2014-11-07,32
2014-11-08,5
2014-11-09,156
2014-11-10,73
2014-11-11,14
2014-11-12,29
2014-11-13,32
2014-11-14,107
2014-11-15,34
2014-11-16,43
2014-11-17,41
2014-11-18,30
2014-11-19,29
2014-11-20,8
2014-11-21,59
2014-11-22,1415
2014-11-23,20
2014-11-24,26
2014-11-25,24
2014-11-26,93
2014-11-27,125
2014-11-28,100
2014-11-29,412
2014-11-30,13
2014-12-01,187
2014-12-02,47
2014-12-03,159
2014-12-04,299
2014-12-05,56
2014-12-06,179
2014-12-07,75
2014-12-08,168
2014-12-09,68
2014-12-10,100
2014-12-11,144
2014-12-12,37
2014-12-13,580
2014-12-14,152
2014-12-15,66
2014-12-16,76
2014-12-17,335
2014-12-18,1050
2014-12-19,260
2014-12-20,70
2014-12-21,130
2014-12-22,146
2014-12-23,22
2014-12-24,230
2014-12-25,44
2014-12-26,434
2014-12-27,73
2014-12-28,274
2014-12-29,42
2014-12-30,182
2014-12-31,132
2015-01-01,215
2015-01-02,38
2015-01-03,90
2015-01-04,289
2015-01-05,194
2015-01-06,77
2015-01-07,131
2015-01-08,168
2015-01-09,235
2015-01-10,738
2015-01-11,168
2015-01-12,88
2015-01-13,744
2015-01-14,726
2015-01-15,1407
2015-01-16,181
2015-01-17,399
2015-01-18,89
2015-01-19,62
2015-01-20,1691
2015-01-21,80
2015-01-22,152
2015-01-23,305
2015-01-24,73
2015-01-25,451
2015-01-26,478
2015-01-27,106
2015-01-28,58
2015-01-29,150
2015-01-30,36
2015-01-31,212
2015-02-01,286
2015-02-02,965
2015-02-03,142
2015-02-04,108
2015-02-05,58
2015-02-06,53
2015-02-07,19
2015-02-08,49
2015-02-09,55
2015-02-10,274
2015-02-11,145
2015-02-12,136
2015-02-13,165
2015-02-14,120
2015-02-15,118
2015-02-16,162
2015-02-17,39
2015-02-18,236
2015-02-19,143
2015-02-20,32
2015-02-21,427
2015-02-22,132
2015-02-23,66
2015-02-24,105
2015-02-25,1127
2015-02-26,142
2015-02-27,66
2015-02-28,144
2015-03-01,27
2015-03-02,212
2015-03-03,284
2015-03-04,520
2015-03-05,101
2015-03-06,177
2015-03-07,76
2015-03-08,52
2015-03-09,133
2015-03-10,437
2015-03-11,107
2015-03-12,2299
2015-03-13,52
2015-03-14,241
2015-03-15,43
2015-03-16,522
2015-03-17,937
2015-03-18,220
2015-03-19,97
2015-03-20,143
2015-03-21,310
2015-03-22,124
2015-03-23,236
2015-03-24,544
2015-03-25,440
2015-03-26,121
2015-03-27,57
2015-03-28,8
2015-03-29,296
2015-03-30,93
2015-03-31,52
2015-04-01,274
2015-04-02,879
2015-04-03,96
2015-04-04,185
2015-04-05,105
2015-04-06,662
2015-04-07,239
2015-04-08,215
2015-04-09,222
2015-04-10,127
2015-04-11,184
2015-04-12,158
2015-04-13,124
2015-04-14,632
2015-04-15,170
2015-04-16,213
2015-04-17,165
2015-04-18,68
2015-04-19,200
2015-04-20,1248
2015-04-21,56
2015-04-22,44
2015-04-23,365
2015-04-24,1295
2015-04-25,305
2015-04-26,93
2015-04-27,26
2015-04-28,180
2015-04-29,212
2015-04-30,217
2015-05-01,77
2015-05-02,217
2015-05-03,227
2015-05-04,114
2015-05-05,162
2015-05-06,222
2015-05-07,208
2015-05-08,287
2015-05-09,174
2015-05-10,213
2015-05-11,203
2015-05-12,95
2015-05-13,73
2015-05-14,159
2015-05-15,253
2015-05-16,724
2015-05-17,118
2015-05-18,63
2015-05-19,119
2015-05-20,319
2015-05-21,70
2015-05-22,263
2015-05-23,380
2015-05-24,123
2015-05-25,102
2015-05-26,301
2015-05-27,1236
2015-05-28,173
2015-05-29,173
2015-05-30,614
2015-05-31,337
2015-06-01,483
2015-06-02,69
2015-06-03,95
2015-06-04,349
2015-06-05,135
2015-06-06,1009
2015-06-07,91
2015-06-08,209
2015-06-09,709
2015-06-10,760
2015-06-11,193
2015-06-12,702
2015-06-13,238
2015-06-14,214
2015-06-15,277
2015-06-16,868
2015-06-17,1130
2015-06-18,1679
2015-06-19,513
2015-06-20,367
2015-06-21,1538
2015-06-22,355
2015-06-23,711
2015-06-24,474
2015-06-25,644
2015-06-26,504
2015-06-27,221
2015-06-28,1222
2015-06-29,1319
2015-06-30,2955
2015-07-01,1136
2015-07-02,1266
2015-07-03,817
2015-07-04,1682
2015-07-05,872
2015-07-06,2699
2015-07-07,3474
2015-07-08,2590
2015-07-09,7183
2015-07-10,7800
2015-07-11,2961
2015-07-12,1358
2015-07-13,1526
2015-07-14,1722
2015-07-15,909
2015-07-16,1003
2015-07-17,1408
2015-07-18,676
2015-07-19,329
2015-07-20,1710
2015-07-21,221
2015-07-22,136
2015-07-23,411
2015-07-24,365
2015-07-25,1226
2015-07-26,458
2015-07-27,719
2015-07-28,475
2015-07-29,489
2015-07-30,637
2015-07-31,209
2015-08-01,260
2015-08-02,478
2015-08-03,410
2015-08-04,591
2015-08-05,363
2015-08-06,270
2015-08-07,192
2015-08-08,326
2015-08-09,245
2015-08-10,95
2015-08-11,192
2015-08-12,416
2015-08-13,370
2015-08-14,60
2015-08-15,525
2015-08-16,362
2015-08-17,379
2015-08-18,183
2015-08-19,593
2015-08-20,93
2015-08-21,603
2015-08-22,312
2015-08-23,174
2015-08-24,612
2015-08-25,1184
2015-08-26,250
2015-08-27,267
2015-08-28,218
2015-08-29,65
2015-08-30,1120
2015-08-31,121
2015-09-01,205
2015-09-02,312
2015-09-03,464
2015-09-04,181
2015-09-05,192
2015-09-06,51
2015-09-07,218
2015-09-08,382
2015-09-09,122
2015-09-10,354
2015-09-11,282
2015-09-12,98
2015-09-13,63
2015-09-14,101
2015-09-15,74
2015-09-16,336
2015-09-17,65
2015-09-18,1081
2015-09-19,243
2015-09-20,845
2015-09-21,70
2015-09-22,283
2015-09-23,70
2015-09-24,104
2015-09-25,247
2015-09-26,209
2015-09-27,290
2015-09-28,218
2015-09-29,259
2015-09-30,138
2015-10-01,2062
2015-10-02,136
2015-10-03,353
2015-10-04,219
2015-10-05,116
2015-10-06,53
2015-10-07,1594
2015-10-08,94
2015-10-09,90
2015-10-10,564
2015-10-11,55
2015-10-12,175
2015-10-13,426
2015-10-14,316
2015-10-15,89
2015-10-16,260
2015-10-17,846
2015-10-18,203
2015-10-19,923
2015-10-20,150
2015-10-21,296
2015-10-22,663
2015-10-23,957
2015-10-24,300
2015-10-25,268
2015-10-26,521
2015-10-27,248
2015-10-28,488
2015-10-29,1547
2015-10-30,843
2015-10-31,1218
2015-11-01,580
2015-11-02,704
2015-11-03,2257
2015-11-04,1736
2015-11-05,1092
2015-11-06,1348
2015-11-07,228
2015-11-08,181
2015-11-09,748
2015-11-10,349
2015-11-11,1180
2015-11-12,685
2015-11-13,423
2015-11-14,135
2015-11-15,327
2015-11-16,610
2015-11-17,386
2015-11-18,262
2015-11-19,161
2015-11-20,237
2015-11-21,707
2015-11-22,126
2015-11-23,449
2015-11-24,663
2015-11-25,356
2015-11-26,473
2015-11-27,685
2015-11-28,262
2015-11-29,533
2015-11-30,862
2015-12-01,531
2015-12-02,962
2015-12-03,455
2015-12-04,223
2015-12-05,251
2015-12-06,339
2015-12-07,269
2015-12-08,1010
2015-12-09,460
2015-12-10,214
2015-12-11,1918
2015-12-12,548
2015-12-13,817
2015-12-14,871
2015-12-15,359
2015-12-16,489
2015-12-17,878
2015-12-18,372
2015-12-19,665
2015-12-20,446
2015-12-21,61
2015-12-22,445
2015-12-23,489
2015-12-24,194
2015-12-25,401
2015-12-26,214
2015-12-27,122
2015-12-28,506
2015-12-29,150
2015-12-30,118
2015-12-31,155
2016-01-01,495
2016-01-02,90
2016-01-03,198
2016-01-04,88
2016-01-05,98
2016-01-06,115
2016-01-07,418
2016-01-08,334
2016-01-09,101
2016-01-10,40
2016-01-11,59
2016-01-12,460
2016-01-13,190
2016-01-14,72
2016-01-15,352
2016-01-16,413
2016-01-17,418
2016-01-18,597
2016-01-19,78
2016-01-20,328
2016-01-21,542
2016-01-22,191
2016-01-23,285
2016-01-24,127
2016-01-25,193
2016-01-26,919
2016-01-27,81
2016-01-28,251
2016-01-29,87
2016-01-30,38
2016-01-31,375
2016-02-01,163
2016-02-02,339
2016-02-03,214
2016-02-04,87
2016-02-05,171
2016-02-06,158
2016-02-07,36
2016-02-08,207
2016-02-09,661
2016-02-10,121
2016-02-11,182
2016-02-12,73
2016-02-13,60
2016-02-14,63
2016-02-15,686
2016-02-16,255
2016-02-17,328
2016-02-18,309
2016-02-19,115
2016-02-20,133
2016-02-21,224
2016-02-22,387
2016-02-23,504
2016-02-24,149
2016-02-25,70
2016-02-26,129
2016-02-27,129
2016-02-28,135
2016-02-29,277
2016-03-01,393
2016-03-02,298
2016-03-03,158
2016-03-04,369
2016-03-05,525
2016-03-06,384
2016-03-07,241
2016-03-08,433
2016-03-09,129
2016-03-10,281
2016-03-11,202
2016-03-12,194
2016-03-13,212
2016-03-14,46
2016-03-15,386
2016-03-16,136
2016-03-17,263
2016-03-18,470
2016-03-19,413
2016-03-20,95
2016-03-21,164
2016-03-22,73
2016-03-23,205
2016-03-24,102
2016-03-25,47
2016-03-26,456
2016-03-27,143
2016-03-28,228
2016-03-29,830
2016-03-30,393
2016-03-31,80
2016-04-01,32
2016-04-02,22
2016-04-03,64
2016-04-04,133
2016-04-05,358
2016-04-06,217
2016-04-07,119
2016-04-08,256
2016-04-09,115
2016-04-10,117
2016-04-11,248
2016-04-12,93
2016-04-13,105
2016-04-14,243
2016-04-15,1071
2016-04-16,376
2016-04-17,70
2016-04-18,187
2016-04-19,440
2016-04-20,315
2016-04-21,149
2016-04-22,29
2016-04-23,101
2016-04-24,84
2016-04-25,601
2016-04-26,1264
2016-04-27,465
2016-04-28,584
2016-04-29,510
2016-04-30,87
2016-05-01,62
2016-05-02,190
2016-05-03,418
2016-05-04,55
2016-05-05,73
2016-05-06,808
2016-05-07,350
2016-05-08,96
2016-05-09,403
2016-05-10,921
2016-05-11,277
2016-05-12,88
2016-05-13,340
2016-05-14,614
2016-05-15,400
2016-05-16,127
2016-05-17,224
2016-05-18,72
2016-05-19,132
2016-05-20,401
2016-05-21,34
2016-05-22,125
2016-05-23,61
2016-05-24,755
2016-05-25,274
2016-05-26,169
2016-05-27,654
2016-05-28,1410
2016-05-29,617
2016-05-30,896
2016-05-31,766
2016-06-01,345
2016-06-02,79
2016-06-03,298
2016-06-04,348
2016-06-05,61
2016-06-06,5459
2016-06-07,771
2016-06-08,1218
2016-06-09,270
2016-06-10,32
2016-06-11,433
2016-06-12,419
2016-06-13,1712
2016-06-14,899
2016-06-15,553
2016-06-16,830
2016-06-17,1169
2016-06-18,379
2016-06-19,213
2016-06-20,394
2016-06-21,817
2016-06-22,180
2016-06-23,242
2016-06-24,110
2016-06-25,219
2016-06-26,205
2016-06-27,128
2016-06-28,290
2016-06-29,22
2016-06-30,310
2016-07-01,145
2016-07-02,320
2016-07-03,84
2016-07-04,30
2016-07-05,190
2016-07-06,66
2016-07-07,101
2016-07-08,102
2016-07-09,82
2016-07-10,193
2016-07-11,137
2016-07-12,433
2016-07-13,1133
2016-07-14,270
2016-07-15,357
2016-07-16,62
2016-07-17,323
2016-07-18,136
2016-07-19,353
2016-07-20,135
2016-07-21,228
2016-07-22,108
2016-07-23,454
2016-07-24,272
2016-07-25,988
2016-07-26,932
2016-07-27,429
2016-07-28,62
2016-07-29,447
2016-07-30,200
2016-07-31,26
2016-08-01,126
2016-08-02,166
2016-08-03,70
2016-08-04,66
2016-08-05,28
2016-08-06,268
2016-08-07,162
2016-08-08,177
2016-08-09,54
2016-08-10,90
2016-08-11,179
2016-08-12,51
2016-08-13,47
2016-08-14,26
2016-08-15,65
2016-08-16,62
2016-08-17,150
2016-08-18,55
2016-08-19,56
2016-08-20,142
2016-08-21,158
2016-08-22,114
2016-08-23,430
2016-08-24,210
2016-08-25,127
2016-08-26,45
2016-08-27,31
2016-08-28,37
2016-08-29,432
2016-08-30,39
2016-08-31,107
2016-09-01,49
2016-09-02,242
2016-09-03,51
2016-09-04,553
2016-09-05,99
2016-09-06,278
2016-09-07,30
2016-09-08,38
2016-09-09,78
2016-09-10,914
2016-09-11,288
2016-09-12,283
2016-09-13,754
2016-09-14,39
2016-09-15,187
2016-09-16,28
2016-09-17,4774
2016-09-18,62
2016-09-19,59
2016-09-20,197
2016-09-21,40
2016-09-22,52
2016-09-23,91
2016-09-24,243
2016-09-25,2
2016-09-26,392
2016-09-27,126
2016-09-28,142
2016-09-29,290
2016-09-30,21
2016-10-01,535
2016-10-02,150
2016-10-03,99
2016-10-04,25
2016-10-05,140
2016-10-06,146
2016-10-07,77
2016-10-08,8
2016-10-09,50
2016-10-10,93
2016-10-11,136
2016-10-12,203
2016-10-13,33
2016-10-14,227
2016-10-15,146
2016-10-16,65
2016-10-17,49
2016-10-18,554
2016-10-19,800
2016-10-20,275
2016-10-21,175
2016-10-22,15
2016-10-23,33
2016-10-24,11
2016-10-25,40
2016-10-26,60
2016-10-27,279
2016-10-28,24
2016-10-29,93
2016-10-30,128
2016-10-31,110
2016-11-01,278
2016-11-02,90
2016-11-03,111
2016-11-04,193
2016-11-05,81
2016-11-06,60
2016-11-07,543
2016-11-08,10
2016-11-09,55
2016-11-10,291
2016-11-11,21
2016-11-12,114
2016-11-13,83
2016-11-14,317
2016-11-15,194
2016-11-16,271
2016-11-17,34
2016-11-18,54
2016-11-19,167
2016-11-20,333
2016-11-21,53
2016-11-22,522
2016-11-23,172
2016-11-24,81
2016-11-25,80
2016-11-26,129
2016-11-27,71
2016-11-28,32
2016-11-29,50
2016-11-30,220
2016-12-01,75
2016-12-02,487
2016-12-03,62
2016-12-04,42
2016-12-05,54
2016-12-06,579
2016-12-07,118
2016-12-08,86
2016-12-09,456
2016-12-10,277
2016-12-11,24
2016-12-12,78
2016-12-13,88
2016-12-14,44
2016-12-15,108
2016-12-16,56
2016-12-17,160
2016-12-18,70
2016-12-19,48
2016-12-20,10
2016-12-21,327
2016-12-22,53
2016-12-23,285
2016-12-24,377
2016-12-25,226
2016-12-26,447
2016-12-27,291
2016-12-28,2187
2016-12-29,533
2016-12-30,247
2016-12-31,86
2017-01-01,353
2017-01-02,254
2017-01-03,174
2017-01-04,546
2017-01-05,238
2017-01-06,311
2017-01-07,176
2017-01-08,313
2017-01-09,68
2017-01-10,1215
2017-01-11,213
2017-01-12,118
2017-01-13,88
2017-01-14,1821
2017-01-15,6853
2017-01-16,48
2017-01-17,590
2017-01-18,230
2017-01-19,201
2017-01-20,487
2017-01-21,106
2017-01-22,356
2017-01-23,37
2017-01-24,36
2017-01-25,65
2017-01-26,66
2017-01-27,108
2017-01-28,240
2017-01-29,674
2017-01-30,61
2017-01-31,62
2017-02-01,3814
2017-02-02,6938
2017-02-03,368
2017-02-04,25
2017-02-05,4131
2017-02-06,1389
2017-02-07,108
2017-02-08,125
2017-02-09,2710
2017-02-10,105
2017-02-11,661
2017-02-12,947
2017-02-13,707
2017-02-14,1109
2017-02-15,741
2017-02-16,56
2017-02-17,4880
2017-02-18,1920
2017-02-19,705
2017-02-20,250
2017-02-21,343
2017-02-22,132
2017-02-23,44
2017-02-24,115
2017-02-25,146
2017-02-26,311
2017-02-27,403
2017-02-28,108
2017-03-01,251
2017-03-02,565
2017-03-03,93
2017-03-04,77
2017-03-05,516
2017-03-06,469
2017-03-07,27
2017-03-08,382
2017-03-09,678
2017-03-10,121
2017-03-11,243
2017-03-12,40
2017-03-13,185
2017-03-14,277
2017-03-15,151
2017-03-16,366
2017-03-17,137
2017-03-18,149
2017-03-19,262
2017-03-20,613
2017-03-21,82
2017-03-22,182
2017-03-23,99
2017-03-24,212
2017-03-25,474
2017-03-26,268
2017-03-27,46
2017-03-28,54
2017-03-29,86
2017-03-30,3448
2017-03-31,1566
2017-04-01,1244
2017-04-02,362
2017-04-03,1857
2017-04-04,1746
2017-04-05,2641
2017-04-06,1257
2017-04-07,809
2017-04-08,504
2017-04-09,417
2017-04-10,301
2017-04-11,366
2017-04-12,2767
2017-04-13,357
2017-04-14,272
2017-04-15,197
2017-04-16,600
2017-04-17,347
2017-04-18,81
2017-04-19,174
2017-04-20,621
2017-04-21,751
2017-04-22,1849
2017-04-23,1979
2017-04-24,2108
2017-04-25,1114
2017-04-26,481
2017-04-27,249
2017-04-28,138
2017-04-29,661
2017-04-30,625
2017-05-01,703
2017-05-02,731
2017-05-03,1038
2017-05-04,2062
2017-05-05,1319
2017-05-06,789
2017-05-07,1814
2017-05-08,984
2017-05-09,1465
2017-05-10,941
2017-05-11,1171
2017-05-12,1131
2017-05-13,760
2017-05-14,457
2017-05-15,795
2017-05-16,761
2017-05-17,453
2017-05-18,1512
2017-05-19,858
2017-05-20,1054
2017-05-21,771
2017-05-22,692
2017-05-23,894
2017-05-24,930
2017-05-25,608
2017-05-26,558
2017-05-27,729
2017-05-28,534
2017-05-29,400
2017-05-30,1509
2017-05-31,531
2017-06-01,1804
2017-06-02,350
2017-06-03,440
2017-06-04,257
2017-06-05,899
2017-06-06,535
2017-06-07,426
2017-06-08,252
2017-06-09,409
2017-06-10,360
2017-06-11,1320
2017-06-12,964
2017-06-13,211
2017-06-14,206
2017-06-15,2286
2017-06-16,2160
2017-06-17,1366
2017-06-18,848
2017-06-19,835
2017-06-20,657
2017-06-21,641
2017-06-22,314
2017-06-23,162
2017-06-24,249
2017-06-25,434
2017-06-26,250
2017-06-27,116
2017-06-28,603
2017-06-29,94
2017-06-30,350
2017-07-01,275
2017-07-02,149
2017-07-03,910
2017-07-04,409
2017-07-05,369
2017-07-06,439
2017-07-07,481
2017-07-08,225
2017-07-09,105
2017-07-10,150
2017-07-11,156
2017-07-12,506
2017-07-13,285
2017-07-14,174
2017-07-15,239
2017-07-16,361
2017-07-17,544
2017-07-18,675
2017-07-19,275
2017-07-20,25708
2017-07-21,606
2017-07-22,860
2017-07-23,178
2017-07-24,235
2017-07-25,577
2017-07-26,77
2017-07-27,464
2017-07-28,1638
2017-07-29,34
2017-07-30,2795
2017-07-31,169
2017-08-01,690
2017-08-02,800
2017-08-03,94
2017-08-04,2915
2017-08-05,153
2017-08-06,487
2017-08-07,435
2017-08-08,949
2017-08-09,263
2017-08-10,88
2017-08-11,306
2017-08-12,343
2017-08-13,431
2017-08-14,66
2017-08-15,241
2017-08-16,326
2017-08-17,1050
2017-08-18,525
2017-08-19,115
2017-08-20,300
2017-08-21,150
2017-08-22,269
2017-08-23,44
2017-08-24,2267
2017-08-25,267
2017-08-26,807
2017-08-27,339
2017-08-28,519
2017-08-29,310
2017-08-30,211
2017-08-31,857
2017-09-01,249
2017-09-02,447
2017-09-03,336
2017-09-04,273
2017-09-05,428
2017-09-06,370
2017-09-07,150
2017-09-08,130
2017-09-09,186
2017-09-10,552
2017-09-11,307
2017-09-12,403
2017-09-13,82
2017-09-14,95
2017-09-15,326
2017-09-16,88
2017-09-17,318
2017-09-18,194
2017-09-19,271
2017-09-20,210
2017-09-21,159
2017-09-22,89
2017-09-23,91
2017-09-24,290
2017-09-25,332
2017-09-26,234
2017-09-27,91
2017-09-28,130
2017-09-29,254
2017-09-30,310
2017-10-01,139
2017-10-02,79
2017-10-03,93
2017-10-04,13
2017-10-05,181
2017-10-06,1029
2017-10-07,133
2017-10-08,40
2017-10-09,360
2017-10-10,83
2017-10-11,37
2017-10-12,502
2017-10-13,434
2017-10-14,490
2017-10-15,651
2017-10-16,261
2017-10-17,64
2017-10-18,2729
2017-10-19,90
2017-10-20,135
2017-10-21,61
2017-10-22,95
2017-10-23,279
2017-10-24,91
2017-10-25,160
2017-10-26,112
2017-10-27,102
2017-10-28,268
2017-10-29,418
2017-10-30,15
2017-10-31,350
2017-11-01,204
2017-11-02,101
2017-11-03,68
2017-11-04,42
2017-11-05,204
2017-11-06,126
2017-11-07,53
2017-11-08,374
2017-11-09,54
2017-11-10,72
2017-11-11,185
2017-11-12,168
2017-11-13,90
2017-11-14,456
2017-11-15,75
2017-11-16,186
2017-11-17,356
2017-11-18,210
2017-11-19,436
2017-11-20,149
2017-11-21,828
2017-11-22,155
2017-11-23,287
2017-11-24,271
2017-11-25,225
2017-11-26,196
2017-11-27,224
2017-11-28,384
2017-11-29,540
2017-11-30,599
2017-12-01,430
2017-12-02,550
2017-12-03,147
2017-12-04,482
2017-12-05,348
2017-12-06,388
2017-12-07,454
2017-12-08,962
2017-12-09,828
2017-12-10,1056
2017-12-11,544
2017-12-12,1139
2017-12-13,1983
2017-12-14,473
2017-12-15,599
2017-12-16,367
2017-12-17,862
2017-12-18,483
2017-12-19,871
2017-12-20,541
2017-12-21,667
2017-12-22,776
2017-12-23,223
2017-12-24,663
2017-12-25,226
2017-12-26,405
2017-12-27,367
2017-12-28,582
2017-12-29,596
2017-12-30,528
2017-12-31,179
2018-01-01,361
2018-01-02,92
2018-01-03,250
2018-01-04,568
2018-01-05,202
2018-01-06,340
2018-01-07,328
2018-01-08,197
2018-01-09,634
2018-01-10,477
2018-01-11,196
2018-01-12,71
2018-01-13,98
2018-01-14,122
2018-01-15,142
2018-01-16,492
2018-01-17,335
2018-01-18,263
2018-01-19,116
2018-01-20,70
2018-01-21,77
2018-01-22,62
2018-01-23,405
2018-01-24,188
2018-01-25,298
2018-01-26,285
2018-01-27,37
2018-01-28,201
2018-01-29,121
2018-01-30,261
2018-01-31,117
2018-02-01,211
2018-02-02,47
2018-02-03,157
2018-02-04,250
2018-02-05,485
2018-02-06,461
2018-02-07,48
2018-02-08,190
2018-02-09,152
2018-02-10,177
2018-02-11,207
2018-02-12,166
2018-02-13,256
2018-02-14,102
2018-02-15,423
2018-02-16,449
2018-02-17,324
2018-02-18,285
2018-02-19,80
2018-02-20,261
2018-02-21,276
2018-02-22,160
2018-02-23,493
2018-02-24,307
2018-02-25,180
2018-02-26,363
2018-02-27,180
2018-02-28,50
2018-03-01,21
2018-03-02,35
2018-03-03,61
2018-03-04,74
2018-03-05,328
2018-03-06,172
2018-03-07,63
2018-03-08,13
2018-03-09,75
2018-03-10,530
2018-03-11,665
2018-03-12,632
2018-03-13,995
2018-03-14,441
2018-03-15,638
2018-03-16,726
2018-03-17,522
2018-03-18,501
2018-03-19,490
2018-03-20,80
2018-03-21,12
2018-03-22,113
2018-03-23,151
2018-03-24,57
2018-03-25,45
2018-03-26,37
2018-03-27,18
2018-03-28,401
2018-03-29,14
2018-03-30,131
2018-03-31,24
2018-04-01,33
2018-04-02,8
2018-04-03,17
2018-04-04,11
2018-04-05,224
2018-04-06,34
2018-04-07,13
2018-04-08,65
2018-04-09,11
2018-04-10,7
2018-04-11,9
2018-04-12,23
2018-04-13,209
2018-04-14,35
2018-04-15,12
2018-04-16,33
2018-04-17,138
2018-04-18,38
2018-04-19,83
2018-04-20,31
2018-04-21,105
2018-04-22,106
2018-04-23,87
2018-04-24,93
2018-04-25,54
2018-04-26,388
2018-04-27,64
2018-04-28,41
2018-04-29,75
2018-04-30,45
2018-05-01,275
2018-05-02,237
2018-05-03,141
2018-05-04,128
2018-05-05,39
2018-05-06,217
2018-05-07,19
2018-05-08,40
2018-05-09,131
2018-05-10,33
2018-05-11,98
2018-05-12,95
2018-05-13,22
2018-05-14,77
2018-05-15,83
2018-05-16,168
2018-05-17,268
2018-05-18,36
2018-05-19,83
2018-05-20,17
2018-05-21,50
2018-05-22,36
2018-05-23,59
2018-05-24,13
2018-05-25,12
2018-05-26,35
2018-05-27,91
2018-05-28,27
2018-05-29,46
2018-05-30,286
2018-05-31,68
2018-06-01,34
2018-06-02,175
2018-06-03,17
2018-06-04,24
2018-06-05,30
2018-06-06,24
2018-06-07,37
2018-06-08,145
2018-06-09,297
2018-06-10,32
2018-06-11,21
2018-06-12,41
2018-06-13,40
2018-06-14,13
2018-06-15,18
2018-06-16,240
2018-06-17,252
2018-06-18,28
2018-06-19,41
2018-06-20,11
2018-06-21,42
2018-06-22,53
2018-06-23,25
2018-06-24,63
2018-06-25,29
2018-06-26,19
2018-06-27,71
2018-06-28,331
2018-06-29,78
2018-06-30,46
2018-07-01,363
2018-07-02,118
2018-07-03,29
2018-07-04,314
2018-07-05,65
2018-07-06,356
2018-07-07,168
2018-07-08,117
2018-07-09,263
2018-07-10,36
2018-07-11,65
2018-07-12,73
2018-07-13,19
2018-07-14,31
2018-07-15,20
2018-07-16,17
2018-07-17,28
2018-07-18,74
2018-07-19,33
2018-07-20,154
2018-07-21,39
2018-07-22,65
2018-07-23,111
2018-07-24,81
2018-07-25,118
2018-07-26,63
2018-07-27,34
2018-07-28,73
2018-07-29,45
2018-07-30,114
2018-07-31,88
2018-08-01,64
2018-08-02,153
2018-08-03,49
2018-08-04,65
2018-08-05,268
2018-08-06,81
2018-08-07,111
2018-08-08,912
2018-08-09,146
2018-08-10,365
2018-08-11,65
2018-08-12,42
2018-08-13,99
2018-08-14,166
2018-08-15,255
2018-08-16,192
2018-08-17,106
2018-08-18,99
2018-08-19,170
2018-08-20,38
2018-08-21,69
2018-08-22,170
2018-08-23,79
2018-08-24,35
2018-08-25,59
2018-08-26,243
2018-08-27,484
2018-08-28,62
2018-08-29,147
2018-08-30,79
2018-08-31,42
2018-09-01,124
2018-09-02,178
2018-09-03,57
2018-09-04,212
2018-09-05,465
2018-09-06,159
2018-09-07,42
2018-09-08,324
2018-09-09,461
2018-09-10,110
2018-09-11,498
2018-09-12,115
2018-09-13,126
2018-09-14,74
2018-09-15,103
2018-09-16,221
2018-09-17,96
2018-09-18,71
2018-09-19,78
2018-09-20,297
2018-09-21,191
2018-09-22,230
2018-09-23,165
2018-09-24,95
2018-09-25,447
2018-09-26,189
2018-09-27,272
2018-09-28,8874
2018-09-29,231
2018-09-30,87
2018-10-01,157
2018-10-02,336
2018-10-03,195
2018-10-04,105
2018-10-05,134
2018-10-06,97
2018-10-07,223
2018-10-08,207
2018-10-09,195
2018-10-10,456
2018-10-11,151
2018-10-12,86
2018-10-13,101
2018-10-14,252
2018-10-15,172
2018-10-16,224
2018-10-17,227
2018-10-18,222
2018-10-19,82
2018-10-20,137
2018-10-21,269
2018-10-22,90
2018-10-23,96
2018-10-24,77
2018-10-25,68
2018-10-26,116
2018-10-27,219
2018-10-28,120
2018-10-29,196
2018-10-30,343
2018-10-31,102
2018-11-01,167
2018-11-02,194
2018-11-03,81
2018-11-04,117
2018-11-05,255
2018-11-06,963
2018-11-07,366
2018-11-08,128
2018-11-09,136
2018-11-10,358
2018-11-11,170
2018-11-12,218
2018-11-13,452
2018-11-14,302
2018-11-15,204
2018-11-16,87
2018-11-17,313
2018-11-18,152
2018-11-19,339
2018-11-20,870
2018-11-21,526
2018-11-22,612
2018-11-23,263
2018-11-24,1007
2018-11-25,2753
2018-11-26,2858
2018-11-27,2705
2018-11-28,2087
2018-11-29,2103
2018-11-30,2350
2018-12-01,2810
2018-12-02,2933
2018-12-03,3896
2018-12-04,3100
2018-12-05,3194
2018-12-06,3324
2018-12-07,3108
2018-12-08,3024
2018-12-09,2893
2018-12-10,3074
2018-12-11,2949
2018-12-12,3227
2018-12-13,2952
2018-12-14,3126
2018-12-15,4970
2018-12-16,4672
2018-12-17,5022
2018-12-18,5425
2018-12-19,5083
2018-12-20,5591
2018-12-21,5763
2018-12-22,5868
2018-12-23,6375
2018-12-24,6106
2018-12-25,5751
2018-12-26,6219
2018-12-27,6642
2018-12-28,7010
2018-12-29,6846
2018-12-30,6679
2018-12-31,7122
2019-01-01,6604
2019-01-02,7228
2019-01-03,7625
2019-01-04,4744
2019-01-05,4151
2019-01-06,765
2019-01-07,405
2019-01-08,422
2019-01-09,366
2019-01-10,505
2019-01-11,461
2019-01-12,351
2019-01-13,345
2019-01-14,437
2019-01-15,250
2019-01-16,250
2019-01-17,454
2019-01-18,574
2019-01-19,370
2019-01-20,355
2019-01-21,425
2019-01-22,545
2019-01-23,240
2019-01-24,859
2019-01-25,3170
2019-01-26,661
2019-01-27,333
2019-01-28,824
2019-01-29,1317
2019-01-30,626
2019-01-31,489
2019-02-01,653
2019-02-02,350
2019-02-03,378
2019-02-04,593
2019-02-05,416
2019-02-06,442
2019-02-07,380
2019-02-08,1324
2019-02-09,1229
2019-02-10,1866
2019-02-11,748
2019-02-12,467
2019-02-13,617
2019-02-14,410
2019-02-15,1461
2019-02-16,693
2019-02-17,611
2019-02-18,1250
2019-02-19,1076
2019-02-20,1121
2019-02-21,1143
2019-02-22,1599
2019-02-23,762
2019-02-24,1212
2019-02-25,857
2019-02-26,1003
2019-02-27,851
2019-02-28,1049
2019-03-01,1427
2019-03-02,812
2019-03-03,887
2019-03-04,985
2019-03-05,1092
2019-03-06,1557
2019-03-07,17930
2019-03-08,1278
2019-03-09,1405
2019-03-10,1110
2019-03-11,1042
2019-03-12,1225
2019-03-13,1029
2019-03-14,929
2019-03-15,925
2019-03-16,1116
2019-03-17,650
2019-03-18,1334
2019-03-19,1481
2019-03-20,1416
2019-03-21,1220
2019-03-22,942
2019-03-23,904
2019-03-24,796
2019-03-25,1100
2019-03-26,1744
2019-03-27,1446
2019-03-28,1331
2019-03-29,937
2019-03-30,1295
2019-03-31,791
2019-04-01,2383
2019-04-02,15962
2019-04-03,6520
2019-04-04,4331
2019-04-05,2733
2019-04-06,2004
2019-04-07,2168
2019-04-08,1709
2019-04-09,1817
2019-04-10,1534
2019-04-11,1977
2019-04-12,761
2019-04-13,1148
2019-04-14,1113
2019-04-15,1269
2019-04-16,1847
2019-04-17,2033
2019-04-18,1359
2019-04-19,1848
2019-04-20,930
2019-04-21,816
2019-04-22,2203
2019-04-23,1676
2019-04-24,1244
2019-04-25,1401
2019-04-26,1777
2019-04-27,1267
2019-04-28,1313
2019-04-29,1408
2019-04-30,1835
2019-05-01,1464
2019-05-02,1416
2019-05-03,2466
2019-05-04,1967
2019-05-05,1365
2019-05-06,1565
2019-05-07,1384
2019-05-08,1878
2019-05-09,2446
2019-05-10,1841
2019-05-11,3505
2019-05-12,2995
2019-05-13,3575
2019-05-14,2758
2019-05-15,3829
2019-05-16,5918
2019-05-17,3074
2019-05-18,1957
2019-05-19,2314
2019-05-20,3703
2019-05-21,3329
2019-05-22,2830
2019-05-23,1645
2019-05-24,2931
2019-05-25,3352
2019-05-26,3680
2019-05-27,6377
2019-05-28,4337
2019-05-29,2928
2019-05-30,10847
2019-05-31,13164
2019-06-01,6629
2019-06-02,7277
2019-06-03,9638
2019-06-04,8244
2019-06-05,7430
2019-06-06,8117
2019-06-07,9642
2019-06-08,6042
2019-06-09,5668
2019-06-10,11352
2019-06-11,13257
2019-06-12,12785
2019-06-13,3018
2019-06-14,3725
2019-06-15,2898
2019-06-16,7835
2019-06-17,13212
2019-06-18,10814
2019-06-19,11311
2019-06-20,11710
2019-06-21,13058
2019-06-22,13665
2019-06-23,10753
2019-06-24,16206
2019-06-25,16097
2019-06-26,21961
2019-06-27,19925
2019-06-28,9406
2019-06-29,11369
2019-06-30,7081
2019-07-01,5497
2019-07-02,11924
2019-07-03,10740
2019-07-04,7390
2019-07-05,10606
2019-07-06,6056
2019-07-07,7202
2019-07-08,5133
2019-07-09,3086
2019-07-10,3850
2019-07-11,2850
2019-07-12,1815
2019-07-13,1554
2019-07-14,1777
2019-07-15,1981
2019-07-16,1740
2019-07-17,2306
2019-07-18,2120
2019-07-19,1478
2019-07-20,1562
2019-07-21,1180
2019-07-22,1451
2019-07-23,2509
2019-07-24,1754
2019-07-25,2322
2019-07-26,1665
2019-07-27,1970
2019-07-28,1339
2019-07-29,1108
2019-07-30,1452
2019-07-31,1888
2019-08-01,1653
2019-08-02,972
2019-08-03,1345
2019-08-04,1455
2019-08-05,2726
2019-08-06,2190
2019-08-07,2961
2019-08-08,2350
2019-08-09,2414
2019-08-10,3099
2019-08-11,3309
2019-08-12,4127
2019-08-13,4128
2019-08-14,4570
2019-08-15,1765
2019-08-16,2723
2019-08-17,2390
2019-08-18,2110
2019-08-19,1815
2019-08-20,1072
2019-08-21,1264
2019-08-22,1869
2019-08-23,1594
2019-08-24,1466
2019-08-25,1875
2019-08-26,1486
2019-08-27,1412
2019-08-28,1885
2019-08-29,1795
2019-08-30,1428
2019-08-31,1517
2019-09-01,1099
2019-09-02,1552
2019-09-03,2185
2019-09-04,1312
2019-09-05,2604
2019-09-06,2544
2019-09-07,1726
2019-09-08,1758
2019-09-09,1241
2019-09-10,2657
2019-09-11,3496
2019-09-12,1307
2019-09-13,1778
2019-09-14,1130
2019-09-15,1424
2019-09-16,1960
2019-09-17,2154
2019-09-18,1390
2019-09-19,2721
2019-09-20,3235
2019-09-21,2211
2019-09-22,1470
2019-09-23,1723
2019-09-24,3002
2019-09-25,2204
2019-09-26,1360
2019-09-27,1071
2019-09-28,1597
2019-09-29,2965
2019-09-30,989
2019-10-01,1735
2019-10-02,2372
2019-10-03,1339
2019-10-04,1151
2019-10-05,528
2019-10-06,1036
2019-10-07,1243
2019-10-08,1868
2019-10-09,974
2019-10-10,698
2019-10-11,1615
2019-10-12,1208
2019-10-13,912
2019-10-14,1013
2019-10-15,648
2019-10-16,760
2019-10-17,1872
2019-10-18,665
2019-10-19,1453
2019-10-20,1423
2019-10-21,1167
2019-10-22,414
2019-10-23,597
2019-10-24,1150
2019-10-25,1183
2019-10-26,1336
2019-10-27,1369
2019-10-28,1539
2019-10-29,3106
2019-10-30,942
2019-10-31,1359
2019-11-01,1415
2019-11-02,807
2019-11-03,898
2019-11-04,1067
2019-11-05,936
2019-11-06,2574
2019-11-07,1698
2019-11-08,1159
2019-11-09,1345
2019-11-10,1262
2019-11-11,2358
2019-11-12,2584
2019-11-13,2184
2019-11-14,3126
2019-11-15,2981
2019-11-16,1159
2019-11-17,1297
2019-11-18,871
2019-11-19,1303
2019-11-20,1132
2019-11-21,1052
2019-11-22,917
2019-11-23,779
2019-11-24,989
2019-11-25,1656
2019-11-26,1024
2019-11-27,819
2019-11-28,1499
2019-11-29,1212
2019-11-30,872
2019-12-01,1161
2019-12-02,805
2019-12-03,922
2019-12-04,703
2019-12-05,1063
2019-12-06,637
2019-12-07,637
2019-12-08,666
2019-12-09,592
2019-12-10,2124
2019-12-11,2349
2019-12-12,1662
2019-12-13,2271
2019-12-14,564
2019-12-15,3245
2019-12-16,1649
2019-12-17,1047
2019-12-18,1192
2019-12-19,691
2019-12-20,834
2019-12-21,441
2019-12-22,506
2019-12-23,459
2019-12-24,415
2019-12-25,884
2019-12-26,689
2019-12-27,784
2019-12-28,699
2019-12-29,669
2019-12-30,1136
2019-12-31,546
2020-01-01,722
2020-01-02,1140
2020-01-03,446
2020-01-04,880
2020-01-05,1270
2020-01-06,842
2020-01-07,1294
2020-01-08,872
2020-01-09,1407
2020-01-10,899
2020-01-11,1167
2020-01-12,1155
2020-01-13,852
2020-01-14,2157
2020-01-15,1888
2020-01-16,1648
2020-01-17,1092
2020-01-18,1581
2020-01-19,1126
2020-01-20,1509
2020-01-21,2439
2020-01-22,2291
2020-01-23,3462
2020-01-24,4048
2020-01-25,1495
2020-01-26,2369
2020-01-27,3345
2020-01-28,4290
2020-01-29,1937
2020-01-30,1602
2020-01-31,2108
2020-02-01,3419
2020-02-02,3567
2020-02-03,1335
2020-02-04,1547
2020-02-05,3867
2020-02-06,3789
2020-02-07,5039
2020-02-08,1231
2020-02-09,1872
2020-02-10,5773
2020-02-11,3116
2020-02-12,3112
2020-02-13,8727
2020-02-14,3770
2020-02-15,3250
2020-02-16,4088
2020-02-17,3964
2020-02-18,4650
2020-02-19,6397
2020-02-20,5199
2020-02-21,1432
2020-02-22,1019
2020-02-23,1650
2020-02-24,1911
2020-02-25,1749
2020-02-26,1774
2020-02-27,2738
2020-02-28,2063
2020-02-29,786
2020-03-01,1535
2020-03-02,2564
2020-03-03,3878
2020-03-04,8825
2020-03-05,14371
2020-03-06,28998
2020-03-07,64333
2020-03-08,30613
2020-03-09,1391
2020-03-10,908
2020-03-11,641
2020-03-12,2525
2020-03-13,1593
2020-03-14,945
2020-03-15,790
2020-03-16,1032
2020-03-17,862
2020-03-18,2422
2020-03-19,851
2020-03-20,1861
2020-03-21,1360
2020-03-22,1281
2020-03-23,1747
2020-03-24,1012
2020-03-25,531
2020-03-26,1974
2020-03-27,941
2020-03-28,684
2020-03-29,4166
2020-03-30,323
2020-03-31,384
2020-04-01,294
2020-04-02,421
2020-04-03,926
2020-04-04,555
2020-04-05,619
2020-04-06,1008
2020-04-07,1017
2020-04-08,912
2020-04-09,758
2020-04-10,1800
2020-04-11,530
2020-04-12,751
2020-04-13,812
2020-04-14,956
2020-04-15,1061
2020-04-16,1064
2020-04-17,596
2020-04-18,1022
2020-04-19,828
2020-04-20,592
2020-04-21,976
2020-04-22,1152
2020-04-23,2153
2020-04-24,19156
2020-04-25,26970
2020-04-26,15404
2020-04-27,17649
2020-04-28,20203
2020-04-29,25292
2020-04-30,25847
2020-05-01,14284
2020-05-02,2554
2020-05-03,1669
2020-05-04,3229
2020-05-05,1634
2020-05-06,1529
2020-05-07,3143
2020-05-08,4905
2020-05-09,1537
2020-05-10,1003
2020-05-11,1742
2020-05-12,1134
2020-05-13,1654
2020-05-14,1570
2020-05-15,1626
2020-05-16,1156
2020-05-17,1581
2020-05-18,1547
2020-05-19,1005
2020-05-20,1342
2020-05-21,934
2020-05-22,773
2020-05-23,576
2020-05-24,985
2020-05-25,884
2020-05-26,1037
2020-05-27,1241
2020-05-28,709
2020-05-29,828
2020-05-30,1281
2020-05-31,18951
2020-06-01,10606
2020-06-02,5627
2020-06-03,1047
2020-06-04,30203
2020-06-05,139619
2020-06-06,16209
2020-06-07,18290
2020-06-08,21446
2020-06-09,21371
2020-06-10,16092
2020-06-11,11251
2020-06-12,13420
2020-06-13,16161
2020-06-14,13698
2020-06-15,5410
2020-06-16,666
2020-06-17,547
2020-06-18,844
2020-06-19,936
2020-06-20,1021
2020-06-21,1048
2020-06-22,1277
2020-06-23,788
2020-06-24,428
2020-06-25,977
2020-06-26,1185
2020-06-27,1010
2020-06-28,720
2020-06-29,590
2020-06-30,1308
2020-07-01,918
2020-07-02,1378
2020-07-03,1285
2020-07-04,622
2020-07-05,926
2020-07-06,653
2020-07-07,707
2020-07-08,1143
2020-07-09,1016
2020-07-10,700
2020-07-11,728
2020-07-12,1556
2020-07-13,526
2020-07-14,1884
2020-07-15,1736
2020-07-16,794
2020-07-17,1283
2020-07-18,2212
2020-07-19,438
2020-07-20,627
2020-07-21,939
2020-07-22,1357
2020-07-23,981
2020-07-24,1198
2020-07-25,1605
2020-07-26,1680
2020-07-27,3496
2020-07-28,4037
2020-07-29,5479
2020-07-30,2254
2020-07-31,3271
2020-08-01,2977
2020-08-02,2543
2020-08-03,1066
2020-08-04,1300
2020-08-05,976
2020-08-06,1371
2020-08-07,1949
2020-08-08,1650
2020-08-09,1793
2020-08-10,1295
2020-08-11,2187
2020-08-12,2564
2020-08-13,2029
2020-08-14,1153
2020-08-15,1198
2020-08-16,2535
2020-08-17,3558
2020-08-18,11858
2020-08-19,1648
2020-08-20,2170
2020-08-21,913
2020-08-22,1565
2020-08-23,910
2020-08-24,1109
2020-08-25,727
2020-08-26,1019
2020-08-27,989
2020-08-28,1476
2020-08-29,579
2020-08-30,5330
2020-08-31,2107
2020-09-01,2883
2020-09-02,2657
2020-09-03,1470
2020-09-04,770
2020-09-05,1260
2020-09-06,602
2020-09-07,3016
2020-09-08,875
2020-09-09,1057
2020-09-10,482
2020-09-11,913
2020-09-12,1739
2020-09-13,639
2020-09-14,598
2020-09-15,543
2020-09-16,512
2020-09-17,724
2020-09-18,577
2020-09-19,717
2020-09-20,875
2020-09-21,613
2020-09-22,570
2020-09-23,494
2020-09-24,668
2020-09-25,1009
2020-09-26,577
2020-09-27,1056
2020-09-28,1121
2020-09-29,1382
2020-09-30,989
2020-10-01,899
2020-10-02,763
2020-10-03,369
2020-10-04,447
2020-10-05,585
2020-10-06,1039
2020-10-07,561
2020-10-08,1209
2020-10-09,786
2020-10-10,384
2020-10-11,893
2020-10-12,1337
2020-10-13,948
2020-10-14,1257
2020-10-15,444
2020-10-16,559
2020-10-17,339
2020-10-18,535
2020-10-19,683
2020-10-20,1152
2020-10-21,1691
2020-10-22,1555
2020-10-23,1384
2020-10-24,638
2020-10-25,29544
2020-10-26,5352
2020-10-27,948
2020-10-28,1866
2020-10-29,1261
2020-10-30,1437
2020-10-31,1049
2020-11-01,1275
2020-11-02,838
2020-11-03,825
2020-11-04,906
2020-11-05,1567
2020-11-06,2578
2020-11-07,1522
2020-11-08,663
2020-11-09,1142
2020-11-10,1075
2020-11-11,1032
2020-11-12,818
2020-11-13,3147
2020-11-14,1140
2020-11-15,1128
2020-11-16,2001
2020-11-17,4435
2020-11-18,4640
2020-11-19,2367
2020-11-20,3244
2020-11-21,2578
2020-11-22,2751
2020-11-23,4275
2020-11-24,4002
2020-11-25,2385
2020-11-26,2617
2020-11-27,2266
2020-11-28,1152
2020-11-29,1028
2020-11-30,2652
2020-12-01,28241
2020-12-02,3333
2020-12-03,1295
2020-12-04,4720
2020-12-05,1359
2020-12-06,1099
2020-12-07,68005
2020-12-08,1864
2020-12-09,1177
2020-12-10,1406
2020-12-11,1141
2020-12-12,2612
2020-12-13,2146
2020-12-14,1344
2020-12-15,1192
2020-12-16,5299
2020-12-17,6991
2020-12-18,7108
2020-12-19,3433
2020-12-20,5511
2020-12-21,2292
2020-12-22,3827
2020-12-23,4097
2020-12-24,3471
2020-12-25,2680
2020-12-26,5432
2020-12-27,6736
2020-12-28,3418
2020-12-29,3307
2020-12-30,2548
2020-12-31,2963
2021-01-01,1996
2021-01-02,3905
2021-01-03,8213
2021-01-04,9754
2021-01-05,4985
2021-01-06,15489
2021-01-07,7214
2021-01-08,6325
2021-01-09,4931
2021-01-10,6557
2021-01-11,7417
2021-01-12,3949
2021-01-13,2365
2021-01-14,4461
2021-01-15,3135
2021-01-16,2033
2021-01-17,2567
2021-01-18,2029
2021-01-19,4044
2021-01-20,1968
2021-01-21,1406
2021-01-22,1909
2021-01-23,1644
2021-01-24,1137
2021-01-25,2341
2021-01-26,1098
2021-01-27,1632
2021-01-28,916
2021-01-29,3900
2021-01-30,2193
2021-01-31,1843
2021-02-01,2060
2021-02-02,2157
2021-02-03,2684
2021-02-04,3457
2021-02-05,2920
2021-02-06,3757
2021-02-07,1971
2021-02-08,3044
2021-02-09,4104
2021-02-10,4761
2021-02-11,3731
2021-02-12,3194
2021-02-13,4146
2021-02-14,4057
2021-02-15,3164
2021-02-16,2773
2021-02-17,4468
2021-02-18,8295
2021-02-19,8430
2021-02-20,4145
2021-02-21,3553
2021-02-22,2686
2021-02-23,2296
2021-02-24,1595
2021-02-25,1782
2021-02-26,4790
2021-02-27,1900
2021-02-28,1015
2021-03-01,1585
2021-03-02,2778
2021-03-03,3400
2021-03-04,2110
2021-03-05,1851
2021-03-06,1002
2021-03-07,1759
2021-03-08,2423
2021-03-09,1553
2021-03-10,1904
2021-03-11,2399
2021-03-12,4810
2021-03-13,2923
2021-03-14,2301
2021-03-15,1111
2021-03-16,2374
2021-03-17,1617
2021-03-18,2245
2021-03-19,2325
2021-03-20,1915
2021-03-21,1623
2021-03-22,1040
2021-03-23,2624
2021-03-24,1630
2021-03-25,564
2021-03-26,787
2021-03-27,601
2021-03-28,607
2021-03-29,1821
2021-03-30,1781
2021-03-31,1006
2021-04-01,1261
2021-04-02,1870
2021-04-03,1527
2021-04-04,1082
2021-04-05,1619
2021-04-06,1874
2021-04-07,1689
