t,v
2018-09-04,-1.1552894445091082
2018-09-05,-1.2953187421830974
2018-09-06,-1.2938737055734921
2018-09-07,-1.3114595803440925
2018-09-08,-1.3529268630163307
2018-09-09,-1.3190834286662
2018-09-10,-1.3104220490336682
2018-09-11,-1.3431700737692969
2018-09-12,-1.3433132240843577
2018-09-13,-1.2918821062816315
2018-09-14,-1.2530301193282674
2018-09-15,-1.2457629923655724
2018-09-16,-1.2337363985585947
2018-09-17,-1.3101769596293389
2018-09-18,-1.2757213052489809
2018-09-19,-1.2682887412118395
2018-09-20,-1.2262001299043892
2018-09-21,-1.1450188924147113
2018-09-22,-1.1639818328170057
2018-09-23,-1.1380699706604134
2018-09-24,-1.1936759884538397
2018-09-25,-1.1930653379996659
2018-09-26,-1.1898196192123023
2018-09-27,-1.0721343187849723
2018-09-28,-1.09061397686236
2018-09-29,-1.0905608477989146
2018-09-30,-1.0897030619255095
2018-10-01,-1.0954192988116467
2018-10-02,-1.1024428235550667
2018-10-03,-1.1350495250633998
2018-10-04,-1.111444407530975
2018-10-05,-1.091888384320212
2018-10-06,-1.1048121893509442
2018-10-07,-1.088805496762628
2018-10-08,-1.0554926356570047
2018-10-09,-1.0370528654000182
2018-10-10,-1.0320412152672507
2018-10-11,-1.1774936798406335
2018-10-12,-1.1103042227617443
2018-10-13,-1.1038478397551468
2018-10-14,-1.0773145462906077
2018-10-15,-0.9587049817660717
2018-10-16,-0.9029263588257245
2018-10-17,-0.8468301556023624
2018-10-18,-0.8546057943347258
2018-10-19,-0.7951853455494435
2018-10-20,-0.7509125015434833
2018-10-21,-0.7560464050231435
2018-10-22,-0.7663724352995835
2018-10-23,-0.7706449170970925
2018-10-24,-0.8000068396956119
2018-10-25,-0.7667664445181206
2018-10-26,-0.747182071562782
2018-10-27,-0.7736676122375049
2018-10-28,-0.7685711054678199
2018-10-29,-0.83680024421846
2018-10-30,-0.7893452836887186
2018-10-31,-0.7404963488345443
2018-11-01,-0.6884317382624158
2018-11-02,-0.6577248666192378
2018-11-03,-0.6802796399673249
2018-11-04,-0.5833202029330952
2018-11-05,-0.5834034822412562
2018-11-06,-0.5028407062454521
2018-11-07,-0.5468953250581156
2018-11-08,-0.5929505354871948
2018-11-09,-0.5997007983463677
2018-11-10,-0.582037622621583
2018-11-11,-0.5831313553468187
2018-11-12,-0.6027979802070778
2018-11-13,-0.5756479584386126
2018-11-14,-0.7599144010213663
2018-11-15,-0.7547304240396123
2018-11-16,-0.8105551071475668
2018-11-17,-0.8329132577738603
2018-11-18,-0.8424705982050112
2018-11-19,-1.0125203775092653
2018-11-20,-1.1461652048229432
2018-11-21,-1.1243239079558756
2018-11-22,-1.2266304347398167
2018-11-23,-1.2323618834904495
2018-11-24,-1.3534398033366841
2018-11-25,-1.30796376773511
2018-11-26,-1.3896629015877595
2018-11-27,-1.3416676686118383
2018-11-28,-1.2288957896002013
2018-11-29,-1.2738394125616235
2018-11-30,-1.3600142897429834
2018-12-01,-1.2971565131910143
2018-12-02,-1.3280510682448747
2018-12-03,-1.4429653956589803
2018-12-04,-1.4282273199025606
2018-12-05,-1.5292979525897654
2018-12-06,-1.6358132004445294
2018-12-07,-1.717852248181879
2018-12-08,-1.7570685139118674
2018-12-09,-1.6975355756953787
2018-12-10,-1.7539140559705282
2018-12-11,-1.775985835699474
2018-12-12,-1.7366464127304937
2018-12-13,-1.757720873335492
2018-12-14,-1.7558650539528855
2018-12-15,-1.7358173790317188
2018-12-16,-1.6486637198536203
2018-12-17,-1.4838557468964415
2018-12-18,-1.4502018435163218
2018-12-19,-1.4828413577224677
2018-12-20,-1.3393758932981765
2018-12-21,-1.4362502114991622
2018-12-22,-1.3975599173729734
2018-12-23,-1.3168828681948384
2018-12-24,-1.3427987500519007
2018-12-25,-1.4636059901371272
2018-12-26,-1.4854925491787307
2018-12-27,-1.6337467020719962
2018-12-28,-1.40744146116708
2018-12-29,-1.4578656007633979
2018-12-30,-1.410287263744605
2018-12-31,-1.4899940624130794
2019-01-01,-1.4006909910156298
2019-01-02,-1.3132737285651257
2019-01-03,-1.394926475939412
2019-01-04,-1.3625918043954914
2019-01-05,-1.2191083831573517
2019-01-06,-0.9642011820049163
2019-01-07,-1.029824892749612
2019-01-08,-0.9394687594780337
2019-01-09,-0.9793648438919856
2019-01-10,-1.299893597568846
2019-01-11,-1.3923451729076983
2019-01-12,-1.387055561804183
2019-01-13,-1.5054243186645704
2019-01-14,-1.3789056820924892
2019-01-15,-1.4327727761387183
2019-01-16,-1.4029004604215398
2019-01-17,-1.3711604357814247
2019-01-18,-1.3957928194973448
2019-01-19,-1.322054974445731
2019-01-20,-1.3930075089256166
2019-01-21,-1.3698283128714512
2019-01-22,-1.3250668309195888
2019-01-23,-1.2958886254966844
2019-01-24,-1.2344384247304592
2019-01-25,-1.218426539601669
2019-01-26,-1.1921772912039643
2019-01-27,-1.214029338522412
2019-01-28,-1.2859826511549937
2019-01-29,-1.2743004167068435
2019-01-30,-1.2058026308864827
2019-01-31,-1.1975502373658478
2019-02-01,-1.110675720680505
2019-02-02,-1.007129301521846
2019-02-03,-1.0467298470095125
2019-02-04,-0.9976562346103872
2019-02-05,-0.9675183515691197
2019-02-06,-1.0456665237515983
2019-02-07,-1.0168816258448454
2019-02-08,-0.3524176126732392
2019-02-09,-0.23405917147545202
2019-02-10,-0.08184217887022051
2019-02-11,-0.3165053240691504
2019-02-12,-0.2544522973224729
2019-02-13,-0.37007482288151916
2019-02-14,-0.37479997680723903
2019-02-15,-0.29519868592760495
2019-02-16,-0.20679820909687707
2019-02-17,-0.17682802146992047
2019-02-18,0.14602707884399985
2019-02-19,0.1562085920154374
2019-02-20,0.46290973826365645
2019-02-21,0.2840631532485271
2019-02-22,0.3689540492360347
2019-02-23,0.533112274866166
2019-02-24,-0.0502361977769399
2019-02-25,0.07424767955915366
2019-02-26,0.030652523338460993
2019-02-27,0.05220156608554323
2019-02-28,0.1206899517505296
2019-03-01,0.24297560390654682
2019-03-02,0.37063347532344776
2019-03-03,0.3195413110835367
2019-03-04,0.15228566550566133
2019-03-05,0.732367798884359
2019-03-06,0.9877300665735258
2019-03-07,1.1569198764032569
2019-03-08,1.0488509761952975
2019-03-09,1.2251019748394592
2019-03-10,1.1351139113393682
2019-03-11,0.975888733900016
2019-03-12,1.1170454174945534
2019-03-13,1.0135181389560604
2019-03-14,1.048776091927061
2019-03-15,1.2545428070444322
2019-03-16,1.4916276613690138
2019-03-17,1.4359678771984763
2019-03-18,1.3353854580101296
2019-03-19,1.3378073852295846
2019-03-20,1.3703282840511506
2019-03-21,1.2418901068385404
2019-03-22,1.2940209836769843
2019-03-23,1.4146014046154647
2019-03-24,1.3108683512725323
2019-03-25,1.242709178237881
2019-03-26,1.2118710076238135
2019-03-27,1.4281218199168466
2019-03-28,1.3323568382535944
2019-03-29,1.3975750461168337
2019-03-30,1.3449178938504458
2019-03-31,1.3343538732694364
2019-04-01,1.295475536928728
2019-04-02,2.4928130058416107
2019-04-03,3.1096478075429133
2019-04-04,2.968705290185723
2019-04-05,3.1275178860570954
2019-04-06,3.296779096074484
2019-04-07,3.1693859375067595
2019-04-08,2.8513974411223413
2019-04-09,2.487736027125759
2019-04-10,2.453225073060414
2019-04-11,1.7800843057189604
2019-04-12,1.6488526704519622
2019-04-13,1.45600245116942
2019-04-14,1.708014733815197
2019-04-15,1.477364193598189
2019-04-16,1.51610671044411
2019-04-17,1.3738808165908836
2019-04-18,1.4580979735077046
2019-04-19,1.4508752868583659
2019-04-20,1.3627223055347564
2019-04-21,1.1187486455314144
2019-04-22,1.0787696620611598
2019-04-23,0.9172868875433051
2019-04-24,0.7562599684801251
2019-04-25,0.5277224565158415
2019-04-26,0.5808654968630803
2019-04-27,0.4949525510173075
2019-04-28,0.37221717281985334
2019-04-29,0.26477076549740797
2019-04-30,0.551693037196886
2019-05-01,0.532668655798057
2019-05-02,0.5649411275255684
2019-05-03,0.8340328197294223
2019-05-04,0.7685972639795736
2019-05-05,0.6552190885186999
2019-05-06,0.6178151101747663
2019-05-07,0.6068427540216103
2019-05-08,0.5936235586691645
2019-05-09,0.5787823490950013
2019-05-10,0.7074914659553255
2019-05-11,1.2876475574810522
2019-05-12,1.069831940414986
2019-05-13,1.19550994051198
2019-05-14,1.332152057887398
2019-05-15,1.7750990073818982
2019-05-16,1.4708233943512556
2019-05-17,1.1529569077726602
2019-05-18,1.0380810036167234
2019-05-19,1.3756141576774905
2019-05-20,1.2121563227561658
2019-05-21,1.176106496477404
2019-05-22,0.9908934162208354
2019-05-23,0.9940952852521444
2019-05-24,1.43965467435039
2019-05-25,1.4944613407366936
2019-05-26,1.7999800117247546
2019-05-27,2.0494351824406083
2019-05-28,1.9222402640999332
2019-05-29,1.8763153362478493
2019-05-30,1.6161494377063104
2019-05-31,1.8303271740396214
2019-06-01,1.7191370734530491
2019-06-02,1.8030019593561049
2019-06-03,1.5067168331040997
2019-06-04,1.2673354803424157
2019-06-05,1.272778412640927
2019-06-06,1.5142493274189652
2019-06-07,1.6975428113030644
2019-06-08,1.6898388014231567
2019-06-09,1.5600347374476637
2019-06-10,2.0474698904724455
2019-06-11,2.202198564862612
2019-06-12,2.093967600704738
2019-06-13,1.8850635809368272
2019-06-14,1.8481732714147134
2019-06-15,1.988393989715034
2019-06-16,1.9205791620259973
2019-06-17,1.7647232109733575
2019-06-18,1.7614286925251743
2019-06-19,1.7761621630300681
2019-06-20,1.7217513556670985
2019-06-21,1.788604056650162
2019-06-22,1.8826464661855289
2019-06-23,1.7261818186905589
2019-06-24,1.6592958104754287
2019-06-25,1.6487678216269197
2019-06-26,1.4991657771019324
2019-06-27,0.9279476754204429
2019-06-28,1.049721394380383
2019-06-29,1.4565646553729876
2019-06-30,1.0957020773765709
2019-07-01,1.102283493002138
2019-07-02,0.9533711242134365
2019-07-03,1.037294279479149
2019-07-04,0.9417386070997463
2019-07-05,0.8539613610920828
2019-07-06,0.8215475084454227
2019-07-07,0.864686919599069
2019-07-08,0.9314738408989005
2019-07-09,0.767745402847867
2019-07-10,0.3748418494816375
2019-07-11,0.18741258914367076
2019-07-12,0.21614404246033048
2019-07-13,0.0668402593591189
2019-07-14,-0.30654329070647146
2019-07-15,-0.3023863489353888
2019-07-16,-0.6599365212307964
2019-07-17,-0.39280647842437716
2019-07-18,-0.0811938956925683
2019-07-19,-0.1455070944182706
2019-07-20,-0.08847235634669395
2019-07-21,-0.12633226923863303
2019-07-22,-0.2692540692919644
2019-07-23,-0.41782840681866634
2019-07-24,-0.31208250144810085
2019-07-25,-0.3530474963492759
2019-07-26,-0.33259314490677966
2019-07-27,-0.5082002341223617
2019-07-28,-0.49968636930538374
2019-07-29,-0.4829661464100866
2019-07-30,-0.5011352113967706
2019-07-31,-0.24305031526575113
2019-08-01,-0.23842965229185195
2019-08-02,-0.3718136229318883
2019-08-03,-0.4081640509681175
2019-08-04,-0.47343682374279683
2019-08-05,-0.3670444428845812
2019-08-06,-0.49134739933002824
2019-08-07,-0.5882759510059933
2019-08-08,-0.6106044487348095
2019-08-09,-0.8246754768240877
2019-08-10,-0.8014245705481473
2019-08-11,-0.6530800965710077
2019-08-12,-0.8160010327293106
2019-08-13,-0.8692988501178924
2019-08-14,-1.1809493552602275
2019-08-15,-1.2020139901981166
2019-08-16,-1.2677050774050238
2019-08-17,-1.359150150240023
2019-08-18,-1.244817151678155
2019-08-19,-1.2288377562614201
2019-08-20,-1.3088711666161132
2019-08-21,-1.3943465440972285
2019-08-22,-1.413754000957676
2019-08-23,-1.3577225920763314
2019-08-24,-1.4456509830008932
2019-08-25,-1.4925067808460102
2019-08-26,-1.446373047419775
2019-08-27,-1.4770807942174222
2019-08-28,-1.6854566061468312
2019-08-29,-1.8050720934079763
2019-08-30,-1.799921010721884
2019-08-31,-1.7914986360883487
2019-09-01,-1.7241668949339954
2019-09-02,-1.6806485066323882
2019-09-03,-1.594717878923998
2019-09-04,-1.6691329040630836
2019-09-05,-1.7406795705970952
2019-09-06,-1.7568855835269246
2019-09-07,-1.6119423263455246
2019-09-08,-1.5411648916094751
2019-09-09,-1.546267592657639
2019-09-10,-1.5043492809484464
2019-09-11,-1.5365356294149726
2019-09-12,-1.556272042591101
2019-09-13,-1.5603423716448452
2019-09-14,-1.4987743002367875
2019-09-15,-1.5095493884027293
2019-09-16,-1.4136319046825625
2019-09-17,-1.3498832457446535
2019-09-18,-1.2025761934013401
2019-09-19,-1.2239006448005805
2019-09-20,-1.2749412342525062
2019-09-21,-1.332134697410639
2019-09-22,-1.3569627424123865
2019-09-23,-1.5553128875670907
2019-09-24,-1.9453486470717
2019-09-25,-1.8598019581783816
2019-09-26,-1.9171520449496848
2019-09-27,-1.8731954337491974
2019-09-28,-1.8678469728584197
2019-09-29,-1.8939297130287962
2019-09-30,-1.8039379602535752
2019-10-01,-1.7895868990200101
2019-10-02,-1.7473617031486874
2019-10-03,-1.7375770049349009
2019-10-04,-1.7189504321149818
2019-10-05,-1.6853077014337532
2019-10-06,-1.7299769081839214
2019-10-07,-1.6244428047806523
2019-10-08,-1.6157619351388515
2019-10-09,-1.531832209177435
2019-10-10,-1.5626078919672342
2019-10-11,-1.6079992317200429
2019-10-12,-1.5842904012593892
2019-10-13,-1.543614762872825
2019-10-14,-1.5175781835727278
2019-10-15,-1.5628056275173663
2019-10-16,-1.609291016231256
2019-10-17,-1.528152269195079
2019-10-18,-1.5507756640890464
2019-10-19,-1.5205153250211694
2019-10-20,-1.4730928586061984
2019-10-21,-1.4587165444806072
2019-10-22,-1.4807972296386587
2019-10-23,-1.587445508400242
2019-10-24,-1.5680089939241555
2019-10-25,-1.3479176697036623
2019-10-26,-1.3402982990111079
2019-10-27,-1.232934021712094
2019-10-28,-1.2729293930716452
2019-10-29,-1.2059871905016184
2019-10-30,-1.2394212320237048
2019-10-31,-1.2138603969968946
2019-11-01,-1.199398678300288
2019-11-02,-1.1866855067558688
2019-11-03,-1.17242076220806
2019-11-04,-1.0682255526956872
2019-11-05,-1.0082603201395988
2019-11-06,-0.9743966468770995
2019-11-07,-1.0348926542427108
2019-11-08,-1.0603898614917995
2019-11-09,-0.998672578440522
2019-11-10,-0.9441837572386478
2019-11-11,-0.9902574243504265
2019-11-12,-0.9941952717568243
2019-11-13,-0.991497322112624
2019-11-14,-1.0362548676816565
2019-11-15,-1.0668336340443025
2019-11-16,-1.0428852343083184
2019-11-17,-1.0081170588627395
2019-11-18,-1.1158507511144222
2019-11-19,-1.1333864748812148
2019-11-20,-1.1222770126709312
2019-11-21,-1.230848352693873
2019-11-22,-1.2842800807628008
2019-11-23,-1.2524196377917833
2019-11-24,-1.351707718278678
2019-11-25,-1.2935942112052745
2019-11-26,-1.2526439414067854
2019-11-27,-1.2122669775160604
2019-11-28,-1.221754505050767
2019-11-29,-1.1624140432044876
2019-11-30,-1.1847809796638789
2019-12-01,-1.1660999816580697
2019-12-02,-1.2106858969989893
2019-12-03,-1.2098085606650406
2019-12-04,-1.2094069979685464
2019-12-05,-1.1962293721469792
2019-12-06,-1.166102070137354
2019-12-07,-1.1598027438363594
2019-12-08,-1.1401161408764986
2019-12-09,-1.1517632790589383
2019-12-10,-1.1548415198656228
2019-12-11,-1.1695347122860464
2019-12-12,-1.144778147516524
2019-12-13,-1.1180413249755359
2019-12-14,-1.1313930135900392
2019-12-15,-1.1188009772710876
2019-12-16,-1.2033259362105668
2019-12-17,-1.2855796843051288
2019-12-18,-1.1733310565762705
2019-12-19,-1.1945906179102013
2019-12-20,-1.1759433526439478
2019-12-21,-1.1757384685035333
2019-12-22,-1.1056437563253512
2019-12-23,-1.1355170817149967
2019-12-24,-1.129528478848815
2019-12-25,-1.1162215782714227
2019-12-26,-1.1145829178167754
2019-12-27,-1.08234573904822
2019-12-28,-1.0228787785582538
2019-12-29,-0.9950624450430804
2019-12-30,-1.0220413808590534
2019-12-31,-1.0521354396698248
2020-01-01,-1.0283898077448668
2020-01-02,-1.0964824668737558
2020-01-03,-1.0141657531832635
2020-01-04,-0.9931319916483375
2020-01-05,-0.9814834914465715
2020-01-06,-0.9181562960294254
2020-01-07,-1.0183180206533728
2020-01-08,-1.0408708855706172
2020-01-09,-1.0536278412586606
2020-01-10,-0.9239731958973125
2020-01-11,-0.904535032689372
2020-01-12,-0.8474933156525157
2020-01-13,-0.8875358073892107
2020-01-14,-0.5461832997042124
2020-01-15,-0.5518843641414397
2020-01-16,-0.5657689713603593
2020-01-17,-0.41210100690253554
2020-01-18,-0.48601917324301586
2020-01-19,-0.5362956319085687
2020-01-20,-0.5622179170303955
2020-01-21,-0.5307682507794607
2020-01-22,-0.5416522472886529
2020-01-23,-0.7077581059145938
2020-01-24,-0.7213732728878118
2020-01-25,-0.7593657045132682
2020-01-26,-0.6279158094094716
2020-01-27,-0.4968588857339654
2020-01-28,-0.3885835025583198
2020-01-29,-0.4172577411234716
2020-01-30,0.02296925132917038
2020-01-31,0.02274464797284104
2020-02-01,0.1873927192834289
2020-02-02,0.1698039081461453
2020-02-03,0.16564756979678433
2020-02-04,0.0798483447071097
2020-02-05,0.3382756637631763
2020-02-06,0.4377985368435585
2020-02-07,0.5125760341731013
2020-02-08,0.6459189965990285
2020-02-09,0.67936224820529
2020-02-10,0.542493068283299
2020-02-11,0.7144003281843133
2020-02-12,0.9900013894707943
2020-02-13,0.9694453363082959
2020-02-14,1.156992953299506
2020-02-15,0.7444901144811372
2020-02-16,0.706321574182212
2020-02-17,0.6063260718695859
2020-02-18,0.8524717826021574
2020-02-19,0.48120939999847645
2020-02-20,0.3966955383034795
2020-02-21,0.6762667048054585
2020-02-22,0.8054607830717554
2020-02-23,1.1534360655535445
2020-02-24,0.9087752358375976
2020-02-25,0.6058633320260819
2020-02-26,-0.19789365603437217
2020-02-27,-0.17506099624182145
2020-02-28,-0.26730926543916356
2020-02-29,-0.4051583851172465
2020-03-01,-0.4369639062921259
2020-03-02,-0.13635632588785257
2020-03-03,-0.15158361198080605
2020-03-04,-0.22499650317120742
2020-03-05,-0.09368638518791302
2020-03-06,0.04064164144640215
2020-03-07,-0.19070729316459475
2020-03-08,-0.982510655627179
2020-03-09,-1.1010850953659859
2020-03-10,-1.0786777291347582
2020-03-11,-1.226521049176911
2020-03-12,-2.828435954639985
2020-03-13,-2.183504126320362
2020-03-14,-2.417188931437238
2020-03-15,-2.2386010999657056
2020-03-16,-2.5047354737360505
2020-03-17,-2.311576777778889
2020-03-18,-2.2897486567303287
2020-03-19,-1.9171104255415303
2020-03-20,-1.9742810956440875
2020-03-21,-1.9446040393799917
2020-03-22,-2.113840083466339
2020-03-23,-1.831661550762174
2020-03-24,-1.709755438969162
2020-03-25,-1.8019238661083874
2020-03-26,-1.6972185266500088
2020-03-27,-1.8204471709486083
2020-03-28,-1.756279888127218
2020-03-29,-1.8441266206710132
2020-03-30,-1.7031756646830027
2020-03-31,-2.2279440271122013
2020-04-01,-2.224324740104198
2020-04-02,-2.16528543204642
2020-04-03,-2.107127289505955
2020-04-04,-2.0752030484458777
2020-04-05,-2.0543642946913825
2020-04-06,-1.8235779421686058
2020-04-07,-1.8327596150374335
2020-04-08,-1.7201624768865442
2020-04-09,-1.7157750010324946
2020-04-10,-1.9327285361523632
2020-04-11,-1.8951049267174889
2020-04-12,-1.8647354735148185
2020-04-13,-1.9088770583310617
2020-04-14,-1.8895547394473615
2020-04-15,-1.9482890186777768
2020-04-16,-1.761319141611134
2020-04-17,-1.7447268993103286
2020-04-18,-1.6210604489151375
2020-04-19,-1.7030451998488574
2020-04-20,-1.7720450781687025
2020-04-21,-1.7416361048241382
2020-04-22,-1.660500176238925
2020-04-23,-1.5753106369473064
2020-04-24,-1.4839600921375167
2020-04-25,-1.4709387436151036
2020-04-26,-1.4449570758918875
2020-04-27,-1.436336685127977
2020-04-28,-1.3612309761255685
2020-04-29,-1.1828710439812953
2020-04-30,-1.2883084961097981
2020-05-01,-1.2230432384178442
2020-05-02,-1.1060016391516942
2020-05-03,-1.160669384278814
2020-05-04,-1.1961066737761268
2020-05-05,-1.2094326661353405
2020-05-06,-1.2673875225539213
2020-05-07,-1.1586244527878626
2020-05-08,-1.1195870739906766
2020-05-09,-1.144848128868858
2020-05-10,-1.3658436039355086
2020-05-11,-1.3824353331212422
2020-05-12,-1.3496497338394897
2020-05-13,-1.2831382612085172
2020-05-14,-1.7120511602215547
2020-05-15,-1.7660591618596024
2020-05-16,-1.721202586403643
2020-05-17,-1.68642174444009
2020-05-18,-1.608331844662736
2020-05-19,-1.5746109842998817
2020-05-20,-1.604604005126232
2020-05-21,-1.6395996281510836
2020-05-22,-1.5694918088334096
2020-05-23,-1.562472500231884
2020-05-24,-1.5925329984112868
2020-05-25,-1.5618369367203226
2020-05-26,-1.556752952564997
2020-05-27,-1.5022750858937575
2020-05-28,-1.4516574005487408
2020-05-29,-1.4410460453249325
2020-05-30,-1.3222235720578202
2020-05-31,-1.3707953553208678
2020-06-01,-1.269501979505909
2020-06-02,-1.3764126183226775
2020-06-03,-1.3360197535076876
2020-06-04,-1.3095329171018688
2020-06-05,-1.3167413066755274
2020-06-06,-1.3083285369463162
2020-06-07,-1.302889487214744
2020-06-08,-1.2913067800632159
2020-06-09,-1.295068633470968
2020-06-10,-1.2571124606322908
2020-06-11,-1.3475466349101812
2020-06-12,-1.2956710369921318
2020-06-13,-1.270036477823805
2020-06-14,-1.2939798023947697
2020-06-15,-1.281371822724083
2020-06-16,-1.2670471226156435
2020-06-17,-1.2487673001451822
2020-06-18,-1.2538350599000305
2020-06-19,-1.260167397296178
2020-06-20,-1.2303417890429844
2020-06-21,-1.2302048867783937
2020-06-22,-1.1854527912676855
2020-06-23,-1.1995979008826683
2020-06-24,-1.2281486966331217
2020-06-25,-1.2209987965966211
2020-06-26,-1.185033256945253
2020-06-27,-1.23332240291547
2020-06-28,-1.2240153195439565
2020-06-29,-1.1956053857139552
2020-06-30,-1.1955599978892222
2020-07-01,-1.1787389899344691
2020-07-02,-1.1918150647036607
2020-07-03,-1.1833558616014863
2020-07-04,-1.1519324873404717
2020-07-05,-1.1542412206701793
2020-07-06,-1.0778585646425247
2020-07-07,-1.0863403548757313
2020-07-08,-1.0253390631941977
2020-07-09,-1.0419065037654835
2020-07-10,-1.0385993659581874
2020-07-11,-1.0201371285920637
2020-07-12,-1.010484696663271
2020-07-13,-1.023002632593342
2020-07-14,-1.0160670889296937
2020-07-15,-1.0221212446068366
2020-07-16,-1.0488171906131438
2020-07-17,-1.0429840093188967
2020-07-18,-1.0194066415202618
2020-07-19,-1.0133053048712168
2020-07-20,-1.024645432612349
2020-07-21,-0.9660313683503321
2020-07-22,-0.9536468729341759
2020-07-23,-1.0048129599847295
2020-07-24,-1.0182102490916676
2020-07-25,-0.8876817678319857
2020-07-26,-0.9039529281423615
2020-07-27,-0.7658672006868276
2020-07-28,-0.6924166414406062
2020-07-29,-0.7040894929698621
2020-07-30,-0.6557816297108555
2020-07-31,-0.617927685177047
2020-08-01,-0.5191397714930801
2020-08-02,-0.633430983091241
2020-08-03,-0.5814277925677829
2020-08-04,-0.5978594426808089
2020-08-05,-0.5561406556603509
2020-08-06,-0.5407162350840367
2020-08-07,-0.591604548765623
2020-08-08,-0.5653858602472324
2020-08-09,-0.589032156485635
2020-08-10,-0.5511570317498092
2020-08-11,-0.6449759971513624
2020-08-12,-0.6365502742020976
2020-08-13,-0.5683305086499754
2020-08-14,-0.569911851493639
2020-08-15,-0.4841726393979001
2020-08-16,-0.3784716364736456
2020-08-17,-0.2867257400692267
2020-08-18,-0.3283387942938029
2020-08-19,-0.4145604650084219
2020-08-20,-0.38591732603609796
2020-08-21,-0.4879609414418908
2020-08-22,-0.4541084452764367
2020-08-23,-0.4429521882367072
2020-08-24,-0.39099764254169755
2020-08-25,-0.48360298285537673
2020-08-26,-0.49123959775485354
2020-08-27,-0.5520931636963036
2020-08-28,-0.5103164024376093
2020-08-29,-0.5072851129612462
2020-08-30,-0.33556441858807423
2020-08-31,-0.5321709536682614
2020-09-01,-0.7494861112811971
2020-09-02,-0.8810387494377276
2020-09-03,-1.18695690856147
2020-09-04,-1.1267831026871462
2020-09-05,-1.2439784191381316
2020-09-06,-1.2471785643001665
2020-09-07,-1.2358873129862984
2020-09-08,-1.2980483496985165
2020-09-09,-1.3175153510458668
2020-09-10,-1.3453727243070135
2020-09-11,-1.3829577853740904
2020-09-12,-1.375389394438356
2020-09-13,-1.482059530665918
2020-09-14,-1.4695971393096454
2020-09-15,-1.5248549566871714
2020-09-16,-1.5748734352197054
2020-09-17,-1.5661322484951323
2020-09-18,-1.6162691103426579
2020-09-19,-1.6667390648321605
2020-09-20,-1.7705966110072322
2020-09-21,-1.9668535032793575
2020-09-22,-1.9933703372492129
2020-09-23,-2.1279324375898447
2020-09-24,-2.0736138963382578
2020-09-25,-2.050182855107771
2020-09-26,-2.075489632096387
2020-09-27,-2.104826278995176
2020-09-28,-2.1156973107030193
2020-09-29,-2.0689254072284724
2020-09-30,-2.019284689935847
2020-10-01,-1.9885855167939208
2020-10-02,-2.025708792705146
2020-10-03,-1.9806037236679976
2020-10-04,-1.9065369233571374
2020-10-05,-1.9072671432690853
2020-10-06,-1.9004109237693263
2020-10-07,-1.8457235203129276
2020-10-08,-1.8054681010086466
2020-10-09,-1.7726080398065533
2020-10-10,-1.7269890219379538
2020-10-11,-1.6406676362943298
2020-10-12,-1.6326191471266085
2020-10-13,-1.65421384920744
2020-10-14,-1.6428741666362408
2020-10-15,-1.642402130259432
2020-10-16,-1.708013227532363
2020-10-17,-1.7146363985062116
2020-10-18,-1.6709926509118902
2020-10-19,-1.632747474021679
2020-10-20,-1.6585624218326915
2020-10-21,-1.3958138541207976
2020-10-22,-1.3284330416897105
2020-10-23,-1.2848727668973234
2020-10-24,-1.1323935069391702
2020-10-25,-1.1474211820674027
2020-10-26,-1.2213609919980473
2020-10-27,-1.1675774355099975
2020-10-28,-1.2451414935815281
2020-10-29,-1.2844650847516794
2020-10-30,-1.3126240963246187
2020-10-31,-1.23096207659642
2020-11-01,-1.232698386232614
2020-11-02,-1.2943812921711428
2020-11-03,-1.2853873769600983
2020-11-04,-1.249115804323619
2020-11-05,-1.067071111795529
2020-11-06,-0.8882447960979309
2020-11-07,-1.061453529278632
2020-11-08,-0.9793117413503925
2020-11-09,-1.0413623937258258
2020-11-10,-1.0844101888225617
2020-11-11,-1.0388617791339292
2020-11-12,-1.0038084555782745
2020-11-13,-0.8032049793673351
2020-11-14,-0.8811838749412043
2020-11-15,-0.9452608609673572
2020-11-16,-0.46845850942714706
2020-11-17,-0.3753121052204623
2020-11-18,-0.46575592463692794
2020-11-19,-0.1270269749643484
2020-11-20,-0.0894487265570366
2020-11-21,0.07718230636804628
2020-11-22,-0.11905806495927486
2020-11-23,0.14718630560465895
2020-11-24,0.16287709174370252
2020-11-25,-0.13443551048598928
2020-11-26,-0.7007716547110078
2020-11-27,-0.7696288673563744
2020-11-28,-0.6120286698385332
2020-11-29,-0.325001225809768
2020-11-30,0.0659666033995339
2020-12-01,-0.03350454239766347
2020-12-02,0.08220581236873424
2020-12-03,0.07824162750028373
2020-12-04,-0.341719664184548
2020-12-05,-0.21470248443900236
2020-12-06,-0.2037532087479684
2020-12-07,-0.1975418347219721
2020-12-08,-0.503237259687891
2020-12-09,-0.4690839309314215
2020-12-10,-0.5796152632736438
2020-12-11,-0.706735004932105
2020-12-12,-0.5109856804430268
2020-12-13,-0.27224059276248364
2020-12-14,-0.2511431444462335
2020-12-15,-0.28038174723315823
2020-12-16,0.23583022667327455
2020-12-17,0.6052573267581535
2020-12-18,0.9302920924372072
2020-12-19,1.3940911796589333
2020-12-20,1.1082480985381484
2020-12-21,0.6803128148405753
2020-12-22,1.0533108865513183
2020-12-23,0.5415070422795043
2020-12-24,0.91890232890707
2020-12-25,1.5443426848693396
2020-12-26,1.6259148065141409
2020-12-27,1.5338216391466486
2020-12-28,1.5889023414931647
2020-12-29,1.5317308660067839
2020-12-30,1.5004762772353475
2020-12-31,1.2462741744359505
2021-01-01,1.2110330114428907
2021-01-02,1.5666879648063368
2021-01-03,2.4273172313763567
2021-01-04,2.1005429923262495
2021-01-05,2.139697347616989
2021-01-06,2.411864267240653
2021-01-07,2.2237030529898734
2021-01-08,2.1612336729400305
2021-01-09,2.2577818018260105
2021-01-10,1.9131720185712808
2021-01-11,0.8719099988268527
2021-01-12,0.6583826617992196
2021-01-13,1.110791579910591
2021-01-14,1.236313007509686
2021-01-15,0.9536428294325191
2021-01-16,0.9245576804665229
2021-01-17,0.8331581832778789
2021-01-18,1.109428282470851
2021-01-19,1.1354675088968529
2021-01-20,0.9558973608916804
2021-01-21,0.336485098471013
2021-01-22,0.5492022198497293
2021-01-23,0.5379819534595676
2021-01-24,0.6272201075061479
2021-01-25,0.49191892455921615
2021-01-26,0.41566847374629284
2021-01-27,0.02964956404434169
2021-01-28,0.29466511471776013
2021-01-29,0.3126068239767088
2021-01-30,0.15711774680955912
2021-01-31,0.032385564247940216
2021-02-01,0.08017377287190305
2021-02-02,0.35289124477617795
2021-02-03,0.6716142117609253
2021-02-04,0.3286560204587381
2021-02-05,0.5228493354722629
2021-02-06,0.5039205024228823
2021-02-07,0.3294214916047124
2021-02-08,0.6933111344419179
2021-02-09,0.9297284710415672
2021-02-10,0.8100406388721096
2021-02-11,0.7742499476643033
2021-02-12,1.0181683221419766
2021-02-13,1.5980755036060155
2021-02-14,1.271393918438022
2021-02-15,1.0800762860734046
2021-02-16,1.1360339393881986
2021-02-17,1.6923478163179297
2021-02-18,1.3960057637877077
2021-02-19,1.5538505941175578
2021-02-20,1.2272087686937878
2021-02-21,1.1721072836609727
2021-02-22,0.7646866438141117
2021-02-23,0.04498875327808572
2021-02-24,0.1594780504297571
2021-02-25,0.13944829597397276
2021-02-26,-0.10333511276143625
2021-02-27,-0.06602829608999422
2021-02-28,-0.22566062706511536
2021-03-01,-0.03289575825466273
2021-03-02,-0.022700396880579173
2021-03-03,0.16948474675921277
2021-03-04,-0.0017885568846108513
2021-03-05,-0.025878996574350933
2021-03-06,0.008087273946792642
2021-03-07,0.17487085264375152
2021-03-08,0.196237033668415
2021-03-09,0.3997275005983297
2021-03-10,0.3093130221914841
2021-03-11,0.28570356392851043
2021-03-12,0.6192814029532225
2021-03-13,0.7229496470444687
2021-03-14,0.5230554257788125
2021-03-15,0.20703132969583485
2021-03-16,0.1852282748157215
2021-03-17,0.29697376321664304
2021-03-18,0.16825103698916882
2021-03-19,0.14245710161204278
2021-03-20,0.11182473206835292
2021-03-21,0.014013970600410606
2021-03-22,-0.17170385515707662
2021-03-23,-0.18573872621292442
2021-03-24,-0.39104387418172576
2021-03-25,-0.5062114306839167
2021-03-26,-0.3119637422727174
2021-03-27,-0.31777295580515236
2021-03-28,-0.34755873350645927
2021-03-29,-0.1783830453362199
2021-03-30,-0.15137284088902625
2021-03-31,-0.1524448633460905
2021-04-01,-0.02834699588947353
2021-04-02,0.053056617890656084
2021-04-03,-0.2962447680190169
2021-04-04,-0.20221452246280106
2021-04-05,0.08704169921353012
2021-04-06,0.3489341983802054
2021-04-07,0.020685987008565165
