t,v
2011-10-13,0.0
2011-10-14,0.0
2011-10-15,0.0
2011-10-16,0.0
2011-10-17,0.0
2011-10-18,0.0
2011-10-19,0.0
2011-10-20,0.0
2011-10-21,0.0
2011-10-22,0.0
2011-10-23,0.0
2011-10-24,0.0
2011-10-25,0.0
2011-10-26,0.0
2011-10-27,0.0
2011-10-28,0.0
2011-10-29,0.0
2011-10-30,0.0
2011-10-31,0.0
2011-11-01,0.0
2011-11-02,0.0
2011-11-03,0.0
2011-11-04,0.0
2011-11-05,0.0
2011-11-06,0.0
2011-11-07,0.0
2011-11-08,0.0
2011-11-09,0.0
2011-11-10,0.0
2011-11-11,0.0
2011-11-12,0.0
2011-11-13,0.0
2011-11-14,0.0
2011-11-15,0.0
2011-11-16,0.0
2011-11-17,0.0
2011-11-18,0.0
2011-11-19,0.0
2011-11-20,0.0
2011-11-21,0.0
2011-11-22,0.0
2011-11-23,0.0
2011-11-24,0.0
2011-11-25,0.0
2011-11-26,0.0
2011-11-27,0.0
2011-11-28,0.0
2011-11-29,0.0
2011-11-30,0.0
2011-12-01,0.0
2011-12-02,0.0
2011-12-03,0.0
2011-12-04,0.0
2011-12-05,0.0
2011-12-06,0.0
2011-12-07,0.0
2011-12-08,0.0
2011-12-09,0.0
2011-12-10,0.0
2011-12-11,0.0
2011-12-12,0.0
2011-12-13,0.0
2011-12-14,0.0
2011-12-15,0.0
2011-12-16,0.0
2011-12-17,0.0
2011-12-18,0.0
2011-12-19,0.0
2011-12-20,0.0
2011-12-21,0.0
2011-12-22,0.0
2011-12-23,0.0
2011-12-24,0.0
2011-12-25,0.0
2011-12-26,0.0
2011-12-27,0.0
2011-12-28,0.0
2011-12-29,0.0
2011-12-30,0.0
2011-12-31,0.0
2012-01-01,0.0
2012-01-02,0.0
2012-01-03,0.0
2012-01-04,0.0
2012-01-05,0.0
2012-01-06,0.0
2012-01-07,0.0
2012-01-08,0.0
2012-01-09,0.0
2012-01-10,0.0
2012-01-11,0.0
2012-01-12,0.0
2012-01-13,0.0
2012-01-14,0.0
2012-01-15,0.0
2012-01-16,0.0
2012-01-17,0.0
2012-01-18,0.0
2012-01-19,0.0
2012-01-20,0.0
2012-01-21,0.0
2012-01-22,0.0
2012-01-23,0.0
2012-01-24,0.0
2012-01-25,0.0
2012-01-26,0.0
2012-01-27,0.0
2012-01-28,0.0
2012-01-29,0.0
2012-01-30,0.0
2012-01-31,0.0
2012-02-01,0.0
2012-02-02,0.0
2012-02-03,0.0
2012-02-04,0.0
2012-02-05,0.0
2012-02-06,0.0
2012-02-07,0.0
2012-02-08,0.0
2012-02-09,0.0
2012-02-10,0.0
2012-02-11,0.0
2012-02-12,0.0
2012-02-13,0.0
2012-02-14,0.0
2012-02-15,0.0
2012-02-16,0.0
2012-02-17,0.0
2012-02-18,0.0
2012-02-19,0.0
2012-02-20,0.0
2012-02-21,0.0
2012-02-22,0.0
2012-02-23,0.0
2012-02-24,0.0
2012-02-25,0.0
2012-02-26,0.0
2012-02-27,0.0
2012-02-28,0.0
2012-02-29,0.0
2012-03-01,0.0
2012-03-02,0.0
2012-03-03,0.0
2012-03-04,0.0
2012-03-05,0.0
2012-03-06,0.0
2012-03-07,0.0
2012-03-08,0.0
2012-03-09,0.0
2012-03-10,0.0
2012-03-11,0.0
2012-03-12,0.0
2012-03-13,0.0
2012-03-14,0.0
2012-03-15,0.0
2012-03-16,0.0
2012-03-17,0.0
2012-03-18,0.0
2012-03-19,0.0
2012-03-20,0.0
2012-03-21,0.0
2012-03-22,0.0
2012-03-23,0.0
2012-03-24,0.0
2012-03-25,0.0
2012-03-26,0.0
2012-03-27,0.0
2012-03-28,0.0
2012-03-29,0.0
2012-03-30,0.0
2012-03-31,0.0
2012-04-01,0.0
2012-04-02,0.0
2012-04-03,0.0
2012-04-04,0.0
2012-04-05,0.0
2012-04-06,0.0
2012-04-07,0.0
2012-04-08,0.0
2012-04-09,0.0
2012-04-10,0.0
2012-04-11,0.0
2012-04-12,0.0
2012-04-13,0.0
2012-04-14,0.0
2012-04-15,0.0
2012-04-16,0.0
2012-04-17,0.0
2012-04-18,0.0
2012-04-19,0.0
2012-04-20,0.0
2012-04-21,0.0
2012-04-22,0.0
2012-04-23,0.0
2012-04-24,0.0
2012-04-25,0.0
2012-04-26,0.0
2012-04-27,0.0
2012-04-28,0.0
2012-04-29,0.0
2012-04-30,0.0
2012-05-01,0.0
2012-05-02,0.0
2012-05-03,0.0
2012-05-04,0.0
2012-05-05,0.0
2012-05-06,0.0
2012-05-07,0.0
2012-05-08,0.0
2012-05-09,0.0
2012-05-10,0.0
2012-05-11,0.0
2012-05-12,0.0
2012-05-13,0.0
2012-05-14,0.0
2012-05-15,0.0
2012-05-16,0.0
2012-05-17,0.0
2012-05-18,0.0
2012-05-19,0.0
2012-05-20,0.0
2012-05-21,0.0
2012-05-22,0.0
2012-05-23,0.0
2012-05-24,0.0
2012-05-25,0.0
2012-05-26,0.0
2012-05-27,0.0
2012-05-28,0.0
2012-05-29,0.0
2012-05-30,0.0
2012-05-31,0.0
2012-06-01,0.0
2012-06-02,0.0
2012-06-03,0.0
2012-06-04,0.0
2012-06-05,0.0
2012-06-06,0.0
2012-06-07,0.0
2012-06-08,0.0
2012-06-09,0.0
2012-06-10,0.0
2012-06-11,0.0
2012-06-12,0.0
2012-06-13,0.0
2012-06-14,0.0
2012-06-15,0.0
2012-06-16,0.0
2012-06-17,0.0
2012-06-18,0.0
2012-06-19,0.0
2012-06-20,0.0
2012-06-21,0.0
2012-06-22,0.0
2012-06-23,0.0
2012-06-24,0.0
2012-06-25,0.0
2012-06-26,0.0
2012-06-27,0.0
2012-06-28,0.0
2012-06-29,0.0
2012-06-30,0.0
2012-07-01,0.0
2012-07-02,0.0
2012-07-03,0.0
2012-07-04,0.0
2012-07-05,0.0
2012-07-06,0.0
2012-07-07,0.0
2012-07-08,0.0
2012-07-09,0.0
2012-07-10,0.0
2012-07-11,0.0
2012-07-12,0.0
2012-07-13,0.0
2012-07-14,0.0
2012-07-15,0.0
2012-07-16,0.0
2012-07-17,0.0
2012-07-18,0.0
2012-07-19,0.0
2012-07-20,0.0
2012-07-21,0.0
2012-07-22,0.0
2012-07-23,0.0
2012-07-24,0.0
2012-07-25,0.0
2012-07-26,0.0
2012-07-27,0.0
2012-07-28,0.0
2012-07-29,0.0
2012-07-30,0.0
2012-07-31,0.0
2012-08-01,0.0
2012-08-02,0.0
2012-08-03,0.0
2012-08-04,0.0
2012-08-05,0.0
2012-08-06,0.0
2012-08-07,0.0
2012-08-08,0.0
2012-08-09,0.0
2012-08-10,0.0
2012-08-11,0.0
2012-08-12,0.0
2012-08-13,0.0
2012-08-14,0.0
2012-08-15,0.0
2012-08-16,0.0
2012-08-17,0.0
2012-08-18,0.0
2012-08-19,0.0
2012-08-20,0.0
2012-08-21,0.0
2012-08-22,0.0
2012-08-23,0.0
2012-08-24,0.0
2012-08-25,0.0
2012-08-26,0.0
2012-08-27,0.0
2012-08-28,0.0
2012-08-29,0.0
2012-08-30,0.0
2012-08-31,0.0
2012-09-01,0.0
2012-09-02,0.0
2012-09-03,0.0
2012-09-04,0.0
2012-09-05,0.0
2012-09-06,0.0
2012-09-07,0.0
2012-09-08,0.0
2012-09-09,0.0
2012-09-10,0.0
2012-09-11,0.0
2012-09-12,0.0
2012-09-13,0.0
2012-09-14,0.0
2012-09-15,0.0
2012-09-16,0.0
2012-09-17,0.0
2012-09-18,0.0
2012-09-19,0.0
2012-09-20,0.0
2012-09-21,0.0
2012-09-22,0.0
2012-09-23,0.0
2012-09-24,0.0
2012-09-25,0.0
2012-09-26,0.0
2012-09-27,0.0
2012-09-28,0.0
2012-09-29,0.0
2012-09-30,0.0
2012-10-01,0.0
2012-10-02,0.0
2012-10-03,0.0
2012-10-04,0.0
2012-10-05,0.0
2012-10-06,0.0
2012-10-07,0.0
2012-10-08,0.0
2012-10-09,0.0
2012-10-10,0.0
2012-10-11,0.0
2012-10-12,2250.0
2012-10-13,0.0
2012-10-14,0.0
2012-10-15,0.0
2012-10-16,0.0
2012-10-17,0.0
2012-10-18,0.0
2012-10-19,0.0
2012-10-20,0.0
2012-10-21,0.0
2012-10-22,0.0
2012-10-23,0.0
2012-10-24,0.0
2012-10-25,88.84923459
2012-10-26,0.0
2012-10-27,0.0
2012-10-28,35.99907801
2012-10-29,0.0
2012-10-30,1.29933227
2012-10-31,0.0
2012-11-01,0.0
2012-11-02,0.0
2012-11-03,0.0
2012-11-04,6.12241465
2012-11-05,0.0
2012-11-06,0.0
2012-11-07,0.0
2012-11-08,0.0
2012-11-09,0.0
2012-11-10,0.0
2012-11-11,0.00549798
2012-11-12,0.0
2012-11-13,215.905
2012-11-14,0.0
2012-11-15,0.0
2012-11-16,0.0
2012-11-17,0.0
2012-11-18,200.0
2012-11-19,0.0
2012-11-20,0.0
2012-11-21,0.0
2012-11-22,0.0
2012-11-23,0.0
2012-11-24,1345.55361211
2012-11-25,61.01295596
2012-11-26,0.0
2012-11-27,0.0
2012-11-28,0.0
2012-11-29,0.0
2012-11-30,0.0
2012-12-01,0.0
2012-12-02,0.0
2012-12-03,0.0
2012-12-04,668.25900118
2012-12-05,0.0
2012-12-06,75.456132
2012-12-07,1959.36027175
2012-12-08,0.0
2012-12-09,0.0
2012-12-10,0.0
2012-12-11,0.0
2012-12-12,0.0
2012-12-13,0.0
2012-12-14,0.0
2012-12-15,0.0
2012-12-16,385.05293458
2012-12-17,0.0
2012-12-18,0.0
2012-12-19,2000.0
2012-12-20,0.0
2012-12-21,0.0
2012-12-22,0.0
2012-12-23,144.76493223
2012-12-24,94.72066901
2012-12-25,400.0
2012-12-26,0.0
2012-12-27,0.0
2012-12-28,0.0
2012-12-29,0.0
2012-12-30,0.0
2012-12-31,0.0
2013-01-01,0.0
2013-01-02,0.0
2013-01-03,399.9746697
2013-01-04,0.0
2013-01-05,0.0
2013-01-06,50.56321829
2013-01-07,0.0
2013-01-08,0.0
2013-01-09,0.0
2013-01-10,0.0
2013-01-11,0.0
2013-01-12,0.0
2013-01-13,0.0
2013-01-14,0.0
2013-01-15,0.0
2013-01-16,0.0
2013-01-17,0.0
2013-01-18,0.0
2013-01-19,909.89867818
2013-01-20,11005.42237041
2013-01-21,0.0
2013-01-22,1150.28815339
2013-01-23,0.0
2013-01-24,66.95465249
2013-01-25,0.0
2013-01-26,0.0
2013-01-27,0.0
2013-01-28,0.69805418
2013-01-29,100.27928085
2013-01-30,0.0
2013-01-31,2.0807164
2013-02-01,2585.80357686
2013-02-02,0.0
2013-02-03,0.0
2013-02-04,0.0
2013-02-05,0.0
2013-02-06,0.0
2013-02-07,0.0
2013-02-08,0.0
2013-02-09,150.91006964
2013-02-10,0.0
2013-02-11,933.80912971
2013-02-12,60.09671847
2013-02-13,0.0
2013-02-14,0.0
2013-02-15,0.0
2013-02-16,0.0
2013-02-17,1108.77
2013-02-18,0.0
2013-02-19,686.38468517
2013-02-20,4881.293362
2013-02-21,267.26616079
2013-02-22,0.0
2013-02-23,31.24882474
2013-02-24,38.14227311
2013-02-25,0.0
2013-02-26,0.0
2013-02-27,0.0
2013-02-28,0.0
2013-03-01,0.0
2013-03-02,75.05115572
2013-03-03,100.00285218
2013-03-04,264.1511195
2013-03-05,1909.03308946
2013-03-06,3446.51971129
2013-03-07,805.73981522
2013-03-08,22.77593311
2013-03-09,274.38207116
2013-03-10,50179.49268242
2013-03-11,6136.43799555
2013-03-12,2606.3789209
2013-03-13,53457.67670629
2013-03-14,1174.47935572
2013-03-15,13376.62663176
2013-03-16,253.13961762
2013-03-17,815.03550948
2013-03-18,865.92730096
2013-03-19,3210.1579613
2013-03-20,25.33203774
2013-03-21,75.77116626
2013-03-22,4673.0388544
2013-03-23,871.49544355
2013-03-24,352.0251519
2013-03-25,1424.96808481
2013-03-26,6.26723994
2013-03-27,96.28187617
2013-03-28,210.25570699
2013-03-29,328.57534371
2013-03-30,11720.76732703
2013-03-31,147.77866753
2013-04-01,75249.91030265
2013-04-02,116383.58115894
2013-04-03,17028.26152528
2013-04-04,8387.93114882999
2013-04-05,22403.23929218
2013-04-06,24059.1413912499
2013-04-07,3823.00488896
2013-04-08,4412.34039085
2013-04-09,1662.83192335
2013-04-10,11110.94593634
2013-04-11,21421.90758012
2013-04-12,41231.10512073
2013-04-13,4609.44310708
2013-04-14,675.74672158
2013-04-15,3000.76565432
2013-04-16,448.76023821
2013-04-17,553.71001668
2013-04-18,662.598577020001
2013-04-19,2858.58038542
2013-04-20,82.55266079
2013-04-21,661.22885799
2013-04-22,83.90207782
2013-04-23,1076.44693139
2013-04-24,771.87759904
2013-04-25,115.92220538
2013-04-26,120.21902436
2013-04-27,21912.3809073
2013-04-28,8080.02397639
2013-04-29,2977.40289767
2013-04-30,333.23160229
2013-05-01,28.9647828
2013-05-02,1022.60807902
2013-05-03,8982.86825048
2013-05-04,242.50268147
2013-05-05,386.87635632
2013-05-06,0.40007585
2013-05-07,0.0
2013-05-08,100.0
2013-05-09,31.78961986
2013-05-10,257.90508197
2013-05-11,364.41467889
2013-05-12,0.0
2013-05-13,90.0808399199999
2013-05-14,1997.51860775
2013-05-15,31.34163758
2013-05-16,0.0
2013-05-17,91.70699298
2013-05-18,105.46
2013-05-19,0.0
2013-05-20,1761.89520413
2013-05-21,2.2873269
2013-05-22,309.78747425
2013-05-23,499.40586839
2013-05-24,646.79441012
2013-05-25,0.0
2013-05-26,5.71838071
2013-05-27,1.05516044
2013-05-28,0.0
2013-05-29,0.0
2013-05-30,16.46481453
2013-05-31,349.30380179
2013-06-01,388.56881644
2013-06-02,50.004
2013-06-03,195.86260056
2013-06-04,1452.69189821
2013-06-05,136.01005942
2013-06-06,51.03623717
2013-06-07,251.54861398
2013-06-08,152.4430802
2013-06-09,0.0
2013-06-10,647.08490126
2013-06-11,427.22078137
2013-06-12,0.0
2013-06-13,420.32300561
2013-06-14,0.0
2013-06-15,0.0
2013-06-16,277.34520812
2013-06-17,158.4063082
2013-06-18,450.43108742
2013-06-19,2.21629434
2013-06-20,250.0
2013-06-21,0.0
2013-06-22,3029.58208867
2013-06-23,1769.48740299
2013-06-24,1673.20041533
2013-06-25,182.24105689
2013-06-26,0.0
2013-06-27,868.9600768
2013-06-28,2729.62012584
2013-06-29,0.0
2013-06-30,45.66056137
2013-07-01,118.0266223
2013-07-02,118.85156156
2013-07-03,0.0
2013-07-04,46.07843014
2013-07-05,10000.0
2013-07-06,66.02500094
2013-07-07,91.49458822
2013-07-08,1.07421453
2013-07-09,0.0
2013-07-10,0.0
2013-07-11,2000.01453434
2013-07-12,0.0
2013-07-13,1570.46593083
2013-07-14,1.80813661
2013-07-15,0.0
2013-07-16,0.60956266
2013-07-17,0.0
2013-07-18,95.0
2013-07-19,5.0207597
2013-07-20,0.0
2013-07-21,15308.78591856
2013-07-22,3860.81406901
2013-07-23,131.21757344
2013-07-24,400.0
2013-07-25,0.0
2013-07-26,19798.90358853
2013-07-27,0.0
2013-07-28,0.0
2013-07-29,5.60764592
2013-07-30,0.0
2013-07-31,1.5317843
2013-08-01,149.319199
2013-08-02,97.67356227
2013-08-03,370.65627878
2013-08-04,0.0
2013-08-05,4.14019829
2013-08-06,26.05406584
2013-08-07,0.0
2013-08-08,124.63254739
2013-08-09,4743.81687048
2013-08-10,0.0
2013-08-11,0.0
2013-08-12,267.40091658
2013-08-13,0.0
2013-08-14,0.0
2013-08-15,555.02876582
2013-08-16,0.0
2013-08-17,36.9439538
2013-08-18,0.0
2013-08-19,0.0
2013-08-20,0.0
2013-08-21,4.20862487
2013-08-22,7.73877644
2013-08-23,0.0
2013-08-24,82.86704256
2013-08-25,0.0
2013-08-26,0.0
2013-08-27,7072.36364173
2013-08-28,0.0
2013-08-29,17.51484679
2013-08-30,1.9492855
2013-08-31,186.75070911
2013-09-01,88.23933871
2013-09-02,203.98604334
2013-09-03,204.2750521
2013-09-04,81.55808421
2013-09-05,0.0
2013-09-06,23.97958536
2013-09-07,883.9227449
2013-09-08,0.0
2013-09-09,50.0
2013-09-10,12.312431
2013-09-11,15.08901799
2013-09-12,10.9423281
2013-09-13,0.0
2013-09-14,587.91879636
2013-09-15,0.0
2013-09-16,299.99605537
2013-09-17,80.72650361
2013-09-18,380.79733633
2013-09-19,26.20789576
2013-09-20,0.0
2013-09-21,969.21676548
2013-09-22,0.0
2013-09-23,0.0
2013-09-24,3292.03826672
2013-09-25,211.6713039
2013-09-26,15035.31693342
2013-09-27,0.0
2013-09-28,4.17732595
2013-09-29,30753.04955934
2013-09-30,50021.45019014
2013-10-01,0.0
2013-10-02,231.66135919
2013-10-03,0.0
2013-10-04,169.3272941
2013-10-05,0.0
2013-10-06,3815.69567083
2013-10-07,493.77200402
2013-10-08,334.5980045
2013-10-09,199.02000544
2013-10-10,19.01760506
2013-10-11,794.19648452
2013-10-12,0.0
2013-10-13,50.06013181
2013-10-14,87.98575153
2013-10-15,0.0
2013-10-16,24.84316857
2013-10-17,1558.42108098
2013-10-18,345.10078059
2013-10-19,967.561635
2013-10-20,1.61657998
2013-10-21,1.06852299
2013-10-22,4828.3361986
2013-10-23,52.72372705
2013-10-24,0.0
2013-10-25,5.01001151
2013-10-26,0.0
2013-10-27,36.93756065
2013-10-28,10075.47588196
2013-10-29,0.0
2013-10-30,261.2735
2013-10-31,198.71036104
2013-11-01,35.53280018
2013-11-02,0.03563428
2013-11-03,9.14459424
2013-11-04,42.89560851
2013-11-05,141.10737204
2013-11-06,177.579458
2013-11-07,8342.22968163
2013-11-08,1735.40208301
2013-11-09,90.2404733
2013-11-10,855.11464385
2013-11-11,400.25912552
2013-11-12,2373.62645832
2013-11-13,891.74725133
2013-11-14,2213.51058628
2013-11-15,2866.83004861
2013-11-16,288.52312052
2013-11-17,1149.82461508
2013-11-18,5299.27617105
2013-11-19,1714.31982638
2013-11-20,100063.38115988
2013-11-21,2943.73832399
2013-11-22,1472.26038476
2013-11-23,8976.30522451
2013-11-24,366.30769758
2013-11-25,22450.57791004
2013-11-26,10776.88362275
2013-11-27,12033.91508191
2013-11-28,17040.89700308
2013-11-29,3250.06377095
2013-11-30,1171.73491474
2013-12-01,30356.47728215
2013-12-02,267.75407287
2013-12-03,363.50227884
2013-12-04,3440.02472877
2013-12-05,2865.54473163
2013-12-06,2772.67072196
2013-12-07,1752.43604096
2013-12-08,2766.70425968
2013-12-09,216.7142161
2013-12-10,875.451066909999
2013-12-11,0.01002316
2013-12-12,1209.9757835
2013-12-13,173.25755265
2013-12-14,1594.21762721
2013-12-15,906.35729287
2013-12-16,2754.40334527
2013-12-17,5027.14356451999
2013-12-18,1059.7848391
2013-12-19,4360.78408426
2013-12-20,1267.27787047
2013-12-21,410.83729349
2013-12-22,0.0
2013-12-23,107.13700449
2013-12-24,14.911
2013-12-25,116.43860845
2013-12-26,768.94033018
2013-12-27,265.2157623
2013-12-28,752.69182214
2013-12-29,28886.82990465
2013-12-30,5.78552723
2013-12-31,335.10587031
2014-01-01,1.3371337
2014-01-02,441.7536418
2014-01-03,607.0316488
2014-01-04,1100.71723944
2014-01-05,107.07241266
2014-01-06,217.00098874
2014-01-07,133.9715621
2014-01-08,289.92333867
2014-01-09,716.29373544
2014-01-10,52.5636149
2014-01-11,30.49897084
2014-01-12,26.46678925
2014-01-13,1.59092966
2014-01-14,526.82358719
2014-01-15,182.47180999
2014-01-16,100.3
2014-01-17,0.34465164
2014-01-18,11276.81661031
2014-01-19,261.08105657
2014-01-20,608.2858256
2014-01-21,770.87789186
2014-01-22,1799.04289276
2014-01-23,160.90993462
2014-01-24,142.57431455
2014-01-25,74.97486703
2014-01-26,2331.22459789
2014-01-27,202.1644681
2014-01-28,200.62500026
2014-01-29,179.13434154
2014-01-30,1283.78560471
2014-01-31,44.335
2014-02-01,12.68344193
2014-02-02,0.01818199
2014-02-03,2320.02510058
2014-02-04,121.60117603
2014-02-05,542.34138111
2014-02-06,240.43589543
2014-02-07,55.50117898
2014-02-08,501.1
2014-02-09,66.50649954
2014-02-10,1128.75565033
2014-02-11,2344.72340767
2014-02-12,9399.80520535
2014-02-13,0.66752787
2014-02-14,3225.42696808
2014-02-15,50.02600033
2014-02-16,63485.87496858
2014-02-17,204.4560179
2014-02-18,4969.83670368
2014-02-19,35.98304482
2014-02-20,0.0
2014-02-21,215.95980739
2014-02-22,150.0
2014-02-23,5.03569799
2014-02-24,571.36093161
2014-02-25,1774.69440165
2014-02-26,32.00134044
2014-02-27,162.4401592
2014-02-28,0.0
2014-03-01,4.99
2014-03-02,14.41685459
2014-03-03,80.00000032
2014-03-04,126.05349226
2014-03-05,142.68195644
2014-03-06,2856.85149782
2014-03-07,1.31526199
2014-03-08,17.00019712
2014-03-09,6383.87206257
2014-03-10,542.90959695
2014-03-11,51.23486256
2014-03-12,99.87079199
2014-03-13,2754.68470002
2014-03-14,10315.1774665
2014-03-15,497.25550292
2014-03-16,3000.03804162
2014-03-17,40.33165699
2014-03-18,1027.58574165
2014-03-19,72646.82222844
2014-03-20,1047.88273016
2014-03-21,370.120501
2014-03-22,21.1724976
2014-03-23,5.26515653
2014-03-24,425.87814833
2014-03-25,0.01
2014-03-26,263.78805374
2014-03-27,1978.82790697
2014-03-28,2922.4049988
2014-03-29,1976.11188616
2014-03-30,2985.47482355
2014-03-31,523.00169594
2014-04-01,75.0
2014-04-02,5267.64224566
2014-04-03,242.31077327
2014-04-04,138.0880643
2014-04-05,1700.01000308
2014-04-06,881.836932629999
2014-04-07,5201.24052922
2014-04-08,51.40025999
2014-04-09,40.19541559
2014-04-10,79200.18383922
2014-04-11,25.84490042
2014-04-12,4246.3365226
2014-04-13,126.36608469
2014-04-14,40.42061437
2014-04-15,641.95400961
2014-04-16,110.9361295
2014-04-17,41.93298575
2014-04-18,3000.0
2014-04-19,0.52021397
2014-04-20,1815.32409149
2014-04-21,1127.45604858
2014-04-22,261.59432877
2014-04-23,37.65663147
2014-04-24,32.45975083
2014-04-25,221.49261289
2014-04-26,5.56317871
2014-04-27,71.06677908
2014-04-28,130.38913333
2014-04-29,372.11231289
2014-04-30,238.87012978
2014-05-01,204.81458211
2014-05-02,53.37192076
2014-05-03,1060.05638529
2014-05-04,109.74079479
2014-05-05,8.6965957
2014-05-06,62.51217691
2014-05-07,101.29344499
2014-05-08,30114.06660568
2014-05-09,4036.09697163
2014-05-10,178.80824641
2014-05-11,2177.05969199
2014-05-12,484.67584291
2014-05-13,666.57439709
2014-05-14,14351.54330755
2014-05-15,1258.65207349
2014-05-16,168.14313539
2014-05-17,230.99079023
2014-05-18,1081.64196127
2014-05-19,493.81595255
2014-05-20,9022.03083176
2014-05-21,4325.13031866
2014-05-22,34906.10806162
2014-05-23,33655.18392921
2014-05-24,143.57199836
2014-05-25,12520.49997884
2014-05-26,75.64670236
2014-05-27,15472.82552328
2014-05-28,35602.46119194
2014-05-29,10576.21429219
2014-05-30,36165.16470225
2014-05-31,2184.15655471
2014-06-01,2068.0765524
2014-06-02,10162.24389385
2014-06-03,6014.75426687
2014-06-04,2777.10413133
2014-06-05,8399.68966769
2014-06-06,1329.78605924
2014-06-07,566.13733663
2014-06-08,421.66684773
2014-06-09,324.16927194
2014-06-10,455.43891487
2014-06-11,1612.14783741
2014-06-12,240.16638246
2014-06-13,457.30771702
2014-06-14,938.97635311
2014-06-15,262.18446614
2014-06-16,784.40947415
2014-06-17,17469.37121842
2014-06-18,976.28250339
2014-06-19,16307.24590481
2014-06-20,1657.56430073
2014-06-21,712.50846398
2014-06-22,369.80161753
2014-06-23,2764.41231792
2014-06-24,377.6537234
2014-06-25,686.477933289999
2014-06-26,24150.25473163
2014-06-27,1159.45910742
2014-06-28,5193.13057876
2014-06-29,11502.25397564
2014-06-30,34973.40258003
2014-07-01,82048.5335388499
2014-07-02,63138.55019331
2014-07-03,544.23644834
2014-07-04,15146.87102165
2014-07-05,1536.14245973
2014-07-06,2649.53836762
2014-07-07,11377.89944056
2014-07-08,101.25844809
2014-07-09,14642.378032
2014-07-10,324.27742842
2014-07-11,5297.52576289
2014-07-12,13879.3507175
2014-07-13,1484.52845223
2014-07-14,246.42478435
2014-07-15,386.49452174
2014-07-16,646.39366322
2014-07-17,1459.69426601
2014-07-18,984.49110759
2014-07-19,30135.3565306893
2014-07-20,12205.97353039
2014-07-21,2328.85773954
2014-07-22,573.85002895
2014-07-23,6700.80305971
2014-07-24,194.16005755
2014-07-25,1280.18146774
2014-07-26,1917.95051576
2014-07-27,100.78403163
2014-07-28,4908.69513502
2014-07-29,339.49899058
2014-07-30,2772.89234715
2014-07-31,1163.47419059
2014-08-01,321.23581223
2014-08-02,399.38259515
2014-08-03,3019.39721921
2014-08-04,159351.29602169
2014-08-05,122703.44526783
2014-08-06,105728.09555207
2014-08-07,220636.07572091
2014-08-08,30.89249856
2014-08-09,272.87942119
2014-08-10,843.67676906
2014-08-11,11644.83874144
2014-08-12,2151.96687736
2014-08-13,17773.92509153
2014-08-14,61532.96357254
2014-08-15,54.35260517
2014-08-16,580.35889536
2014-08-17,205.96218146
2014-08-18,62258.93546676
2014-08-19,418.9451419
2014-08-20,18748.32372457
2014-08-21,9207.43195584
2014-08-22,6485.44629429
2014-08-23,62.65386419
2014-08-24,95.74320058
2014-08-25,54.19147907
2014-08-26,74.19426037
2014-08-27,316.90027327
2014-08-28,688.56717213
2014-08-29,1318.5947196
2014-08-30,50.32922721
2014-08-31,10951.50325627
2014-09-01,427.25579772
2014-09-02,46.45978726
2014-09-03,6260.40808513
2014-09-04,377.62111294
2014-09-05,36.05855569
2014-09-06,1503.93345517
2014-09-07,373.04212118
2014-09-08,219.50534379
2014-09-09,1475.37705926
2014-09-10,142.56809285
2014-09-11,379.53798596
2014-09-12,41.99103776
2014-09-13,37.06154759
2014-09-14,554.25357841
2014-09-15,656.32370233
2014-09-16,110.5362015
2014-09-17,1375.15233049
2014-09-18,382.86606703
2014-09-19,273.75654849
2014-09-20,15.2053941
2014-09-21,2269.65348128
2014-09-22,50.09785429
2014-09-23,223.79941422
2014-09-24,246.90417848
2014-09-25,244.35261309
2014-09-26,296.30310817
2014-09-27,141.03653852
2014-09-28,1259.94380973
2014-09-29,1826.09823505
2014-09-30,233.40428491
2014-10-01,69.43344346
2014-10-02,664.3317051
2014-10-03,754.71722046
2014-10-04,285.91738253
2014-10-05,1710.97743644
2014-10-06,32.10787359
2014-10-07,63.63699768
2014-10-08,465.8363142
2014-10-09,347.87612624
2014-10-10,85.64718248
2014-10-11,1351.43199896
2014-10-12,1194.43580925
2014-10-13,393.02014074
2014-10-14,20.76414598
2014-10-15,525.74419383
2014-10-16,16.61900537
2014-10-17,36.57106952
2014-10-18,368.90094887
2014-10-19,188.40499752
2014-10-20,1241.20103837
2014-10-21,527.69301335
2014-10-22,8304.44112236998
2014-10-23,664.77464923
2014-10-24,4.85036612
2014-10-25,976.02114327
2014-10-26,580.03116119
2014-10-27,458.33641687
2014-10-28,257.76656688
2014-10-29,113.59841682
2014-10-30,647.8023066
2014-10-31,117.12633944
2014-11-01,43.61965105
2014-11-02,159.59184446
2014-11-03,64.23598135
2014-11-04,1144.00885301
2014-11-05,465.13779213
2014-11-06,432.80109956
2014-11-07,153.42246609
2014-11-08,14.08782374
2014-11-09,15980.022085
2014-11-10,1439.81748071
2014-11-11,59.0593792
2014-11-12,319.80168666
2014-11-13,31.80514182
2014-11-14,966.33765029
2014-11-15,83.54508064
2014-11-16,280.03089177
2014-11-17,256.01933457
2014-11-18,979.60728645
2014-11-19,1760.95901005
2014-11-20,22.88201716
2014-11-21,176.41983212
2014-11-22,100.29083676
2014-11-23,751.76848232
2014-11-24,395.57279341
2014-11-25,89.01733996
2014-11-26,988.02161924
2014-11-27,1630.8797061
2014-11-28,5307.20562265
2014-11-29,591.69078634
2014-11-30,1347.78126021
2014-12-01,660.7846372
2014-12-02,1166.3571402
2014-12-03,1618.90627824
2014-12-04,1451.2410693
2014-12-05,894.68091851
2014-12-06,2063.62010612
2014-12-07,434.45491365
2014-12-08,245.1649567
2014-12-09,9209.95901798
2014-12-10,3039.45479998
2014-12-11,9987.42436842
2014-12-12,2174.76655556
2014-12-13,3064.70412244
2014-12-14,4890.92908084
2014-12-15,466.88551474
2014-12-16,11786.76789314
2014-12-17,1484.53868745
2014-12-18,707.131678019999
2014-12-19,6377.37244383
2014-12-20,610.06960143
2014-12-21,6607.81515738
2014-12-22,813.1839467
2014-12-23,633.09309606
2014-12-24,412.67013624
2014-12-25,154.90431036
2014-12-26,3537.21053011
2014-12-27,80.86736386
2014-12-28,3676.29349664999
2014-12-29,1426.22877726
2014-12-30,1959.30970006
2014-12-31,1558.52822847
2015-01-01,1429.39033119
2015-01-02,1455.61291116
2015-01-03,31775.43785084
2015-01-04,3666.48834292
2015-01-05,5568.61664467
2015-01-06,361.01684731
2015-01-07,2065.09806213
2015-01-08,7204.79976375
2015-01-09,2390.36084335
2015-01-10,6271.37067637001
2015-01-11,3607.49394256
2015-01-12,15399.25157444
2015-01-13,6237.55185091
2015-01-14,2920.26181373
2015-01-15,17555.2890611699
2015-01-16,1069.86454588
2015-01-17,9616.80350998997
2015-01-18,851.57481622
2015-01-19,5328.18431763
2015-01-20,4103.32640345
2015-01-21,19834.72246561
2015-01-22,6548.96192565
2015-01-23,659.375093129999
2015-01-24,5280.63964187
2015-01-25,2801.34791967999
2015-01-26,2418.28580600999
2015-01-27,946.95056699
2015-01-28,785.8132115
2015-01-29,4751.36342739
2015-01-30,1475.3134796
2015-01-31,338.1058199
2015-02-01,1931.94599272
2015-02-02,3413.55218054001
2015-02-03,1559.58127206
2015-02-04,1443.02675041
2015-02-05,1709.07929926
2015-02-06,72.16889179
2015-02-07,1395.14017372
2015-02-08,365.0914912
2015-02-09,217.74703905
2015-02-10,2186.48620658
2015-02-11,1170.63352407
2015-02-12,1775.47411859
2015-02-13,4986.46608011
2015-02-14,1297.27912951
2015-02-15,11397.09712952
2015-02-16,384.67802056
2015-02-17,1019.71850263
2015-02-18,1509.46570496
2015-02-19,667.78978043
2015-02-20,2218.13487034
2015-02-21,1840.4616967
2015-02-22,866.92393981
2015-02-23,448.80223268
2015-02-24,572.17222463
2015-02-25,4671.8309256
2015-02-26,3250.90776628
2015-02-27,425.51046605
2015-02-28,463.02717657
2015-03-01,1395.85529925
2015-03-02,7472.91762049001
2015-03-03,1161.21319211
2015-03-04,3888.08049117999
2015-03-05,5584.77200363
2015-03-06,6621.3192428
2015-03-07,855.18557197
2015-03-08,126.85396751
2015-03-09,1868.11591883
2015-03-10,1635.11038977
2015-03-11,3932.31788059
2015-03-12,404.49966277
2015-03-13,357.65497276
2015-03-14,1022.08070542
2015-03-15,507.29674954
2015-03-16,10989.0601957401
2015-03-17,8332.72905088999
2015-03-18,3652.83023934
2015-03-19,20753.23425514
2015-03-20,2595.95164255
2015-03-21,576.87466275
2015-03-22,4629.7739927
2015-03-23,2205.550197
2015-03-24,15916.26636617
2015-03-25,6173.62134979
2015-03-26,399.7268071
2015-03-27,372.14607855
2015-03-28,752.9372722
2015-03-29,1432.40029228
2015-03-30,1753.41424141
2015-03-31,168.84447257
2015-04-01,735.49506395
2015-04-02,879.315168410001
2015-04-03,1244.29792137
2015-04-04,536.90898979
2015-04-05,807.4256672
2015-04-06,7971.74683489
2015-04-07,538.23637087
2015-04-08,906.96440733
2015-04-09,710.01812964
2015-04-10,1309.44943253
2015-04-11,811.84327261
2015-04-12,496.97408815
2015-04-13,2119.86471144
2015-04-14,2856.54057709
2015-04-15,648.61174432
2015-04-16,1568.57998809
2015-04-17,10321.14441143
2015-04-18,787.71275623
2015-04-19,1443.75269011
2015-04-20,1536.39570715
2015-04-21,1999.19494925
2015-04-22,442.76938379
2015-04-23,646.05004336
2015-04-24,17859.08346446
2015-04-25,1390.77655901
2015-04-26,538.86625916
2015-04-27,1259.01909734
2015-04-28,901.0868481
2015-04-29,16488.24090321
2015-04-30,250.5580617
2015-05-01,1082.61110716
2015-05-02,547.56938779
2015-05-03,1162.18955645
2015-05-04,12624.69197912
2015-05-05,2672.70893892
2015-05-06,1881.20211547
2015-05-07,2362.19913437
2015-05-08,2654.42909874
2015-05-09,2566.00758288
2015-05-10,684.7091148
2015-05-11,2492.81475047
2015-05-12,3855.33500409
2015-05-13,285.48015688
2015-05-14,1324.35450377
2015-05-15,3067.83082703
2015-05-16,1696.43984327
2015-05-17,1866.18638175
2015-05-18,4928.03358136
2015-05-19,5342.24160532
2015-05-20,5520.05754049
2015-05-21,7442.38741982
2015-05-22,187285.60691469
2015-05-23,10259.00042055
2015-05-24,22732.37941492
2015-05-25,1012.90547488
2015-05-26,2623.86117276
2015-05-27,570.52241524
2015-05-28,605.13025606
2015-05-29,2240.05496157
2015-05-30,4790.79482721
2015-05-31,7601.16006136
2015-06-01,537.67439891
2015-06-02,5120.04732302
2015-06-03,3100.68593251
2015-06-04,3274.21264295
2015-06-05,49461.29780777
2015-06-06,7281.30480744
2015-06-07,1474.51099603
2015-06-08,3299.46439415
2015-06-09,1207.69850638001
2015-06-10,2872.0947708
2015-06-11,1919.90140667
2015-06-12,1148.61332589
2015-06-13,1265.94115632
2015-06-14,16011.60428823
2015-06-15,6757.83956691
2015-06-16,31392.77208943
2015-06-17,43521.52086058
2015-06-18,8833.85874009996
2015-06-19,7806.43090469999
2015-06-20,6654.33702605
2015-06-21,4627.73911927001
2015-06-22,15659.5714653
2015-06-23,2288.97183657
2015-06-24,2634.14897492
2015-06-25,3298.03609387
2015-06-26,7218.11508731999
2015-06-27,1169.24565062
2015-06-28,4761.0454381
2015-06-29,3744.32477583
2015-06-30,124660.87978686
2015-07-01,6505.88603589001
2015-07-02,10470.97747291
2015-07-03,5221.88860838
2015-07-04,6304.67654917
2015-07-05,5574.37220034001
2015-07-06,76415.95283838
2015-07-07,26675.41528148
2015-07-08,29388.45841751
2015-07-09,107122.67354225
2015-07-10,180073.73102644
2015-07-11,38419.49319092
2015-07-12,48353.1257747798
2015-07-13,17111.05381875
2015-07-14,8920.53090416002
2015-07-15,7265.29105076
2015-07-16,16907.56620034
2015-07-17,2792.65344753001
2015-07-18,2174.08656113
2015-07-19,7074.12811452
2015-07-20,9554.05222659
2015-07-21,3574.78045525
2015-07-22,5482.30412923
2015-07-23,1450.09912129
2015-07-24,15222.13336297
2015-07-25,15450.59473949
2015-07-26,2993.30887486
2015-07-27,10935.99125418
2015-07-28,33916.4938753
2015-07-29,15550.25330965
2015-07-30,2573.89982078
2015-07-31,27911.89481498
2015-08-01,4725.35947105
2015-08-02,2570.30240377999
2015-08-03,2530.28248965
2015-08-04,2053.59393713
2015-08-05,3208.6304698
2015-08-06,2621.33188972
2015-08-07,4693.60158287
2015-08-08,2510.41042133
2015-08-09,578.38105993
2015-08-10,5592.79873255
2015-08-11,3284.85538844
2015-08-12,5811.19506684001
2015-08-13,5589.83637475
2015-08-14,6217.78577433
2015-08-15,4567.48000818
2015-08-16,743.96256529
2015-08-17,31456.29063945
2015-08-18,7733.71781725
2015-08-19,18885.1364201098
2015-08-20,18609.14927517
2015-08-21,21187.46536535
2015-08-22,4294.36564603
2015-08-23,1805.95211915
2015-08-24,15539.24537128
2015-08-25,21032.12525465
2015-08-26,847.10659723
2015-08-27,50194.31523808
2015-08-28,480.79449062
2015-08-29,1319.43624599
2015-08-30,499.212979790001
2015-08-31,2808.1798085
2015-09-01,437.93467939
2015-09-02,869.00037684
2015-09-03,659.16957072
2015-09-04,4423.36281769
2015-09-05,230.32235435
2015-09-06,215.41734734
2015-09-07,311.3287816
2015-09-08,4339.59682374
2015-09-09,1354.27126704
2015-09-10,3018.23422418
2015-09-11,320.033474
2015-09-12,2607.28200383
2015-09-13,298.47380837
2015-09-14,401899.71147782
2015-09-15,4089.55050514
2015-09-16,1676.18737306
2015-09-17,2879.30380381
2015-09-18,558.596391410001
2015-09-19,972.15000619
2015-09-20,457.07730305
2015-09-21,1497.9910121
2015-09-22,883.283289450001
2015-09-23,1331.66379686
2015-09-24,445.9952206
2015-09-25,640.560336910001
2015-09-26,1941.68345437
2015-09-27,2085.13418071
2015-09-28,1329.79975269
2015-09-29,914.79455328
2015-09-30,39685.70634662
2015-10-01,202.77731252
2015-10-02,822.66822891
2015-10-03,200.71829108
2015-10-04,1049.22662892
2015-10-05,1568.74572143
2015-10-06,1810.74291268
2015-10-07,4229.52802655
2015-10-08,1691.59380626
2015-10-09,540.771013070001
2015-10-10,1871.21606978
2015-10-11,225.27654591
2015-10-12,595.70555026
2015-10-13,3530.10852496
2015-10-14,9512.68023213
2015-10-15,847.129179
2015-10-16,1610.44426236
2015-10-17,1585.84587709
2015-10-18,5600.37697665
2015-10-19,5691.79815956001
2015-10-20,552.25361108
2015-10-21,4311.18387991
2015-10-22,400.49498943
2015-10-23,1294.6255695
2015-10-24,10454.26894914
2015-10-25,2789.08549316
2015-10-26,12168.65394796
2015-10-27,1885.63870213
2015-10-28,831.127647700001
2015-10-29,4474.27350907008
2015-10-30,20238.64061908
2015-10-31,22796.91202052
2015-11-01,1555.77911122
2015-11-02,3499.43126752
2015-11-03,14687.81674653
2015-11-04,37293.6078508999
2015-11-05,6684.04641412999
2015-11-06,2948.03043043
2015-11-07,6076.85070312
2015-11-08,3559.12936311
2015-11-09,5296.28133418
2015-11-10,3172.81145302
2015-11-11,745.203336279999
2015-11-12,1100.07277232
2015-11-13,106429.72240964
2015-11-14,1092.79481003
2015-11-15,1240.77390533
2015-11-16,7052.58172833
2015-11-17,845.04215739
2015-11-18,2237.24692781
2015-11-19,1730.21989847
2015-11-20,11117.02725842
2015-11-21,983.093309179999
2015-11-22,845.73838034
2015-11-23,1533.66851065
2015-11-24,1925.17843274999
2015-11-25,812.68961074
2015-11-26,26637.03016956
2015-11-27,1205.76396737
2015-11-28,361.75180427
2015-11-29,1781.51181525
2015-11-30,3135.47422724
2015-12-01,717.531616280001
2015-12-02,1602.20844779
2015-12-03,46186.2923587901
2015-12-04,627.80058151
2015-12-05,1004.45423227
2015-12-06,6019.03705875
2015-12-07,1316.18722055
2015-12-08,1380.05410373
2015-12-09,11806.69686355
2015-12-10,719.578585
2015-12-11,17502.75601058
2015-12-12,2024.48273997
2015-12-13,1437.60952513
2015-12-14,5118.6704141
2015-12-15,3914.12842968
2015-12-16,949.15821726
2015-12-17,3555.53393527
2015-12-18,12547.17845514
2015-12-19,1858.23719917
2015-12-20,5997.44386814
2015-12-21,947.06162443
2015-12-22,4390.47692757
2015-12-23,1135.08357077
2015-12-24,2281.10793264
2015-12-25,1673.98939538
2015-12-26,1697.98859748
2015-12-27,118.80353972
2015-12-28,991.39179049
2015-12-29,784.63376088
2015-12-30,622.17246129
2015-12-31,787.38044148
2016-01-01,720.725260009999
2016-01-02,298.26758568
2016-01-03,2263.13946157
2016-01-04,347.84729638
2016-01-05,1702.75024039
2016-01-06,2570.93183694
2016-01-07,23538.20989374
2016-01-08,209.9568561
2016-01-09,830.83341125
2016-01-10,964.90234106
2016-01-11,1150.1509207
2016-01-12,1279.47252855
2016-01-13,6787.52489238
2016-01-14,935.82385554
2016-01-15,3201.61244176
2016-01-16,3276.10239037
2016-01-17,8019.04859392
2016-01-18,5843.10017783
2016-01-19,943.89842815
2016-01-20,1121.28114884
2016-01-21,887.92317224
2016-01-22,2290.28700246
2016-01-23,7042.27858657
2016-01-24,823.31510031
2016-01-25,1758.33042749
2016-01-26,39975.59358034
2016-01-27,345.72777356
2016-01-28,3723.2048284
2016-01-29,3244.78448921
2016-01-30,39.16297977
2016-01-31,2009.12034866
2016-02-01,11725.37038706
2016-02-02,11050.99425512
2016-02-03,92.52226243
2016-02-04,1668.11695088
2016-02-05,259.65184082
2016-02-06,1210.76754454
2016-02-07,1793.69228554
2016-02-08,923.916775929999
2016-02-09,4849.35474673001
2016-02-10,15367.85607237
2016-02-11,15515.66328132
2016-02-12,290.63483845
2016-02-13,703.46456986
2016-02-14,1539.95526934
2016-02-15,644.832066390002
2016-02-16,1709.93212246
2016-02-17,12145.55227076
2016-02-18,3370.11512123
2016-02-19,1746.6856249
2016-02-20,26745.55867606
2016-02-21,952.60623214
2016-02-22,2662.9702409
2016-02-23,11909.9402565
2016-02-24,884.51436348
2016-02-25,2453.37188915
2016-02-26,2782.74378938
2016-02-27,1078.86037765
2016-02-28,1336.65484607
2016-02-29,2954.8203491
2016-03-01,1799.56705104
2016-03-02,20101.81199453
2016-03-03,12391.34621815
2016-03-04,1130.51027446
2016-03-05,9179.63507082001
2016-03-06,1333.1432837
2016-03-07,1282.526922
2016-03-08,3285.11136751
2016-03-09,766.116132710001
2016-03-10,8481.80497522999
2016-03-11,1387.7849697
2016-03-12,5630.79638726
2016-03-13,3073.40234575
2016-03-14,1345.28534838
2016-03-15,1194.43772355
2016-03-16,2155.73493294
2016-03-17,10385.49091105
2016-03-18,8541.29848356999
2016-03-19,3373.35607866
2016-03-20,1418.9450717
2016-03-21,8143.87020782
2016-03-22,392.2055905
2016-03-23,655.33387129
2016-03-24,1597.00369077
2016-03-25,1287.11439928
2016-03-26,1925.95990702
2016-03-27,770.77246515
2016-03-28,1270.49022712
2016-03-29,3655.91631223
2016-03-30,1148.53816718
2016-03-31,2203.84463081
2016-04-01,661.72769133
2016-04-02,981.45269787
2016-04-03,241.93425364
2016-04-04,1177.00366758
2016-04-05,565.68188861
2016-04-06,1422.17167825
2016-04-07,1139.6850073
2016-04-08,456.08501873
2016-04-09,988.50958759
2016-04-10,3135.01235031
2016-04-11,537.77244498
2016-04-12,1019.32312379
2016-04-13,2010.63065589
2016-04-14,2457.23139924001
2016-04-15,1267.4342995
2016-04-16,1512.14824314
2016-04-17,152.42050461
2016-04-18,2194.54468962
2016-04-19,513.30903707
2016-04-20,506.47091653
2016-04-21,3859.74673459
2016-04-22,898.9613454
2016-04-23,650.97155791
2016-04-24,17562.78279335
2016-04-25,212384.387566566
2016-04-26,207705.34938971
2016-04-27,55179.32106768
2016-04-28,207360.16494695
2016-04-29,928.92899117
2016-04-30,402.78966265
2016-05-01,700.42461752
2016-05-02,2764.10410378
2016-05-03,1424.17861842
2016-05-04,803.82154976
2016-05-05,2452.0019956
2016-05-06,1043.97292765
2016-05-07,2497.93878463
2016-05-08,1222.84688561
2016-05-09,10682.61299608
2016-05-10,8138.61640447
2016-05-11,4170.04756806
2016-05-12,3468.76044206
2016-05-13,8770.72863832
2016-05-14,1856.61916726
2016-05-15,2671.08488444
2016-05-16,475.20322647
2016-05-17,8277.13454594001
2016-05-18,5622.84974348
2016-05-19,1931.55814963
2016-05-20,10928.57038575
2016-05-21,20105.05330797
2016-05-22,1119.60823228
2016-05-23,172.72323664
2016-05-24,1322.66257539
2016-05-25,1548.83026963
2016-05-26,30898.07364969
2016-05-27,21402.32312554
2016-05-28,13386.77694766
2016-05-29,36080.82365479
2016-05-30,5003.09718047
2016-05-31,201996.45312207
2016-06-01,191.4761378
2016-06-02,17929.76916009
2016-06-03,346.35660458
2016-06-04,201421.30455278
2016-06-05,5938.77452169
2016-06-06,4017.11677342
2016-06-07,12755.37645033
2016-06-08,2666.75194939001
2016-06-09,275.20599145
2016-06-10,262.49393954
2016-06-11,319.79211236
2016-06-12,15263.87515252
2016-06-13,41695.67610597
2016-06-14,4859.3779175
2016-06-15,2330.41613677
2016-06-16,7829.34832707
2016-06-17,16877.4937623
2016-06-18,3868.08191304
2016-06-19,2024.17838049
2016-06-20,4421.68664246
2016-06-21,10242.25463292
2016-06-22,135601.38777074
2016-06-23,4468.84944092
2016-06-24,117553.05081099
2016-06-25,315.9464159
2016-06-26,1421.20615162
2016-06-27,374.24414525
2016-06-28,893.62201561
2016-06-29,1556.12429836
2016-06-30,490.23142884
2016-07-01,2042.77748375
2016-07-02,372.64012788
2016-07-03,446.28283347
2016-07-04,1281.32287476
2016-07-05,203594.04597333
2016-07-06,329.3358636
2016-07-07,35434.04426956
2016-07-08,3908.8312316
2016-07-09,11174.3189338
2016-07-10,10739.95371071
2016-07-11,1417.02332681
2016-07-12,2167.79117008
2016-07-13,1922.59480557
2016-07-14,677.545601750001
2016-07-15,1064.58520877
2016-07-16,100.12605418
2016-07-17,3198.36559491
2016-07-18,1765.35444431
2016-07-19,30238.98819837
2016-07-20,28901.17840046
2016-07-21,284.09811987
2016-07-22,24679.61567616
2016-07-23,1998.29142546
2016-07-24,3997.06841544
2016-07-25,2263.05114806
2016-07-26,4517.10230574999
2016-07-27,2410.63140133
2016-07-28,3436.64706327
2016-07-29,1137.84528302
2016-07-30,9984.37686608001
2016-07-31,5320.87280245
2016-08-01,2053.69417616
2016-08-02,7541.58539561999
2016-08-03,736383.53735841
2016-08-04,12780.36381415
2016-08-05,454.26681638
2016-08-06,1863.32827395
2016-08-07,5417.44208773
2016-08-08,128.9971729
2016-08-09,2558.28623241
2016-08-10,1453.92524381
2016-08-11,89692.0700196101
2016-08-12,748.97276804
2016-08-13,961.28872005
2016-08-14,927.35070171
2016-08-15,500057.49023747
2016-08-16,4879.29005777
2016-08-17,610.69496048
2016-08-18,2902.26761627
2016-08-19,964.65675075
2016-08-20,512.04866662
2016-08-21,65.38846906
2016-08-22,3661.18214072
2016-08-23,2896.07301238
2016-08-24,9577.16479552
2016-08-25,2436.03244711
2016-08-26,20327.57427104
2016-08-27,744.31512257
2016-08-28,832.92673135
2016-08-29,1858.27549753
2016-08-30,2170.66464163
2016-08-31,4453.02652983
2016-09-01,1842.20292437
2016-09-02,486.14832858
2016-09-03,23151.28610627
2016-09-04,776.281998469999
2016-09-05,1469.50891829
2016-09-06,989.94811042
2016-09-07,1800.71215973
2016-09-08,4627.46822064
2016-09-09,1594.03096766
2016-09-10,598.625325359997
2016-09-11,1111.34480635
2016-09-12,6922.35163987
2016-09-13,986.956525469998
2016-09-14,95.04713936
2016-09-15,599.31893229
2016-09-16,458.50931835
2016-09-17,10889.5230271202
2016-09-18,472.2701213
2016-09-19,174.53016448
2016-09-20,2132.986083
2016-09-21,347.93324662
2016-09-22,2326.37353436
2016-09-23,10380.26860576
2016-09-24,1624.92008277
2016-09-25,6.98385302
2016-09-26,3981.05800291
2016-09-27,2487.75726219
2016-09-28,992.09218198
2016-09-29,1024.3931862
2016-09-30,1692.08835667
2016-10-01,159.22877153
2016-10-02,4648.75502196001
2016-10-03,95.12090337
2016-10-04,6.28046874
2016-10-05,6288.13756777
2016-10-06,213.43288327
2016-10-07,26351.07185288
2016-10-08,1090.25619976
2016-10-09,901.1986803
2016-10-10,1475.70824684
2016-10-11,3918.16572226
2016-10-12,7461.68419333
2016-10-13,192.59567246
2016-10-14,988.2179432
2016-10-15,1920.06095596
2016-10-16,1206.44284581
2016-10-17,1158.26429054
2016-10-18,1210.92672384
2016-10-19,1099.37948947
2016-10-20,1234.31643566
2016-10-21,2033.46895621
2016-10-22,50.72251828
2016-10-23,10550.43772498
2016-10-24,356.01621919
2016-10-25,1026.69260496
2016-10-26,6629.16915649
2016-10-27,2151.74425962
2016-10-28,2970.40755592
2016-10-29,5953.03881806
2016-10-30,1356.4894123
2016-10-31,7900.05692539
2016-11-01,5783.26954864001
2016-11-02,1049.24276968
2016-11-03,2622.74845245
2016-11-04,3489.23400252
2016-11-05,480.66385328
2016-11-06,1593.86695707
2016-11-07,9408.95405323
2016-11-08,570.9451968
2016-11-09,1084.02025744
2016-11-10,4749.5480508
2016-11-11,428.43355908
2016-11-12,3706.86732971
2016-11-13,436.56836831
2016-11-14,3059.48976375
2016-11-15,253.69264107
2016-11-16,2159.08048197
2016-11-17,90414.81067687
2016-11-18,3441.35325543
2016-11-19,2297.71418167
2016-11-20,3545.56853627
2016-11-21,140501.25717642
2016-11-22,3581.56538952
2016-11-23,2601.9379588
2016-11-24,739.28326087
2016-11-25,2449.37073725
2016-11-26,1656.59733652
2016-11-27,68.18716528
2016-11-28,538.99785886
2016-11-29,267.80794511
2016-11-30,4548.58042121
2016-12-01,495.45727357
2016-12-02,2214.79870511
2016-12-03,2339.49447611
2016-12-04,2675.55212371
2016-12-05,1268.45684972
2016-12-06,8799.99575384
2016-12-07,331.51028621
2016-12-08,660.16137944
2016-12-09,2903.62582324
2016-12-10,321.19780502
2016-12-11,1280.53943257
2016-12-12,16596.45761442
2016-12-13,5842.55234346
2016-12-14,21328.48311746
2016-12-15,70611.18189779
2016-12-16,1032.90409803
2016-12-17,1007.59399726
2016-12-18,1050.44901754
2016-12-19,1121.90034132
2016-12-20,360.61002088
2016-12-21,15469.21115572
2016-12-22,2497.41650868
2016-12-23,10209.08542749
2016-12-24,163715.9249161
2016-12-25,4441.47287768
2016-12-26,1462.72089133
2016-12-27,2604.38131979
2016-12-28,11903.66430605
2016-12-29,8185.78829493002
2016-12-30,600844.18961487
2016-12-31,181028.17296653
2017-01-01,2569.89497009
2017-01-02,5498.91811984
2017-01-03,5705.13646956001
2017-01-04,19290.0691405
2017-01-05,131223.45891429
2017-01-06,6433.42649725
2017-01-07,2561.21067408
2017-01-08,2984.63048436
2017-01-09,6025.31430255
2017-01-10,3506.9910897
2017-01-11,60716.84904426
2017-01-12,9626.26923093
2017-01-13,1186.85778993
2017-01-14,215.65328312
2017-01-15,4060.90840443003
2017-01-16,1490.927307
2017-01-17,6172.75208276001
2017-01-18,932.95828459
2017-01-19,4607.64008799
2017-01-20,100936.138247581
2017-01-21,11345.09920122
2017-01-22,300.34063712
2017-01-23,4911.55890231
2017-01-24,17405.5907304
2017-01-25,100764.63878231
2017-01-26,2054.87292203
2017-01-27,1198.74524626
2017-01-28,106004.51174735
2017-01-29,1168.49129253
2017-01-30,100587.12246536
2017-01-31,100726.08083
2017-02-01,968.839839209993
2017-02-02,1025.41340713
2017-02-03,104792.28134787
2017-02-04,1229.35992755
2017-02-05,5811.34182184
2017-02-06,101119.58013477
2017-02-07,5974.16734361
2017-02-08,327.59177261
2017-02-09,12548.5599106701
2017-02-10,939.46970532
2017-02-11,1465.36291197
2017-02-12,435.67821265
2017-02-13,1919.80440040999
2017-02-14,2300.97344707999
2017-02-15,891.241267189998
2017-02-16,849.40454346
2017-02-17,2508.94437181004
2017-02-18,2730.72002939003
2017-02-19,4341.24155676
2017-02-20,1383.90322481
2017-02-21,634.56270784
2017-02-22,810.599317750001
2017-02-23,15989.62684458
2017-02-24,403236.84218192
2017-02-25,464.30877064
2017-02-26,2240.52185995
2017-02-27,2054.41985854
2017-02-28,1692.20353071
2017-03-01,4917.37745794
2017-03-02,12597.92381431
2017-03-03,4164.05894869
2017-03-04,857.57895448
2017-03-05,2414.19348088
2017-03-06,4219.42518044
2017-03-07,1157.29054558
2017-03-08,3040.66852787
2017-03-09,1183.33297295
2017-03-10,1102.6028665
2017-03-11,208.97052166
2017-03-12,3233.87486797
2017-03-13,14213.52732678
2017-03-14,976.135299529999
2017-03-15,23271.86259502
2017-03-16,7056.80070267
2017-03-17,9695.87142773
2017-03-18,6419.9596528
2017-03-19,2729.34266961
2017-03-20,6946.92190865
2017-03-21,1682.13939395
2017-03-22,631.4511381
2017-03-23,4458.32634325
2017-03-24,1430.57861994
2017-03-25,7030.39313492
2017-03-26,2347.62231763
2017-03-27,720.40861072
2017-03-28,1323.75448712
2017-03-29,2170.77802272
2017-03-30,102811.98395638
2017-03-31,443574.54758583
2017-04-01,132651.78508759
2017-04-02,29487.19849216
2017-04-03,17593.88494973
2017-04-04,26253.68718703
2017-04-05,59617.4492871899
2017-04-06,61247.2348833202
2017-04-07,12899.9692128
2017-04-08,7494.39319343
2017-04-09,9068.97860696003
2017-04-10,8105.89087602
2017-04-11,2731.74421401
2017-04-12,22831.71842094
2017-04-13,3874.18151012001
2017-04-14,1637.02982587
2017-04-15,5084.25433719
2017-04-16,3950.8256255
2017-04-17,19211.44395278
2017-04-18,3133.73546996
2017-04-19,5427.08894059001
2017-04-20,1327.9670183
2017-04-21,3594.00875402
2017-04-22,6649.31100605005
2017-04-23,14522.25284531
2017-04-24,161458.45602581
2017-04-25,3491.80975560002
2017-04-26,62753.9930478601
2017-04-27,5376.1309634
2017-04-28,2513.16304075
2017-04-29,838.461386780001
2017-04-30,4329.24821198
2017-05-01,18211.32807707
2017-05-02,22263.8517228
2017-05-03,39517.09772907
2017-05-04,280790.097703844
2017-05-05,155962.08398921
2017-05-06,9220.49260539
2017-05-07,23658.81941712
2017-05-08,7055.33228699001
2017-05-09,37348.4177769498
2017-05-10,55838.8245683399
2017-05-11,25670.21687862
2017-05-12,14135.12217283
2017-05-13,8837.69182798
2017-05-14,5703.66513844
2017-05-15,7225.19833554
2017-05-16,27072.8176014
2017-05-17,6673.22924047
2017-05-18,3455.26892973
2017-05-19,2179.26195371
2017-05-20,1807.91834056
2017-05-21,998.59725526
2017-05-22,12534.70405585
2017-05-23,3920.10205447002
2017-05-24,44924.80237304
2017-05-25,5637.55557911
2017-05-26,5243.48933192
2017-05-27,6982.22445855001
2017-05-28,16831.06771117
2017-05-29,12992.49486023
2017-05-30,1768.7603883
2017-05-31,1440.89662314
2017-06-01,8412.68975070999
2017-06-02,1743.06713446
2017-06-03,641.27699947
2017-06-04,1293.61233693
2017-06-05,3640.70954781
2017-06-06,16925.26698846
2017-06-07,6040.03754719
2017-06-08,1282.38170837
2017-06-09,380.64563139
2017-06-10,2630.7499725
2017-06-11,6543.67278872009
2017-06-12,3501.21573029
2017-06-13,2809.95907038
2017-06-14,1357.16716142
2017-06-15,480058.108302037
2017-06-16,5812.60808703999
2017-06-17,11817.1856222
2017-06-18,8840.14460224
2017-06-19,6476.81438337
2017-06-20,9160.44453811001
2017-06-21,7875.19436612
2017-06-22,4441.02076061
2017-06-23,7280.69419737
2017-06-24,4112.48146614
2017-06-25,27408.7182578599
2017-06-26,10378.73241917
2017-06-27,4947.01448063
2017-06-28,3243.91185222
2017-06-29,8729.2147056
2017-06-30,2234.15581367
2017-07-01,1963.61783689
2017-07-02,3326.14222645
2017-07-03,36793.9740345699
2017-07-04,51789.89529725
2017-07-05,5874.4450468
2017-07-06,103369.92492186
2017-07-07,101805.15865995
2017-07-08,5482.51716207
2017-07-09,4322.56154198
2017-07-10,2012.72081648
2017-07-11,4602.389288
2017-07-12,24292.87047408
2017-07-13,1544.63679261
2017-07-14,897.48696411
2017-07-15,1266.92216887
2017-07-16,1577.93815146
2017-07-17,1280.35891313
2017-07-18,1948.2214618
2017-07-19,508.25888225
2017-07-20,5067.10584079999
2017-07-21,291.84271401
2017-07-22,558.49048313
2017-07-23,216.86727697
2017-07-24,266.83465701
2017-07-25,197.79656454
2017-07-26,5019.53558968
2017-07-27,5684.82052229
2017-07-28,1804.29427584
2017-07-29,820.10241971
2017-07-30,10399.30581389
2017-07-31,4076.01177239
2017-08-01,5109.54308957002
2017-08-02,2051.79776239
2017-08-03,1020.74829783
2017-08-04,1597.57761253
2017-08-05,2010.85821799
2017-08-06,292.60542943
2017-08-07,7258.78315305001
2017-08-08,728.22703979
2017-08-09,416.81329367
2017-08-10,117.50684528
2017-08-11,180.0020983
2017-08-12,157.99090326
2017-08-13,10140.78950988
2017-08-14,1334.44668014
2017-08-15,1865.9410845
2017-08-16,1686.80272838
2017-08-17,1643.13628745
2017-08-18,1835.16531308
2017-08-19,4773.00430123
2017-08-20,254.67141989
2017-08-21,300.41951451
2017-08-22,158.90250306
2017-08-23,518.31620533
2017-08-24,106181.49633273
2017-08-25,650.48347532
2017-08-26,546.558817850001
2017-08-27,6881.04835774002
2017-08-28,10258.33398262
2017-08-29,41.00075261
2017-08-30,374.3176349
2017-08-31,12436.62494246
2017-09-01,170637.52856418
2017-09-02,359692.6272531
2017-09-03,2612.36966573
2017-09-04,211901.08579491
2017-09-05,32212.58311168
2017-09-06,102392.52039131
2017-09-07,335.35799558
2017-09-08,202918.29099665
2017-09-09,101641.44335763
2017-09-10,202917.54323378
2017-09-11,103648.51239902
2017-09-12,101440.43840699
2017-09-13,514.47828635
2017-09-14,102106.55940305
2017-09-15,341953.62239269
2017-09-16,107070.28804085
2017-09-17,2708.35893707
2017-09-18,8199.05543512
2017-09-19,6333.91943529
2017-09-20,1318.90318736
2017-09-21,310.72356221
2017-09-22,99.74997966
2017-09-23,164.14468691
2017-09-24,163.76507748
2017-09-25,8607.52037676999
2017-09-26,5584.52131311
2017-09-27,42.93121228
2017-09-28,716.524486889999
2017-09-29,65.84273999
2017-09-30,172.63321667
2017-10-01,1932.52752865
2017-10-02,40.71889047
2017-10-03,100.04013709
2017-10-04,28379.12186149
2017-10-05,190.92561412
2017-10-06,1120.75292933
2017-10-07,105.12788922
2017-10-08,1101.46084943
2017-10-09,312.3630477
2017-10-10,506.75416075
2017-10-11,176.40956932
2017-10-12,1487.16697413
2017-10-13,3508.02755784
2017-10-14,5752.11254021
2017-10-15,546.86272233
2017-10-16,321.5641453
2017-10-17,641.61169574
2017-10-18,343.8085062
2017-10-19,1085.1247403
2017-10-20,271.23772588
2017-10-21,524.20019193
2017-10-22,820.40683335
2017-10-23,208.83437784
2017-10-24,236.36230344
2017-10-25,726.264253450001
2017-10-26,21.48284595
2017-10-27,1095.09665135
2017-10-28,4105.2852111
2017-10-29,9184.05483599
2017-10-30,56.87138539
2017-10-31,3472.40073178
2017-11-01,2378.18183694
2017-11-02,384.16605203
2017-11-03,42.71076587
2017-11-04,2079.70521891
2017-11-05,1038.15056147
2017-11-06,803.10837311
2017-11-07,93.40462865
2017-11-08,281.18344335
2017-11-09,1429.63499805
2017-11-10,4334.99222234
2017-11-11,1113.94520612
2017-11-12,177.96556965
2017-11-13,76.04316121
2017-11-14,183.37459122
2017-11-15,103.08943085
2017-11-16,33.3431286
2017-11-17,282.8623359
2017-11-18,344.42329101
2017-11-19,5058.54144564
2017-11-20,547.93868212
2017-11-21,1404.55161432
2017-11-22,4427.31968814001
2017-11-23,3241.46071219
2017-11-24,14456.77304748
2017-11-25,10574.62017787
2017-11-26,2157.39404244
2017-11-27,2297.82107611
2017-11-28,4233.33727321
2017-11-29,4082.67847101
2017-11-30,2105.41972425
2017-12-01,642.061938849998
2017-12-02,3019.35088784
2017-12-03,1087.57573612
2017-12-04,995.391908140001
2017-12-05,3525.87097195
2017-12-06,146.00707369
2017-12-07,513.33592022
2017-12-08,844.596986719999
2017-12-09,33452.49072788
2017-12-10,1726.18542089
2017-12-11,11294.08877609
2017-12-12,183166.10565671
2017-12-13,4513.57237257
2017-12-14,157424.51890158
2017-12-15,818.04299417
2017-12-16,5445.87499058
2017-12-17,1706.09239425
2017-12-18,1345.95993551
2017-12-19,14625.35861308
2017-12-20,1703.26427868
2017-12-21,3911.81844479
2017-12-22,1630.64889162
2017-12-23,580.31030206
2017-12-24,917.837472050001
2017-12-25,10731.83369696
2017-12-26,604.229798899999
2017-12-27,1013.34411312
2017-12-28,1339.83412019
2017-12-29,386.6457244
2017-12-30,529.8906379
2017-12-31,826.202096750001
2018-01-01,575.68015748
2018-01-02,1463.02478137
2018-01-03,296.66239772
2018-01-04,136.88978139
2018-01-05,326.512957
2018-01-06,4579.0495629
2018-01-07,190.01637352
2018-01-08,222.12977005
2018-01-09,755.06842134
2018-01-10,10523.64734193
2018-01-11,632.52643889
2018-01-12,176.6844543
2018-01-13,101643.55624905
2018-01-14,3993.03710407
2018-01-15,200.89312976
2018-01-16,732.340584060001
2018-01-17,982.083935970001
2018-01-18,1715.52431526
2018-01-19,833.213860709999
2018-01-20,91.65543186
2018-01-21,561.50386001
2018-01-22,111.53482021
2018-01-23,369.19152894
2018-01-24,188.44513591
2018-01-25,406.16056049
2018-01-26,337.71691731
2018-01-27,91.17431368
2018-01-28,85.15836628
2018-01-29,2615.92009607
2018-01-30,620.92747407
2018-01-31,49.05922753
2018-02-01,83.3909827
2018-02-02,356.76888056
2018-02-03,19.79885574
2018-02-04,167.68610393
2018-02-05,93.04495386
2018-02-06,32.93351036
2018-02-07,9.6171139
2018-02-08,40.28099419
2018-02-09,1463.10027764
2018-02-10,204.96904213
2018-02-11,11.95139653
2018-02-12,36007.94979928
2018-02-13,7896.36981215
2018-02-14,459.21528876
2018-02-15,918.692798920001
2018-02-16,2305.83669914
2018-02-17,11907.40570766
2018-02-18,54326.51314617
2018-02-19,440.39928739
2018-02-20,2068.09893305
2018-02-21,2921.52688445
2018-02-22,110253.98783789
2018-02-23,1180.86319918
2018-02-24,1627.34913146
2018-02-25,560.4267409
2018-02-26,718.57341199
2018-02-27,209.75589305
2018-02-28,9.37879378
2018-03-01,66.7378870300001
2018-03-02,52.36955945
2018-03-03,396.16645947
2018-03-04,550.98282423
2018-03-05,3.05373122
2018-03-06,10270.18667893
2018-03-07,53.13550326
2018-03-08,1741.25040352
2018-03-09,289.63797138
2018-03-10,174.84215191
2018-03-11,1193.83820578
2018-03-12,10007.24436297
2018-03-13,129.06276981
2018-03-14,2415.95853715
2018-03-15,133.68906028
2018-03-16,6.98509662
2018-03-17,276.84242767
2018-03-18,5979.52038978
2018-03-19,261.52933365
2018-03-20,638.57274908
2018-03-21,596.69046071
2018-03-22,4376.16292312
2018-03-23,204.41034364
2018-03-24,5.48031823
2018-03-25,2.37670653
2018-03-26,172.1790233
2018-03-27,1518.04997781
2018-03-28,19.80137934
2018-03-29,4282.14929387
2018-03-30,4179.79044702
2018-03-31,1743.97872781
2018-04-01,74.48808142
2018-04-02,134.89912691
2018-04-03,128.05178987
2018-04-04,142.72470494
2018-04-05,38.54360334
2018-04-06,10004.96954356
2018-04-07,93.56027542
2018-04-08,2.60565948
2018-04-09,27.46969499
2018-04-10,2684.08360458
2018-04-11,65.23271589
2018-04-12,5003.00072932
2018-04-13,3.57377548
2018-04-14,0.42286875
2018-04-15,792.61428494
2018-04-16,64.81482985
2018-04-17,23.07338171
2018-04-18,107.76301067
2018-04-19,66.35859905
2018-04-20,57.27336987
2018-04-21,20013.41811923
2018-04-22,616.56023013
2018-04-23,29.09142188
2018-04-24,112.87622127
2018-04-25,96.59314046
2018-04-26,98.98945899
2018-04-27,573.88378789
2018-04-28,34.96832441
2018-04-29,157.53368213
2018-04-30,502.59061753
2018-05-01,19.44092045
2018-05-02,147.07690362
2018-05-03,462.08337988
2018-05-04,130.05984855
2018-05-05,42.21814487
2018-05-06,2279.88405138
2018-05-07,790.21073108
2018-05-08,459.41683541
2018-05-09,324.79303835
2018-05-10,71.86475028
2018-05-11,12.86213915
2018-05-12,72.23998417
2018-05-13,85.18873166
2018-05-14,192.45137998
2018-05-15,351.17417516
2018-05-16,304.19495822
2018-05-17,70.69593847
2018-05-18,300.37527125
2018-05-19,654.07043891
2018-05-20,1050.62981318
2018-05-21,140.47258134
2018-05-22,1383.22121741
2018-05-23,2376.10968267
2018-05-24,196.03210087
2018-05-25,77.5962955
2018-05-26,85.78913084
2018-05-27,153.30712807
2018-05-28,548.61130151
2018-05-29,949.54775268
2018-05-30,933.73658167
2018-05-31,36.37355077
2018-06-01,95.94315839
2018-06-02,193.54950915
2018-06-03,37.87090638
2018-06-04,262.21663125
2018-06-05,98.30454283
2018-06-06,67.84725554
2018-06-07,370.3997861
2018-06-08,106.79054165
2018-06-09,68.4748716500001
2018-06-10,2083.90962893
2018-06-11,4860.65937776
2018-06-12,5082.73944387
2018-06-13,295.89412784
2018-06-14,73.89581855
2018-06-15,25.40306087
2018-06-16,1006.72191954
2018-06-17,111.860572380001
2018-06-18,4379.61764804
2018-06-19,1230.67462553
2018-06-20,103.697144
2018-06-21,494.55008097
2018-06-22,2802.13415435
2018-06-23,927.53836102
2018-06-24,596.21854233
2018-06-25,798.9772774
2018-06-26,1916.12717836
2018-06-27,256.74032383
2018-06-28,1099.75231558
2018-06-29,847.06007881
2018-06-30,3197.22213364
2018-07-01,817.73281162
2018-07-02,677.03638968
2018-07-03,555.03905781
2018-07-04,1121.28813391
2018-07-05,298.22204785
2018-07-06,473.78120869
2018-07-07,1721.08515622
2018-07-08,46.03330514
2018-07-09,151.9721723
2018-07-10,255.72373819
2018-07-11,332.31487244
2018-07-12,4046.61455786
2018-07-13,68.77764399
2018-07-14,363.95052382
2018-07-15,342.22199907
2018-07-16,77.54172905
2018-07-17,595.36968965
2018-07-18,752.45599352
2018-07-19,312.2220072
2018-07-20,582.01290208
2018-07-21,391.99289162
2018-07-22,70.36602416
2018-07-23,730.67792067
2018-07-24,1102.51897731
2018-07-25,1382.18485532
2018-07-26,327.47621022
2018-07-27,866.40034321
2018-07-28,906.76498753
2018-07-29,689.09746328
2018-07-30,1108.74265834
2018-07-31,859.15846179
2018-08-01,642.07238614
2018-08-02,274.68278509
2018-08-03,1231.96313027
2018-08-04,766.26411483
2018-08-05,428.61898954
2018-08-06,1446.37512933
2018-08-07,211.44889983
2018-08-08,2315.0100738
2018-08-09,2173.98463734
2018-08-10,6819.34214771
2018-08-11,1640.48609211
2018-08-12,685.41867712
2018-08-13,2544.23627441
2018-08-14,5910.16400421
2018-08-15,1989.62529417
2018-08-16,1064.19736477
2018-08-17,2142.04599339
2018-08-18,177.61647806
2018-08-19,811.73113162
2018-08-20,508.09882626
2018-08-21,287.95832614
2018-08-22,5428.11399444
2018-08-23,834.3529887
2018-08-24,415.78160467
2018-08-25,2552.01600421
2018-08-26,199.08184098
2018-08-27,365.179539259999
2018-08-28,293.56270054
2018-08-29,517.02241016
2018-08-30,153.04171393
2018-08-31,530.82353064
2018-09-01,114023.94321125
2018-09-02,179.64716351
2018-09-03,15654.24951412
2018-09-04,8466.5399557
2018-09-05,20626.7730359
2018-09-06,393.43680061
2018-09-07,955.7437212
2018-09-08,526.97835634
2018-09-09,2242.52718945
2018-09-10,3816.31858749
2018-09-11,1579.57855281
2018-09-12,3936.14788194
2018-09-13,1872.39007735
2018-09-14,677.26691947
2018-09-15,4550.39701037
2018-09-16,1834.3342454
2018-09-17,13979.77320873
2018-09-18,2575.31474019
2018-09-19,1241.17622306
2018-09-20,1922.75971093
2018-09-21,2787.31405074
2018-09-22,1033.89714843
2018-09-23,1857.10738708
2018-09-24,424.52898145
2018-09-25,1624.82428996
2018-09-26,1698.34673734
2018-09-27,6282.80746728
2018-09-28,125888.01379983
2018-09-29,3541.14245439
2018-09-30,486.03555521
2018-10-01,3706.87588576
2018-10-02,4688.64029451999
2018-10-03,1811.33754404
2018-10-04,491.54605567
2018-10-05,568.94144325
2018-10-06,2594.78301927
2018-10-07,266.94843899
2018-10-08,25156.38114128
2018-10-09,548.25781098
2018-10-10,2118.64335056
2018-10-11,685.33187685
2018-10-12,2104.2835986
2018-10-13,1344.20165685
2018-10-14,852.2459139
2018-10-15,3907.55225996
2018-10-16,2919.10900147
2018-10-17,3729.1017557
2018-10-18,1955.15417406
2018-10-19,809.30345513
2018-10-20,2586.02273519
2018-10-21,957.969695590001
2018-10-22,1561.58868925
2018-10-23,952.74296851
2018-10-24,5684.25453509
2018-10-25,761.4611831
2018-10-26,9370.13317613
2018-10-27,948.75651701
2018-10-28,1089.12754993
2018-10-29,5057.64122938
2018-10-30,24161.08597323
2018-10-31,853.73489034
2018-11-01,1078.34769076
2018-11-02,1186.1443465
2018-11-03,2147.62877416
2018-11-04,1769.77714088
2018-11-05,4161.52953824
2018-11-06,7605.58156413
2018-11-07,368134.82175034
2018-11-08,2116.26340126
2018-11-09,456.88042795
2018-11-10,360.90967765
2018-11-11,867.97469479
2018-11-12,2347.35817111
2018-11-13,2964.93014291001
2018-11-14,5225.97310714
2018-11-15,4068.8509522
2018-11-16,1164.94422392
2018-11-17,717.224993049999
2018-11-18,6339.34713245
2018-11-19,7829.42260579
2018-11-20,11540.1664069
2018-11-21,17310.77659209
2018-11-22,4061.23000063
2018-11-23,3671.50683635
2018-11-24,3600.10311337
2018-11-25,57087.5480121702
2018-11-26,6786.17788026001
2018-11-27,15618.5793382
2018-11-28,24800.58774754
2018-11-29,3064586.52239492
2018-11-30,4353543.28312132
2018-12-01,2463.17824404001
2018-12-02,1085.78894941
2018-12-03,2476.35469557
2018-12-04,9602.21346720996
2018-12-05,28509.0374903501
2018-12-06,36263.2707231799
2018-12-07,13290.56323123
2018-12-08,26644.12253076
2018-12-09,1593.51825479999
2018-12-10,3767.20628994001
2018-12-11,5419.40056534999
2018-12-12,2859.82534839
2018-12-13,13051.68081099
2018-12-14,11498.79529135
2018-12-15,8043.81992393001
2018-12-16,4569.98050367002
2018-12-17,4900.24907618002
2018-12-18,5164.97492863999
2018-12-19,15084.4628205
2018-12-20,3431.92512029004
2018-12-21,1355.87763626
2018-12-22,1642.67050085001
2018-12-23,9895.66729585001
2018-12-24,2866.84113200002
2018-12-25,3863.65884346
2018-12-26,32466.0189554602
2018-12-27,46174.2341574198
2018-12-28,2216.77202002999
2018-12-29,2237.87621829002
2018-12-30,3357.49743780001
2018-12-31,7280.36460516003
2019-01-01,2953.84352533003
2019-01-02,5321.55331228003
2019-01-03,2031.46129113994
2019-01-04,2005.26010378001
2019-01-05,22120.5543008301
2019-01-06,7917.21353119998
2019-01-07,4340.38562471
2019-01-08,4104.95870638
2019-01-09,1697.45005247
2019-01-10,5410.25952019001
2019-01-11,258587.0048979
2019-01-12,2179.1035166
2019-01-13,3936.87620865
2019-01-14,6542.57378896
2019-01-15,5821.22133988
2019-01-16,4034.33273335
2019-01-17,3012.72157504
2019-01-18,2597.07237992
2019-01-19,3382.05078104
2019-01-20,2405.94430707
2019-01-21,5831.93040328
2019-01-22,1300.28112833
2019-01-23,3309.07341542
2019-01-24,3096.68902969
2019-01-25,5109.72566881001
2019-01-26,2412.950722
2019-01-27,1744.99921182
2019-01-28,5301.34261665001
2019-01-29,3378.10402234
2019-01-30,97419.74423355
2019-01-31,1739.34286835
2019-02-01,7746.00521402999
2019-02-02,2670.99436869999
2019-02-03,23137.19142303
2019-02-04,24045.69693822
2019-02-05,4665.21180504
2019-02-06,57198.14252607
2019-02-07,3920.19964565
2019-02-08,16948.3928763
2019-02-09,10652.91596052
2019-02-10,42723.1061884696
2019-02-11,4470.02674167999
2019-02-12,67477.10211734
2019-02-13,3715.70693711
2019-02-14,4102.57048644999
2019-02-15,7016.62704250009
2019-02-16,3361.02144330999
2019-02-17,4558.48476275
2019-02-18,16003.67431499
2019-02-19,9658.17967130999
2019-02-20,6537.22046389
2019-02-21,5599.25987807
2019-02-22,4944.72171446
2019-02-23,3414.03757595
2019-02-24,5574.48364418
2019-02-25,8223.32041148999
2019-02-26,7722.53303474
2019-02-27,76693.6003833
2019-02-28,13622.69170467
2019-03-01,3722.64390255004
2019-03-02,6689.89035239001
2019-03-03,2953.49082115999
2019-03-04,7007.32847951999
2019-03-05,6229.24594756
2019-03-06,10634.6523681
2019-03-07,62272.8128894602
2019-03-08,11060.33804082
2019-03-09,9344.86940078001
2019-03-10,10146.01588443
2019-03-11,10719.3264855
2019-03-12,22390.39499145
2019-03-13,9903.48065223002
2019-03-14,5526.71159536001
2019-03-15,5730.4750715
2019-03-16,10662.63938634
2019-03-17,12012.64305714
2019-03-18,53709.3236203099
2019-03-19,165544.56652114
2019-03-20,5011.40973812001
2019-03-21,7185.01775682
2019-03-22,7166.50852760999
2019-03-23,5420.83050768
2019-03-24,13977.7202305
2019-03-25,9220.84631967
2019-03-26,21429.98166197
2019-03-27,6223.12344822001
2019-03-28,27158.6120605
2019-03-29,11297.07182132
2019-03-30,41435.6211436499
2019-03-31,3806.02210518
2019-04-01,6228.89600272011
2019-04-02,16542.5223182
2019-04-03,107263.551872731
2019-04-04,33088.5876656199
2019-04-05,61490.4160711293
2019-04-06,39602.2471834999
2019-04-07,12581.66579433
2019-04-08,17389.05595535
2019-04-09,12720.85564961
2019-04-10,8813.84460047001
2019-04-11,18115.74419898
2019-04-12,5868.00702877
2019-04-13,18014.37688266
2019-04-14,3159.14389574
2019-04-15,5557.07694602
2019-04-16,56318.0932046199
2019-04-17,11056.41413438
2019-04-18,6532.62305621999
2019-04-19,14808.2711554901
2019-04-20,3425.33586881
2019-04-21,6474.88502793002
2019-04-22,8247.47695388006
2019-04-23,5619.89975720006
2019-04-24,8609.67186818003
2019-04-25,5670.84500840001
2019-04-26,6796.48564058001
2019-04-27,2647.23265364
2019-04-28,31412.39747097
2019-04-29,8903.35598966999
2019-04-30,5107.05118731999
2019-05-01,81553.8141747603
2019-05-02,9538.36275870999
2019-05-03,7668.49675265011
2019-05-04,8167.08458430003
2019-05-05,10080.6364504
2019-05-06,4425.84022528004
2019-05-07,7424.91490982003
2019-05-08,8059.90024936014
2019-05-09,9956.44144961999
2019-05-10,11715.7293685001
2019-05-11,16722.5224758001
2019-05-12,11632.763386
2019-05-13,45501.4367363799
2019-05-14,37842.29032453
2019-05-15,40641.46598042
2019-05-16,23269.2585789997
2019-05-17,10635.42006873
2019-05-18,10465.2444688301
2019-05-19,11343.39328773
2019-05-20,22128.9886460697
2019-05-21,12445.83301491
2019-05-22,50432.2972993
2019-05-23,10559.93809053
2019-05-24,21774.58331068
2019-05-25,10071.35033211
2019-05-26,24179.3261114001
2019-05-27,28652.0237553199
2019-05-28,16264.99716609
2019-05-29,10740.57103175
2019-05-30,33057.4259390905
2019-05-31,17140.2478163502
2019-06-01,11863.80941875
2019-06-02,7357.67604624999
2019-06-03,10723.45094501
2019-06-04,12049.41905702
2019-06-05,12778.88296958
2019-06-06,8134.16555863036
2019-06-07,18077.4157710501
2019-06-08,11730.4448931402
2019-06-09,12885.86575073
2019-06-10,17410.0049939205
2019-06-11,961117.341089078
2019-06-12,88348.0571048662
2019-06-13,20324.74325888
2019-06-14,37678.42574256
2019-06-15,18372.5791883097
2019-06-16,12107.93735933
2019-06-17,13143.06279487
2019-06-18,13948.9445812707
2019-06-19,11597.8875253305
2019-06-20,18044.5521874899
2019-06-21,14623.0005244104
2019-06-22,22049.8059855099
2019-06-23,17588.60793497
2019-06-24,118199.99478127
2019-06-25,33054.9068741399
2019-06-26,40472.9724432703
2019-06-27,33055.8811734496
2019-06-28,17396.4829354201
2019-06-29,24315.5358699299
2019-06-30,25355.01998487
2019-07-01,25120.2218385398
2019-07-02,32893.6948411201
2019-07-03,32177.84813917
2019-07-04,44433.1504632994
2019-07-05,34660.3572443089
2019-07-06,31684.3374186999
2019-07-07,41998.5600460193
2019-07-08,33421.3344552396
2019-07-09,9408.17938549003
2019-07-10,22450.83706071
2019-07-11,11379.88697638
2019-07-12,8971.87045538999
2019-07-13,10868.2062028
2019-07-14,20022.93501057
2019-07-15,10303.56913229
2019-07-16,11918.48644969
2019-07-17,15844.13889983
2019-07-18,5782.39422688
2019-07-19,24765.0303695
2019-07-20,6338.07681493999
2019-07-21,6544.95195453999
2019-07-22,5932.07487427999
2019-07-23,10897.6694761301
2019-07-24,3206.56065927
2019-07-25,3975.89896271998
2019-07-26,11699.3760875
2019-07-27,5736.77495706001
2019-07-28,4086.05919769999
2019-07-29,10901.06623173
2019-07-30,5423.65828149
2019-07-31,8746.29373772998
2019-08-01,8333.18556938001
2019-08-02,6520.35276159999
2019-08-03,4383.73720522
2019-08-04,8401.07681778005
2019-08-05,14811.60774719
2019-08-06,9934.35157355002
2019-08-07,121996.71169406
2019-08-08,9459.99085633004
2019-08-09,9249.16156567
2019-08-10,7288.99412890994
2019-08-11,6052.66047751995
2019-08-12,14298.94738176
2019-08-13,17176.2845771601
2019-08-14,6920.62214972005
2019-08-15,4971.31003005001
2019-08-16,7508.13489540001
2019-08-17,5206.07428537
2019-08-18,6560.85495895999
2019-08-19,5997.51596584005
2019-08-20,4241.24683800001
2019-08-21,8728.45556117
2019-08-22,7181.04954825012
2019-08-23,11735.6489255599
2019-08-24,4302.43243076004
2019-08-25,5285.24977213014
2019-08-26,22692.02716606
2019-08-27,4325.59962713001
2019-08-28,5433.38678360002
2019-08-29,6663.86236219001
2019-08-30,5319.73293866
2019-08-31,2173.10318795
2019-09-01,12745.22391005
2019-09-02,5934.81958878006
2019-09-03,2872.35053406003
2019-09-04,4746.30633039004
2019-09-05,23415.9789893798
2019-09-06,7116.43364941008
2019-09-07,3358.58295229002
2019-09-08,8973.13978159001
2019-09-09,14517.1155072
2019-09-10,54321.7844571202
2019-09-11,9367.55434936003
2019-09-12,3998.64342149998
2019-09-13,2985.52446725999
2019-09-14,2389.57516058001
2019-09-15,8120.57850078
2019-09-16,3375.4651496
2019-09-17,7021.18246206
2019-09-18,6581.18898638001
2019-09-19,7556.60308780002
2019-09-20,6988.13979297004
2019-09-21,4975.83115966
2019-09-22,3466.19329501999
2019-09-23,5978.73715156
2019-09-24,7089.67155176997
2019-09-25,4618.88526775998
2019-09-26,23405.4102778101
2019-09-27,3373.07381611999
2019-09-28,2183.86199154
2019-09-29,3648.94856376
2019-09-30,3557.89825676
2019-10-01,6134.01300316
2019-10-02,24989.8897299491
2019-10-03,8141.34938145002
2019-10-04,4578.9983982
2019-10-05,2259.5862445
2019-10-06,9817.85761954003
2019-10-07,4872.95521034
2019-10-08,18514.9935441398
2019-10-09,57159.04330575
2019-10-10,7365.60944747001
2019-10-11,5577.48864564001
2019-10-12,7518.49867277
2019-10-13,1910.87025844
2019-10-14,133366.30703654
2019-10-15,5310.9906589
2019-10-16,2665.01474506
2019-10-17,4217.54406504
2019-10-18,34815.56878308
2019-10-19,8152.82861584999
2019-10-20,15038.2833556
2019-10-21,2955.87742425
2019-10-22,1774.74026153
2019-10-23,4409.36595984
2019-10-24,45496.38865345
2019-10-25,2610.86972708
2019-10-26,5119.73473831
2019-10-27,3687.55793183
2019-10-28,4246.70437801999
2019-10-29,7124.20997441998
2019-10-30,5990.76939574
2019-10-31,4356.17131801
2019-11-01,42555.5152738101
2019-11-02,4605.84869757
2019-11-03,5313.1886106
2019-11-04,7265.92731428
2019-11-05,6029.04394321
2019-11-06,4544.25621410998
2019-11-07,4394.24662980999
2019-11-08,5090.70560338999
2019-11-09,6263.40452137003
2019-11-10,5507.85245745
2019-11-11,3721.67460576012
2019-11-12,6074.91348733997
2019-11-13,3480.91401631005
2019-11-14,5995.48105547004
2019-11-15,2637.30721801
2019-11-16,3369.68344036998
2019-11-17,2873.01226414
2019-11-18,50226.31935845
2019-11-19,3816.61950442
2019-11-20,2315.10025401
2019-11-21,2416.68543176
2019-11-22,6945.88602991
2019-11-23,86078.8543178599
2019-11-24,5608.32246553999
2019-11-25,254161.419750351
2019-11-26,3657.87800012
2019-11-27,8217.77562771001
2019-11-28,4599.06296961
2019-11-29,13668.8139642901
2019-11-30,22019.5266897899
2019-12-01,5037.65093229
2019-12-02,8782.85077792
2019-12-03,4743.73554055999
2019-12-04,3603.78367012999
2019-12-05,5443.98551464
2019-12-06,2610.30870818
2019-12-07,33037.46682478
2019-12-08,3056.13599310001
2019-12-09,3026.08976276999
2019-12-10,3891.95784425001
2019-12-11,4915.45508504001
2019-12-12,1588.14567155
2019-12-13,2990.72952336999
2019-12-14,2325.87339626
2019-12-15,5938.25230246
2019-12-16,5453.56999039999
2019-12-17,8305.78286606002
2019-12-18,7188.99724852001
2019-12-19,3332.86872532999
2019-12-20,1816.50370171
2019-12-21,1938.4129556
2019-12-22,2013.49916445
2019-12-23,2216.72159322
2019-12-24,7636.39185092001
2019-12-25,1532.68463078
2019-12-26,4337.4274166
2019-12-27,4396.27516616
2019-12-28,3680.56162083
2019-12-29,2642.61214744
2019-12-30,4267.47471301999
2019-12-31,3328.96060864
2020-01-01,2229.04450983
2020-01-02,5741.87642993999
2020-01-03,3519.24766297
2020-01-04,1229.48920011
2020-01-05,4624.55554527
2020-01-06,5772.07315829004
2020-01-07,3558.01705292
2020-01-08,48220.4972103
2020-01-09,9621.54716455003
2020-01-10,5259.05035569001
2020-01-11,7610.06499232001
2020-01-12,2079.04791328
2020-01-13,3118.27022236999
2020-01-14,9904.15289908003
2020-01-15,4917.21226597001
2020-01-16,25200.07434342
2020-01-17,3177.59527044999
2020-01-18,6300.83671803001
2020-01-19,4835.89863258002
2020-01-20,3683.77329297
2020-01-21,15276.0406134
2020-01-22,1891.0429365
2020-01-23,3459.81719182004
2020-01-24,1601.52663308
2020-01-25,1303.98275687999
2020-01-26,1814.72634332999
2020-01-27,8692.63130607014
2020-01-28,3345.59199952992
2020-01-29,7551.06438634002
2020-01-30,6300.93349034004
2020-01-31,24715.7849029102
2020-02-01,4410.58955794001
2020-02-02,7860.55842712063
2020-02-03,1612.64307825999
2020-02-04,32670.4382294898
2020-02-05,5200.95742432013
2020-02-06,8543.31535611033
2020-02-07,98015.8307573004
2020-02-08,6587.26905552
2020-02-09,12154.34601276
2020-02-10,4778.30212167001
2020-02-11,7655.71798660005
2020-02-12,11540.89749729
2020-02-13,7953.28393922987
2020-02-14,10429.21142109
2020-02-15,11574.9284400301
2020-02-16,7702.43783167001
2020-02-17,3355.52512571
2020-02-18,16619.95943083
2020-02-19,4746.11779956001
2020-02-20,2374.77139829002
2020-02-21,14100.21270772
2020-02-22,2403.7139391
2020-02-23,3384.81969349
2020-02-24,2543.24477181
2020-02-25,3139.91334077
2020-02-26,133873.59406805
2020-02-27,3415.14004275014
2020-02-28,2843.82433948005
2020-02-29,2926.00942689999
2020-03-01,3454.85360542998
2020-03-02,3918.87069469
2020-03-03,1998.90313437997
2020-03-04,2740.61172265066
2020-03-05,2564.68755753073
2020-03-06,6945.74049740045
2020-03-07,2509.9059391401
2020-03-08,2247.56992914001
2020-03-09,3321.20514369
2020-03-10,3624.03768969
2020-03-11,2245.54222311
2020-03-12,13960.29958067
2020-03-13,16883.46030581
2020-03-14,3928.64862320001
2020-03-15,9907.75783082004
2020-03-16,4234.52283021002
2020-03-17,2132.56136709999
2020-03-18,5403.11232392008
2020-03-19,3749.02730303
2020-03-20,4480.33742672999
2020-03-21,23791.15801651
2020-03-22,3275.66167276
2020-03-23,2872.48383144999
2020-03-24,6439.98733778
2020-03-25,15539.38970236
2020-03-26,4684.17693457999
2020-03-27,1889.02503662
2020-03-28,2718.71684940001
2020-03-29,8849.20550952997
2020-03-30,1309.00623122
2020-03-31,12927.40566031
2020-04-01,3113.60253762
2020-04-02,2295.24933612
2020-04-03,2022.41196482
2020-04-04,6914.47899989004
2020-04-05,1535.1533101
2020-04-06,4110.9234656
2020-04-07,2706.72417147
2020-04-08,2175.91886713
2020-04-09,5626.56652419
2020-04-10,4027.28988828
2020-04-11,1124.29215586
2020-04-12,3110.98954915
2020-04-13,3079.99583522001
2020-04-14,2655.44475751
2020-04-15,4815.90798977
2020-04-16,4135.15819664
2020-04-17,4862.26728938
2020-04-18,2310.31808122
2020-04-19,3503.993826
2020-04-20,7872.80022516001
2020-04-21,2632.78027922999
2020-04-22,6400.89066385008
2020-04-23,3045.38603127001
2020-04-24,4407.42915699023
2020-04-25,8683.16461045994
2020-04-26,2808.11288873991
2020-04-27,5161.4254345006
2020-04-28,5003.55773498006
2020-04-29,4180.03732185002
2020-04-30,16882.53934133
2020-05-01,2517.92213072999
2020-05-02,2345.28148412999
2020-05-03,6183.76490362
2020-05-04,5694.45186724
2020-05-05,2867.30154968
2020-05-06,9555.84834197999
2020-05-07,7122.60645811002
2020-05-08,11793.1509750801
2020-05-09,3714.31439752997
2020-05-10,10162.57249562
2020-05-11,4295.77783104
2020-05-12,3161.78181566
2020-05-13,3623.79351118
2020-05-14,3471.40673708
2020-05-15,4400.57791193002
2020-05-16,5004.66604438001
2020-05-17,2598.76578312999
2020-05-18,4301.58518813999
2020-05-19,6906.66256381
2020-05-20,3507.70074145002
2020-05-21,8151.43099832001
2020-05-22,4455.33012358999
2020-05-23,2316.00350224
2020-05-24,5177.83030192002
2020-05-25,3569.68887716
2020-05-26,3680.63332571001
2020-05-27,3788.36577872
2020-05-28,3503.09725347999
2020-05-29,2782.49442682
2020-05-30,9772.91839310003
2020-05-31,4237.4225370099
2020-06-01,2691.29099389997
2020-06-02,6142.38337845
2020-06-03,2098.51298333
2020-06-04,9242.12738724011
2020-06-05,4408.55561995993
2020-06-06,3435.33074461001
2020-06-07,2627.98411794002
2020-06-08,5658.02263749003
2020-06-09,3899.93674826004
2020-06-10,4283.11341556999
2020-06-11,5961.32022468999
2020-06-12,3899.67194518003
2020-06-13,3584.93291682994
2020-06-14,2826.01886928005
2020-06-15,8002.46842106025
2020-06-16,6755.58591780001
2020-06-17,6137.2181195
2020-06-18,5383.17388542
2020-06-19,3884.7306233
2020-06-20,3125.10085952
2020-06-21,4723.40666798
2020-06-22,3950.80802960998
2020-06-23,8268.63705513
2020-06-24,7188.76388101
2020-06-25,5519.15637033001
2020-06-26,18846.22615108
2020-06-27,3014.33394387001
2020-06-28,5694.652122
2020-06-29,2068.41568044
2020-06-30,20767.23280339
2020-07-01,2646.81754435
2020-07-02,3215.99461184001
2020-07-03,4818.19870602
2020-07-04,2299.00085796
2020-07-05,3778.87788296
2020-07-06,6340.37297656
2020-07-07,1811.96724853
2020-07-08,16949.03624558
2020-07-09,6350.03909568
2020-07-10,5179.47781199
2020-07-11,4097.52024138002
2020-07-12,3195.40510073001
2020-07-13,6722.04293975
2020-07-14,14245.41767788
2020-07-15,4104.73283785
2020-07-16,4824.18140545
2020-07-17,3505.44011485
2020-07-18,4159.52557142
2020-07-19,6673.75256262
2020-07-20,5164.37281402
2020-07-21,116033.00825883
2020-07-22,23738.87262019
2020-07-23,6850.04887375002
2020-07-24,7541.92547617999
2020-07-25,6615.27333576999
2020-07-26,7037.07135443001
2020-07-27,23575.4476921
2020-07-28,12799.3386375801
2020-07-29,10614.96342867
2020-07-30,11791.86002618
2020-07-31,7700.34036331005
2020-08-01,6418.48547023002
2020-08-02,7532.87088291001
2020-08-03,9273.35057365003
2020-08-04,7363.29807045001
2020-08-05,3077.29470799999
2020-08-06,10030.48344438
2020-08-07,13740.90155819
2020-08-08,6883.51882495
2020-08-09,5568.83836802001
2020-08-10,10588.17837379
2020-08-11,20266.18861071
2020-08-12,6022.12783885005
2020-08-13,8757.69038953996
2020-08-14,13080.92540722
2020-08-15,8289.66007287002
2020-08-16,7609.81348247008
2020-08-17,16669.6462847801
2020-08-18,34915.3012607498
2020-08-19,8060.29970363
2020-08-20,35671.7697117691
2020-08-21,5377.83221571999
2020-08-22,4498.88832586001
2020-08-23,5473.14318167
2020-08-24,7846.70039450006
2020-08-25,5854.17451043
2020-08-26,603020.919450788
2020-08-27,7506.70312714998
2020-08-28,8404.91671256999
2020-08-29,11884.09700049
2020-08-30,5083.47877283001
2020-08-31,7567.22094504
2020-09-01,21414.70346168
2020-09-02,5674.07273480999
2020-09-03,67754.0847501605
2020-09-04,11103.5792148
2020-09-05,3683.88755994
2020-09-06,3180.62604949
2020-09-07,45951.08198021
2020-09-08,4191.54133979001
2020-09-09,6575.47172469003
2020-09-10,33613.6474842
2020-09-11,3153.39814238
2020-09-12,6723.14464679001
2020-09-13,4212.36035001
2020-09-14,7851.4578601
2020-09-15,5158.32607042999
2020-09-16,3626.08515475
2020-09-17,5465.16034654
2020-09-18,5027.40467660001
2020-09-19,2794.01068970002
2020-09-20,4807.2153417
2020-09-21,9566.30029796
2020-09-22,4786.05790355
2020-09-23,3489.19598465
2020-09-24,7500.01355612
2020-09-25,7457.80475425
2020-09-26,3612.90266358
2020-09-27,6936.92149018005
2020-09-28,5326.82530811001
2020-09-29,7616.21242069998
2020-09-30,6082.88990645
2020-10-01,7245.25091693001
2020-10-02,3228.17611844
2020-10-03,5919.86961908
2020-10-04,3989.22539131
2020-10-05,3276.11820369
2020-10-06,2338.62590194
2020-10-07,6356.03530616001
2020-10-08,4816.17964167
2020-10-09,3862.89089822999
2020-10-10,3328.39764384
2020-10-11,3379.26750095
2020-10-12,203395.11563144
2020-10-13,5336.78987673001
2020-10-14,6824.49060468006
2020-10-15,7265.56880543
2020-10-16,2771.17311917
2020-10-17,1890.81258344
2020-10-18,2756.49077101
2020-10-19,10751.05859294
2020-10-20,7515.45945135999
2020-10-21,3719.29107568
2020-10-22,26358.4879324599
2020-10-23,16012.24046052
2020-10-24,7764.16891065001
2020-10-25,103862.253830029
2020-10-26,4884.02049516
2020-10-27,63352.3146609901
2020-10-28,3821.10439292996
2020-10-29,7003.07666423998
2020-10-30,4736.26424507
2020-10-31,19119.07733063
2020-11-01,2095.9017435
2020-11-02,41451.05196014
2020-11-03,4993.07027383001
2020-11-04,7765.05108661
2020-11-05,50071.1595069201
2020-11-06,13885.99148192
2020-11-07,73595.9058865797
2020-11-08,4004.99570329
2020-11-09,5612.22330810002
2020-11-10,13933.2465402801
2020-11-11,21081.79361092
2020-11-12,8540.26518946
2020-11-13,9857.8423995101
2020-11-14,4004.35872958
2020-11-15,4743.8967254
2020-11-16,38853.5940445
2020-11-17,200351.653377849
2020-11-18,28948.0486887898
2020-11-19,11817.8820226401
2020-11-20,27680.5328962499
2020-11-21,8977.84724993998
2020-11-22,12408.31096963
2020-11-23,9559.11768798005
2020-11-24,19933.45086461
2020-11-25,21762.43564234
2020-11-26,40705.2389491999
2020-11-27,8308.94101762008
2020-11-28,374762.36002131
2020-11-29,7604.07598269998
2020-11-30,10167.7788848101
2020-12-01,29024.1863752598
2020-12-02,42302.9831584201
2020-12-03,10956.86388543
2020-12-04,13230.2001244602
2020-12-05,4285.73440030001
2020-12-06,2829.92015829
2020-12-07,32529.60787746
2020-12-08,5443.88011490011
2020-12-09,4871.31832065999
2020-12-10,231566.72045761
2020-12-11,4928.61606397
2020-12-12,4506.29163291005
2020-12-13,5116.21348615
2020-12-14,4960.32515956
2020-12-15,3220.85154699
2020-12-16,20459.4335344496
2020-12-17,37495.0098047099
2020-12-18,26221.57476781
2020-12-19,59694.9212311396
2020-12-20,20106.4669559599
2020-12-21,11870.87094407
2020-12-22,41207.9110249698
2020-12-23,27865.7939652699
2020-12-24,8720.89636189997
2020-12-25,10623.1658321701
2020-12-26,36733.5063136201
2020-12-27,103810.95440945
2020-12-28,13474.71162606
2020-12-29,21370.5223065692
2020-12-30,8659.19667368007
2020-12-31,9142.89446250003
2021-01-01,8470.40009204998
2021-01-02,32546.8640099999
2021-01-03,24793.8268273497
2021-01-04,31754.6476649793
2021-01-05,17460.10949592
2021-01-06,12475.3422097802
2021-01-07,17805.67232906
2021-01-08,15013.7419269701
2021-01-09,12744.2596863001
2021-01-10,15709.1105308401
2021-01-11,13431.9362210803
2021-01-12,16816.5285255001
2021-01-13,5887.50985518001
2021-01-14,9966.14146162011
2021-01-15,13607.30760164
2021-01-16,4297.64730004005
2021-01-17,6431.7312447
2021-01-18,14231.8060073801
2021-01-19,22148.2496408798
2021-01-20,10406.5013513901
2021-01-21,28521.8845660799
2021-01-22,11889.39802105
2021-01-23,3716.56315642
2021-01-24,4899.55621933
2021-01-25,18207.1205088401
2021-01-26,4938.21518396
2021-01-27,18369.3243612801
2021-01-28,3702.40098864
2021-01-29,8418.25492292001
2021-01-30,5898.32711363001
2021-01-31,10932.08300155
2021-02-01,11205.0546896301
2021-02-02,50631.7250738399
2021-02-03,9538.70501557003
2021-02-04,7040.48384111001
2021-02-05,14313.9990847301
2021-02-06,20204.02218493
2021-02-07,6127.95976281001
2021-02-08,8075.88797742006
2021-02-09,27812.9746677198
2021-02-10,17110.0378527201
2021-02-11,13485.0586455103
2021-02-12,10721.25250172
2021-02-13,17981.8236403501
2021-02-14,20674.9429040801
2021-02-15,15518.81136004
2021-02-16,7373.01326471003
2021-02-17,17727.1931636301
2021-02-18,39645.8294236898
2021-02-19,83063.8253601398
2021-02-20,25495.5170112401
2021-02-21,12569.2840564901
2021-02-22,62623.89711135
2021-02-23,11157.81647683
2021-02-24,7418.00777499
2021-02-25,9684.9182093
2021-02-26,41009.8997521999
2021-02-27,4446.66558351001
2021-02-28,6335.39838471999
2021-03-01,5260.68295313999
2021-03-02,21017.08394661
2021-03-03,21668.51908409
2021-03-04,10007.52678289
2021-03-05,8051.84087465
2021-03-06,4240.03461383
2021-03-07,27713.0658195
2021-03-08,18591.5469919
2021-03-09,3075.98796455001
2021-03-10,5304.22045496001
2021-03-11,4829.53700974001
2021-03-12,6341.71091073003
2021-03-13,6049.94658824
2021-03-14,6003.46816043013
2021-03-15,4829.69551926999
2021-03-16,17139.82866811
2021-03-17,400708.78009173
2021-03-18,3670.20188708998
2021-03-19,46587.6219189501
2021-03-20,6555.01397681001
2021-03-21,2355.73431226
2021-03-22,8272.29128726
2021-03-23,10172.55327655
2021-03-24,6289.91882389999
2021-03-25,10240.2788578
2021-03-26,2629.18095249
2021-03-27,2335.98825795
2021-03-28,3984.53662716001
2021-03-29,3158.62191092
2021-03-30,3319.91902182001
2021-03-31,6046.02871372
2021-04-01,5015.37906290001
2021-04-02,4234.55579914007
2021-04-03,11223.69475302
2021-04-04,5248.53560899001
2021-04-05,19256.8403423
2021-04-06,58011.6755369402
2021-04-07,19941.50533581
