t,v
2013-05-20,11.43885214632563
2013-05-21,8.476069755333668
2013-05-22,8.923096119693236
2013-05-23,8.135996502347268
2013-05-24,7.168076089217413
2013-05-25,9.233084563692161
2013-05-26,9.275553279867056
2013-05-27,9.746608257689564
2013-05-28,10.049050054520217
2013-05-29,10.439282173707864
2013-05-30,8.608470351038083
2013-05-31,8.589015147605805
2013-06-01,9.500467123056241
2013-06-02,10.418154001768889
2013-06-03,9.792371474571528
2013-06-04,11.002579475316734
2013-06-05,9.690285572031673
2013-06-06,11.827752622654243
2013-06-07,7.354846860080847
2013-06-08,10.322425709734848
2013-06-09,10.434350227926812
2013-06-10,7.130462871496257
2013-06-11,10.041467864016445
2013-06-12,10.060124897531505
2013-06-13,10.811855617416207
2013-06-14,7.283343952381477
2013-06-15,13.08144836494757
2013-06-16,13.25045972552716
2013-06-17,11.699175631415818
2013-06-18,12.413428602127158
2013-06-19,10.74979203772312
2013-06-20,15.21337218501621
2013-06-21,16.729980472246933
2013-06-22,21.543170726176665
2013-06-23,17.994068568117115
2013-06-24,18.43865447304169
2013-06-25,10.241636964027348
2013-06-26,9.819810727416712
2013-06-27,11.526586344348306
2013-06-28,12.289284579168825
2013-06-29,12.838823853286918
2013-06-30,12.66518144239953
2013-07-01,11.084703396884944
2013-07-02,12.422358264517698
2013-07-03,13.39175135329044
2013-07-04,12.280864311661079
2013-07-05,13.66029962126451
2013-07-06,14.06885073124617
2013-07-07,15.326491180475712
2013-07-08,13.650749839586087
2013-07-09,14.270936860831421
2013-07-10,13.260280830124499
2013-07-11,12.15963903414965
2013-07-12,13.562239628522061
2013-07-13,16.08211718708067
2013-07-14,4.3677616132910195
2013-07-15,13.461917239267043
2013-07-16,13.835441626421755
2013-07-17,13.431377077570486
2013-07-18,14.695073748083031
2013-07-19,13.796703982400262
2013-07-20,11.427875674198052
2013-07-21,16.528374541171424
2013-07-22,16.459893376134904
2013-07-23,16.18080334898201
2013-07-24,14.730228705632651
2013-07-25,15.893574730418786
2013-07-26,15.91870485004468
2013-07-27,19.53854550980866
2013-07-28,12.88461771084968
2013-07-29,17.76999493628154
2013-07-30,13.203268790312045
2013-07-31,15.517087696874436
2013-08-01,16.1506995523602
2013-08-02,17.63765962692462
2013-08-03,16.851183174793395
2013-08-04,17.73507734773221
2013-08-05,13.97922082907929
2013-08-06,15.315036073775758
2013-08-07,14.12412232793654
2013-08-08,10.98568536839318
2013-08-09,41.362967916571726
2013-08-10,39.1490657220081
2013-08-11,64.86191617367955
2013-08-12,51.368371501747596
2013-08-13,75.12683178580937
2013-08-14,25.04215870715737
2013-08-15,71.1197492502672
2013-08-16,14.049943809096943
2013-08-17,115.0709440746203
2013-08-18,58.713677884645804
2013-08-19,78.16728047777485
2013-08-20,81.9963289617543
2013-08-21,36.08946227116153
2013-08-22,85.13815441515187
2013-08-23,55.39800335659518
2013-08-24,45.418044158152256
2013-08-25,47.38074283641735
2013-08-26,62.22316822994826
2013-08-27,58.75594550428108
2013-08-28,51.400958166333936
2013-08-29,82.67284359763043
2013-08-30,70.72946471094627
2013-08-31,73.53040621005697
2013-09-01,80.79335178691889
2013-09-02,93.45872067827591
2013-09-03,82.12636605716634
2013-09-04,36.98023463451276
2013-09-05,65.89474071046976
2013-09-06,46.21463487346253
2013-09-07,49.40103041903883
2013-09-08,69.3096354674359
2013-09-09,54.063534805785345
2013-09-10,74.86226341137083
2013-09-11,90.4853670354952
2013-09-12,76.03761587145533
2013-09-13,73.81647021693442
2013-09-14,62.3044082548279
2013-09-15,54.91337403498581
2013-09-16,77.19650486687293
2013-09-17,80.72808565386484
2013-09-18,54.26634181692199
2013-09-19,116.45745577105427
2013-09-20,64.53551097198317
2013-09-21,118.56343735282468
2013-09-22,94.54833543655269
2013-09-23,37.345680583591545
2013-09-24,27.9145411124102
2013-09-25,46.29092135126655
2013-09-26,65.70076828093623
2013-09-27,59.18868026737537
2013-09-28,28.459331158064362
2013-09-29,64.7183148422899
2013-09-30,57.6277183432198
2013-10-01,78.04685046226899
2013-10-02,39.14992396436795
2013-10-03,33.20854775924084
2013-10-04,64.15221642183154
2013-10-05,86.63587829720774
2013-10-06,69.70420513865577
2013-10-07,81.82554685396096
2013-10-08,60.327026491235536
2013-10-09,45.797188439047915
2013-10-10,32.00543569506595
2013-10-11,48.460083213883095
2013-10-12,99.68202416824978
2013-10-13,47.37500294068594
2013-10-14,64.60656436381937
2013-10-15,64.33838785545628
2013-10-16,58.94630302688357
2013-10-17,72.42310481260802
2013-10-18,77.16346113797903
2013-10-19,36.147876305346585
2013-10-20,91.01320256486558
2013-10-21,41.48285580826676
2013-10-22,25.421364385810495
2013-10-23,20.73224947757882
2013-10-24,23.115015047415845
2013-10-25,25.17422843134902
2013-10-26,71.17226391016871
2013-10-27,77.55326703968392
2013-10-28,45.95764572970118
2013-10-29,75.03506299416703
2013-10-30,31.170996846838875
2013-10-31,71.10075829598463
2013-11-01,48.1634319853022
2013-11-02,73.8265192812695
2013-11-03,19.92118570031267
2013-11-04,25.67348114074509
2013-11-05,28.92274565513892
2013-11-06,24.00254421855853
2013-11-07,11.597601611498357
2013-11-08,20.154412146005978
2013-11-09,23.33611339101515
2013-11-10,28.70508995886946
2013-11-11,39.15889090439992
2013-11-12,40.041570786454216
2013-11-13,29.414357592755056
2013-11-14,19.10114950312525
2013-11-15,0.16493750240796404
2013-11-16,0.22132524281560034
2013-11-17,0.24112389859393193
2013-11-18,0.30164823408616587
2013-11-19,0.4257013099996205
2013-11-20,0.35824234818498796
2013-11-21,0.3592582513272612
2013-11-22,0.33071954765318406
2013-11-23,0.8891006867143854
2013-11-24,0.8810765640058371
2013-11-25,0.706079183049115
2013-11-26,0.5201635182819234
2013-11-27,0.43677066951075305
2013-11-28,0.20660316732609946
2013-11-29,0.24245811097874923
2013-11-30,0.3511717685699402
2013-12-01,0.621694815020621
2013-12-02,0.7181632736336012
2013-12-03,0.807121896634517
2013-12-04,1.0628124213455519
2013-12-05,0.5421402934247139
2013-12-06,0.699349685656798
2013-12-07,0.6046270954807141
2013-12-08,2.1190420441110738
2013-12-09,1.2392046530729388
2013-12-10,1.028583837602704
2013-12-11,1.5254910527925647
2013-12-12,1.6560231980773152
2013-12-13,1.3674612149578143
2013-12-14,5.542912217626617
2013-12-15,1.1481978458509006
2013-12-16,0.6781937274588516
2013-12-17,0.762611227857686
2013-12-18,0.25888569880255974
2013-12-19,0.16841533333717365
2013-12-20,0.19940600965164137
2013-12-21,1.7434699666581681
2013-12-22,0.8914552223157033
2013-12-23,0.37839168553347724
2013-12-24,0.637396600896574
2013-12-25,2.9326294935873234
2013-12-26,0.8535360384798844
2013-12-27,0.6587894850189582
2013-12-28,2.367254104701362
2013-12-29,2.378563785379919
2013-12-30,1.6338867919613391
2013-12-31,0.8428928430695786
2014-01-01,2.9379100345297604
2014-01-02,1.792845258944605
2014-01-03,1.8539775947665045
2014-01-04,2.054261532863788
2014-01-05,2.6182193940988223
2014-01-06,0.5341645358589859
2014-01-07,0.40767114519173403
2014-01-08,1.300844699310687
2014-01-09,3.4001480855044184
2014-01-10,3.8596657372556686
2014-01-11,4.9678133125547275
2014-01-12,5.58913672073581
2014-01-13,4.4585219804470055
2014-01-14,4.096748379536031
2014-01-15,2.8179262168418653
2014-01-16,5.039732910497497
2014-01-17,5.064157618621835
2014-01-18,3.8379793073339865
2014-01-19,4.875941806469218
2014-01-20,3.3513496870386246
2014-01-21,3.108720939856015
2014-01-22,3.408209379487377
2014-01-23,2.6385875698919796
2014-01-24,1.8272764381084574
2014-01-25,3.837537755744943
2014-01-26,2.5148832641670436
2014-01-27,2.7192510538037062
2014-01-28,3.922558231539059
2014-01-29,1.7748174462676902
2014-01-30,4.0459077664857315
2014-01-31,6.503748479050013
2014-02-01,5.703592088225147
2014-02-02,4.970362222427329
2014-02-03,3.306419347223008
2014-02-04,2.9207488857907076
2014-02-05,3.3245044079805903
2014-02-06,4.943665508207036
2014-02-07,3.0128678845636885
2014-02-08,4.227951796585762
2014-02-09,2.4334137510725906
2014-02-10,0.8324816565589942
2014-02-11,3.112655920673986
2014-02-12,4.017901268210658
2014-02-13,3.491153865269324
2014-02-14,1.5270152299875668
2014-02-15,4.873754684632299
2014-02-16,2.7942128047207566
2014-02-17,5.600061474027184
2014-02-18,4.284559365647949
2014-02-19,1.254726305614856
2014-02-20,2.3334631242741417
2014-02-21,2.0420910340765657
2014-02-22,14.101062866838209
2014-02-23,6.936664967393251
2014-02-24,6.403913221071749
2014-02-25,2.7494407157304974
2014-02-26,10.49625640512039
2014-02-27,8.674116993522533
2014-02-28,9.006683506480302
2014-03-01,7.807281844411411
2014-03-02,10.367538432102378
2014-03-03,2.8365802571770105
2014-03-04,1.1812289824667022
2014-03-05,2.5112308024959855
2014-03-06,5.7707824462605295
2014-03-07,6.702753911896577
2014-03-08,5.4401018157154075
2014-03-09,6.576828341736716
2014-03-10,8.980951096786168
2014-03-11,11.830880190348461
2014-03-12,6.653920250251947
2014-03-13,21.89454000487213
2014-03-14,13.141958665239358
2014-03-15,10.05242701241563
2014-03-16,4.889265987604392
2014-03-17,3.7385833846322214
2014-03-18,3.1204255271029635
2014-03-19,1.1685201649396406
2014-03-20,1.5144677489669414
2014-03-21,2.3498278000373642
2014-03-22,5.160581278013222
2014-03-23,5.700589224210628
2014-03-24,4.846034248491379
2014-03-25,6.03947738357153
2014-03-26,5.483644822971251
2014-03-27,0.8616271141092456
2014-03-28,5.505190997821164
2014-03-29,11.759057482821923
2014-03-30,5.528514677125168
2014-03-31,5.661860467301533
2014-04-01,7.477699668645262
2014-04-02,3.6568713638048456
2014-04-03,2.1182431221579985
2014-04-04,1.9912269391418744
2014-04-05,4.694939352730928
2014-04-06,6.619183700113096
2014-04-07,5.7331413024897895
2014-04-08,6.600596451684784
2014-04-09,7.647453554715643
2014-04-10,3.080328921620218
2014-04-11,4.516127367085219
2014-04-12,8.85868728694652
2014-04-13,16.409588572537583
2014-04-14,8.481474100349121
2014-04-15,10.708843740744314
2014-04-16,5.635189432303995
2014-04-17,8.105698299957492
2014-04-18,7.8441661987858815
2014-04-19,13.44549382270909
2014-04-20,13.795999390205452
2014-04-21,17.39275206346673
2014-04-22,12.337378224295149
2014-04-23,11.38853596765972
2014-04-24,11.741179974021541
2014-04-25,2.6938037694624377
2014-04-26,2.836482825808482
2014-04-27,4.510857807042729
2014-04-28,5.8586054899058855
2014-04-29,6.9536983479285785
2014-04-30,5.198774885345933
2014-05-01,6.888366590528032
2014-05-02,12.441850702610429
2014-05-03,5.34699037844062
2014-05-04,4.5237867898406865
2014-05-05,5.029413789436346
2014-05-06,6.585650425230162
2014-05-07,9.953305101467112
2014-05-08,9.065612018161758
2014-05-09,7.763743994264953
2014-05-10,6.135734939598052
2014-05-11,2.996723667198128
2014-05-12,6.510829651960139
2014-05-13,5.5851424585954685
2014-05-14,9.527659921280785
2014-05-15,8.577708914639903
2014-05-16,5.382084230652846
2014-05-17,32.879365023309575
2014-05-18,18.037948263626543
2014-05-19,18.226792192910306
2014-05-20,7.00528581362087
2014-05-21,6.741366637849429
2014-05-22,6.957490490587801
2014-05-23,2.2591454571623992
2014-05-24,8.44088680757617
2014-05-25,1.7358606179207507
2014-05-26,6.915934532445878
2014-05-27,6.018874653689891
2014-05-28,6.584378486128634
2014-05-29,4.677170478370339
2014-05-30,3.388405432966844
2014-05-31,4.625244087563155
2014-06-01,1.5436870467846868
2014-06-02,1.4301587872645212
2014-06-03,3.2829179908278596
2014-06-04,5.754422432701522
2014-06-05,5.333892343643145
2014-06-06,12.487224092678264
2014-06-07,21.094477620076283
2014-06-08,11.486339149736498
2014-06-09,12.024871171640005
2014-06-10,11.218717198396716
2014-06-11,13.379477210771025
2014-06-12,5.148482633195018
2014-06-13,8.624958313858507
2014-06-14,7.227651888983355
2014-06-15,7.178980271355874
2014-06-16,3.0978338556619707
2014-06-17,7.23292233761501
2014-06-18,5.604425241064035
2014-06-19,3.8388256801331213
2014-06-20,6.855146079100048
2014-06-21,13.555371891843583
2014-06-22,12.044482138703305
2014-06-23,8.798351288378274
2014-06-24,9.867319865546428
2014-06-25,8.255319274725595
2014-06-26,7.267762598305542
2014-06-27,10.337261401949469
2014-06-28,10.245394871501388
2014-06-29,7.09994703992234
2014-06-30,4.174644707694146
2014-07-01,3.8305222228306897
2014-07-02,1.4146842001246869
2014-07-03,4.171104527866301
2014-07-04,3.064352489546157
2014-07-05,2.63982925776089
2014-07-06,2.736391315056329
2014-07-07,1.830153704526
2014-07-08,5.8093585454233345
2014-07-09,4.859929421909012
2014-07-10,9.556177720465564
2014-07-11,10.278492245411142
2014-07-12,3.617759126724461
2014-07-13,4.31367821676362
2014-07-14,6.193879950078993
2014-07-15,5.997224507855657
2014-07-16,10.046096216677652
2014-07-17,9.125587717537035
2014-07-18,5.697137550102717
2014-07-19,3.6737053012841723
2014-07-20,5.719981711761268
2014-07-21,9.497864919509533
2014-07-22,19.064332597078614
2014-07-23,18.96054505984347
2014-07-24,4.129842310564303
2014-07-25,3.724127743232876
2014-07-26,5.558991244631519
2014-07-27,13.964088841646143
2014-07-28,10.411154055970899
2014-07-29,17.181815093573437
2014-07-30,12.121482450392513
2014-07-31,8.339037657815794
2014-08-01,14.379421800643252
2014-08-02,14.383473317060709
2014-08-03,27.97550620893853
2014-08-04,3.959180873632893
2014-08-05,4.389892482441954
2014-08-06,7.982725426262085
2014-08-07,2.4682207006819628
2014-08-08,5.612259430561868
2014-08-09,12.477999873670319
2014-08-10,15.931432003725838
2014-08-11,2.541976019632486
2014-08-12,1.7501807375340719
2014-08-13,1.9705492591662535
2014-08-14,2.07155247315824
2014-08-15,3.2070892839647103
2014-08-16,5.309723387187853
2014-08-17,4.194053060294211
2014-08-18,0.8980425554391072
2014-08-19,1.102387684583526
2014-08-20,0.7242587641934319
2014-08-21,1.3307119029804388
2014-08-22,1.9796607870194043
2014-08-23,7.362480174942972
2014-08-24,3.8372331550338044
2014-08-25,8.727177478301108
2014-08-26,11.345937256362765
2014-08-27,4.598352969959084
2014-08-28,8.444654485451311
2014-08-29,10.746806420665772
2014-08-30,14.676344558219135
2014-08-31,3.952837811407086
2014-09-01,5.425865091842189
2014-09-02,5.139181426784017
2014-09-03,4.873247091401436
2014-09-04,9.28517492202108
2014-09-05,14.953425492026259
2014-09-06,18.05869555736492
2014-09-07,26.748693267539313
2014-09-08,12.41933817485173
2014-09-09,16.070186932706065
2014-09-10,12.855200727819255
2014-09-11,10.723340798510742
2014-09-12,12.759365066119384
2014-09-13,14.544638998582371
2014-09-14,20.529119470255676
2014-09-15,9.828455919774743
2014-09-16,17.056801290483204
2014-09-17,12.415006083730264
2014-09-18,8.37455615199706
2014-09-19,6.36374206596624
2014-09-20,7.835698519254216
2014-09-21,8.210254249045228
2014-09-22,11.43743715083034
2014-09-23,12.904152056346597
2014-09-24,14.314304428425649
2014-09-25,23.009703052555764
2014-09-26,25.1486438123669
2014-09-27,15.903853391244594
2014-09-28,18.23232784254506
2014-09-29,17.50783775826287
2014-09-30,14.820128466789182
2014-10-01,23.824587098546125
2014-10-02,27.412415887406304
2014-10-03,21.466603138259103
2014-10-04,12.70576995209248
2014-10-05,8.394686600181181
2014-10-06,14.416221382712646
2014-10-07,16.3586976337949
2014-10-08,17.763688929589197
2014-10-09,2.155603348656252
2014-10-10,20.676468910956835
2014-10-11,21.331683679969867
2014-10-12,55.64593264718441
2014-10-13,9.148331660533627
2014-10-14,2.0919504961057895
2014-10-15,7.1125215170996
2014-10-16,34.075464535390836
2014-10-17,31.369954626339744
2014-10-18,25.75859473131568
2014-10-19,45.48065526384632
2014-10-20,28.40005448233571
2014-10-21,53.33912615292292
2014-10-22,18.09577307989939
2014-10-23,20.73686672237198
2014-10-24,26.941542141827746
2014-10-25,35.234914706355404
2014-10-26,33.87218469504097
2014-10-27,18.985984995647108
2014-10-28,20.252952192004297
2014-10-29,18.755579770787854
2014-10-30,25.44535079791929
2014-10-31,20.644404326727766
2014-11-01,25.85305978096863
2014-11-02,29.729568844598685
2014-11-03,38.839933874303675
2014-11-04,25.92468396394587
2014-11-05,43.66904769381884
2014-11-06,38.19694723885838
2014-11-07,24.0122572791153
2014-11-08,24.06134705482374
2014-11-09,30.119776666470745
2014-11-10,21.0306225718078
2014-11-11,37.06153566551494
2014-11-12,8.338776905357337
2014-11-13,6.972907907633318
2014-11-14,9.736056759178103
2014-11-15,18.38881324000473
2014-11-16,15.39737381074891
2014-11-17,22.685833025138535
2014-11-18,35.92287913019683
2014-11-19,46.29988903349653
2014-11-20,25.05427117888132
2014-11-21,25.052989132477073
2014-11-22,40.13036972034063
2014-11-23,47.7069769610713
2014-11-24,39.325367024918215
2014-11-25,27.337214360571267
2014-11-26,33.8776154528651
2014-11-27,28.01888357443713
2014-11-28,33.82384091725296
2014-11-29,26.404654364241303
2014-11-30,52.9118371768968
2014-12-01,39.9373588470489
2014-12-02,18.870888063312538
2014-12-03,36.8840138166026
2014-12-04,18.965993914001572
2014-12-05,22.51192035772577
2014-12-06,18.575960323598196
2014-12-07,13.204970072438586
2014-12-08,11.025679653248837
2014-12-09,16.65620903932732
2014-12-10,25.556669397932957
2014-12-11,21.95822228563983
2014-12-12,32.45884892312183
2014-12-13,24.2903564320241
2014-12-14,20.087266246233288
2014-12-15,24.496596846059916
2014-12-16,8.635815163043722
2014-12-17,15.724969371381935
2014-12-18,15.002749380074345
2014-12-19,20.32622628392269
2014-12-20,19.60484042299947
2014-12-21,22.31918831945032
2014-12-22,15.537209161973122
2014-12-23,25.434587736974414
2014-12-24,40.94091368309954
2014-12-25,22.201390387525304
2014-12-26,26.592583970787622
2014-12-27,10.437053244026968
2014-12-28,15.042318739892751
2014-12-29,20.768709545639574
2014-12-30,36.87633162312409
2014-12-31,45.2561011707372
2015-01-01,31.410956252385965
2015-01-02,33.53436606682622
2015-01-03,2.9083223346165594
2015-01-04,3.2115166197640983
2015-01-05,10.514541882237252
2015-01-06,10.322518568790343
2015-01-07,11.210988513418686
2015-01-08,8.660157821959642
2015-01-09,14.881258451672979
2015-01-10,0.9302457499053566
2015-01-11,7.2662135400141175
2015-01-12,6.568494007780481
2015-01-13,4.762567806615808
2015-01-14,1.1673763954191543
2015-01-15,2.06359409557851
2015-01-16,4.542037882387164
2015-01-17,11.580354991376003
2015-01-18,14.648020784312036
2015-01-19,17.488871797904444
2015-01-20,15.14041832984738
2015-01-21,8.74161521726919
2015-01-22,15.709921514196038
2015-01-23,12.739930463769788
2015-01-24,6.190032992053469
2015-01-25,4.532124871267028
2015-01-26,1.700238837400697
2015-01-27,5.69299786563188
2015-01-28,16.130520329828034
2015-01-29,9.654804088769387
2015-01-30,19.96111769907102
2015-01-31,15.388481169974517
2015-02-01,14.699031055168565
2015-02-02,3.5073053896250763
2015-02-03,29.797140361392874
2015-02-04,18.62579987836443
2015-02-05,17.303594939341338
2015-02-06,37.61327288009563
2015-02-07,38.79140664154765
2015-02-08,38.13782130957935
2015-02-09,14.007918445303863
2015-02-10,24.270446542063816
2015-02-11,45.50032665423683
2015-02-12,53.68849084540176
2015-02-13,22.312686948237868
2015-02-14,15.967803916694542
2015-02-15,13.863115777759873
2015-02-16,51.919760536889136
2015-02-17,67.94023702062165
2015-02-18,69.18009469220621
2015-02-19,47.299690989403466
2015-02-20,54.52739244660563
2015-02-21,91.693652576234
2015-02-22,76.97346991806525
2015-02-23,20.570004998129768
2015-02-24,27.424493084812603
2015-02-25,12.667205862287494
2015-02-26,48.95260305420483
2015-02-27,16.116910821296475
2015-02-28,25.669120948531965
2015-03-01,37.23039441784603
2015-03-02,15.445521496212676
2015-03-03,1.330993130750831
2015-03-04,13.172640420164752
2015-03-05,17.834462046735727
2015-03-06,21.314211173467637
2015-03-07,17.35048148934057
2015-03-08,0.8954148503804414
2015-03-09,17.65025981882879
2015-03-10,14.379896085278304
2015-03-11,17.020767941409257
2015-03-12,23.015867175378368
2015-03-13,24.937624516717996
2015-03-14,16.616498467884043
2015-03-15,25.50720071480688
2015-03-16,24.842643029009732
2015-03-17,8.46921085937493
2015-03-18,12.86787085935778
2015-03-19,9.7332577155622
2015-03-20,15.233145576735799
2015-03-21,23.887499747538
2015-03-22,27.301313405905912
2015-03-23,21.223108083360373
2015-03-24,18.611277705752844
2015-03-25,7.826420546608265
2015-03-26,20.942140126170763
2015-03-27,13.772985136723364
2015-03-28,65.11333638232163
2015-03-29,35.8670892686051
2015-03-30,26.84180734824906
2015-03-31,37.88128484011085
2015-04-01,34.58261552103578
2015-04-02,54.312865398315004
2015-04-03,44.43899231411496
2015-04-04,45.259253109933844
2015-04-05,48.794711848715195
2015-04-06,55.42687112023955
2015-04-07,49.24393203987047
2015-04-08,19.619085495997446
2015-04-09,13.358495964354804
2015-04-10,29.49066389402396
2015-04-11,19.19148409440663
2015-04-12,14.894014092307374
2015-04-13,17.582923149667085
2015-04-14,6.715949119135504
2015-04-15,9.619248403952035
2015-04-16,20.54368723632587
2015-04-17,15.043810809475747
2015-04-18,29.187271903023603
2015-04-19,21.93391875367619
2015-04-20,22.08946769241237
2015-04-21,25.278630482125877
2015-04-22,21.404702571357006
2015-04-23,22.934147126983756
2015-04-24,13.832119218043088
2015-04-25,37.500645975041905
2015-04-26,25.499101579846403
2015-04-27,18.68040039464686
2015-04-28,27.022196472358598
2015-04-29,22.513536203756384
2015-04-30,22.76845459151125
2015-05-01,32.114225327348706
2015-05-02,53.21257838348684
2015-05-03,19.0757009761271
2015-05-04,19.32255527471542
2015-05-05,21.791769572483478
2015-05-06,35.4053719339829
2015-05-07,21.562130468357847
2015-05-08,15.677733571007332
2015-05-09,17.009734904642922
2015-05-10,18.775089319775713
2015-05-11,26.616288466715396
2015-05-12,21.899299473343333
2015-05-13,16.67585853954536
2015-05-14,29.5081373120378
2015-05-15,21.86270248237922
2015-05-16,30.837227978933534
2015-05-17,49.19607375183123
2015-05-18,23.440278569676643
2015-05-19,21.889494805560467
2015-05-20,23.641414951427492
2015-05-21,20.796642822489694
2015-05-22,3.653034132418632
2015-05-23,8.054137975524885
2015-05-24,13.370510657942852
2015-05-25,14.932714980869921
2015-05-26,20.322472795517122
2015-05-27,9.657454519839614
2015-05-28,12.561884006964302
2015-05-29,8.325539875115654
2015-05-30,13.853547276031811
2015-05-31,6.802873252496698
2015-06-01,9.063524765802265
2015-06-02,11.454491511079732
2015-06-03,13.815342926613662
2015-06-04,13.806118736255433
2015-06-05,10.44099726141047
2015-06-06,11.546961051005276
2015-06-07,14.130974467692878
2015-06-08,8.342265346127986
2015-06-09,14.897134858376466
2015-06-10,12.507162780212271
2015-06-11,14.12522380826662
2015-06-12,12.226195055166071
2015-06-13,8.996206886305744
2015-06-14,6.275817128071501
2015-06-15,5.9008792104965115
2015-06-16,2.373179681549922
2015-06-17,2.186944946347841
2015-06-18,3.4361301956206014
2015-06-19,3.62740579020411
2015-06-20,5.596645808574584
2015-06-21,8.57962833331863
2015-06-22,9.884277857072885
2015-06-23,12.021961502730571
2015-06-24,7.695367327089244
2015-06-25,5.5144302475842455
2015-06-26,7.874283473993157
2015-06-27,6.603032980634284
2015-06-28,8.281576486789136
2015-06-29,3.221965408447606
2015-06-30,2.9557211346406906
2015-07-01,3.9363433356215687
2015-07-02,4.438901590655131
2015-07-03,4.383759066580583
2015-07-04,7.337226756720852
2015-07-05,3.072040508166126
2015-07-06,1.799072204494544
2015-07-07,4.328403053953837
2015-07-08,3.192928012957268
2015-07-09,2.134724996309422
2015-07-10,1.1588604521550898
2015-07-11,2.4286705559388246
2015-07-12,3.1046067595455606
2015-07-13,4.7213143353909865
2015-07-14,5.993346462859909
2015-07-15,6.540574686589153
2015-07-16,3.484149275757272
2015-07-17,3.79090875352638
2015-07-18,8.224745313396296
2015-07-19,12.811889069519465
2015-07-20,12.897707482063634
2015-07-21,10.427539793922652
2015-07-22,8.32920963215287
2015-07-23,16.851408062425204
2015-07-24,4.726751454468867
2015-07-25,6.287905812826328
2015-07-26,9.360395724816957
2015-07-27,8.650678241564286
2015-07-28,4.424774573388953
2015-07-29,8.93276899737813
2015-07-30,9.305381560799034
2015-07-31,10.648707187856354
2015-08-01,6.7433762526013705
2015-08-02,4.845041030842543
2015-08-03,9.027410891413096
2015-08-04,6.6666828517723
2015-08-05,8.137699566623759
2015-08-06,9.017772879454808
2015-08-07,12.019580336086436
2015-08-08,11.47941809767577
2015-08-09,8.244997812881184
2015-08-10,10.645200435065428
2015-08-11,10.725709337973354
2015-08-12,9.028083578200889
2015-08-13,18.605023197744185
2015-08-14,15.634852966432664
2015-08-15,16.983518634662957
2015-08-16,13.415078967096271
2015-08-17,12.894235573897133
2015-08-18,9.973758255543798
2015-08-19,5.761242977694876
2015-08-20,12.180093007505674
2015-08-21,18.730510753682946
2015-08-22,10.825437549272683
2015-08-23,8.921620557432265
2015-08-24,4.011715935814214
2015-08-25,2.202579215288857
2015-08-26,4.027949933596918
2015-08-27,7.394917996720555
2015-08-28,4.194509920974591
2015-08-29,11.319840784686377
2015-08-30,20.09292243752833
2015-08-31,9.63293589041832
2015-09-01,16.050399044081722
2015-09-02,14.253729060244822
2015-09-03,7.931974080817724
2015-09-04,10.018966041602146
2015-09-05,17.11751946002238
2015-09-06,5.192397538284679
2015-09-07,5.13435218853402
2015-09-08,6.710954475564768
2015-09-09,12.817445688720245
2015-09-10,10.376941183643725
2015-09-11,13.54700725167358
2015-09-12,30.828389692315245
2015-09-13,14.19720894627186
2015-09-14,11.282731267413695
2015-09-15,37.73559618063128
2015-09-16,21.716767010492827
2015-09-17,11.825218701348895
2015-09-18,10.454038318072879
2015-09-19,10.41688804812742
2015-09-20,10.419970973465286
2015-09-21,8.033812190364792
2015-09-22,8.609561564553161
2015-09-23,13.704547075643934
2015-09-24,19.605584025300903
2015-09-25,15.297239101884886
2015-09-26,41.88589833833655
2015-09-27,29.706396767082968
2015-09-28,8.341015934755914
2015-09-29,6.394957772167195
2015-09-30,11.727566539595804
2015-10-01,17.93130420247388
2015-10-02,40.146468044131694
2015-10-03,32.39167440021395
2015-10-04,25.554427526331494
2015-10-05,17.038456579931882
2015-10-06,12.203037537235362
2015-10-07,18.59335616711622
2015-10-08,19.208359679950842
2015-10-09,16.373591787272538
2015-10-10,22.655754085378106
2015-10-11,14.088260137129344
2015-10-12,12.833324653662258
2015-10-13,9.456973522756092
2015-10-14,9.654276664094985
2015-10-15,12.937461313589758
2015-10-16,13.213511669449701
2015-10-17,7.602045308456487
2015-10-18,3.5514074700782725
2015-10-19,16.622756757416255
2015-10-20,16.304642268392566
2015-10-21,9.528609748950878
2015-10-22,6.610474113344643
2015-10-23,11.825049914367092
2015-10-24,27.280629848036178
2015-10-25,9.753002235657116
2015-10-26,12.278488203349132
2015-10-27,20.345499632584545
2015-10-28,20.120539104868538
2015-10-29,6.497293062859441
2015-10-30,4.0511494703807385
2015-10-31,6.718310144287258
2015-11-01,10.457921423562334
2015-11-02,7.198100173248385
2015-11-03,3.4324839172469255
2015-11-04,3.89814107840117
2015-11-05,4.490598333771582
2015-11-06,4.678957060530073
2015-11-07,9.017924111476447
2015-11-08,15.056454515894346
2015-11-09,5.18699979174781
2015-11-10,4.72010413080728
2015-11-11,5.473695310533234
2015-11-12,8.13397176820065
2015-11-13,11.206355038843377
2015-11-14,11.609406291180303
2015-11-15,11.012927404424584
2015-11-16,11.22627916197302
2015-11-17,17.555013830003297
2015-11-18,16.18519471781925
2015-11-19,15.620183313583174
2015-11-20,9.999130825222023
2015-11-21,16.83052040529149
2015-11-22,22.84936027507125
2015-11-23,12.770417428962393
2015-11-24,9.338080470444993
2015-11-25,10.904984780774585
2015-11-26,5.382159768283098
2015-11-27,16.336175191626133
2015-11-28,13.871863873840237
2015-11-29,15.046817441941263
2015-11-30,10.524485211762173
2015-12-01,7.3555350496427625
2015-12-02,12.43113628666235
2015-12-03,9.181055039737767
2015-12-04,12.177255388552089
2015-12-05,10.541566078838768
2015-12-06,9.55910762103026
2015-12-07,8.076221417042692
2015-12-08,13.244200534303221
2015-12-09,8.713088565747764
2015-12-10,12.293570123460535
2015-12-11,8.5300505412665
2015-12-12,6.758398015276384
2015-12-13,8.720366527330578
2015-12-14,10.05669988836595
2015-12-15,7.2453335114950645
2015-12-16,10.848624543737536
2015-12-17,11.57169557941993
2015-12-18,10.690977473806976
2015-12-19,18.516225115591983
2015-12-20,15.319413117923874
2015-12-21,5.343664994341476
2015-12-22,20.017191463484338
2015-12-23,5.442734462762049
2015-12-24,8.064486987522988
2015-12-25,21.999749095170575
2015-12-26,8.048821503266327
2015-12-27,11.881234265299883
2015-12-28,20.680521522894598
2015-12-29,17.90221032231451
2015-12-30,18.287180853397572
2015-12-31,22.582584430119393
2016-01-01,22.012676658752504
2016-01-02,25.159149762660785
2016-01-03,25.423153810131396
2016-01-04,31.304510880209328
2016-01-05,27.45754118673422
2016-01-06,14.541481954129102
2016-01-07,8.149676543492575
2016-01-08,5.568716851065252
2016-01-09,3.4695521327001555
2016-01-10,6.057749464290111
2016-01-11,8.206765324298553
2016-01-12,16.399523047273572
2016-01-13,8.240677756642253
2016-01-14,13.980372627554729
2016-01-15,4.524410417502534
2016-01-16,7.110811354023759
2016-01-17,12.937857419203542
2016-01-18,15.481318883243976
2016-01-19,24.904418390958224
2016-01-20,9.097906942379081
2016-01-21,10.138938561673251
2016-01-22,10.405241516310817
2016-01-23,17.769026968946623
2016-01-24,11.885598261011607
2016-01-25,16.508992085317477
2016-01-26,7.291393714850149
2016-01-27,4.763999607910467
2016-01-28,5.550179353167249
2016-01-29,6.2759012415739726
2016-01-30,15.35095713266592
2016-01-31,18.37108457500721
2016-02-01,12.114154796615065
2016-02-02,25.419734338348093
2016-02-03,45.98188403022095
2016-02-04,13.92828287224701
2016-02-05,20.271492148284484
2016-02-06,17.00675222017592
2016-02-07,30.857911057961115
2016-02-08,35.33559496243479
2016-02-09,23.264545795440377
2016-02-10,15.606298649107046
2016-02-11,23.208957740784168
2016-02-12,25.83638209356904
2016-02-13,25.65461465764393
2016-02-14,14.645265500839903
2016-02-15,15.836354789943208
2016-02-16,22.995552982959182
2016-02-17,14.457608718207712
2016-02-18,13.308640024910941
2016-02-19,10.459866102257534
2016-02-20,6.4646188457680385
2016-02-21,6.986096058013396
2016-02-22,9.568985436121801
2016-02-23,7.220610663127084
2016-02-24,12.725208770237035
2016-02-25,15.971020743506593
2016-02-26,13.721409567298215
2016-02-27,18.444407022267637
2016-02-28,7.027887144329782
2016-02-29,10.854815060734392
2016-03-01,10.292026833428066
2016-03-02,15.818688633265928
2016-03-03,9.185686836826285
2016-03-04,9.504723717675292
2016-03-05,13.177216036555416
2016-03-06,24.47225148710893
2016-03-07,13.097444504798428
2016-03-08,23.19331022817751
2016-03-09,17.16516311825933
2016-03-10,21.21146094769966
2016-03-11,8.608894026770747
2016-03-12,14.317851441834103
2016-03-13,16.64576990092666
2016-03-14,17.496197361878625
2016-03-15,14.368191651210543
2016-03-16,17.459913864367373
2016-03-17,15.120036594677536
2016-03-18,10.153776663385518
2016-03-19,13.752358358680357
2016-03-20,13.07174147042611
2016-03-21,22.402968266607605
2016-03-22,17.46427756604554
2016-03-23,13.92352485494678
2016-03-24,16.66796391718092
2016-03-25,15.36405142793632
2016-03-26,17.026870553923715
2016-03-27,17.421755582809286
2016-03-28,8.028721320855214
2016-03-29,14.164198706519143
2016-03-30,27.674466446044566
2016-03-31,22.64136643129227
2016-04-01,17.45668291795431
2016-04-02,21.48529343648279
2016-04-03,29.270014446567757
2016-04-04,27.420768649398642
2016-04-05,15.633116484558576
2016-04-06,16.463110713016665
2016-04-07,12.592868703186243
2016-04-08,18.41445380469307
2016-04-09,11.435700052883668
2016-04-10,16.727548292853935
2016-04-11,22.622072561725506
2016-04-12,18.400975110444765
2016-04-13,22.522365952237273
2016-04-14,25.912702815319204
2016-04-15,14.180903926289472
2016-04-16,31.62561269139799
2016-04-17,37.96894452341756
2016-04-18,23.316693410840443
2016-04-19,21.011800898886435
2016-04-20,13.83891268268729
2016-04-21,14.013289966224754
2016-04-22,17.423397027427608
2016-04-23,24.5105080003221
2016-04-24,3.6235041271496278
2016-04-25,2.6440969036793533
2016-04-26,2.2801457241802447
2016-04-27,3.746759515760205
2016-04-28,2.0638672289976507
2016-04-29,7.424094272753008
2016-04-30,10.051383355109458
2016-05-01,10.264773730852797
2016-05-02,10.574003793241475
2016-05-03,9.573166707185962
2016-05-04,13.826056666695715
2016-05-05,9.371062545047392
2016-05-06,9.598900684743821
2016-05-07,6.668914193611135
2016-05-08,19.05809692385499
2016-05-09,6.889545250779365
2016-05-10,5.959239085015673
2016-05-11,6.879382562330657
2016-05-12,6.400576657211017
2016-05-13,7.497435976369263
2016-05-14,6.185610005462092
2016-05-15,7.684121060532379
2016-05-16,5.368652406688078
2016-05-17,5.632753901354408
2016-05-18,8.287037720250604
2016-05-19,6.7291024860400634
2016-05-20,7.56936363626841
2016-05-21,12.003391828156472
2016-05-22,9.213702329798915
2016-05-23,10.027186879120494
2016-05-24,10.174955518526792
2016-05-25,6.9991670074483086
2016-05-26,5.68486103024407
2016-05-27,1.861432017054928
2016-05-28,3.035884691372815
2016-05-29,4.702303302474021
2016-05-30,3.051779515294092
2016-05-31,2.611652928863844
2016-06-01,4.892010626238168
2016-06-02,10.3340940258253
2016-06-03,9.67903416672337
2016-06-04,11.334154450304778
2016-06-05,12.031596576902487
2016-06-06,10.722152606581052
2016-06-07,8.266691462811558
2016-06-08,11.028539404331696
2016-06-09,11.106008652806182
2016-06-10,7.674936783231898
2016-06-11,8.34230292864378
2016-06-12,3.8007582589828677
2016-06-13,6.105804625103037
2016-06-14,5.059343707323253
2016-06-15,7.816420547000352
2016-06-16,5.088353212977924
2016-06-17,2.016980417403856
2016-06-18,5.056007339163432
2016-06-19,12.189655630583829
2016-06-20,7.968328490922222
2016-06-21,5.036237217827825
2016-06-22,3.8917353252392695
2016-06-23,2.976858449468557
2016-06-24,3.4862012479008877
2016-06-25,5.30852611931745
2016-06-26,5.349084038283271
2016-06-27,6.332234245014682
2016-06-28,5.323185628843243
2016-06-29,7.988843065726343
2016-06-30,7.812753967084435
2016-07-01,5.610197671040208
2016-07-02,5.334282717789849
2016-07-03,3.071926397308551
2016-07-04,4.352037036158371
2016-07-05,4.437632886097689
2016-07-06,5.196111503526443
2016-07-07,4.013554329153121
2016-07-08,5.313602956196021
2016-07-09,5.594618069360464
2016-07-10,6.1909676621192276
2016-07-11,6.691910914150516
2016-07-12,5.168347225691227
2016-07-13,7.126913820719171
2016-07-14,6.040535234939155
2016-07-15,9.485165533841867
2016-07-16,8.719381462896406
2016-07-17,6.729152762232194
2016-07-18,8.657592763580247
2016-07-19,6.157062912082701
2016-07-20,6.640690537201122
2016-07-21,7.405555767210852
2016-07-22,6.604603557835015
2016-07-23,9.062741272343196
2016-07-24,5.083300416493863
2016-07-25,7.570763053205047
2016-07-26,4.712840464405783
2016-07-27,6.352146671644654
2016-07-28,9.801696825242523
2016-07-29,7.2664430214902245
2016-07-30,7.681372537663199
2016-07-31,8.089070504976682
2016-08-01,4.37629376872819
2016-08-02,3.328811862190684
2016-08-03,4.280932618056582
2016-08-04,5.440223367998611
2016-08-05,5.581658569771489
2016-08-06,7.574673521601186
2016-08-07,5.021045483543927
2016-08-08,13.289674068262247
2016-08-09,13.184386480314213
2016-08-10,11.397901717297136
2016-08-11,7.534471640834825
2016-08-12,11.435414803304274
2016-08-13,7.754878711470536
2016-08-14,13.660809137434718
2016-08-15,8.072470022215445
2016-08-16,7.802128778026487
2016-08-17,8.017254261015356
2016-08-18,12.417355352908187
2016-08-19,16.38747483346534
2016-08-20,16.4736830575111
2016-08-21,15.711197951641418
2016-08-22,11.321223582453905
2016-08-23,3.5996286439862466
2016-08-24,6.219965619850666
2016-08-25,6.239797249330307
2016-08-26,8.94667196512303
2016-08-27,12.192237948541619
2016-08-28,10.825003884629009
2016-08-29,10.152061677811822
2016-08-30,10.090511404154773
2016-08-31,9.871508119869914
2016-09-01,9.235891327268137
2016-09-02,10.484321971333017
2016-09-03,11.878182454339123
2016-09-04,7.402120528363978
2016-09-05,10.81081996952758
2016-09-06,8.265196901479746
2016-09-07,16.021013854252608
2016-09-08,13.875251304793686
2016-09-09,19.073196518124764
2016-09-10,26.573398952533562
2016-09-11,16.689475083503208
2016-09-12,12.770193090996356
2016-09-13,12.832939663153354
2016-09-14,17.84777564581359
2016-09-15,25.595369094489342
2016-09-16,23.24442820211943
2016-09-17,30.10865422289855
2016-09-18,26.79848497292517
2016-09-19,22.588715272003114
2016-09-20,37.82955053083219
2016-09-21,16.64770264346756
2016-09-22,26.363466354346404
2016-09-23,32.58398315900012
2016-09-24,35.292845913053995
2016-09-25,27.718452848971374
2016-09-26,19.147195033188154
2016-09-27,17.21392504128076
2016-09-28,29.342250696002125
2016-09-29,31.49690250444501
2016-09-30,21.798809361820837
2016-10-01,28.71616535690311
2016-10-02,35.62633032644781
2016-10-03,31.6796450469475
2016-10-04,37.93311917858406
2016-10-05,23.742068357630153
2016-10-06,36.150432047310176
2016-10-07,30.228380833920223
2016-10-08,25.798555675210487
2016-10-09,26.73342550391278
2016-10-10,21.37053531795122
2016-10-11,14.97866769360972
2016-10-12,20.451546251590504
2016-10-13,14.041024525627382
2016-10-14,13.298583810583926
2016-10-15,25.300119211478044
2016-10-16,23.808960003966536
2016-10-17,23.645314137772825
2016-10-18,18.323436155645112
2016-10-19,21.749091628403388
2016-10-20,22.74945075358232
2016-10-21,17.66826741031291
2016-10-22,10.012241486252755
2016-10-23,10.983885043099054
2016-10-24,16.05064520457217
2016-10-25,18.570629816033104
2016-10-26,18.06923544069858
2016-10-27,20.51189466877254
2016-10-28,15.242140310480533
2016-10-29,9.820842563690235
2016-10-30,15.49527359590884
2016-10-31,17.839430624482702
2016-11-01,11.056069422311705
2016-11-02,14.898442124991591
2016-11-03,6.613112849082411
2016-11-04,15.887900535853115
2016-11-05,19.333643838562146
2016-11-06,20.996225611968175
2016-11-07,16.610778498518386
2016-11-08,35.260791045623776
2016-11-09,24.13293955213412
2016-11-10,19.80969916195311
2016-11-11,36.17848488200295
2016-11-12,19.087965862877997
2016-11-13,8.050378639378488
2016-11-14,15.804334276449161
2016-11-15,11.152274425962133
2016-11-16,8.787801253075033
2016-11-17,11.213591796385801
2016-11-18,15.574768596603509
2016-11-19,20.73906294146468
2016-11-20,13.855135700646114
2016-11-21,14.653201640114798
2016-11-22,9.261162217413112
2016-11-23,15.48040366330078
2016-11-24,15.36949677000181
2016-11-25,17.25738120250148
2016-11-26,25.43357759179204
2016-11-27,23.983588249413945
2016-11-28,24.898298430384365
2016-11-29,20.356656274664964
2016-11-30,20.521036237726896
2016-12-01,23.873470046244606
2016-12-02,20.208823167024054
2016-12-03,21.402929505608576
2016-12-04,27.20368994313377
2016-12-05,4.409411332992464
2016-12-06,9.352752523807458
2016-12-07,16.366987433255243
2016-12-08,12.70871334681087
2016-12-09,17.857090903709125
2016-12-10,14.43397123425749
2016-12-11,19.62171960870617
2016-12-12,24.516319181764917
2016-12-13,27.498324324720375
2016-12-14,18.78716625063242
2016-12-15,15.29468310203581
2016-12-16,17.151850657039166
2016-12-17,17.520343241530597
2016-12-18,13.144987280208152
2016-12-19,17.257044483185663
2016-12-20,18.748927618907747
2016-12-21,14.758874644340487
2016-12-22,8.694815119145558
2016-12-23,4.665687919716107
2016-12-24,4.475289232400756
2016-12-25,5.5160868894980135
2016-12-26,5.7048568327510525
2016-12-27,10.001794281067816
2016-12-28,5.373909916587348
2016-12-29,9.840854079558973
2016-12-30,4.470896968911556
2016-12-31,8.949842458079544
2017-01-01,11.136901017338703
2017-01-02,5.339588495936956
2017-01-03,8.50119517881286
2017-01-04,4.382386883825901
2017-01-05,3.6471269131955806
2017-01-06,5.512971560256643
2017-01-07,7.397740260967138
2017-01-08,9.768249682850575
2017-01-09,8.470563818411517
2017-01-10,5.758781611950542
2017-01-11,3.672306603155634
2017-01-12,6.267018775850173
2017-01-13,8.938765141544014
2017-01-14,14.43701883002103
2017-01-15,19.197613168390706
2017-01-16,15.250362586438886
2017-01-17,10.195894422452362
2017-01-18,4.551716552435778
2017-01-19,20.7690923557935
2017-01-20,6.603371246629141
2017-01-21,11.968680818148774
2017-01-22,6.579041976525907
2017-01-23,11.357288806161568
2017-01-24,18.023572044977875
2017-01-25,13.326637783922658
2017-01-26,16.86486468628012
2017-01-27,15.370992806080054
2017-01-28,22.44434464346805
2017-01-29,26.246535771578273
2017-01-30,5.380842172464275
2017-01-31,5.8277257774073625
2017-02-01,13.79526938726913
2017-02-02,28.02589876394083
2017-02-03,13.200378694928299
2017-02-04,12.633345836300254
2017-02-05,19.369648363911406
2017-02-06,18.67058169142293
2017-02-07,22.74959870297584
2017-02-08,13.712205414724771
2017-02-09,12.372941786278892
2017-02-10,7.5533669599408295
2017-02-11,14.738905192284017
2017-02-12,65.68100789577473
2017-02-13,59.63433622357205
2017-02-14,50.75666477488779
2017-02-15,75.34788288150529
2017-02-16,70.91088321882836
2017-02-17,101.0560113385775
2017-02-18,145.31591315599408
2017-02-19,77.85101225877266
2017-02-20,58.87884890710789
2017-02-21,40.83090321331894
2017-02-22,20.892146483056308
2017-02-23,74.91273121509421
2017-02-24,12.690307041688444
2017-02-25,47.01289000407053
2017-02-26,37.77781406801657
2017-02-27,25.39271620623186
2017-02-28,37.248020214236575
2017-03-01,24.567957374614796
2017-03-02,16.944526145525995
2017-03-03,26.117110043540396
2017-03-04,68.85790489791265
2017-03-05,105.75162504864969
2017-03-06,80.4471976226773
2017-03-07,101.5191554668015
2017-03-08,24.800690202908502
2017-03-09,32.33603732412351
2017-03-10,77.08754179016012
2017-03-11,49.494202433852664
2017-03-12,44.29786494064448
2017-03-13,24.20938665556243
2017-03-14,14.069715239840539
2017-03-15,18.58945882979279
2017-03-16,9.419592266331719
2017-03-17,9.780344313441102
2017-03-18,30.06460313352358
2017-03-19,58.65624442986275
2017-03-20,28.8416997437922
2017-03-21,35.22724891848043
2017-03-22,29.070439195651595
2017-03-23,64.2638317586247
2017-03-24,18.129932404233887
2017-03-25,32.97288779809036
2017-03-26,51.038186969032736
2017-03-27,38.15273301941377
2017-03-28,75.11785575521944
2017-03-29,35.95231210420464
2017-03-30,3.1940283580713364
2017-03-31,4.426556750451504
2017-04-01,8.712339969250682
2017-04-02,6.127068372901649
2017-04-03,6.765816132195077
2017-04-04,5.200248940970137
2017-04-05,2.589658921071496
2017-04-06,6.590949952921936
2017-04-07,12.919526304692095
2017-04-08,14.143692614202648
2017-04-09,16.585100695079557
2017-04-10,22.6567100859972
2017-04-11,27.002682361325135
2017-04-12,7.861197029361873
2017-04-13,18.032187862184372
2017-04-14,20.03228530660146
2017-04-15,26.427220617067015
2017-04-16,51.09405873376295
2017-04-17,11.394394996561598
2017-04-18,16.06566806716003
2017-04-19,23.543431615930665
2017-04-20,40.72869273197601
2017-04-21,7.992160688469794
2017-04-22,1.6657296207946397
2017-04-23,1.072542412790487
2017-04-24,2.0525152474655597
2017-04-25,2.213757836849886
2017-04-26,3.18100970634717
2017-04-27,13.434460231366117
2017-04-28,5.0173273263648195
2017-04-29,2.351633873203576
2017-04-30,21.540086996219554
2017-05-01,12.526662640109516
2017-05-02,12.406567632916042
2017-05-03,2.436592456425637
2017-05-04,1.1419802850070164
2017-05-05,2.932000271291178
2017-05-06,6.955166146012799
2017-05-07,3.136534680812608
2017-05-08,7.02460714830177
2017-05-09,5.941357840699452
2017-05-10,1.4248928274215409
2017-05-11,9.98212625388809
2017-05-12,13.213405828441909
2017-05-13,18.947375602769846
2017-05-14,17.791112128444276
2017-05-15,7.70300423758267
2017-05-16,7.552655629284606
2017-05-17,15.030991989504072
2017-05-18,6.252079694178515
2017-05-19,9.39071499863457
2017-05-20,10.891381221966679
2017-05-21,20.852103631902594
2017-05-22,11.6741229528511
2017-05-23,3.112155939730335
2017-05-24,5.8878261161257885
2017-05-25,6.689292208202044
2017-05-26,8.436643568952407
2017-05-27,3.8298917330320372
2017-05-28,16.618787912451204
2017-05-29,34.533071365523014
2017-05-30,20.154292151543792
2017-05-31,3.362722780808818
2017-06-01,0.5827160063806126
2017-06-02,2.5690945091474244
2017-06-03,5.029485172093853
2017-06-04,10.44039392497815
2017-06-05,5.370894848383557
2017-06-06,7.567522099392306
2017-06-07,3.3001044751564037
2017-06-08,3.928278915132263
2017-06-09,4.748104431662171
2017-06-10,5.112821982686172
2017-06-11,3.9016617524467656
2017-06-12,4.507476691308266
2017-06-13,6.016151184664247
2017-06-14,4.064161580759375
2017-06-15,3.6640711451623016
2017-06-16,3.81579764065897
2017-06-17,2.170082496252966
2017-06-18,4.109226175582185
2017-06-19,2.0097287541232847
2017-06-20,1.6796843767361804
2017-06-21,4.007310130999415
2017-06-22,6.205495195194661
2017-06-23,7.616705108673062
2017-06-24,6.490427963130436
2017-06-25,2.5525893152712094
2017-06-26,2.378992033357606
2017-06-27,3.6711066397645973
2017-06-28,5.747434658665248
2017-06-29,7.46874901695896
2017-06-30,9.139181838534848
2017-07-01,7.2369419155549695
2017-07-02,7.2396995779366815
2017-07-03,3.5904703156928153
2017-07-04,2.627961755801667
2017-07-05,2.1657445885849245
2017-07-06,4.005503822087292
2017-07-07,2.9817481015377454
2017-07-08,3.9748688292579355
2017-07-09,6.5865229986504
2017-07-10,3.874767012364212
2017-07-11,1.4071687447570915
2017-07-12,3.7695175870234388
2017-07-13,4.246571391813646
2017-07-14,4.805596026680698
2017-07-15,3.0770797311563816
2017-07-16,2.0971349332704894
2017-07-17,6.954037205425014
2017-07-18,4.673397995685307
2017-07-19,6.502420260715062
2017-07-20,4.081450740721804
2017-07-21,2.8359830444163987
2017-07-22,1.3677170609073221
2017-07-23,8.910506865167275
2017-07-24,11.146941525323895
2017-07-25,3.514779772409211
2017-07-26,5.2750715297004955
2017-07-27,3.3518183862864275
2017-07-28,10.658936732420795
2017-07-29,4.105647356652164
2017-07-30,7.182651528820172
2017-07-31,7.306449337567459
2017-08-01,8.806742338183577
2017-08-02,8.003846531054322
2017-08-03,4.420318296940984
2017-08-04,10.306484218507247
2017-08-05,3.6724096183784054
2017-08-06,4.733958083962095
2017-08-07,2.812403994628713
2017-08-08,1.7809077835041316
2017-08-09,8.295567489862004
2017-08-10,4.216964656909169
2017-08-11,2.0515735678370732
2017-08-12,2.3338490657260076
2017-08-13,0.9459133817479277
2017-08-14,1.2960374949463545
2017-08-15,7.6391375333420815
2017-08-16,12.658363954610971
2017-08-17,16.232498503685626
2017-08-18,6.600572554323413
2017-08-19,14.89867211055503
2017-08-20,18.246364352092208
2017-08-21,10.275812640199277
2017-08-22,10.983098437568778
2017-08-23,6.820870740000927
2017-08-24,4.377646145674284
2017-08-25,9.415719299942353
2017-08-26,13.360211532165286
2017-08-27,4.446541012005756
2017-08-28,5.722317264158698
2017-08-29,7.075839256329657
2017-08-30,8.660765164099619
2017-08-31,5.599554252007926
2017-09-01,2.1478401638232096
2017-09-02,4.479499034711971
2017-09-03,8.52622815189479
2017-09-04,3.299159763584912
2017-09-05,5.571715326828689
2017-09-06,4.314772797870836
2017-09-07,10.119734094597645
2017-09-08,4.635675834170232
2017-09-09,5.074840553302569
2017-09-10,3.9729175518746604
2017-09-11,6.98275474581361
2017-09-12,7.008115906406823
2017-09-13,11.356030118513655
2017-09-14,3.2748195436889893
2017-09-15,1.4122250006041084
2017-09-16,2.176475915043827
2017-09-17,3.818161800794076
2017-09-18,2.0432420739438477
2017-09-19,3.326241209622182
2017-09-20,1.7415290423896048
2017-09-21,2.078266491512852
2017-09-22,2.5321167576131938
2017-09-23,3.6264343817371927
2017-09-24,7.295079245777163
2017-09-25,5.072576910836185
2017-09-26,6.008613306167668
2017-09-27,4.654794202211161
2017-09-28,2.738457865165107
2017-09-29,7.124758804095695
2017-09-30,4.466966990361577
2017-10-01,6.603404765652501
2017-10-02,6.9995296739093735
2017-10-03,5.223238316807451
2017-10-04,7.394824782316929
2017-10-05,11.519227496944433
2017-10-06,17.47273082476425
2017-10-07,21.910194899820397
2017-10-08,11.772955749483007
2017-10-09,6.400605458143801
2017-10-10,8.936544727972969
2017-10-11,13.14216016121675
2017-10-12,5.792579311222437
2017-10-13,6.243253126540967
2017-10-14,9.019101316578645
2017-10-15,9.453463361784348
2017-10-16,13.491845338024559
2017-10-17,11.041193846591641
2017-10-18,10.079653588157203
2017-10-19,13.580029798720489
2017-10-20,14.538894379007704
2017-10-21,11.849068475277694
2017-10-22,14.870335128751039
2017-10-23,8.68631802780183
2017-10-24,10.20831563053064
2017-10-25,12.69573526260934
2017-10-26,14.001071075183388
2017-10-27,17.236966716236168
2017-10-28,19.18175689316769
2017-10-29,2.1553695235643295
2017-10-30,1.4741087767345127
2017-10-31,1.5342173589414294
2017-11-01,1.3417853215897344
2017-11-02,1.3919399804259565
2017-11-03,1.3186126750690343
2017-11-04,1.7916046842864923
2017-11-05,1.8014218257545334
2017-11-06,1.565214265420339
2017-11-07,1.3385776648533323
2017-11-08,1.669562706084225
2017-11-09,1.4354578452499906
2017-11-10,1.7150608235020783
2017-11-11,1.8834095596986704
2017-11-12,1.6436607786825268
2017-11-13,2.3826793663990884
2017-11-14,2.1312880226491013
2017-11-15,2.671155856070955
2017-11-16,2.072324386610281
2017-11-17,2.465525651146364
2017-11-18,3.0452840436819817
2017-11-19,3.1930119976686493
2017-11-20,3.106340070942544
2017-11-21,3.025655817866078
2017-11-22,3.933204298379561
2017-11-23,3.7627511732464693
2017-11-24,3.768300728135301
2017-11-25,3.4331377017257214
2017-11-26,3.5557233998655895
2017-11-27,3.1573696421512456
2017-11-28,3.16137436886504
2017-11-29,2.918207928296131
2017-11-30,3.376247020469866
2017-12-01,4.231826999783999
2017-12-02,4.767297235076911
2017-12-03,4.797962376785965
2017-12-04,3.910714030434519
2017-12-05,3.349848241329835
2017-12-06,3.870061844882811
2017-12-07,4.338178338061105
2017-12-08,2.7065310788359613
2017-12-09,2.5914152257838885
2017-12-10,5.937243379812542
2017-12-11,3.7001911033461923
2017-12-12,1.5097680428541278
2017-12-13,2.2273831824427086
2017-12-14,4.363772972782484
2017-12-15,3.6520460577938034
2017-12-16,6.298362911039236
2017-12-17,5.659304059847527
2017-12-18,6.209590259479253
2017-12-19,3.289177614805946
2017-12-20,3.4987783644415242
2017-12-21,1.4563338227130767
2017-12-22,3.7450218764105685
2017-12-23,5.6746157760442015
2017-12-24,9.64587842205088
2017-12-25,11.12947594246518
2017-12-26,12.334900892797823
2017-12-27,8.679233613053025
2017-12-28,4.518866046681126
2017-12-29,2.6702674088513314
2017-12-30,7.551242469997199
2017-12-31,3.8176204474580593
2018-01-01,9.060114125311534
2018-01-02,4.483101218869665
2018-01-03,4.061676030369604
2018-01-04,2.581121513197404
2018-01-05,1.680462701307556
2018-01-06,3.3598802054473933
2018-01-07,4.298627281792344
2018-01-08,5.482407680889171
2018-01-09,5.053740015397505
2018-01-10,5.856287394024039
2018-01-11,6.6909364932067685
2018-01-12,6.938779069012227
2018-01-13,7.729413994028149
2018-01-14,6.497960004628556
2018-01-15,7.635674050472708
2018-01-16,5.431628357610055
2018-01-17,6.664695817466774
2018-01-18,7.278083147629283
2018-01-19,12.06666224489975
2018-01-20,13.75717984279464
2018-01-21,17.79182986588816
2018-01-22,14.162682105123672
2018-01-23,18.503697799356033
2018-01-24,10.359387880480671
2018-01-25,13.732586823057979
2018-01-26,11.954743689769085
2018-01-27,19.889896694546426
2018-01-28,5.721609542814011
2018-01-29,8.835292500623463
2018-01-30,7.6924737837821775
2018-01-31,16.14056559460447
2018-02-01,13.471343240440516
2018-02-02,11.370623375340449
2018-02-03,15.344234362092353
2018-02-04,7.833684458512906
2018-02-05,8.946918812979014
2018-02-06,10.091880026519968
2018-02-07,11.121643669065474
2018-02-08,13.81757986857574
2018-02-09,14.801525019635626
2018-02-10,10.568202416015065
2018-02-11,16.836545196234024
2018-02-12,21.44651560865036
2018-02-13,3.256304129111755
2018-02-14,7.916538836888258
2018-02-15,6.043551325261573
2018-02-16,13.196134306010931
2018-02-17,5.02610536398948
2018-02-18,6.357697093331888
2018-02-19,17.341486691426308
2018-02-20,16.519370561246188
2018-02-21,18.829013533558516
2018-02-22,11.238825657391473
2018-02-23,17.50900200648803
2018-02-24,28.865142805362453
2018-02-25,31.721434044906683
2018-02-26,22.570486246607544
2018-02-27,25.896516093077473
2018-02-28,20.759053394564397
2018-03-01,29.4634987431881
2018-03-02,27.77829351174018
2018-03-03,29.23665790731607
2018-03-04,44.16652777332375
2018-03-05,31.473404882690275
2018-03-06,25.43913344308499
2018-03-07,24.97133292485942
2018-03-08,18.257787305249646
2018-03-09,20.64275566459215
2018-03-10,34.63646567702127
2018-03-11,24.863295298662386
2018-03-12,24.89129359133971
2018-03-13,25.11755787077875
2018-03-14,32.93770688850297
2018-03-15,26.078810726840743
2018-03-16,43.40050718054036
2018-03-17,43.624246283664064
2018-03-18,29.92833143872969
2018-03-19,30.464313549816644
2018-03-20,32.85804981078864
2018-03-21,30.581654968476332
2018-03-22,51.3010376652342
2018-03-23,47.27330777765477
2018-03-24,62.77241271245684
2018-03-25,64.0068654728744
2018-03-26,36.17917561343314
2018-03-27,43.275239640708385
2018-03-28,29.338948482808952
2018-03-29,32.596291080146294
2018-03-30,29.083132325798783
2018-03-31,56.95587982050122
2018-04-01,51.738899286108484
2018-04-02,44.189509648310114
2018-04-03,39.30722459133448
2018-04-04,48.632139225690054
2018-04-05,38.25675692319857
2018-04-06,30.09260274867073
2018-04-07,34.885628497341905
2018-04-08,37.202127552677894
2018-04-09,29.518747312590456
2018-04-10,35.78007507124087
2018-04-11,32.10916635026698
2018-04-12,21.324150196119326
2018-04-13,30.641213484978447
2018-04-14,44.82284046687438
2018-04-15,27.345648819131608
2018-04-16,40.8711233719795
2018-04-17,28.833393943357457
2018-04-18,33.63715551481345
2018-04-19,22.38679114225319
2018-04-20,33.99820883925679
2018-04-21,36.143033181557605
2018-04-22,50.919380112388595
2018-04-23,27.39127938993856
2018-04-24,20.331712876890506
2018-04-25,20.17224983945926
2018-04-26,28.211688524919747
2018-04-27,29.357355617632674
2018-04-28,27.08664176418985
2018-04-29,22.387227292540338
2018-04-30,26.30443861928071
2018-05-01,19.15134397246205
2018-05-02,32.309003759671434
2018-05-03,26.6285947125405
2018-05-04,31.06355972022659
2018-05-05,26.71449932280053
2018-05-06,14.98713222396994
2018-05-07,35.50477550233036
2018-05-08,41.22800262337801
2018-05-09,38.141268963180515
2018-05-10,38.23846732099492
2018-05-11,27.640797421296348
2018-05-12,55.525317941054766
2018-05-13,66.88525417346555
2018-05-14,27.916857948340812
2018-05-15,18.049215129547978
2018-05-16,18.47964931702917
2018-05-17,48.798970623588865
2018-05-18,48.90610333284688
2018-05-19,71.53937413199282
2018-05-20,89.96223981433691
2018-05-21,43.68737596097727
2018-05-22,45.401884292909756
2018-05-23,40.84213693520276
2018-05-24,49.8386054108805
2018-05-25,57.3423218001585
2018-05-26,72.36584290619884
2018-05-27,73.81265579491152
2018-05-28,47.118787437703254
2018-05-29,53.017282518440936
2018-05-30,65.0782345764681
2018-05-31,66.73964643380896
2018-06-01,72.73259543159216
2018-06-02,37.81415433582723
2018-06-03,36.499276140981465
2018-06-04,35.947100842876694
2018-06-05,32.52061782247448
2018-06-06,31.834549661580475
2018-06-07,34.08104821953548
2018-06-08,36.05019215327689
2018-06-09,43.77250620316844
2018-06-10,28.338721855369432
2018-06-11,30.6875138536808
2018-06-12,26.64751461543759
2018-06-13,26.6597631591876
2018-06-14,33.368582740092585
2018-06-15,41.45549289934186
2018-06-16,60.07730414499752
2018-06-17,69.02450737916502
2018-06-18,44.387598996066195
2018-06-19,44.32492179160102
2018-06-20,50.34575005260522
2018-06-21,58.995811212124615
2018-06-22,41.27588708255834
2018-06-23,57.62328055838419
2018-06-24,52.44292556793161
2018-06-25,48.30277274758503
2018-06-26,56.44869535791706
2018-06-27,46.601017788210726
2018-06-28,65.92299562585346
2018-06-29,54.06974330928191
2018-06-30,67.46898266646924
2018-07-01,90.13004090697598
2018-07-02,48.36474976379641
2018-07-03,51.28865969753962
2018-07-04,37.32514638389294
2018-07-05,35.99090285194333
2018-07-06,52.588802213063836
2018-07-07,67.2083913492861
2018-07-08,65.95117358296368
2018-07-09,62.91242969063702
2018-07-10,38.804512758315425
2018-07-11,11.383187649884174
2018-07-12,51.92978904764257
2018-07-13,74.48613038813015
2018-07-14,99.99344837411056
2018-07-15,78.05944702985974
2018-07-16,60.96411173761215
2018-07-17,51.857930864024304
2018-07-18,45.284779341446
2018-07-19,68.12987075378861
2018-07-20,55.79196477548191
2018-07-21,66.99382505742503
2018-07-22,78.38954618327212
2018-07-23,71.66462435888711
2018-07-24,59.201063530205275
2018-07-25,68.51794085662728
2018-07-26,69.94346877422394
2018-07-27,79.62979919890779
2018-07-28,106.0714382021944
2018-07-29,93.49236992548465
2018-07-30,57.05716898870524
2018-07-31,42.470353501933516
2018-08-01,74.92967199059295
2018-08-02,71.32146611226305
2018-08-03,70.65856200989266
2018-08-04,50.634876740254725
2018-08-05,96.95941917792685
2018-08-06,55.620863608566985
2018-08-07,62.74291350158151
2018-08-08,22.10799052344767
2018-08-09,32.80125481600346
2018-08-10,47.1163390665517
2018-08-11,49.5202728930739
2018-08-12,69.27253535399653
2018-08-13,49.27569329739042
2018-08-14,31.378689341463765
2018-08-15,32.68553561079717
2018-08-16,57.409888798617914
2018-08-17,53.90970692547385
2018-08-18,54.073773833773764
2018-08-19,77.96580070404796
2018-08-20,59.294449740777075
2018-08-21,52.64251877399968
2018-08-22,40.59670803738458
2018-08-23,66.65554709108962
2018-08-24,61.977228556666056
2018-08-25,85.78234990047183
2018-08-26,73.96317775462445
2018-08-27,46.27965959864617
2018-08-28,52.83113440363722
2018-08-29,74.09508721337593
2018-08-30,87.97741271468306
2018-08-31,82.93244628877144
2018-09-01,59.89361573849357
2018-09-02,60.72420855492026
2018-09-03,62.323445835832516
2018-09-04,56.49282713116908
2018-09-05,50.586539686526756
2018-09-06,38.087278747098274
2018-09-07,65.23466308864319
2018-09-08,55.2524327524584
2018-09-09,76.64211004857599
2018-09-10,57.85114585502591
2018-09-11,48.259950170707825
2018-09-12,57.16049800978579
2018-09-13,67.52573091702612
2018-09-14,64.27779970556819
2018-09-15,83.56826904014753
2018-09-16,96.39682411975058
2018-09-17,71.18400957868693
2018-09-18,75.81295265517231
2018-09-19,73.53359614549524
2018-09-20,31.45129189565995
2018-09-21,42.786414399483334
2018-09-22,46.23743360728902
2018-09-23,66.98937071540048
2018-09-24,46.81463751046558
2018-09-25,72.50258096852728
2018-09-26,50.142550829611594
2018-09-27,34.75229171144727
2018-09-28,28.078834270863652
2018-09-29,82.74286575008018
2018-09-30,72.86906087927647
2018-10-01,44.37867697602773
2018-10-02,67.32322711271925
2018-10-03,52.22800102985235
2018-10-04,82.54789328902068
2018-10-05,65.48921592117746
2018-10-06,62.22159321887655
2018-10-07,47.546822446134755
2018-10-08,42.14823768449757
2018-10-09,38.60020794172136
2018-10-10,50.10027440750851
2018-10-11,30.472271863521364
2018-10-12,34.89580473491361
2018-10-13,44.980040490868944
2018-10-14,64.16967005809353
2018-10-15,33.92479212603898
2018-10-16,43.04327587182274
2018-10-17,44.944555882475186
2018-10-18,37.471130978994985
2018-10-19,52.928255167919765
2018-10-20,30.297675281330353
2018-10-21,83.41169350205764
2018-10-22,47.07310459576532
2018-10-23,56.391736032443255
2018-10-24,72.97504660708243
2018-10-25,76.02533681625965
2018-10-26,73.52448467966742
2018-10-27,123.58049964364359
2018-10-28,107.68098367924159
2018-10-29,69.43515021515343
2018-10-30,61.64021905523237
2018-10-31,76.64616804673183
2018-11-01,70.95242945100581
2018-11-02,58.814231156821975
2018-11-03,101.84996188874483
2018-11-04,65.51746320675285
2018-11-05,59.065515101472236
2018-11-06,54.74774955718574
2018-11-07,28.408005190136887
2018-11-08,64.94463266978644
2018-11-09,67.7994548576635
2018-11-10,99.40341021364927
2018-11-11,96.11067371254514
2018-11-12,83.90196954062769
2018-11-13,64.97198255455389
2018-11-14,37.34251233668323
2018-11-15,10.411788176299458
2018-11-16,63.32331879992639
2018-11-17,78.75931851103348
2018-11-18,89.43633340226981
2018-11-19,23.447954766401235
2018-11-20,25.49051750358505
2018-11-21,37.606144117650096
2018-11-22,46.517414265198575
2018-11-23,35.91178444290931
2018-11-24,48.98897166927054
2018-11-25,25.50730298332236
2018-11-26,34.9975650339636
2018-11-27,50.73506335985126
2018-11-28,38.592403261136916
2018-11-29,3.6635677689655233
2018-11-30,1.7254816617219486
2018-12-01,58.550017997168396
2018-12-02,73.68751678304731
2018-12-03,52.12334733004004
2018-12-04,55.09523038949891
2018-12-05,41.54308292300756
2018-12-06,34.034815710883365
2018-12-07,19.91637733184875
2018-12-08,35.822822543813956
2018-12-09,51.36228750501611
2018-12-10,47.331917886919676
2018-12-11,43.81333185125542
2018-12-12,32.12883168695924
2018-12-13,38.30444285686909
2018-12-14,42.86059809251746
2018-12-15,33.29218396593619
2018-12-16,32.93751976602087
2018-12-17,18.878500849337215
2018-12-18,33.35826513465346
2018-12-19,23.952855594301592
2018-12-20,23.966424579547272
2018-12-21,31.242536738057115
2018-12-22,35.13113939525406
2018-12-23,25.714925803615593
2018-12-24,24.95096642849567
2018-12-25,35.96032142224977
2018-12-26,37.81124523828044
2018-12-27,32.79575228301076
2018-12-28,28.696620954593058
2018-12-29,30.916324592834133
2018-12-30,32.41935724146194
2018-12-31,46.31336998027993
2019-01-01,30.87742386621425
2019-01-02,24.684226836841773
2019-01-03,20.73669760171813
2019-01-04,32.964499687496925
2019-01-05,27.555729429191825
2019-01-06,16.607814733270686
2019-01-07,13.53343828093207
2019-01-08,23.101936054915846
2019-01-09,22.2765649806916
2019-01-10,15.308987438301376
2019-01-11,14.173779798124514
2019-01-12,30.242681909396033
2019-01-13,38.31565343318992
2019-01-14,35.20783621184575
2019-01-15,43.4534536660279
2019-01-16,33.596956128728145
2019-01-17,44.827061114961346
2019-01-18,36.36564922658077
2019-01-19,28.575351953026875
2019-01-20,38.545280859375815
2019-01-21,55.68915519694119
2019-01-22,33.875357256523635
2019-01-23,48.16905373884155
2019-01-24,40.16025737972433
2019-01-25,36.11581811039136
2019-01-26,36.530564565281466
2019-01-27,54.652758444936396
2019-01-28,24.55688653124792
2019-01-29,42.16453287370276
2019-01-30,35.869867658926125
2019-01-31,34.36499344688726
2019-02-01,32.10432334748656
2019-02-02,40.85756012952269
2019-02-03,27.709030644891392
2019-02-04,29.327815673084086
2019-02-05,39.559139189494886
2019-02-06,41.2427121824298
2019-02-07,39.735992649695724
2019-02-08,15.429703921108702
2019-02-09,22.43227991823189
2019-02-10,17.8131462164891
2019-02-11,26.324113352585528
2019-02-12,17.191468109792833
2019-02-13,21.480390322018234
2019-02-14,12.238904333096176
2019-02-15,15.20115638968527
2019-02-16,40.0508402312354
2019-02-17,32.496511268499766
2019-02-18,26.444696374793992
2019-02-19,28.341653505433026
2019-02-20,22.77674342277139
2019-02-21,28.297873697231516
2019-02-22,37.172811605341835
2019-02-23,38.7792708984644
2019-02-24,14.63469657455397
2019-02-25,29.16815335800405
2019-02-26,19.076795956476527
2019-02-27,20.885897337501323
2019-02-28,19.139981981791394
2019-03-01,28.374841677292988
2019-03-02,34.52297895739413
2019-03-03,59.51896659138867
2019-03-04,33.448797253577446
2019-03-05,16.833750453865175
2019-03-06,23.66171467117108
2019-03-07,16.639818100207933
2019-03-08,19.27563363692506
2019-03-09,38.307002296270745
2019-03-10,61.62764930418994
2019-03-11,35.064652265544545
2019-03-12,29.86374663397995
2019-03-13,36.90871188371479
2019-03-14,35.63357996182439
2019-03-15,37.35009277359192
2019-03-16,40.35360160308712
2019-03-17,35.431844094697766
2019-03-18,22.110616948866017
2019-03-19,17.049921697990985
2019-03-20,33.11750699055664
2019-03-21,32.895311443142354
2019-03-22,32.22748057484243
2019-03-23,40.0746120934656
2019-03-24,43.12597135421514
2019-03-25,28.227664697058273
2019-03-26,31.381570791195372
2019-03-27,28.818362030205247
2019-03-28,27.601148230528135
2019-03-29,18.29978474364774
2019-03-30,40.388321559573775
2019-03-31,38.85879411855359
2019-04-01,27.048518338100568
2019-04-02,8.173920004976411
2019-04-03,11.339176720545735
2019-04-04,17.35243076834749
2019-04-05,20.31226468718125
2019-04-06,23.722381039784867
2019-04-07,30.095062311957424
2019-04-08,23.567555739560163
2019-04-09,28.996893098036796
2019-04-10,26.65501528225324
2019-04-11,10.78308597165475
2019-04-12,16.348488538590917
2019-04-13,24.828081801502552
2019-04-14,54.80897428889992
2019-04-15,27.789921221460563
2019-04-16,15.26119426230958
2019-04-17,32.507391841905616
2019-04-18,28.30600185440248
2019-04-19,27.8582343121376
2019-04-20,31.092281383558486
2019-04-21,17.200349695459508
2019-04-22,25.452773794837004
2019-04-23,20.472828522027587
2019-04-24,14.00651155226973
2019-04-25,29.658080202157116
2019-04-26,21.161573824033034
2019-04-27,37.586006546618336
2019-04-28,32.32417083288587
2019-04-29,31.685789981549913
2019-04-30,22.311619896536058
2019-05-01,27.258782487949507
2019-05-02,24.76447205194326
2019-05-03,24.093698275399
2019-05-04,28.89412032525691
2019-05-05,40.884431437478355
2019-05-06,19.247296937714978
2019-05-07,21.887368272333983
2019-05-08,27.486911342462967
2019-05-09,18.766358392748177
2019-05-10,25.073588777778184
2019-05-11,19.7971362956545
2019-05-12,19.84000499940117
2019-05-13,13.497563794681586
2019-05-14,18.916418770962935
2019-05-15,15.707877988500105
2019-05-16,5.013950043418775
2019-05-17,13.57588079418009
2019-05-18,14.36558150851151
2019-05-19,21.986544698818985
2019-05-20,16.246186269092767
2019-05-21,18.59177855114124
2019-05-22,18.98475754067224
2019-05-23,20.585500830530336
2019-05-24,14.661039591835767
2019-05-25,21.747039052393617
2019-05-26,19.782677644300453
2019-05-27,12.86586450369204
2019-05-28,15.507759095106696
2019-05-29,20.323692163507204
2019-05-30,14.228498260832609
2019-05-31,15.225712271056993
2019-06-01,20.92529127335657
2019-06-02,20.932971397622982
2019-06-03,21.013082190060448
2019-06-04,14.368408679140652
2019-06-05,24.82582092993088
2019-06-06,20.28716096421338
2019-06-07,16.219261013031165
2019-06-08,17.96810594188202
2019-06-09,23.16082498190781
2019-06-10,8.951117039562696
2019-06-11,6.798047191927279
2019-06-12,10.349574104163423
2019-06-13,11.606917362418393
2019-06-14,11.55679187683795
2019-06-15,20.00504570726557
2019-06-16,19.12400632072269
2019-06-17,24.48807708478899
2019-06-18,9.308256702039916
2019-06-19,16.055519151014792
2019-06-20,17.481823860194403
2019-06-21,16.706153967259834
2019-06-22,13.44042105347716
2019-06-23,20.0437210502056
2019-06-24,9.769258050760074
2019-06-25,15.268865549884051
2019-06-26,11.892520176676348
2019-06-27,9.40486845167557
2019-06-28,11.86687967906688
2019-06-29,18.37072241166508
2019-06-30,19.432095128842736
2019-07-01,27.96413534499968
2019-07-02,35.06667693461545
2019-07-03,23.027518504853706
2019-07-04,26.67153876296211
2019-07-05,34.69819183845673
2019-07-06,34.422934678390824
2019-07-07,39.95477984609345
2019-07-08,28.940195820812193
2019-07-09,35.665619599528426
2019-07-10,18.874997967885356
2019-07-11,16.107351992007278
2019-07-12,20.913027327942157
2019-07-13,46.06271896072585
2019-07-14,32.63459626401469
2019-07-15,28.029394884749674
2019-07-16,18.02341286158813
2019-07-17,20.245647569601758
2019-07-18,22.829926418800923
2019-07-19,36.428372814742126
2019-07-20,34.669143841944326
2019-07-21,61.70702220771345
2019-07-22,33.50384492715276
2019-07-23,45.40226738677988
2019-07-24,36.585597818300066
2019-07-25,45.91646172755324
2019-07-26,40.64883604799656
2019-07-27,42.47729629205817
2019-07-28,41.527658863680465
2019-07-29,45.48688613180322
2019-07-30,38.41383825907987
2019-07-31,34.21802296145396
2019-08-01,43.39170829118888
2019-08-02,44.64791251035446
2019-08-03,40.20588268378554
2019-08-04,47.2067474011273
2019-08-05,32.91329664538548
2019-08-06,29.963978807507477
2019-08-07,14.406835452177825
2019-08-08,34.214830856399594
2019-08-09,45.395186921271154
2019-08-10,33.74040515658813
2019-08-11,14.420385023444078
2019-08-12,23.48355612803085
2019-08-13,3.484203650874228
2019-08-14,6.769738076008447
2019-08-15,30.94344619288332
2019-08-16,33.35435832010483
2019-08-17,63.93463410312689
2019-08-18,67.13889650370236
2019-08-19,66.40765089926299
2019-08-20,45.79111704493433
2019-08-21,48.676660222952556
2019-08-22,47.88648022455686
2019-08-23,52.6666462638874
2019-08-24,67.87133374530065
2019-08-25,55.48254478120002
2019-08-26,40.603227490422206
2019-08-27,35.60655244354771
2019-08-28,51.24782058706575
2019-08-29,39.121410530874584
2019-08-30,51.54900406805831
2019-08-31,73.54612575426953
2019-09-01,68.41799267179219
2019-09-02,59.75832390650892
2019-09-03,18.63762382817817
2019-09-04,38.18860079777699
2019-09-05,48.073816084205404
2019-09-06,41.10879504825484
2019-09-07,51.1707203868512
2019-09-08,24.402361953988475
2019-09-09,21.82665641798419
2019-09-10,37.85034242976838
2019-09-11,45.884514798039895
2019-09-12,52.20202656037573
2019-09-13,60.41915908732089
2019-09-14,67.24650699660691
2019-09-15,96.3032753706601
2019-09-16,44.13561966989661
2019-09-17,32.093645744554536
2019-09-18,26.022853493737923
2019-09-19,19.400199014724482
2019-09-20,48.73214757643514
2019-09-21,65.09141413904094
2019-09-22,44.0589179937755
2019-09-23,15.431368909381082
2019-09-24,12.698911524019719
2019-09-25,10.237109043123034
2019-09-26,18.258477887135893
2019-09-27,39.878309630853416
2019-09-28,77.44378642189214
2019-09-29,19.876671759786497
2019-09-30,52.375691158211175
2019-10-01,64.17642913228374
2019-10-02,71.4201725351989
2019-10-03,70.51337003308265
2019-10-04,66.88048206392715
2019-10-05,74.32622756558074
2019-10-06,45.59203470255499
2019-10-07,52.381658608279224
2019-10-08,65.7746377626548
2019-10-09,48.45733999520393
2019-10-10,56.60713479936437
2019-10-11,40.263145071451035
2019-10-12,95.27880161197353
2019-10-13,129.09031492140375
2019-10-14,25.04735271520287
2019-10-15,33.10687100506414
2019-10-16,56.14657383006231
2019-10-17,71.0527338516967
2019-10-18,80.35212897947
2019-10-19,93.98559349571093
2019-10-20,71.46537256396411
2019-10-21,29.045908525287885
2019-10-22,54.126902323077594
2019-10-23,22.934053531588713
2019-10-24,25.64323934929657
2019-10-25,37.33587936805914
2019-10-26,43.52177597471962
2019-10-27,47.408678999416196
2019-10-28,13.306646384273881
2019-10-29,25.818226046445808
2019-10-30,22.321683537779496
2019-10-31,35.9709829346812
2019-11-01,40.47354139520765
2019-11-02,120.27066517734066
2019-11-03,105.17495510012114
2019-11-04,41.31617631793841
2019-11-05,12.11058559355595
2019-11-06,21.442431789727713
2019-11-07,35.66518918544104
2019-11-08,26.80585727006569
2019-11-09,50.639197136060744
2019-11-10,60.448979549308156
2019-11-11,68.88225545440926
2019-11-12,11.885779826783212
2019-11-13,21.191325718992648
2019-11-14,13.356272354466482
2019-11-15,19.68144997063605
2019-11-16,27.644871903834996
2019-11-17,103.00107517476971
2019-11-18,9.896087287792584
2019-11-19,20.70595232951885
2019-11-20,45.31498620929457
2019-11-21,15.501423293210872
2019-11-22,17.688640982872812
2019-11-23,28.095945785896703
2019-11-24,41.46486486715587
2019-11-25,30.3094052196705
2019-11-26,65.2891270614198
2019-11-27,54.0812441248069
2019-11-28,15.7107776458156
2019-11-29,42.14631762417611
2019-11-30,27.10796541941247
2019-12-01,73.97298835969414
2019-12-02,9.519566264807295
2019-12-03,19.729335896952545
2019-12-04,18.15328652839911
2019-12-05,6.494019570854648
2019-12-06,10.499741918326741
2019-12-07,51.162914486763356
2019-12-08,95.50372252271917
2019-12-09,22.48510681202675
2019-12-10,43.53890193737515
2019-12-11,27.663078570440216
2019-12-12,49.87502845507144
2019-12-13,10.677816061239735
2019-12-14,35.62365423034414
2019-12-15,38.81804078252258
2019-12-16,14.693354711860463
2019-12-17,8.423270046976874
2019-12-18,17.00079656022184
2019-12-19,33.23370736243451
2019-12-20,35.63670537988129
2019-12-21,18.0278845078651
2019-12-22,33.10076499506575
2019-12-23,35.02808157207918
2019-12-24,13.625851112449592
2019-12-25,87.31036565909055
2019-12-26,20.41321939201395
2019-12-27,18.797339913217467
2019-12-28,22.30156342068876
2019-12-29,9.129169221194521
2019-12-30,12.958907528467956
2019-12-31,8.359047250339305
2020-01-01,120.52205642899827
2020-01-02,7.925017694713558
2020-01-03,20.95009298492996
2020-01-04,51.953540379771226
2020-01-05,28.598310767451444
2020-01-06,48.89836045861551
2020-01-07,31.427136226718552
2020-01-08,19.955540650121605
2020-01-09,10.819990179091988
2020-01-10,39.36655293663786
2020-01-11,43.05619052883005
2020-01-12,44.92683695493906
2020-01-13,5.599027248620001
2020-01-14,6.955701821091517
2020-01-15,5.192954422306116
2020-01-16,14.69620751921341
2020-01-17,15.982396282207985
2020-01-18,24.59569700353376
2020-01-19,45.846353676591434
2020-01-20,17.28920894044159
2020-01-21,64.23418308973933
2020-01-22,71.026744097639
2020-01-23,31.603352965327225
2020-01-24,33.287552527836965
2020-01-25,73.70713857212422
2020-01-26,109.3978390976248
2020-01-27,59.57804816135147
2020-01-28,45.078183495016
2020-01-29,42.58865714499188
2020-01-30,23.740363590900902
2020-01-31,24.804574440330455
2020-02-01,47.908405789898126
2020-02-02,28.417001686120845
2020-02-03,32.09650253966118
2020-02-04,20.41402296973007
2020-02-05,24.36960440140702
2020-02-06,20.2269128078576
2020-02-07,29.943598371330992
2020-02-08,21.12780067354347
2020-02-09,14.91152067003217
2020-02-10,15.756923909352379
2020-02-11,67.96423889489546
2020-02-12,43.738275583301785
2020-02-13,17.984658868169927
2020-02-14,26.3663113321914
2020-02-15,24.48065345540961
2020-02-16,14.124567811914817
2020-02-17,12.697279415606964
2020-02-18,44.03991662870845
2020-02-19,16.77583550654842
2020-02-20,7.93005982362067
2020-02-21,34.02687807144119
2020-02-22,32.335140079046006
2020-02-23,32.0069611388361
2020-02-24,10.659285026080383
2020-02-25,41.92162324300286
2020-02-26,12.272138613463738
2020-02-27,28.569441363859205
2020-02-28,41.833886758285956
2020-02-29,66.71771282023018
2020-03-01,83.17597452708422
2020-03-02,44.33193626634312
2020-03-03,51.43533547815841
2020-03-04,63.690993654783554
2020-03-05,50.07898728497521
2020-03-06,35.7968971882506
2020-03-07,46.908456225801
2020-03-08,27.32247640918232
2020-03-09,19.14003924946747
2020-03-10,22.573223085917625
2020-03-11,30.572018902887603
2020-03-12,4.793988798287144
2020-03-13,5.45549224850234
2020-03-14,21.848772716907757
2020-03-15,33.75880713683622
2020-03-16,12.530237324011019
2020-03-17,26.221158210992037
2020-03-18,10.122063438273631
2020-03-19,16.08572169714532
2020-03-20,24.062011715813828
2020-03-21,17.309625251936062
2020-03-22,19.98069247192257
2020-03-23,17.947254778438992
2020-03-24,21.092438771719568
2020-03-25,19.506801823867523
2020-03-26,51.20071921181221
2020-03-27,40.51895792695181
2020-03-28,40.887002853885775
2020-03-29,79.28597820818095
2020-03-30,44.180868097680666
2020-03-31,40.269119178846864
2020-04-01,58.84204161244767
2020-04-02,38.36470554169148
2020-04-03,25.39966221163233
2020-04-04,57.69763813558897
2020-04-05,60.4560766073053
2020-04-06,30.228962593268783
2020-04-07,39.9922503055966
2020-04-08,53.483221363631586
2020-04-09,27.943247623497175
2020-04-10,18.966757494638507
2020-04-11,54.20210133624198
2020-04-12,25.290194901519975
2020-04-13,30.29019474463151
2020-04-14,59.20715864977455
2020-04-15,78.63023954705932
2020-04-16,30.948872016941603
2020-04-17,56.6605041071381
2020-04-18,58.768592878726714
2020-04-19,47.84469595461326
2020-04-20,31.39410027911844
2020-04-21,45.169532165207315
2020-04-22,45.960232253796036
2020-04-23,46.716555351284136
2020-04-24,27.33892525398931
2020-04-25,53.26649368486417
2020-04-26,60.64502496754634
2020-04-27,30.319325259062225
2020-04-28,30.356052864903823
2020-04-29,20.60585119796501
2020-04-30,24.96228073768885
2020-05-01,41.112353783156856
2020-05-02,36.32011356933704
2020-05-03,37.33755123287106
2020-05-04,41.65061899435514
2020-05-05,31.491724291948575
2020-05-06,33.36606476746762
2020-05-07,29.84034377578921
2020-05-08,27.576196850495478
2020-05-09,44.369030750825566
2020-05-10,28.54151304527112
2020-05-11,30.861276646345754
2020-05-12,31.064560812783505
2020-05-13,27.858163837077875
2020-05-14,45.597610233651864
2020-05-15,34.72558846657383
2020-05-16,40.222835333986794
2020-05-17,34.03132611068986
2020-05-18,25.147500675160757
2020-05-19,50.125419898784855
2020-05-20,47.397178370108364
2020-05-21,31.77580993434465
2020-05-22,43.03392799513203
2020-05-23,73.9753993766263
2020-05-24,40.34570849516715
2020-05-25,27.66804896217152
2020-05-26,44.37246472170781
2020-05-27,32.9003421351024
2020-05-28,62.471399381649434
2020-05-29,45.727187300616876
2020-05-30,28.67456168746141
2020-05-31,43.828946238903
2020-06-01,13.504628204506764
2020-06-02,14.08196127121796
2020-06-03,35.086497521810884
2020-06-04,40.997095276410604
2020-06-05,39.080088735697046
2020-06-06,53.34202201936204
2020-06-07,22.06481483775613
2020-06-08,41.40052738042082
2020-06-09,52.09835486294233
2020-06-10,15.276581082036083
2020-06-11,31.19544410560804
2020-06-12,23.053735680816565
2020-06-13,22.135044558988234
2020-06-14,99.80086612351981
2020-06-15,24.799003368785865
2020-06-16,35.21970564819086
2020-06-17,61.30566124446614
2020-06-18,29.55626543881286
2020-06-19,27.329044886146548
2020-06-20,25.28999237704508
2020-06-21,51.56273316147834
2020-06-22,40.11955883640713
2020-06-23,50.86125980802494
2020-06-24,30.511414319738407
2020-06-25,23.014230991912424
2020-06-26,22.778178735259974
2020-06-27,21.69395547073528
2020-06-28,45.93386515742329
2020-06-29,40.13795186919128
2020-06-30,36.289045701112556
2020-07-01,17.531024201629744
2020-07-02,49.26399229424861
2020-07-03,51.74660153409784
2020-07-04,56.88631827791622
2020-07-05,36.27796714243794
2020-07-06,41.33768179155084
2020-07-07,34.24326738980988
2020-07-08,9.986336217927267
2020-07-09,32.646979862829724
2020-07-10,44.06581343287964
2020-07-11,78.42528593751042
2020-07-12,47.57418671203627
2020-07-13,20.251309781242323
2020-07-14,45.83880261523237
2020-07-15,29.858040427508012
2020-07-16,13.257354870644255
2020-07-17,15.107032106129811
2020-07-18,41.11755314840502
2020-07-19,54.061508500891755
2020-07-20,37.027551575999794
2020-07-21,16.93341818428347
2020-07-22,31.172852910576722
2020-07-23,19.60662071133518
2020-07-24,22.421923384279506
2020-07-25,14.963942791869696
2020-07-26,25.24267254279803
2020-07-27,17.0461786568636
2020-07-28,12.989860262351026
2020-07-29,30.517313970226077
2020-07-30,19.493707885768316
2020-07-31,14.247479091598642
2020-08-01,24.532286443115385
2020-08-02,15.770793808415341
2020-08-03,13.869157600428242
2020-08-04,28.110837532444712
2020-08-05,37.725736286861654
2020-08-06,24.649643682858375
2020-08-07,27.364630147943192
2020-08-08,17.135966388287567
2020-08-09,27.56535117580985
2020-08-10,23.26039806165438
2020-08-11,12.323319495340565
2020-08-12,13.120480123241762
2020-08-13,30.908740133694774
2020-08-14,25.58642455935495
2020-08-15,24.416397191895435
2020-08-16,22.529533550756714
2020-08-17,12.74224045222199
2020-08-18,14.436112146797779
2020-08-19,9.809641120484532
2020-08-20,34.92390432932885
2020-08-21,35.0667066822798
2020-08-22,38.16162134551738
2020-08-23,45.671410837022805
2020-08-24,39.452206502841285
2020-08-25,19.070566124807865
2020-08-26,12.887705361599734
2020-08-27,46.91176427216231
2020-08-28,27.94811789213283
2020-08-29,46.74495223386311
2020-08-30,28.360865520173302
2020-08-31,28.619914414162675
2020-09-01,35.820878986376584
2020-09-02,17.364110715450128
2020-09-03,14.516587679396215
2020-09-04,6.4602282779931
2020-09-05,15.082376682002508
2020-09-06,27.057911261388966
2020-09-07,16.556658067221022
2020-09-08,50.08825011089286
2020-09-09,43.663877468543106
2020-09-10,39.51557047270132
2020-09-11,45.206326687890815
2020-09-12,73.24471734249329
2020-09-13,36.82620630903841
2020-09-14,37.91715204256209
2020-09-15,60.47262634606902
2020-09-16,45.770104947165116
2020-09-17,69.31200098841879
2020-09-18,38.72162496503084
2020-09-19,80.70665534457979
2020-09-20,49.18689818801768
2020-09-21,26.765855675033176
2020-09-22,21.31244600081479
2020-09-23,38.25113729360922
2020-09-24,72.54282956744288
2020-09-25,46.57234578785773
2020-09-26,59.13002929648641
2020-09-27,69.79930971700472
2020-09-28,55.17534107185195
2020-09-29,42.73347387188936
2020-09-30,43.036680266834274
2020-10-01,50.672505758266325
2020-10-02,37.35364547159271
2020-10-03,64.80327354072779
2020-10-04,80.25647599276327
2020-10-05,36.279873620402626
2020-10-06,50.01491955754003
2020-10-07,31.22458801658391
2020-10-08,47.59636655211876
2020-10-09,43.00696027787533
2020-10-10,18.608618281657577
2020-10-11,87.56842092904515
2020-10-12,19.272767225926472
2020-10-13,48.42691092618631
2020-10-14,37.83699141622391
2020-10-15,58.95476364970798
2020-10-16,35.32355290061629
2020-10-17,77.03358183706547
2020-10-18,92.68505392671733
2020-10-19,64.34130904573529
2020-10-20,66.42114888953155
2020-10-21,27.07826056271735
2020-10-22,29.36264785208975
2020-10-23,32.56929372975356
2020-10-24,47.89868104148669
2020-10-25,43.373743306952086
2020-10-26,30.691857946356677
2020-10-27,35.322697510803465
2020-10-28,34.847456272054146
2020-10-29,28.669930984402725
2020-10-30,30.23362415707997
2020-10-31,15.394415016333673
2020-11-01,53.028230874039
2020-11-02,12.448142612258502
2020-11-03,19.361488281074788
2020-11-04,16.55383594659259
2020-11-05,12.645952972280622
2020-11-06,22.59657654373807
2020-11-07,33.884750364269436
2020-11-08,53.08448798076285
2020-11-09,36.96267122035348
2020-11-10,31.557415025669524
2020-11-11,39.4139083738659
2020-11-12,41.25746987438261
2020-11-13,19.476935701095822
2020-11-14,36.36356899300472
2020-11-15,55.85651645918281
2020-11-16,12.84691226571514
2020-11-17,13.203553350823354
2020-11-18,32.39960319790161
2020-11-19,10.126115075847656
2020-11-20,13.662967986940012
2020-11-21,11.334422550886655
2020-11-22,25.249163238171494
2020-11-23,18.78313897478183
2020-11-24,21.969684299825094
2020-11-25,27.61603810780761
2020-11-26,13.339621124619526
2020-11-27,14.5787677915525
2020-11-28,8.275582211374692
2020-11-29,12.132059759026221
2020-11-30,12.010729313206346
2020-12-01,13.595429917764216
2020-12-02,21.60119288798975
2020-12-03,15.808609700799222
2020-12-04,21.341307997969743
2020-12-05,20.78541628270505
2020-12-06,32.56557921341659
2020-12-07,27.677403188158387
2020-12-08,15.603086257703975
2020-12-09,9.545080608641937
2020-12-10,25.645820568299747
2020-12-11,23.69959927353464
2020-12-12,27.055172784449983
2020-12-13,19.95708604108799
2020-12-14,27.633726755125892
2020-12-15,20.27378684096273
2020-12-16,11.015794288866429
2020-12-17,9.653114096747599
2020-12-18,8.626214207256544
2020-12-19,6.547953059139821
2020-12-20,8.568968563251456
2020-12-21,7.432997160545513
2020-12-22,6.107590813179893
2020-12-23,4.750071500924823
2020-12-24,9.331249273258212
2020-12-25,10.926394464539172
2020-12-26,10.931352914727494
2020-12-27,8.700265854315656
2020-12-28,8.752077058564916
2020-12-29,5.010047693494056
2020-12-30,14.566584105393645
2020-12-31,7.718741831297692
2021-01-01,20.240358901077794
2021-01-02,12.14210980685553
2021-01-03,4.616239307095445
2021-01-04,11.18723532982838
2021-01-05,8.941511623963788
2021-01-06,20.56935650828459
2021-01-07,4.07865569249341
2021-01-08,4.189752566017357
2021-01-09,3.3721134424223935
2021-01-10,3.8848422863920926
2021-01-11,3.785951547550751
2021-01-12,3.786217002860474
2021-01-13,6.383177674324804
2021-01-14,16.718455037270676
2021-01-15,18.655289155612437
2021-01-16,26.98120175343337
2021-01-17,20.299607882337625
2021-01-18,6.601214317877697
2021-01-19,13.279733192685688
2021-01-20,7.57848491682364
2021-01-21,8.677063613699966
2021-01-22,15.103012283041371
2021-01-23,26.165154785375716
2021-01-24,15.78504452075677
2021-01-25,10.5104076113283
2021-01-26,11.04484382863719
2021-01-27,3.779603387419477
2021-01-28,10.280589030016317
2021-01-29,11.788882774142674
2021-01-30,8.520316550620436
2021-01-31,19.165685105486332
2021-02-01,18.076209288772905
2021-02-02,11.880657950281796
2021-02-03,14.139623187328908
2021-02-04,9.830295569905513
2021-02-05,9.919531092488878
2021-02-06,7.132673956713742
2021-02-07,7.736027871182755
2021-02-08,15.757818722636275
2021-02-09,13.965675638288129
2021-02-10,9.025833940892472
2021-02-11,13.702060596000095
2021-02-12,13.841326038731246
2021-02-13,5.3344227660843115
2021-02-14,6.530662273422866
2021-02-15,9.434445926365283
2021-02-16,19.61212242983754
2021-02-17,11.96783558278351
2021-02-18,6.198471283224642
2021-02-19,12.554392080577246
2021-02-20,10.957955354216654
2021-02-21,14.953316148650904
2021-02-22,9.269197187197964
2021-02-23,6.496074095628155
2021-02-24,7.124412892060678
2021-02-25,13.416874370664276
2021-02-26,13.209487975659284
2021-02-27,16.80128530880417
2021-02-28,13.167418938861312
2021-03-01,11.799687693898933
2021-03-02,12.74754962235906
2021-03-03,14.040500340823396
2021-03-04,13.162186530299643
2021-03-05,7.905587658020842
2021-03-06,20.236331384731585
2021-03-07,15.510580790506866
2021-03-08,9.67257218703936
2021-03-09,13.546787904619864
2021-03-10,10.463393528274896
2021-03-11,13.253284027929995
2021-03-12,9.241263103918879
2021-03-13,16.038233971493195
2021-03-14,16.08013110275165
2021-03-15,13.773921188422289
2021-03-16,13.416389131471929
2021-03-17,9.133865619347796
2021-03-18,12.078565312729939
2021-03-19,10.772704764712689
2021-03-20,27.788161320448975
2021-03-21,6.599699889725058
2021-03-22,10.911962686580825
2021-03-23,9.172808725544977
2021-03-24,10.377945403559925
2021-03-25,8.830568868670099
2021-03-26,7.94139717502765
2021-03-27,17.72727292225772
2021-03-28,27.048283428765195
2021-03-29,17.141147332436915
2021-03-30,11.897744596739189
2021-03-31,13.644016448440302
2021-04-01,12.537340525230592
2021-04-02,15.82124433732052
2021-04-03,11.618593736450945
2021-04-04,11.600180773445642
2021-04-05,14.089882427120047
2021-04-06,7.990717350229618
2021-04-07,9.388034600537493
