t,v
2011-10-13,0
2011-10-14,0
2011-10-15,0
2011-10-16,0
2011-10-17,0
2011-10-18,0
2011-10-19,0
2011-10-20,0
2011-10-21,0
2011-10-22,0
2011-10-23,0
2011-10-24,0
2011-10-25,0
2011-10-26,0
2011-10-27,0
2011-10-28,0
2011-10-29,0
2011-10-30,0
2011-10-31,0
2011-11-01,0
2011-11-02,0
2011-11-03,0
2011-11-04,0
2011-11-05,0
2011-11-06,0
2011-11-07,0
2011-11-08,0
2011-11-09,0
2011-11-10,0
2011-11-11,0
2011-11-12,0
2011-11-13,0
2011-11-14,0
2011-11-15,0
2011-11-16,0
2011-11-17,0
2011-11-18,0
2011-11-19,0
2011-11-20,0
2011-11-21,0
2011-11-22,0
2011-11-23,0
2011-11-24,0
2011-11-25,0
2011-11-26,0
2011-11-27,0
2011-11-28,0
2011-11-29,0
2011-11-30,0
2011-12-01,0
2011-12-02,0
2011-12-03,0
2011-12-04,0
2011-12-05,0
2011-12-06,0
2011-12-07,0
2011-12-08,0
2011-12-09,0
2011-12-10,0
2011-12-11,0
2011-12-12,0
2011-12-13,0
2011-12-14,0
2011-12-15,0
2011-12-16,0
2011-12-17,0
2011-12-18,0
2011-12-19,0
2011-12-20,0
2011-12-21,0
2011-12-22,0
2011-12-23,0
2011-12-24,0
2011-12-25,0
2011-12-26,0
2011-12-27,0
2011-12-28,0
2011-12-29,0
2011-12-30,0
2011-12-31,0
2012-01-01,0
2012-01-02,0
2012-01-03,0
2012-01-04,0
2012-01-05,0
2012-01-06,0
2012-01-07,0
2012-01-08,0
2012-01-09,0
2012-01-10,0
2012-01-11,0
2012-01-12,0
2012-01-13,0
2012-01-14,0
2012-01-15,0
2012-01-16,0
2012-01-17,0
2012-01-18,0
2012-01-19,0
2012-01-20,0
2012-01-21,0
2012-01-22,0
2012-01-23,0
2012-01-24,0
2012-01-25,0
2012-01-26,0
2012-01-27,0
2012-01-28,0
2012-01-29,0
2012-01-30,0
2012-01-31,0
2012-02-01,0
2012-02-02,0
2012-02-03,0
2012-02-04,0
2012-02-05,0
2012-02-06,0
2012-02-07,0
2012-02-08,0
2012-02-09,0
2012-02-10,0
2012-02-11,0
2012-02-12,0
2012-02-13,0
2012-02-14,0
2012-02-15,0
2012-02-16,0
2012-02-17,0
2012-02-18,0
2012-02-19,0
2012-02-20,0
2012-02-21,0
2012-02-22,0
2012-02-23,0
2012-02-24,0
2012-02-25,0
2012-02-26,0
2012-02-27,0
2012-02-28,0
2012-02-29,0
2012-03-01,0
2012-03-02,0
2012-03-03,0
2012-03-04,0
2012-03-05,0
2012-03-06,0
2012-03-07,0
2012-03-08,0
2012-03-09,0
2012-03-10,0
2012-03-11,0
2012-03-12,0
2012-03-13,0
2012-03-14,0
2012-03-15,0
2012-03-16,0
2012-03-17,0
2012-03-18,0
2012-03-19,0
2012-03-20,0
2012-03-21,0
2012-03-22,0
2012-03-23,0
2012-03-24,0
2012-03-25,0
2012-03-26,0
2012-03-27,0
2012-03-28,0
2012-03-29,0
2012-03-30,0
2012-03-31,0
2012-04-01,0
2012-04-02,0
2012-04-03,0
2012-04-04,0
2012-04-05,0
2012-04-06,0
2012-04-07,0
2012-04-08,0
2012-04-09,0
2012-04-10,0
2012-04-11,0
2012-04-12,0
2012-04-13,0
2012-04-14,0
2012-04-15,0
2012-04-16,0
2012-04-17,0
2012-04-18,0
2012-04-19,0
2012-04-20,0
2012-04-21,0
2012-04-22,0
2012-04-23,0
2012-04-24,0
2012-04-25,0
2012-04-26,0
2012-04-27,0
2012-04-28,0
2012-04-29,0
2012-04-30,0
2012-05-01,0
2012-05-02,0
2012-05-03,0
2012-05-04,0
2012-05-05,0
2012-05-06,0
2012-05-07,0
2012-05-08,0
2012-05-09,0
2012-05-10,0
2012-05-11,0
2012-05-12,0
2012-05-13,0
2012-05-14,0
2012-05-15,0
2012-05-16,0
2012-05-17,0
2012-05-18,0
2012-05-19,0
2012-05-20,0
2012-05-21,0
2012-05-22,0
2012-05-23,0
2012-05-24,0
2012-05-25,0
2012-05-26,0
2012-05-27,0
2012-05-28,0
2012-05-29,0
2012-05-30,0
2012-05-31,0
2012-06-01,0
2012-06-02,0
2012-06-03,0
2012-06-04,0
2012-06-05,0
2012-06-06,0
2012-06-07,0
2012-06-08,0
2012-06-09,0
2012-06-10,0
2012-06-11,0
2012-06-12,0
2012-06-13,0
2012-06-14,0
2012-06-15,0
2012-06-16,0
2012-06-17,0
2012-06-18,0
2012-06-19,0
2012-06-20,0
2012-06-21,0
2012-06-22,0
2012-06-23,0
2012-06-24,0
2012-06-25,0
2012-06-26,0
2012-06-27,0
2012-06-28,0
2012-06-29,0
2012-06-30,0
2012-07-01,0
2012-07-02,0
2012-07-03,0
2012-07-04,0
2012-07-05,0
2012-07-06,0
2012-07-07,0
2012-07-08,0
2012-07-09,0
2012-07-10,0
2012-07-11,0
2012-07-12,0
2012-07-13,0
2012-07-14,0
2012-07-15,0
2012-07-16,0
2012-07-17,0
2012-07-18,0
2012-07-19,0
2012-07-20,0
2012-07-21,0
2012-07-22,0
2012-07-23,0
2012-07-24,0
2012-07-25,0
2012-07-26,0
2012-07-27,0
2012-07-28,0
2012-07-29,0
2012-07-30,0
2012-07-31,0
2012-08-01,0
2012-08-02,0
2012-08-03,0
2012-08-04,0
2012-08-05,0
2012-08-06,0
2012-08-07,0
2012-08-08,0
2012-08-09,0
2012-08-10,0
2012-08-11,0
2012-08-12,0
2012-08-13,0
2012-08-14,0
2012-08-15,0
2012-08-16,0
2012-08-17,0
2012-08-18,0
2012-08-19,0
2012-08-20,0
2012-08-21,0
2012-08-22,0
2012-08-23,0
2012-08-24,0
2012-08-25,0
2012-08-26,0
2012-08-27,0
2012-08-28,0
2012-08-29,0
2012-08-30,0
2012-08-31,0
2012-09-01,0
2012-09-02,0
2012-09-03,0
2012-09-04,0
2012-09-05,0
2012-09-06,0
2012-09-07,0
2012-09-08,0
2012-09-09,0
2012-09-10,0
2012-09-11,0
2012-09-12,0
2012-09-13,0
2012-09-14,0
2012-09-15,0
2012-09-16,0
2012-09-17,0
2012-09-18,0
2012-09-19,0
2012-09-20,0
2012-09-21,0
2012-09-22,0
2012-09-23,0
2012-09-24,0
2012-09-25,0
2012-09-26,0
2012-09-27,0
2012-09-28,0
2012-09-29,0
2012-09-30,0
2012-10-01,0
2012-10-02,0
2012-10-03,0
2012-10-04,0
2012-10-05,0
2012-10-06,0
2012-10-07,0
2012-10-08,0
2012-10-09,0
2012-10-10,0
2012-10-11,0
2012-10-12,0
2012-10-13,0
2012-10-14,0
2012-10-15,0
2012-10-16,0
2012-10-17,0
2012-10-18,0
2012-10-19,0
2012-10-20,0
2012-10-21,0
2012-10-22,0
2012-10-23,0
2012-10-24,0
2012-10-25,0
2012-10-26,0
2012-10-27,0
2012-10-28,0
2012-10-29,0
2012-10-30,0
2012-10-31,0
2012-11-01,0
2012-11-02,0
2012-11-03,0
2012-11-04,0
2012-11-05,0
2012-11-06,0
2012-11-07,0
2012-11-08,0
2012-11-09,0
2012-11-10,0
2012-11-11,0
2012-11-12,0
2012-11-13,0
2012-11-14,0
2012-11-15,0
2012-11-16,0
2012-11-17,0
2012-11-18,0
2012-11-19,0
2012-11-20,0
2012-11-21,0
2012-11-22,0
2012-11-23,0
2012-11-24,0
2012-11-25,0
2012-11-26,0
2012-11-27,0
2012-11-28,0
2012-11-29,0
2012-11-30,0
2012-12-01,0
2012-12-02,0
2012-12-03,0
2012-12-04,0
2012-12-05,0
2012-12-06,0
2012-12-07,0
2012-12-08,0
2012-12-09,0
2012-12-10,0
2012-12-11,0
2012-12-12,0
2012-12-13,0
2012-12-14,0
2012-12-15,0
2012-12-16,0
2012-12-17,0
2012-12-18,0
2012-12-19,0
2012-12-20,0
2012-12-21,0
2012-12-22,0
2012-12-23,0
2012-12-24,0
2012-12-25,0
2012-12-26,0
2012-12-27,0
2012-12-28,0
2012-12-29,0
2012-12-30,0
2012-12-31,0
2013-01-01,0
2013-01-02,0
2013-01-03,0
2013-01-04,0
2013-01-05,0
2013-01-06,0
2013-01-07,0
2013-01-08,0
2013-01-09,0
2013-01-10,0
2013-01-11,0
2013-01-12,0
2013-01-13,0
2013-01-14,0
2013-01-15,0
2013-01-16,0
2013-01-17,0
2013-01-18,0
2013-01-19,0
2013-01-20,0
2013-01-21,0
2013-01-22,0
2013-01-23,0
2013-01-24,0
2013-01-25,0
2013-01-26,0
2013-01-27,0
2013-01-28,0
2013-01-29,0
2013-01-30,0
2013-01-31,0
2013-02-01,0
2013-02-02,0
2013-02-03,0
2013-02-04,0
2013-02-05,0
2013-02-06,0
2013-02-07,0
2013-02-08,0
2013-02-09,0
2013-02-10,0
2013-02-11,0
2013-02-12,0
2013-02-13,0
2013-02-14,0
2013-02-15,0
2013-02-16,0
2013-02-17,0
2013-02-18,0
2013-02-19,0
2013-02-20,0
2013-02-21,0
2013-02-22,0
2013-02-23,0
2013-02-24,0
2013-02-25,0
2013-02-26,0
2013-02-27,0
2013-02-28,0
2013-03-01,0
2013-03-02,0
2013-03-03,0
2013-03-04,0
2013-03-05,0
2013-03-06,0
2013-03-07,0
2013-03-08,0
2013-03-09,0
2013-03-10,0
2013-03-11,0
2013-03-12,0
2013-03-13,0
2013-03-14,0
2013-03-15,0
2013-03-16,0
2013-03-17,0
2013-03-18,0
2013-03-19,0
2013-03-20,0
2013-03-21,0
2013-03-22,0
2013-03-23,0
2013-03-24,0
2013-03-25,0
2013-03-26,0
2013-03-27,0
2013-03-28,0
2013-03-29,0
2013-03-30,0
2013-03-31,0
2013-04-01,0
2013-04-02,0
2013-04-03,0
2013-04-04,0
2013-04-05,0
2013-04-06,0
2013-04-07,0
2013-04-08,0
2013-04-09,0
2013-04-10,0
2013-04-11,0
2013-04-12,0
2013-04-13,0
2013-04-14,0
2013-04-15,0
2013-04-16,0
2013-04-17,0
2013-04-18,0
2013-04-19,0
2013-04-20,0
2013-04-21,0
2013-04-22,0
2013-04-23,0
2013-04-24,0
2013-04-25,0
2013-04-26,0
2013-04-27,0
2013-04-28,0
2013-04-29,0
2013-04-30,0
2013-05-01,0
2013-05-02,0
2013-05-03,0
2013-05-04,0
2013-05-05,0
2013-05-06,0
2013-05-07,0
2013-05-08,0
2013-05-09,0
2013-05-10,0
2013-05-11,0
2013-05-12,0
2013-05-13,0
2013-05-14,0
2013-05-15,0
2013-05-16,0
2013-05-17,0
2013-05-18,0
2013-05-19,0
2013-05-20,0
2013-05-21,0
2013-05-22,0
2013-05-23,0
2013-05-24,0
2013-05-25,0
2013-05-26,0
2013-05-27,0
2013-05-28,0
2013-05-29,0
2013-05-30,0
2013-05-31,0
2013-06-01,0
2013-06-02,0
2013-06-03,0
2013-06-04,0
2013-06-05,0
2013-06-06,0
2013-06-07,0
2013-06-08,0
2013-06-09,0
2013-06-10,0
2013-06-11,0
2013-06-12,0
2013-06-13,0
2013-06-14,0
2013-06-15,0
2013-06-16,0
2013-06-17,0
2013-06-18,0
2013-06-19,0
2013-06-20,0
2013-06-21,0
2013-06-22,0
2013-06-23,0
2013-06-24,0
2013-06-25,0
2013-06-26,0
2013-06-27,0
2013-06-28,0
2013-06-29,0
2013-06-30,0
2013-07-01,0
2013-07-02,0
2013-07-03,0
2013-07-04,0
2013-07-05,0
2013-07-06,0
2013-07-07,0
2013-07-08,0
2013-07-09,0
2013-07-10,0
2013-07-11,0
2013-07-12,0
2013-07-13,0
2013-07-14,0
2013-07-15,0
2013-07-16,0
2013-07-17,0
2013-07-18,0
2013-07-19,0
2013-07-20,0
2013-07-21,0
2013-07-22,0
2013-07-23,0
2013-07-24,0
2013-07-25,0
2013-07-26,0
2013-07-27,0
2013-07-28,0
2013-07-29,0
2013-07-30,0
2013-07-31,0
2013-08-01,0
2013-08-02,0
2013-08-03,0
2013-08-04,0
2013-08-05,0
2013-08-06,0
2013-08-07,0
2013-08-08,0
2013-08-09,0
2013-08-10,0
2013-08-11,0
2013-08-12,0
2013-08-13,0
2013-08-14,0
2013-08-15,0
2013-08-16,0
2013-08-17,0
2013-08-18,0
2013-08-19,0
2013-08-20,0
2013-08-21,0
2013-08-22,0
2013-08-23,0
2013-08-24,0
2013-08-25,0
2013-08-26,0
2013-08-27,0
2013-08-28,0
2013-08-29,0
2013-08-30,0
2013-08-31,0
2013-09-01,0
2013-09-02,0
2013-09-03,0
2013-09-04,0
2013-09-05,0
2013-09-06,0
2013-09-07,0
2013-09-08,0
2013-09-09,0
2013-09-10,0
2013-09-11,0
2013-09-12,0
2013-09-13,0
2013-09-14,0
2013-09-15,0
2013-09-16,0
2013-09-17,0
2013-09-18,0
2013-09-19,0
2013-09-20,0
2013-09-21,0
2013-09-22,0
2013-09-23,0
2013-09-24,0
2013-09-25,0
2013-09-26,0
2013-09-27,0
2013-09-28,0
2013-09-29,0
2013-09-30,0
2013-10-01,0
2013-10-02,0
2013-10-03,0
2013-10-04,0
2013-10-05,0
2013-10-06,0
2013-10-07,0
2013-10-08,0
2013-10-09,0
2013-10-10,0
2013-10-11,0
2013-10-12,0
2013-10-13,0
2013-10-14,0
2013-10-15,0
2013-10-16,0
2013-10-17,0
2013-10-18,0
2013-10-19,0
2013-10-20,0
2013-10-21,0
2013-10-22,0
2013-10-23,0
2013-10-24,0
2013-10-25,0
2013-10-26,0
2013-10-27,0
2013-10-28,0
2013-10-29,0
2013-10-30,0
2013-10-31,0
2013-11-01,0
2013-11-02,0
2013-11-03,0
2013-11-04,0
2013-11-05,0
2013-11-06,0
2013-11-07,0
2013-11-08,0
2013-11-09,0
2013-11-10,0
2013-11-11,0
2013-11-12,0
2013-11-13,0
2013-11-14,0
2013-11-15,0
2013-11-16,0
2013-11-17,0
2013-11-18,0
2013-11-19,0
2013-11-20,0
2013-11-21,0
2013-11-22,0
2013-11-23,0
2013-11-24,0
2013-11-25,0
2013-11-26,0
2013-11-27,0
2013-11-28,0
2013-11-29,0
2013-11-30,0
2013-12-01,0
2013-12-02,0
2013-12-03,0
2013-12-04,0
2013-12-05,0
2013-12-06,0
2013-12-07,0
2013-12-08,0
2013-12-09,0
2013-12-10,0
2013-12-11,0
2013-12-12,0
2013-12-13,0
2013-12-14,0
2013-12-15,0
2013-12-16,0
2013-12-17,0
2013-12-18,0
2013-12-19,0
2013-12-20,0
2013-12-21,0
2013-12-22,0
2013-12-23,0
2013-12-24,0
2013-12-25,0
2013-12-26,0
2013-12-27,0
2013-12-28,0
2013-12-29,0
2013-12-30,0
2013-12-31,0
2014-01-01,0
2014-01-02,0
2014-01-03,0
2014-01-04,0
2014-01-05,0
2014-01-06,0
2014-01-07,0
2014-01-08,0
2014-01-09,0
2014-01-10,0
2014-01-11,0
2014-01-12,0
2014-01-13,0
2014-01-14,0
2014-01-15,0
2014-01-16,0
2014-01-17,0
2014-01-18,0
2014-01-19,0
2014-01-20,0
2014-01-21,0
2014-01-22,0
2014-01-23,0
2014-01-24,0
2014-01-25,0
2014-01-26,0
2014-01-27,0
2014-01-28,0
2014-01-29,0
2014-01-30,0
2014-01-31,0
2014-02-01,0
2014-02-02,0
2014-02-03,0
2014-02-04,0
2014-02-05,0
2014-02-06,0
2014-02-07,0
2014-02-08,0
2014-02-09,0
2014-02-10,0
2014-02-11,0
2014-02-12,0
2014-02-13,0
2014-02-14,0
2014-02-15,0
2014-02-16,0
2014-02-17,0
2014-02-18,0
2014-02-19,0
2014-02-20,0
2014-02-21,0
2014-02-22,0
2014-02-23,0
2014-02-24,0
2014-02-25,0
2014-02-26,0
2014-02-27,0
2014-02-28,0
2014-03-01,0
2014-03-02,0
2014-03-03,0
2014-03-04,0
2014-03-05,0
2014-03-06,0
2014-03-07,0
2014-03-08,0
2014-03-09,0
2014-03-10,0
2014-03-11,0
2014-03-12,0
2014-03-13,0
2014-03-14,0
2014-03-15,0
2014-03-16,0
2014-03-17,0
2014-03-18,0
2014-03-19,0
2014-03-20,0
2014-03-21,0
2014-03-22,0
2014-03-23,0
2014-03-24,0
2014-03-25,0
2014-03-26,0
2014-03-27,0
2014-03-28,0
2014-03-29,0
2014-03-30,0
2014-03-31,0
2014-04-01,0
2014-04-02,0
2014-04-03,0
2014-04-04,0
2014-04-05,0
2014-04-06,0
2014-04-07,0
2014-04-08,0
2014-04-09,0
2014-04-10,0
2014-04-11,0
2014-04-12,0
2014-04-13,0
2014-04-14,0
2014-04-15,0
2014-04-16,0
2014-04-17,0
2014-04-18,0
2014-04-19,0
2014-04-20,0
2014-04-21,0
2014-04-22,0
2014-04-23,0
2014-04-24,0
2014-04-25,0
2014-04-26,0
2014-04-27,0
2014-04-28,0
2014-04-29,0
2014-04-30,0
2014-05-01,0
2014-05-02,0
2014-05-03,0
2014-05-04,0
2014-05-05,0
2014-05-06,0
2014-05-07,0
2014-05-08,0
2014-05-09,0
2014-05-10,0
2014-05-11,0
2014-05-12,0
2014-05-13,0
2014-05-14,0
2014-05-15,0
2014-05-16,0
2014-05-17,0
2014-05-18,0
2014-05-19,0
2014-05-20,0
2014-05-21,0
2014-05-22,0
2014-05-23,0
2014-05-24,0
2014-05-25,0
2014-05-26,0
2014-05-27,0
2014-05-28,0
2014-05-29,0
2014-05-30,0
2014-05-31,0
2014-06-01,0
2014-06-02,0
2014-06-03,0
2014-06-04,0
2014-06-05,0
2014-06-06,0
2014-06-07,0
2014-06-08,0
2014-06-09,0
2014-06-10,0
2014-06-11,0
2014-06-12,0
2014-06-13,0
2014-06-14,0
2014-06-15,0
2014-06-16,0
2014-06-17,0
2014-06-18,0
2014-06-19,0
2014-06-20,0
2014-06-21,0
2014-06-22,0
2014-06-23,0
2014-06-24,0
2014-06-25,0
2014-06-26,0
2014-06-27,0
2014-06-28,0
2014-06-29,0
2014-06-30,0
2014-07-01,0
2014-07-02,0
2014-07-03,0
2014-07-04,0
2014-07-05,0
2014-07-06,0
2014-07-07,0
2014-07-08,0
2014-07-09,0
2014-07-10,0
2014-07-11,0
2014-07-12,0
2014-07-13,0
2014-07-14,0
2014-07-15,0
2014-07-16,0
2014-07-17,0
2014-07-18,0
2014-07-19,0
2014-07-20,0
2014-07-21,0
2014-07-22,0
2014-07-23,0
2014-07-24,0
2014-07-25,0
2014-07-26,0
2014-07-27,0
2014-07-28,0
2014-07-29,0
2014-07-30,0
2014-07-31,0
2014-08-01,0
2014-08-02,0
2014-08-03,0
2014-08-04,0
2014-08-05,0
2014-08-06,0
2014-08-07,0
2014-08-08,0
2014-08-09,0
2014-08-10,0
2014-08-11,0
2014-08-12,0
2014-08-13,0
2014-08-14,0
2014-08-15,0
2014-08-16,0
2014-08-17,0
2014-08-18,0
2014-08-19,0
2014-08-20,0
2014-08-21,0
2014-08-22,0
2014-08-23,0
2014-08-24,0
2014-08-25,0
2014-08-26,0
2014-08-27,0
2014-08-28,0
2014-08-29,0
2014-08-30,0
2014-08-31,0
2014-09-01,0
2014-09-02,0
2014-09-03,0
2014-09-04,0
2014-09-05,0
2014-09-06,0
2014-09-07,0
2014-09-08,0
2014-09-09,0
2014-09-10,0
2014-09-11,0
2014-09-12,0
2014-09-13,0
2014-09-14,0
2014-09-15,0
2014-09-16,0
2014-09-17,0
2014-09-18,0
2014-09-19,0
2014-09-20,0
2014-09-21,0
2014-09-22,0
2014-09-23,0
2014-09-24,0
2014-09-25,0
2014-09-26,0
2014-09-27,0
2014-09-28,0
2014-09-29,0
2014-09-30,0
2014-10-01,0
2014-10-02,0
2014-10-03,0
2014-10-04,0
2014-10-05,0
2014-10-06,0
2014-10-07,0
2014-10-08,0
2014-10-09,0
2014-10-10,0
2014-10-11,0
2014-10-12,0
2014-10-13,0
2014-10-14,0
2014-10-15,0
2014-10-16,0
2014-10-17,0
2014-10-18,0
2014-10-19,0
2014-10-20,0
2014-10-21,0
2014-10-22,0
2014-10-23,0
2014-10-24,0
2014-10-25,0
2014-10-26,0
2014-10-27,0
2014-10-28,0
2014-10-29,0
2014-10-30,0
2014-10-31,0
2014-11-01,0
2014-11-02,0
2014-11-03,0
2014-11-04,0
2014-11-05,0
2014-11-06,0
2014-11-07,0
2014-11-08,0
2014-11-09,0
2014-11-10,0
2014-11-11,0
2014-11-12,0
2014-11-13,0
2014-11-14,0
2014-11-15,0
2014-11-16,0
2014-11-17,0
2014-11-18,0
2014-11-19,0
2014-11-20,0
2014-11-21,0
2014-11-22,0
2014-11-23,0
2014-11-24,0
2014-11-25,0
2014-11-26,0
2014-11-27,0
2014-11-28,0
2014-11-29,0
2014-11-30,0
2014-12-01,0
2014-12-02,0
2014-12-03,0
2014-12-04,0
2014-12-05,0
2014-12-06,0
2014-12-07,0
2014-12-08,0
2014-12-09,0
2014-12-10,0
2014-12-11,0
2014-12-12,0
2014-12-13,0
2014-12-14,0
2014-12-15,0
2014-12-16,0
2014-12-17,0
2014-12-18,0
2014-12-19,0
2014-12-20,0
2014-12-21,0
2014-12-22,0
2014-12-23,0
2014-12-24,0
2014-12-25,0
2014-12-26,0
2014-12-27,0
2014-12-28,0
2014-12-29,0
2014-12-30,0
2014-12-31,0
2015-01-01,0
2015-01-02,0
2015-01-03,0
2015-01-04,0
2015-01-05,0
2015-01-06,0
2015-01-07,0
2015-01-08,0
2015-01-09,0
2015-01-10,0
2015-01-11,0
2015-01-12,0
2015-01-13,0
2015-01-14,0
2015-01-15,0
2015-01-16,0
2015-01-17,0
2015-01-18,0
2015-01-19,0
2015-01-20,0
2015-01-21,0
2015-01-22,0
2015-01-23,0
2015-01-24,0
2015-01-25,0
2015-01-26,0
2015-01-27,0
2015-01-28,0
2015-01-29,0
2015-01-30,0
2015-01-31,0
2015-02-01,0
2015-02-02,0
2015-02-03,0
2015-02-04,0
2015-02-05,0
2015-02-06,0
2015-02-07,0
2015-02-08,0
2015-02-09,0
2015-02-10,0
2015-02-11,0
2015-02-12,0
2015-02-13,0
2015-02-14,0
2015-02-15,0
2015-02-16,0
2015-02-17,0
2015-02-18,0
2015-02-19,0
2015-02-20,0
2015-02-21,0
2015-02-22,0
2015-02-23,0
2015-02-24,0
2015-02-25,0
2015-02-26,0
2015-02-27,0
2015-02-28,0
2015-03-01,0
2015-03-02,0
2015-03-03,0
2015-03-04,0
2015-03-05,0
2015-03-06,0
2015-03-07,0
2015-03-08,0
2015-03-09,0
2015-03-10,0
2015-03-11,0
2015-03-12,0
2015-03-13,0
2015-03-14,0
2015-03-15,0
2015-03-16,0
2015-03-17,0
2015-03-18,0
2015-03-19,0
2015-03-20,0
2015-03-21,0
2015-03-22,0
2015-03-23,0
2015-03-24,0
2015-03-25,0
2015-03-26,0
2015-03-27,0
2015-03-28,0
2015-03-29,0
2015-03-30,0
2015-03-31,0
2015-04-01,0
2015-04-02,0
2015-04-03,0
2015-04-04,0
2015-04-05,0
2015-04-06,0
2015-04-07,0
2015-04-08,0
2015-04-09,0
2015-04-10,0
2015-04-11,0
2015-04-12,0
2015-04-13,0
2015-04-14,0
2015-04-15,0
2015-04-16,0
2015-04-17,0
2015-04-18,0
2015-04-19,0
2015-04-20,0
2015-04-21,0
2015-04-22,0
2015-04-23,0
2015-04-24,0
2015-04-25,0
2015-04-26,0
2015-04-27,0
2015-04-28,0
2015-04-29,0
2015-04-30,0
2015-05-01,0
2015-05-02,0
2015-05-03,0
2015-05-04,0
2015-05-05,0
2015-05-06,0
2015-05-07,0
2015-05-08,0
2015-05-09,0
2015-05-10,0
2015-05-11,0
2015-05-12,0
2015-05-13,0
2015-05-14,0
2015-05-15,0
2015-05-16,0
2015-05-17,0
2015-05-18,0
2015-05-19,0
2015-05-20,0
2015-05-21,0
2015-05-22,0
2015-05-23,0
2015-05-24,0
2015-05-25,0
2015-05-26,0
2015-05-27,0
2015-05-28,0
2015-05-29,0
2015-05-30,0
2015-05-31,0
2015-06-01,0
2015-06-02,0
2015-06-03,0
2015-06-04,0
2015-06-05,0
2015-06-06,0
2015-06-07,0
2015-06-08,0
2015-06-09,0
2015-06-10,0
2015-06-11,0
2015-06-12,0
2015-06-13,0
2015-06-14,0
2015-06-15,0
2015-06-16,0
2015-06-17,0
2015-06-18,0
2015-06-19,0
2015-06-20,0
2015-06-21,0
2015-06-22,0
2015-06-23,0
2015-06-24,0
2015-06-25,0
2015-06-26,0
2015-06-27,0
2015-06-28,0
2015-06-29,0
2015-06-30,0
2015-07-01,0
2015-07-02,0
2015-07-03,0
2015-07-04,0
2015-07-05,0
2015-07-06,0
2015-07-07,0
2015-07-08,0
2015-07-09,0
2015-07-10,0
2015-07-11,0
2015-07-12,0
2015-07-13,0
2015-07-14,0
2015-07-15,0
2015-07-16,0
2015-07-17,0
2015-07-18,0
2015-07-19,0
2015-07-20,0
2015-07-21,0
2015-07-22,0
2015-07-23,0
2015-07-24,0
2015-07-25,0
2015-07-26,0
2015-07-27,0
2015-07-28,0
2015-07-29,0
2015-07-30,0
2015-07-31,0
2015-08-01,0
2015-08-02,0
2015-08-03,0
2015-08-04,0
2015-08-05,0
2015-08-06,0
2015-08-07,0
2015-08-08,0
2015-08-09,0
2015-08-10,0
2015-08-11,0
2015-08-12,0
2015-08-13,0
2015-08-14,0
2015-08-15,0
2015-08-16,0
2015-08-17,0
2015-08-18,0
2015-08-19,0
2015-08-20,0
2015-08-21,0
2015-08-22,0
2015-08-23,0
2015-08-24,0
2015-08-25,0
2015-08-26,0
2015-08-27,0
2015-08-28,0
2015-08-29,0
2015-08-30,0
2015-08-31,0
2015-09-01,0
2015-09-02,0
2015-09-03,0
2015-09-04,0
2015-09-05,0
2015-09-06,0
2015-09-07,0
2015-09-08,0
2015-09-09,0
2015-09-10,0
2015-09-11,0
2015-09-12,0
2015-09-13,0
2015-09-14,0
2015-09-15,0
2015-09-16,0
2015-09-17,0
2015-09-18,0
2015-09-19,0
2015-09-20,0
2015-09-21,0
2015-09-22,0
2015-09-23,0
2015-09-24,0
2015-09-25,0
2015-09-26,0
2015-09-27,0
2015-09-28,0
2015-09-29,0
2015-09-30,0
2015-10-01,0
2015-10-02,0
2015-10-03,0
2015-10-04,0
2015-10-05,0
2015-10-06,0
2015-10-07,0
2015-10-08,0
2015-10-09,0
2015-10-10,0
2015-10-11,0
2015-10-12,0
2015-10-13,0
2015-10-14,0
2015-10-15,0
2015-10-16,0
2015-10-17,0
2015-10-18,0
2015-10-19,0
2015-10-20,0
2015-10-21,0
2015-10-22,0
2015-10-23,0
2015-10-24,0
2015-10-25,0
2015-10-26,0
2015-10-27,0
2015-10-28,0
2015-10-29,0
2015-10-30,0
2015-10-31,0
2015-11-01,0
2015-11-02,0
2015-11-03,0
2015-11-04,0
2015-11-05,0
2015-11-06,0
2015-11-07,0
2015-11-08,0
2015-11-09,0
2015-11-10,0
2015-11-11,0
2015-11-12,0
2015-11-13,0
2015-11-14,0
2015-11-15,0
2015-11-16,0
2015-11-17,0
2015-11-18,0
2015-11-19,0
2015-11-20,0
2015-11-21,0
2015-11-22,0
2015-11-23,0
2015-11-24,0
2015-11-25,0
2015-11-26,0
2015-11-27,0
2015-11-28,0
2015-11-29,0
2015-11-30,0
2015-12-01,0
2015-12-02,0
2015-12-03,0
2015-12-04,0
2015-12-05,0
2015-12-06,0
2015-12-07,0
2015-12-08,0
2015-12-09,0
2015-12-10,0
2015-12-11,0
2015-12-12,0
2015-12-13,0
2015-12-14,0
2015-12-15,0
2015-12-16,0
2015-12-17,0
2015-12-18,0
2015-12-19,0
2015-12-20,0
2015-12-21,0
2015-12-22,0
2015-12-23,0
2015-12-24,0
2015-12-25,0
2015-12-26,0
2015-12-27,0
2015-12-28,0
2015-12-29,0
2015-12-30,0
2015-12-31,0
2016-01-01,0
2016-01-02,0
2016-01-03,0
2016-01-04,0
2016-01-05,0
2016-01-06,0
2016-01-07,0
2016-01-08,0
2016-01-09,0
2016-01-10,0
2016-01-11,0
2016-01-12,0
2016-01-13,0
2016-01-14,0
2016-01-15,0
2016-01-16,0
2016-01-17,0
2016-01-18,0
2016-01-19,0
2016-01-20,0
2016-01-21,0
2016-01-22,0
2016-01-23,0
2016-01-24,0
2016-01-25,0
2016-01-26,0
2016-01-27,0
2016-01-28,0
2016-01-29,0
2016-01-30,0
2016-01-31,0
2016-02-01,0
2016-02-02,0
2016-02-03,0
2016-02-04,0
2016-02-05,0
2016-02-06,0
2016-02-07,0
2016-02-08,0
2016-02-09,0
2016-02-10,0
2016-02-11,0
2016-02-12,0
2016-02-13,0
2016-02-14,0
2016-02-15,0
2016-02-16,0
2016-02-17,0
2016-02-18,0
2016-02-19,0
2016-02-20,0
2016-02-21,0
2016-02-22,0
2016-02-23,0
2016-02-24,0
2016-02-25,0
2016-02-26,0
2016-02-27,0
2016-02-28,0
2016-02-29,0
2016-03-01,0
2016-03-02,0
2016-03-03,0
2016-03-04,0
2016-03-05,0
2016-03-06,0
2016-03-07,0
2016-03-08,0
2016-03-09,0
2016-03-10,0
2016-03-11,0
2016-03-12,0
2016-03-13,0
2016-03-14,0
2016-03-15,0
2016-03-16,0
2016-03-17,0
2016-03-18,0
2016-03-19,0
2016-03-20,0
2016-03-21,0
2016-03-22,0
2016-03-23,0
2016-03-24,0
2016-03-25,0
2016-03-26,0
2016-03-27,0
2016-03-28,0
2016-03-29,0
2016-03-30,0
2016-03-31,0
2016-04-01,0
2016-04-02,0
2016-04-03,0
2016-04-04,0
2016-04-05,0
2016-04-06,0
2016-04-07,0
2016-04-08,0
2016-04-09,0
2016-04-10,0
2016-04-11,0
2016-04-12,0
2016-04-13,0
2016-04-14,0
2016-04-15,0
2016-04-16,0
2016-04-17,0
2016-04-18,0
2016-04-19,0
2016-04-20,0
2016-04-21,0
2016-04-22,0
2016-04-23,0
2016-04-24,0
2016-04-25,0
2016-04-26,0
2016-04-27,0
2016-04-28,0
2016-04-29,0
2016-04-30,0
2016-05-01,0
2016-05-02,0
2016-05-03,0
2016-05-04,0
2016-05-05,0
2016-05-06,0
2016-05-07,0
2016-05-08,0
2016-05-09,0
2016-05-10,0
2016-05-11,0
2016-05-12,0
2016-05-13,0
2016-05-14,0
2016-05-15,0
2016-05-16,0
2016-05-17,0
2016-05-18,0
2016-05-19,0
2016-05-20,0
2016-05-21,0
2016-05-22,0
2016-05-23,0
2016-05-24,0
2016-05-25,0
2016-05-26,0
2016-05-27,0
2016-05-28,0
2016-05-29,0
2016-05-30,0
2016-05-31,0
2016-06-01,0
2016-06-02,0
2016-06-03,0
2016-06-04,0
2016-06-05,0
2016-06-06,0
2016-06-07,0
2016-06-08,0
2016-06-09,0
2016-06-10,0
2016-06-11,0
2016-06-12,0
2016-06-13,0
2016-06-14,0
2016-06-15,0
2016-06-16,0
2016-06-17,0
2016-06-18,0
2016-06-19,0
2016-06-20,0
2016-06-21,0
2016-06-22,0
2016-06-23,0
2016-06-24,0
2016-06-25,0
2016-06-26,0
2016-06-27,0
2016-06-28,0
2016-06-29,0
2016-06-30,0
2016-07-01,0
2016-07-02,0
2016-07-03,0
2016-07-04,0
2016-07-05,0
2016-07-06,0
2016-07-07,0
2016-07-08,0
2016-07-09,0
2016-07-10,0
2016-07-11,0
2016-07-12,0
2016-07-13,0
2016-07-14,0
2016-07-15,0
2016-07-16,0
2016-07-17,0
2016-07-18,0
2016-07-19,0
2016-07-20,0
2016-07-21,0
2016-07-22,0
2016-07-23,0
2016-07-24,0
2016-07-25,0
2016-07-26,0
2016-07-27,0
2016-07-28,0
2016-07-29,0
2016-07-30,0
2016-07-31,0
2016-08-01,0
2016-08-02,0
2016-08-03,0
2016-08-04,0
2016-08-05,0
2016-08-06,0
2016-08-07,0
2016-08-08,0
2016-08-09,0
2016-08-10,0
2016-08-11,0
2016-08-12,0
2016-08-13,0
2016-08-14,0
2016-08-15,0
2016-08-16,0
2016-08-17,0
2016-08-18,0
2016-08-19,0
2016-08-20,0
2016-08-21,0
2016-08-22,0
2016-08-23,0
2016-08-24,0
2016-08-25,0
2016-08-26,0
2016-08-27,0
2016-08-28,0
2016-08-29,0
2016-08-30,0
2016-08-31,0
2016-09-01,0
2016-09-02,0
2016-09-03,0
2016-09-04,0
2016-09-05,0
2016-09-06,0
2016-09-07,0
2016-09-08,0
2016-09-09,0
2016-09-10,0
2016-09-11,0
2016-09-12,0
2016-09-13,0
2016-09-14,0
2016-09-15,0
2016-09-16,0
2016-09-17,0
2016-09-18,0
2016-09-19,0
2016-09-20,0
2016-09-21,0
2016-09-22,0
2016-09-23,0
2016-09-24,0
2016-09-25,0
2016-09-26,0
2016-09-27,0
2016-09-28,0
2016-09-29,0
2016-09-30,0
2016-10-01,0
2016-10-02,0
2016-10-03,0
2016-10-04,0
2016-10-05,0
2016-10-06,0
2016-10-07,0
2016-10-08,0
2016-10-09,0
2016-10-10,0
2016-10-11,0
2016-10-12,0
2016-10-13,0
2016-10-14,0
2016-10-15,0
2016-10-16,0
2016-10-17,0
2016-10-18,0
2016-10-19,0
2016-10-20,0
2016-10-21,0
2016-10-22,0
2016-10-23,0
2016-10-24,0
2016-10-25,0
2016-10-26,0
2016-10-27,0
2016-10-28,0
2016-10-29,0
2016-10-30,0
2016-10-31,0
2016-11-01,0
2016-11-02,0
2016-11-03,0
2016-11-04,0
2016-11-05,0
2016-11-06,0
2016-11-07,0
2016-11-08,0
2016-11-09,0
2016-11-10,0
2016-11-11,0
2016-11-12,0
2016-11-13,0
2016-11-14,0
2016-11-15,0
2016-11-16,0
2016-11-17,0
2016-11-18,0
2016-11-19,0
2016-11-20,0
2016-11-21,0
2016-11-22,0
2016-11-23,0
2016-11-24,0
2016-11-25,0
2016-11-26,0
2016-11-27,0
2016-11-28,0
2016-11-29,0
2016-11-30,0
2016-12-01,0
2016-12-02,0
2016-12-03,0
2016-12-04,0
2016-12-05,0
2016-12-06,0
2016-12-07,0
2016-12-08,0
2016-12-09,0
2016-12-10,0
2016-12-11,0
2016-12-12,0
2016-12-13,0
2016-12-14,0
2016-12-15,0
2016-12-16,0
2016-12-17,0
2016-12-18,0
2016-12-19,0
2016-12-20,0
2016-12-21,0
2016-12-22,0
2016-12-23,0
2016-12-24,15
2016-12-25,0
2016-12-26,0
2016-12-27,0
2016-12-28,0
2016-12-29,0
2016-12-30,0
2016-12-31,0
2017-01-01,0
2017-01-02,0
2017-01-03,0
2017-01-04,0
2017-01-05,0
2017-01-06,0
2017-01-07,0
2017-01-08,0
2017-01-09,0
2017-01-10,0
2017-01-11,0
2017-01-12,0
2017-01-13,0
2017-01-14,0
2017-01-15,0
2017-01-16,0
2017-01-17,0
2017-01-18,0
2017-01-19,0
2017-01-20,0
2017-01-21,0
2017-01-22,0
2017-01-23,0
2017-01-24,0
2017-01-25,0
2017-01-26,0
2017-01-27,0
2017-01-28,0
2017-01-29,0
2017-01-30,0
2017-01-31,4
2017-02-01,0
2017-02-02,0
2017-02-03,0
2017-02-04,0
2017-02-05,0
2017-02-06,0
2017-02-07,0
2017-02-08,0
2017-02-09,0
2017-02-10,0
2017-02-11,0
2017-02-12,0
2017-02-13,0
2017-02-14,0
2017-02-15,0
2017-02-16,0
2017-02-17,0
2017-02-18,0
2017-02-19,0
2017-02-20,0
2017-02-21,0
2017-02-22,0
2017-02-23,0
2017-02-24,0
2017-02-25,0
2017-02-26,0
2017-02-27,0
2017-02-28,0
2017-03-01,0
2017-03-02,0
2017-03-03,0
2017-03-04,0
2017-03-05,0
2017-03-06,0
2017-03-07,0
2017-03-08,0
2017-03-09,0
2017-03-10,3
2017-03-11,0
2017-03-12,0
2017-03-13,0
2017-03-14,0
2017-03-15,0
2017-03-16,0
2017-03-17,0
2017-03-18,0
2017-03-19,0
2017-03-20,0
2017-03-21,0
2017-03-22,0
2017-03-23,1
2017-03-24,0
2017-03-25,0
2017-03-26,0
2017-03-27,0
2017-03-28,0
2017-03-29,0
2017-03-30,48
2017-03-31,8
2017-04-01,0
2017-04-02,0
2017-04-03,0
2017-04-04,38
2017-04-05,1
2017-04-06,2
2017-04-07,0
2017-04-08,0
2017-04-09,0
2017-04-10,0
2017-04-11,0
2017-04-12,0
2017-04-13,1
2017-04-14,0
2017-04-15,0
2017-04-16,0
2017-04-17,0
2017-04-18,0
2017-04-19,0
2017-04-20,0
2017-04-21,0
2017-04-22,3
2017-04-23,1
2017-04-24,0
2017-04-25,0
2017-04-26,0
2017-04-27,1
2017-04-28,0
2017-04-29,0
2017-04-30,0
2017-05-01,0
2017-05-02,0
2017-05-03,4
2017-05-04,2
2017-05-05,113
2017-05-06,5
2017-05-07,68
2017-05-08,0
2017-05-09,0
2017-05-10,348
2017-05-11,111
2017-05-12,0
2017-05-13,1
2017-05-14,0
2017-05-15,0
2017-05-16,0
2017-05-17,0
2017-05-18,1
2017-05-19,3
2017-05-20,0
2017-05-21,0
2017-05-22,0
2017-05-23,33
2017-05-24,21
2017-05-25,0
2017-05-26,0
2017-05-27,1
2017-05-28,0
2017-05-29,0
2017-05-30,0
2017-05-31,0
2017-06-01,2
2017-06-02,0
2017-06-03,0
2017-06-04,0
2017-06-05,0
2017-06-06,0
2017-06-07,0
2017-06-08,1
2017-06-09,0
2017-06-10,0
2017-06-11,10
2017-06-12,0
2017-06-13,0
2017-06-14,1
2017-06-15,0
2017-06-16,23
2017-06-17,31
2017-06-18,3
2017-06-19,38
2017-06-20,0
2017-06-21,1
2017-06-22,0
2017-06-23,1
2017-06-24,0
2017-06-25,4
2017-06-26,1
2017-06-27,43
2017-06-28,1
2017-06-29,0
2017-06-30,0
2017-07-01,1
2017-07-02,0
2017-07-03,0
2017-07-04,0
2017-07-05,1
2017-07-06,2
2017-07-07,0
2017-07-08,0
2017-07-09,0
2017-07-10,0
2017-07-11,0
2017-07-12,0
2017-07-13,0
2017-07-14,1
2017-07-15,0
2017-07-16,0
2017-07-17,0
2017-07-18,0
2017-07-19,0
2017-07-20,0
2017-07-21,0
2017-07-22,0
2017-07-23,0
2017-07-24,0
2017-07-25,0
2017-07-26,0
2017-07-27,0
2017-07-28,0
2017-07-29,8
2017-07-30,0
2017-07-31,5
2017-08-01,24
2017-08-02,0
2017-08-03,0
2017-08-04,0
2017-08-05,0
2017-08-06,0
2017-08-07,0
2017-08-08,0
2017-08-09,0
2017-08-10,0
2017-08-11,5
2017-08-12,2
2017-08-13,0
2017-08-14,13
2017-08-15,0
2017-08-16,0
2017-08-17,6
2017-08-18,0
2017-08-19,0
2017-08-20,0
2017-08-21,0
2017-08-22,10
2017-08-23,16
2017-08-24,0
2017-08-25,4
2017-08-26,29
2017-08-27,14
2017-08-28,0
2017-08-29,0
2017-08-30,0
2017-08-31,125
2017-09-01,3
2017-09-02,0
2017-09-03,7
2017-09-04,3
2017-09-05,9
2017-09-06,5
2017-09-07,0
2017-09-08,0
2017-09-09,0
2017-09-10,0
2017-09-11,0
2017-09-12,0
2017-09-13,0
2017-09-14,97
2017-09-15,0
2017-09-16,0
2017-09-17,0
2017-09-18,0
2017-09-19,1
2017-09-20,5
2017-09-21,968
2017-09-22,0
2017-09-23,0
2017-09-24,4
2017-09-25,0
2017-09-26,0
2017-09-27,0
2017-09-28,0
2017-09-29,0
2017-09-30,3
2017-10-01,0
2017-10-02,0
2017-10-03,0
2017-10-04,5
2017-10-05,0
2017-10-06,0
2017-10-07,6
2017-10-08,0
2017-10-09,32
2017-10-10,0
2017-10-11,0
2017-10-12,0
2017-10-13,0
2017-10-14,0
2017-10-15,0
2017-10-16,0
2017-10-17,0
2017-10-18,7
2017-10-19,1
2017-10-20,0
2017-10-21,1
2017-10-22,0
2017-10-23,0
2017-10-24,0
2017-10-25,0
2017-10-26,1
2017-10-27,0
2017-10-28,12
2017-10-29,0
2017-10-30,0
2017-10-31,0
2017-11-01,0
2017-11-02,3
2017-11-03,2
2017-11-04,0
2017-11-05,0
2017-11-06,2
2017-11-07,105
2017-11-08,0
2017-11-09,0
2017-11-10,0
2017-11-11,2
2017-11-12,7
2017-11-13,0
2017-11-14,13
2017-11-15,0
2017-11-16,1
2017-11-17,5
2017-11-18,11
2017-11-19,4
2017-11-20,0
2017-11-21,2
2017-11-22,0
2017-11-23,0
2017-11-24,0
2017-11-25,2
2017-11-26,3
2017-11-27,252
2017-11-28,9
2017-11-29,0
2017-11-30,3
2017-12-01,25
2017-12-02,7
2017-12-03,3
2017-12-04,13
2017-12-05,17
2017-12-06,5
2017-12-07,68
2017-12-08,30
2017-12-09,19
2017-12-10,1
2017-12-11,4
2017-12-12,33
2017-12-13,45
2017-12-14,1
2017-12-15,504
2017-12-16,3
2017-12-17,1
2017-12-18,17
2017-12-19,1
2017-12-20,34
2017-12-21,246
2017-12-22,6
2017-12-23,29
2017-12-24,2
2017-12-25,1
2017-12-26,104
2017-12-27,164
2017-12-28,25
2017-12-29,3
2017-12-30,2
2017-12-31,11
2018-01-01,32
2018-01-02,0
2018-01-03,0
2018-01-04,4
2018-01-05,1
2018-01-06,6
2018-01-07,5
2018-01-08,2
2018-01-09,4
2018-01-10,308
2018-01-11,47
2018-01-12,637
2018-01-13,149
2018-01-14,12
2018-01-15,203
2018-01-16,2
2018-01-17,217
2018-01-18,61
2018-01-19,0
2018-01-20,56
2018-01-21,119
2018-01-22,142
2018-01-23,563
2018-01-24,27
2018-01-25,0
2018-01-26,0
2018-01-27,7
2018-01-28,0
2018-01-29,0
2018-01-30,2
2018-01-31,0
2018-02-01,0
2018-02-02,16
2018-02-03,0
2018-02-04,0
2018-02-05,0
2018-02-06,1
2018-02-07,1
2018-02-08,0
2018-02-09,1
2018-02-10,13
2018-02-11,1
2018-02-12,0
2018-02-13,2
2018-02-14,75
2018-02-15,3
2018-02-16,0
2018-02-17,0
2018-02-18,6
2018-02-19,1
2018-02-20,0
2018-02-21,2
2018-02-22,443
2018-02-23,0
2018-02-24,149
2018-02-25,0
2018-02-26,3
2018-02-27,0
2018-02-28,0
2018-03-01,0
2018-03-02,0
2018-03-03,2
2018-03-04,1
2018-03-05,1
2018-03-06,5
2018-03-07,0
2018-03-08,0
2018-03-09,12
2018-03-10,2
2018-03-11,7
2018-03-12,2
2018-03-13,1
2018-03-14,0
2018-03-15,0
2018-03-16,0
2018-03-17,1
2018-03-18,0
2018-03-19,0
2018-03-20,1
2018-03-21,0
2018-03-22,1
2018-03-23,1
2018-03-24,1
2018-03-25,0
2018-03-26,0
2018-03-27,0
2018-03-28,328
2018-03-29,0
2018-03-30,216
2018-03-31,0
2018-04-01,0
2018-04-02,2
2018-04-03,2
2018-04-04,0
2018-04-05,0
2018-04-06,0
2018-04-07,0
2018-04-08,0
2018-04-09,0
2018-04-10,0
2018-04-11,1
2018-04-12,0
2018-04-13,4
2018-04-14,305
2018-04-15,0
2018-04-16,67
2018-04-17,59
2018-04-18,0
2018-04-19,271
2018-04-20,3
2018-04-21,3
2018-04-22,2
2018-04-23,0
2018-04-24,0
2018-04-25,5
2018-04-26,0
2018-04-27,10
2018-04-28,1
2018-04-29,110
2018-04-30,0
2018-05-01,0
2018-05-02,1
2018-05-03,0
2018-05-04,1
2018-05-05,10
2018-05-06,8
2018-05-07,0
2018-05-08,15
2018-05-09,1
2018-05-10,2
2018-05-11,11
2018-05-12,4
2018-05-13,2
2018-05-14,1
2018-05-15,0
2018-05-16,1
2018-05-17,4
2018-05-18,3
2018-05-19,0
2018-05-20,0
2018-05-21,1
2018-05-22,1
2018-05-23,1
2018-05-24,4
2018-05-25,0
2018-05-26,11
2018-05-27,0
2018-05-28,1
2018-05-29,0
2018-05-30,3
2018-05-31,31
2018-06-01,6
2018-06-02,2
2018-06-03,14
2018-06-04,8
2018-06-05,2
2018-06-06,0
2018-06-07,1
2018-06-08,0
2018-06-09,17
2018-06-10,12
2018-06-11,0
2018-06-12,2
2018-06-13,376
2018-06-14,0
2018-06-15,0
2018-06-16,0
2018-06-17,0
2018-06-18,1
2018-06-19,1
2018-06-20,5
2018-06-21,233
2018-06-22,22
2018-06-23,1
2018-06-24,0
2018-06-25,1
2018-06-26,7
2018-06-27,51
2018-06-28,0
2018-06-29,0
2018-06-30,11
2018-07-01,0
2018-07-02,1
2018-07-03,6
2018-07-04,3
2018-07-05,175
2018-07-06,0
2018-07-07,2
2018-07-08,2
2018-07-09,2
2018-07-10,2
2018-07-11,21
2018-07-12,0
2018-07-13,0
2018-07-14,1
2018-07-15,30
2018-07-16,9
2018-07-17,1
2018-07-18,15
2018-07-19,0
2018-07-20,0
2018-07-21,1
2018-07-22,4
2018-07-23,37
2018-07-24,7
2018-07-25,2
2018-07-26,74
2018-07-27,1
2018-07-28,4
2018-07-29,84
2018-07-30,0
2018-07-31,6
2018-08-01,0
2018-08-02,120
2018-08-03,22
2018-08-04,0
2018-08-05,5
2018-08-06,3
2018-08-07,264
2018-08-08,102
2018-08-09,1
2018-08-10,9
2018-08-11,1
2018-08-12,0
2018-08-13,1
2018-08-14,15
2018-08-15,21
2018-08-16,17
2018-08-17,0
2018-08-18,0
2018-08-19,3
2018-08-20,66
2018-08-21,3
2018-08-22,0
2018-08-23,0
2018-08-24,32
2018-08-25,4
2018-08-26,6
2018-08-27,1
2018-08-28,282
2018-08-29,662
2018-08-30,0
2018-08-31,1
2018-09-01,5
2018-09-02,1
2018-09-03,14
2018-09-04,6
2018-09-05,1
2018-09-06,13
2018-09-07,1
2018-09-08,0
2018-09-09,0
2018-09-10,6
2018-09-11,24
2018-09-12,20
2018-09-13,0
2018-09-14,25
2018-09-15,0
2018-09-16,0
2018-09-17,1
2018-09-18,0
2018-09-19,0
2018-09-20,2
2018-09-21,61
2018-09-22,7
2018-09-23,7
2018-09-24,26
2018-09-25,4
2018-09-26,29
2018-09-27,17
2018-09-28,6
2018-09-29,2
2018-09-30,204
2018-10-01,3
2018-10-02,8
2018-10-03,6
2018-10-04,0
2018-10-05,1
2018-10-06,0
2018-10-07,0
2018-10-08,0
2018-10-09,1
2018-10-10,7
2018-10-11,458
2018-10-12,33
2018-10-13,115
2018-10-14,141
2018-10-15,2
2018-10-16,12
2018-10-17,1
2018-10-18,61
2018-10-19,0
2018-10-20,0
2018-10-21,4
2018-10-22,15
2018-10-23,3
2018-10-24,19
2018-10-25,17
2018-10-26,0
2018-10-27,4
2018-10-28,0
2018-10-29,23
2018-10-30,81
2018-10-31,57
2018-11-01,3
2018-11-02,0
2018-11-03,28
2018-11-04,43
2018-11-05,2
2018-11-06,1071
2018-11-07,6
2018-11-08,0
2018-11-09,0
2018-11-10,55
2018-11-11,33
2018-11-12,36
2018-11-13,11
2018-11-14,20
2018-11-15,0
2018-11-16,0
2018-11-17,1
2018-11-18,0
2018-11-19,537
2018-11-20,2
2018-11-21,2
2018-11-22,4
2018-11-23,17
2018-11-24,0
2018-11-25,0
2018-11-26,1
2018-11-27,5
2018-11-28,3
2018-11-29,36
2018-11-30,1
2018-12-01,30
2018-12-02,0
2018-12-03,29
2018-12-04,1
2018-12-05,8
2018-12-06,1
2018-12-07,12
2018-12-08,10
2018-12-09,14
2018-12-10,46
2018-12-11,3
2018-12-12,0
2018-12-13,0
2018-12-14,7
2018-12-15,39
2018-12-16,3
2018-12-17,0
2018-12-18,1
2018-12-19,0
2018-12-20,10
2018-12-21,9
2018-12-22,1
2018-12-23,9
2018-12-24,25
2018-12-25,0
2018-12-26,2
2018-12-27,2
2018-12-28,31
2018-12-29,2
2018-12-30,2
2018-12-31,16
2019-01-01,10
2019-01-02,9
2019-01-03,3
2019-01-04,5
2019-01-05,3
2019-01-06,5
2019-01-07,6
2019-01-08,55
2019-01-09,1
2019-01-10,21
2019-01-11,4
2019-01-12,4
2019-01-13,0
2019-01-14,0
2019-01-15,1
2019-01-16,1
2019-01-17,103
2019-01-18,0
2019-01-19,14
2019-01-20,14
2019-01-21,0
2019-01-22,26
2019-01-23,3
2019-01-24,26
2019-01-25,4
2019-01-26,11
2019-01-27,10
2019-01-28,3
2019-01-29,96
2019-01-30,5
2019-01-31,11
2019-02-01,14
2019-02-02,36
2019-02-03,13
2019-02-04,8
2019-02-05,0
2019-02-06,0
2019-02-07,4
2019-02-08,5
2019-02-09,10
2019-02-10,24
2019-02-11,7
2019-02-12,2
2019-02-13,1
2019-02-14,7
2019-02-15,1
2019-02-16,6
2019-02-17,7
2019-02-18,39
2019-02-19,83
2019-02-20,42
2019-02-21,7
2019-02-22,9
2019-02-23,0
2019-02-24,83
2019-02-25,73
2019-02-26,1
2019-02-27,5
2019-02-28,38
2019-03-01,11
2019-03-02,3
2019-03-03,385
2019-03-04,168
2019-03-05,110
2019-03-06,15
2019-03-07,8
2019-03-08,14
2019-03-09,6
2019-03-10,3
2019-03-11,62
2019-03-12,83
2019-03-13,15
2019-03-14,11
2019-03-15,5
2019-03-16,7
2019-03-17,3
2019-03-18,33
2019-03-19,19
2019-03-20,60
2019-03-21,21
2019-03-22,15
2019-03-23,30
2019-03-24,7
2019-03-25,9
2019-03-26,54
2019-03-27,38
2019-03-28,18
2019-03-29,137
2019-03-30,150
2019-03-31,258
2019-04-01,8
2019-04-02,613
2019-04-03,137
2019-04-04,41
2019-04-05,12
2019-04-06,34
2019-04-07,39
2019-04-08,356
2019-04-09,25
2019-04-10,20
2019-04-11,24
2019-04-12,14
2019-04-13,11
2019-04-14,75
2019-04-15,26
2019-04-16,4
2019-04-17,44
2019-04-18,45
2019-04-19,76
2019-04-20,21
2019-04-21,15
2019-04-22,331
2019-04-23,318
2019-04-24,194
2019-04-25,20
2019-04-26,29
2019-04-27,121
2019-04-28,9
2019-04-29,24
2019-04-30,3
2019-05-01,34
2019-05-02,56
2019-05-03,7
2019-05-04,693
2019-05-05,0
2019-05-06,4
2019-05-07,20
2019-05-08,119
2019-05-09,41
2019-05-10,2
2019-05-11,16
2019-05-12,59
2019-05-13,171
2019-05-14,163
2019-05-15,65
2019-05-16,346
2019-05-17,307
2019-05-18,448
2019-05-19,63
2019-05-20,91
2019-05-21,492
2019-05-22,190
2019-05-23,4
2019-05-24,22
2019-05-25,196
2019-05-26,310
2019-05-27,40
2019-05-28,195
2019-05-29,150
2019-05-30,561
2019-05-31,55
2019-06-01,75
2019-06-02,21
2019-06-03,31
2019-06-04,36
2019-06-05,2
2019-06-06,14
2019-06-07,48
2019-06-08,117
2019-06-09,486
2019-06-10,201
2019-06-11,116
2019-06-12,243
2019-06-13,125
2019-06-14,39
2019-06-15,36
2019-06-16,36
2019-06-17,58
2019-06-18,547
2019-06-19,438
2019-06-20,242
2019-06-21,67
2019-06-22,121
2019-06-23,66
2019-06-24,35
2019-06-25,239
2019-06-26,460
2019-06-27,661
2019-06-28,87
2019-06-29,113
2019-06-30,214
2019-07-01,366
2019-07-02,61
2019-07-03,1076
2019-07-04,62
2019-07-05,50
2019-07-06,202
2019-07-07,49
2019-07-08,43
2019-07-09,63
2019-07-10,92
2019-07-11,99
2019-07-12,214
2019-07-13,182
2019-07-14,60
2019-07-15,2194
2019-07-16,11
2019-07-17,10
2019-07-18,6
2019-07-19,23
2019-07-20,1
2019-07-21,10
2019-07-22,14
2019-07-23,93
2019-07-24,109
2019-07-25,283
2019-07-26,53
2019-07-27,11
2019-07-28,5
2019-07-29,6
2019-07-30,46
2019-07-31,434
2019-08-01,10
2019-08-02,101
2019-08-03,44
2019-08-04,46
2019-08-05,559
2019-08-06,32
2019-08-07,21
2019-08-08,11
2019-08-09,200
2019-08-10,34
2019-08-11,15
2019-08-12,34
2019-08-13,10
2019-08-14,5
2019-08-15,515
2019-08-16,30
2019-08-17,136
2019-08-18,13
2019-08-19,25
2019-08-20,4
2019-08-21,69
2019-08-22,123
2019-08-23,54
2019-08-24,7
2019-08-25,14
2019-08-26,15
2019-08-27,2
2019-08-28,5
2019-08-29,11
2019-08-30,11
2019-08-31,10
2019-09-01,27
2019-09-02,12
2019-09-03,4
2019-09-04,15
2019-09-05,26
2019-09-06,5
2019-09-07,629
2019-09-08,31
2019-09-09,4
2019-09-10,47
2019-09-11,4
2019-09-12,26
2019-09-13,162
2019-09-14,9
2019-09-15,16
2019-09-16,20
2019-09-17,233
2019-09-18,18
2019-09-19,179
2019-09-20,36
2019-09-21,17
2019-09-22,14
2019-09-23,35
2019-09-24,71
2019-09-25,53
2019-09-26,436
2019-09-27,8
2019-09-28,83
2019-09-29,2
2019-09-30,2
2019-10-01,8
2019-10-02,3
2019-10-03,2
2019-10-04,3
2019-10-05,17
2019-10-06,37
2019-10-07,284
2019-10-08,1
2019-10-09,91
2019-10-10,9
2019-10-11,8
2019-10-12,11
2019-10-13,6
2019-10-14,29
2019-10-15,75
2019-10-16,128
2019-10-17,38
2019-10-18,74
2019-10-19,13
2019-10-20,17
2019-10-21,3
2019-10-22,12
2019-10-23,10
2019-10-24,122
2019-10-25,10
2019-10-26,22
2019-10-27,13
2019-10-28,25
2019-10-29,21
2019-10-30,5
2019-10-31,3
2019-11-01,3
2019-11-02,7
2019-11-03,7
2019-11-04,2
2019-11-05,32
2019-11-06,14
2019-11-07,5
2019-11-08,13
2019-11-09,2
2019-11-10,10
2019-11-11,543
2019-11-12,9
2019-11-13,44
2019-11-14,128
2019-11-15,89
2019-11-16,57
2019-11-17,14
2019-11-18,1
2019-11-19,11
2019-11-20,12
2019-11-21,15
2019-11-22,9
2019-11-23,10
2019-11-24,6
2019-11-25,32
2019-11-26,3
2019-11-27,1
2019-11-28,3
2019-11-29,1
2019-11-30,33
2019-12-01,19
2019-12-02,350
2019-12-03,213
2019-12-04,320
2019-12-05,8
2019-12-06,0
2019-12-07,1
2019-12-08,33
2019-12-09,13
2019-12-10,23
2019-12-11,3
2019-12-12,7
2019-12-13,0
2019-12-14,0
2019-12-15,2
2019-12-16,44
2019-12-17,68
2019-12-18,4
2019-12-19,3
2019-12-20,52
2019-12-21,2
2019-12-22,2
2019-12-23,6
2019-12-24,14
2019-12-25,1
2019-12-26,6
2019-12-27,167
2019-12-28,23
2019-12-29,1
2019-12-30,8
2019-12-31,60
2020-01-01,9
2020-01-02,19
2020-01-03,34
2020-01-04,31
2020-01-05,248
2020-01-06,2
2020-01-07,6
2020-01-08,147
2020-01-09,51
2020-01-10,76
2020-01-11,199
2020-01-12,14
2020-01-13,6
2020-01-14,66
2020-01-15,6
2020-01-16,36
2020-01-17,33
2020-01-18,8
2020-01-19,26
2020-01-20,13
2020-01-21,11
2020-01-22,12
2020-01-23,5
2020-01-24,3
2020-01-25,2
2020-01-26,17
2020-01-27,11
2020-01-28,1
2020-01-29,7
2020-01-30,147
2020-01-31,19
2020-02-01,10
2020-02-02,5
2020-02-03,18
2020-02-04,7
2020-02-05,9
2020-02-06,115
2020-02-07,33
2020-02-08,7
2020-02-09,39
2020-02-10,144
2020-02-11,29
2020-02-12,601
2020-02-13,48
2020-02-14,69
2020-02-15,50
2020-02-16,15
2020-02-17,26
2020-02-18,170
2020-02-19,89
2020-02-20,21
2020-02-21,1
2020-02-22,15
2020-02-23,50
2020-02-24,27
2020-02-25,80
2020-02-26,642
2020-02-27,107
2020-02-28,33
2020-02-29,105
2020-03-01,91
2020-03-02,112
2020-03-03,125
2020-03-04,75
2020-03-05,66
2020-03-06,42
2020-03-07,209
2020-03-08,145
2020-03-09,1
2020-03-10,102
2020-03-11,5
2020-03-12,16
2020-03-13,6
2020-03-14,49
2020-03-15,2
2020-03-16,6
2020-03-17,7
2020-03-18,66
2020-03-19,42
2020-03-20,5
2020-03-21,2
2020-03-22,39
2020-03-23,5
2020-03-24,1685
2020-03-25,24
2020-03-26,28
2020-03-27,7
2020-03-28,18
2020-03-29,3
2020-03-30,41
2020-03-31,7
2020-04-01,2
2020-04-02,50
2020-04-03,5
2020-04-04,11
2020-04-05,80
2020-04-06,2
2020-04-07,13
2020-04-08,3
2020-04-09,5
2020-04-10,6
2020-04-11,3
2020-04-12,6
2020-04-13,12
2020-04-14,38
2020-04-15,7
2020-04-16,16
2020-04-17,3
2020-04-18,5
2020-04-19,32
2020-04-20,0
2020-04-21,3
2020-04-22,56
2020-04-23,137
2020-04-24,76
2020-04-25,61
2020-04-26,75
2020-04-27,467
2020-04-28,3
2020-04-29,65
2020-04-30,18
2020-05-01,15
2020-05-02,0
2020-05-03,42
2020-05-04,102
2020-05-05,13
2020-05-06,11
2020-05-07,500
2020-05-08,19
2020-05-09,9
2020-05-10,148
2020-05-11,9
2020-05-12,20
2020-05-13,0
2020-05-14,24
2020-05-15,5
2020-05-16,14
2020-05-17,237
2020-05-18,2
2020-05-19,63
2020-05-20,8
2020-05-21,20
2020-05-22,16
2020-05-23,3
2020-05-24,2
2020-05-25,14
2020-05-26,52
2020-05-27,8
2020-05-28,64
2020-05-29,0
2020-05-30,27
2020-05-31,10
2020-06-01,7
2020-06-02,8
2020-06-03,59
2020-06-04,92
2020-06-05,43
2020-06-06,0
2020-06-07,4
2020-06-08,4
2020-06-09,13
2020-06-10,245
2020-06-11,5
2020-06-12,307
2020-06-13,294
2020-06-14,245
2020-06-15,15
2020-06-16,28
2020-06-17,2
2020-06-18,34
2020-06-19,0
2020-06-20,22
2020-06-21,306
2020-06-22,4
2020-06-23,34
2020-06-24,7
2020-06-25,3
2020-06-26,44
2020-06-27,28
2020-06-28,33
2020-06-29,6
2020-06-30,6
2020-07-01,4
2020-07-02,11
2020-07-03,30
2020-07-04,7
2020-07-05,5
2020-07-06,21
2020-07-07,3
2020-07-08,6
2020-07-09,13
2020-07-10,50
2020-07-11,8
2020-07-12,6
2020-07-13,60
2020-07-14,17
2020-07-15,78
2020-07-16,20
2020-07-17,25
2020-07-18,2
2020-07-19,23
2020-07-20,11
2020-07-21,4
2020-07-22,20
2020-07-23,46
2020-07-24,16
2020-07-25,21
2020-07-26,22
2020-07-27,217
2020-07-28,31
2020-07-29,15
2020-07-30,77
2020-07-31,41
2020-08-01,46
2020-08-02,44
2020-08-03,43
2020-08-04,31
2020-08-05,51
2020-08-06,48
2020-08-07,169
2020-08-08,5
2020-08-09,11
2020-08-10,78
2020-08-11,135
2020-08-12,107
2020-08-13,24
2020-08-14,81
2020-08-15,107
2020-08-16,78
2020-08-17,111
2020-08-18,58
2020-08-19,2
2020-08-20,19
2020-08-21,32
2020-08-22,19
2020-08-23,63
2020-08-24,152
2020-08-25,12
2020-08-26,12
2020-08-27,22
2020-08-28,40
2020-08-29,151
2020-08-30,32
2020-08-31,35
2020-09-01,34
2020-09-02,14
2020-09-03,150
2020-09-04,5
2020-09-05,69
2020-09-06,69
2020-09-07,3
2020-09-08,7
2020-09-09,1
2020-09-10,30
2020-09-11,84
2020-09-12,12
2020-09-13,6
2020-09-14,11
2020-09-15,89
2020-09-16,73
2020-09-17,14
2020-09-18,11
2020-09-19,44
2020-09-20,11
2020-09-21,2
2020-09-22,4
2020-09-23,25
2020-09-24,42
2020-09-25,13
2020-09-26,81
2020-09-27,0
2020-09-28,45
2020-09-29,24
2020-09-30,8
2020-10-01,5
2020-10-02,13
2020-10-03,12
2020-10-04,0
2020-10-05,15
2020-10-06,83
2020-10-07,134
2020-10-08,14
2020-10-09,13
2020-10-10,98
2020-10-11,293
2020-10-12,199
2020-10-13,42
2020-10-14,12
2020-10-15,28
2020-10-16,17
2020-10-17,3
2020-10-18,11
2020-10-19,59
2020-10-20,9
2020-10-21,245
2020-10-22,40
2020-10-23,104
2020-10-24,48
2020-10-25,100
2020-10-26,102
2020-10-27,64
2020-10-28,25
2020-10-29,3
2020-10-30,1
2020-10-31,25
2020-11-01,20
2020-11-02,99
2020-11-03,43
2020-11-04,32
2020-11-05,45
2020-11-06,484
2020-11-07,1783
2020-11-08,1
2020-11-09,12
2020-11-10,184
2020-11-11,17
2020-11-12,10
2020-11-13,156
2020-11-14,128
2020-11-15,61
2020-11-16,122
2020-11-17,35
2020-11-18,109
2020-11-19,255
2020-11-20,91
2020-11-21,228
2020-11-22,143
2020-11-23,217
2020-11-24,54
2020-11-25,158
2020-11-26,486
2020-11-27,643
2020-11-28,19
2020-11-29,116
2020-11-30,67
2020-12-01,28
2020-12-02,130
2020-12-03,70
2020-12-04,220
2020-12-05,31
2020-12-06,85
2020-12-07,61
2020-12-08,183
2020-12-09,16
2020-12-10,366
2020-12-11,50
2020-12-12,37
2020-12-13,100
2020-12-14,15
2020-12-15,127
2020-12-16,113
2020-12-17,248
2020-12-18,460
2020-12-19,134
2020-12-20,256
2020-12-21,176
2020-12-22,447
2020-12-23,241
2020-12-24,81
2020-12-25,368
2020-12-26,117
2020-12-27,236
2020-12-28,168
2020-12-29,899
2020-12-30,191
2020-12-31,49
2021-01-01,205
2021-01-02,297
2021-01-03,340
2021-01-04,622
2021-01-05,238
2021-01-06,281
2021-01-07,495
2021-01-08,953
2021-01-09,295
2021-01-10,350
2021-01-11,535
2021-01-12,166
2021-01-13,415
2021-01-14,95
2021-01-15,491
2021-01-16,457
2021-01-17,88
2021-01-18,536
2021-01-19,767
2021-01-20,355
2021-01-21,354
2021-01-22,214
2021-01-23,54
2021-01-24,256
2021-01-25,341
2021-01-26,33
2021-01-27,191
2021-01-28,85
2021-01-29,364
2021-01-30,231
2021-01-31,735
2021-02-01,384
2021-02-02,409
2021-02-03,281
2021-02-04,622
2021-02-05,274
2021-02-06,358
2021-02-07,222
2021-02-08,422
2021-02-09,531
2021-02-10,1082
2021-02-11,689
2021-02-12,443
2021-02-13,298
2021-02-14,775
2021-02-15,396
2021-02-16,657
2021-02-17,500
2021-02-18,427
2021-02-19,169
2021-02-20,335
2021-02-21,818
2021-02-22,563
2021-02-23,164
2021-02-24,108
2021-02-25,242
2021-02-26,214
2021-02-27,75
2021-02-28,204
2021-03-01,161
2021-03-02,126
2021-03-03,407
2021-03-04,353
2021-03-05,242
2021-03-06,595
2021-03-07,338
2021-03-08,81
2021-03-09,63
2021-03-10,192
2021-03-11,49
2021-03-12,126
2021-03-13,517
2021-03-14,500
2021-03-15,296
2021-03-16,305
2021-03-17,108
2021-03-18,245
2021-03-19,38
2021-03-20,14
2021-03-21,302
2021-03-22,136
2021-03-23,50
2021-03-24,42
2021-03-25,31
2021-03-26,9
2021-03-27,28
2021-03-28,148
2021-03-29,68
2021-03-30,19
2021-03-31,44
2021-04-01,162
2021-04-02,10
2021-04-03,145
2021-04-04,7
2021-04-05,153
2021-04-06,200
2021-04-07,209
